Scanning method <java.io.ObjectInputStream: void registerObjectRead(java.lang.Object,int,boolean)>

All seen event types: NewArrayRecord, BinaryOperationRecord, StoreArrayRecord, SimpleAssignmentRecord, MethodReturnRecord, MethodCallRecord, ArrayLengthRecord, MethodStartRecord, LoadInstanceRecord, MethodEndRecord, IfRecord, StoreInstanceRecord, 
Ignored event types: IfRecord, 

JSON Encoded Analysis Data (for visualization):{"heapEdges":[{"step":0,"from":"1093240224","to":"1093603784","type":"load","field":"<java.io.ObjectInputStream: java.util.ArrayList objectsRead>"},{"step":1,"from":"1093603784","to":"1093603784.<java.util.ArrayList: int size>","type":"load","field":"<java.util.ArrayList: int size>"},{"step":2,"from":"1093240224","to":"1093603784","type":"load","field":"<java.io.ObjectInputStream: java.util.ArrayList objectsRead>"},{"step":3,"from":"1093603784","to":"1083994088","type":"load","field":"<java.util.ArrayList: java.lang.Object[] array>"},{"step":4,"from":"1093603784","to":"1093603784.<java.util.ArrayList: int size>","type":"load","field":"<java.util.ArrayList: int size>"},{"step":5,"from":"1083994088","to":"1093315184","type":"model"},{"step":6,"from":"1093603784","to":"1093315184","type":"create","field":"<java.util.ArrayList: java.lang.Object[] array>"},{"step":7,"from":"1093684944","to":"1093315184","type":"store","field":"arrayIdx_int:0"},{"step":8,"from":"sdaReg9","to":"1093603784","type":"store","field":"<java.util.ArrayList: int size>"},{"step":9,"from":"1093603784","to":"1093603784.<java.util.AbstractList: int modCount>","type":"load","field":"<java.util.AbstractList: int modCount>"},{"step":10,"from":"sdaReg10","to":"1093603784","type":"store","field":"<java.util.AbstractList: int modCount>"}],"parameters":[{"id":"1093240224","name":"this","klass":"java.io.ObjectInputStream"},{"id":"1093684944","name":"arg#1","klass":"java.lang.Object"},{"id":"sdaReg0","name":"arg#2","klass":"int"},{"id":"sdaReg1","name":"arg#3","klass":"boolean"}],"returns":[{"id":null,"name":"return","klass":null}],"colors":{"heapLocToColor":{"1093603784":[0],"1093240224.<java.io.ObjectInputStream: java.util.ArrayList objectsRead>":[0],"sdaReg8":[0],"sdaReg9":[0],"1093240224":[0],"1093684944":[1],"sdaReg4":[0],"sdaReg5":[1],"1093603784.<java.util.AbstractList: int modCount>":[0],"1093315184":[4],"1083994088":[0],"sdaReg10":[0],"sdaReg3":[0],"sdaReg2":[2],"sdaReg1":[3],"sdaReg0":[2],"1093603784.<java.util.ArrayList: int size>":[0]},"colorToColor":{"0":[0, 4],"1":[4],"4":[0]},"colorToLabel":{"0":"this","1":"arg#1","2":"arg#2","3":"arg#3","5":"return"}}}

Generated Model
	arg#1->this

