Scanning method <java.util.HashMap: void <init>(java.util.Map)>

All seen event types: StoreArrayRecord, SimpleAssignmentRecord, MethodStartRecord, LoadInstanceRecord, IfRecord, StoreInstanceRecord, NewObjectRecord, NewArrayRecord, BinaryOperationRecord, MethodCallRecord, MethodReturnRecord, CastRecord, ArrayLengthRecord, LoadArrayRecord, MethodEndRecord, 
Ignored event types: IfRecord, 

JSON Encoded Analysis Data (for visualization):{"heapEdges":[{"step":0,"from":"1093414704","to":"1093414704.<java.util.HashMap: int size>","type":"load","field":"<java.util.HashMap: int size>"},{"step":1,"from":"1093264040","to":"1093264096","type":"create","field":"<java.util.HashMap: java.util.HashMap$HashMapEntry[] table>"},{"step":2,"from":"sdaReg14","to":"1093264040","type":"store","field":"<java.util.HashMap: int threshold>"},{"step":3,"from":"1093414704","to":"1093444104","type":"store","field":"<java.util.HashMap$EntrySet: java.util.HashMap this$0>"},{"step":4,"from":"1093414704","to":"1093444104","type":"create","field":"<java.util.HashMap: java.util.Set entrySet>"},{"step":5,"from":"1093414704","to":"1093280800","type":"store","field":"<java.util.HashMap$EntryIterator: java.util.HashMap this$0>"},{"step":6,"from":"1093414704","to":"1093280800","type":"store","field":"<java.util.HashMap$HashIterator: java.util.HashMap this$0>"},{"step":7,"from":"1093414704","to":"1093414704.<java.util.HashMap: int modCount>","type":"load","field":"<java.util.HashMap: int modCount>"},{"step":8,"from":"1093414704.<java.util.HashMap: int modCount>","to":"1093280800","type":"store","field":"<java.util.HashMap$HashIterator: int expectedModCount>"},{"step":9,"from":"1093414704","to":"1093412336","type":"load","field":"<java.util.HashMap: java.util.HashMap$HashMapEntry[] table>"},{"step":10,"from":"1093280800","to":"1093280800.<java.util.HashMap$HashIterator: int nextIndex>","type":"load","field":"<java.util.HashMap$HashIterator: int nextIndex>"},{"step":11,"from":"1093280800","to":"1093280800.<java.util.HashMap$HashIterator: int nextIndex>","type":"load","field":"<java.util.HashMap$HashIterator: int nextIndex>"},{"step":12,"from":"sdaReg43","to":"1093280800","type":"store","field":"<java.util.HashMap$HashIterator: int nextIndex>"},{"step":13,"from":"1093412336","to":"1093412376","type":"load","field":"arrayIdx_int:0"},{"step":14,"from":"1093412376","to":"1093280800","type":"store","field":"<java.util.HashMap$HashIterator: java.util.HashMap$HashMapEntry nextEntry>"},{"step":15,"from":"1093414704","to":"1093414704.<java.util.HashMap: int modCount>","type":"load","field":"<java.util.HashMap: int modCount>"},{"step":16,"from":"1093414704","to":"1093412336","type":"load","field":"<java.util.HashMap: java.util.HashMap$HashMapEntry[] table>"},{"step":17,"from":"sdaReg55","to":"1093280800","type":"store","field":"<java.util.HashMap$HashIterator: int nextIndex>"},{"step":18,"from":"sdaReg55","to":"1093280800","type":"store","field":"<java.util.HashMap$HashIterator: int nextIndex>"},{"step":19,"from":"sdaReg55","to":"1093280800","type":"store","field":"<java.util.HashMap$HashIterator: int nextIndex>"},{"step":20,"from":"1093412336","to":"1093411368","type":"load","field":"arrayIdx_int:3"},{"step":21,"from":"1093411368","to":"1093280800","type":"store","field":"<java.util.HashMap$HashIterator: java.util.HashMap$HashMapEntry nextEntry>"},{"step":22,"from":"1093412376","to":"1093280800","type":"store","field":"<java.util.HashMap$HashIterator: java.util.HashMap$HashMapEntry lastEntryReturned>"},{"step":23,"from":"1093412376","to":"1084320408","type":"load","field":"<java.util.HashMap$HashMapEntry: java.lang.Object key>"},{"step":24,"from":"1093412376","to":"1093567072","type":"load","field":"<java.util.HashMap$HashMapEntry: java.lang.Object value>"},{"step":25,"from":"1084320408","to":"1093280840","type":"store","field":"<java.util.HashMap$HashMapEntry: java.lang.Object key>"},{"step":26,"from":"1093567072","to":"1093280840","type":"store","field":"<java.util.HashMap$HashMapEntry: java.lang.Object value>"},{"step":27,"from":"sdaReg77","to":"1093280840","type":"store","field":"<java.util.HashMap$HashMapEntry: int hash>"},{"step":28,"from":"1093264096","to":"1093280840","type":"create","field":"arrayIdx_int:0"},{"step":29,"from":"1093264040","to":"1093264040.<java.util.HashMap: int size>","type":"load","field":"<java.util.HashMap: int size>"},{"step":30,"from":"sdaReg93","to":"1093264040","type":"store","field":"<java.util.HashMap: int size>"},{"step":31,"from":"1093414704","to":"1093414704.<java.util.HashMap: int modCount>","type":"load","field":"<java.util.HashMap: int modCount>"},{"step":32,"from":"1093414704","to":"1093412336","type":"load","field":"<java.util.HashMap: java.util.HashMap$HashMapEntry[] table>"},{"step":33,"from":"1093411368","to":"1093280800","type":"store","field":"<java.util.HashMap$HashIterator: java.util.HashMap$HashMapEntry lastEntryReturned>"},{"step":34,"from":"1093411368","to":"1093567608","type":"load","field":"<java.util.HashMap$HashMapEntry: java.lang.Object key>"},{"step":35,"from":"1093411368","to":"1083976944","type":"load","field":"<java.util.HashMap$HashMapEntry: java.lang.Object value>"},{"step":36,"from":"1093567608","to":"1093280872","type":"store","field":"<java.util.HashMap$HashMapEntry: java.lang.Object key>"},{"step":37,"from":"1083976944","to":"1093280872","type":"store","field":"<java.util.HashMap$HashMapEntry: java.lang.Object value>"},{"step":38,"from":"sdaReg118","to":"1093280872","type":"store","field":"<java.util.HashMap$HashMapEntry: int hash>"},{"step":39,"from":"1093264096","to":"1093280872","type":"create","field":"arrayIdx_int:3"},{"step":40,"from":"sdaReg134","to":"1093264040","type":"store","field":"<java.util.HashMap: int size>"}],"parameters":[{"id":"1093264040","name":"this","klass":"java.util.HashMap"},{"id":"1093414704","name":"arg#1","klass":"java.util.Map"}],"returns":[{"id":"1093264040","name":"return","klass":"java.util.HashMap"}],"colors":{"heapLocToColor":{"sdaReg125":[1],"sdaReg127":[8],"sdaReg128":[1],"sdaReg129":[1],"sdaReg68":[1],"sdaReg69":[5],"1093414704":[1],"sdaReg66":[0],"sdaReg67":[1],"sdaReg64":[1],"sdaReg65":[1],"sdaReg62":[1],"sdaReg63":[1],"sdaReg72":[5],"1083976944":[1],"sdaReg71":[5],"sdaReg70":[5],"sdaReg10":[0],"1093567072":[1],"sdaReg19":[3],"sdaReg17":[1],"sdaReg121":[7],"sdaReg18":[1],"sdaReg124":[1],"sdaReg15":[0],"sdaReg123":[0],"1093412336":[1],"sdaReg16":[0],"sdaReg116":[7],"sdaReg117":[7],"sdaReg114":[7],"sdaReg115":[7],"1093414704.<java.util.HashMap: java.util.HashMap$HashMapEntry[] table>":[1],"1084320408":[1],"sdaReg118":[7],"sdaReg77":[5],"sdaReg73":[5],"sdaReg74":[5],"sdaReg75":[5],"sdaReg76":[5],"sdaReg80":[5],"sdaReg83":[1],"sdaReg82":[0],"sdaReg113":[7],"sdaReg112":[7],"sdaReg111":[7],"sdaReg110":[7],"sdaReg107":[0],"sdaReg108":[1],"1093414704.<java.util.HashMap: int modCount>":[1],"sdaReg109":[1],"sdaReg103":[1],"sdaReg104":[1],"sdaReg105":[1],"1093264040.<java.util.HashMap: int size>":[0],"sdaReg106":[1],"sdaReg86":[6],"sdaReg87":[1],"sdaReg84":[1],"sdaReg88":[1],"sdaReg90":[6],"sdaReg94":[4],"sdaReg93":[0],"sdaReg92":[6],"sdaReg91":[6],"sdaReg100":[1],"sdaReg102":[1],"sdaReg101":[1],"1093280800":[4],"sdaReg96":[4],"sdaReg97":[4],"sdaReg98":[4],"sdaReg60":[1],"sdaReg61":[1],"1093280872":[8],"1093414704.<java.util.HashMap: int size>":[1],"1093280800.<java.util.HashMap$HashIterator: int nextIndex>":[4],"sdaReg59":[1],"sdaReg58":[1],"1093412376":[1],"sdaReg53":[4],"sdaReg52":[4],"sdaReg51":[4],"1093264040":[0],"1093444104":[3],"sdaReg49":[4],"sdaReg48":[4],"sdaReg45":[4],"sdaReg44":[4],"sdaReg47":[4],"sdaReg46":[4],"sdaReg40":[4],"sdaReg43":[4],"sdaReg39":[1],"1093264096":[2],"sdaReg38":[4],"sdaReg37":[1],"sdaReg32":[3],"sdaReg31":[3],"sdaReg30":[3],"sdaReg36":[4],"sdaReg35":[1],"sdaReg34":[4],"sdaReg33":[1],"sdaReg8":[0],"1093567608":[1],"sdaReg6":[0],"1093280840":[6],"sdaReg7":[0],"sdaReg4":[1],"sdaReg5":[0],"sdaReg27":[3],"sdaReg135":[4],"sdaReg26":[3],"sdaReg132":[8],"sdaReg29":[3],"sdaReg133":[8],"sdaReg28":[3],"sdaReg131":[8],"sdaReg3":[1],"sdaReg2":[1],"sdaReg1":[1],"sdaReg21":[3],"sdaReg0":[1],"sdaReg20":[1],"sdaReg23":[3],"1093411368":[1],"sdaReg22":[1],"sdaReg25":[3],"sdaReg24":[3]},"colorToColor":{"0":[0, 9],"1":[3, 4, 6, 8],"2":[0],"3":[1],"4":[4],"5":[6],"6":[2],"7":[8],"8":[2]},"colorToLabel":{"0":"this","1":"arg#1","9":"return"}}}

Generated Model
	this->return
	arg#1->this
	arg#1->return

