Scanning method <android.text.Html: android.text.Spanned fromHtml(java.lang.String,android.text.Html$ImageGetter,android.text.Html$TagHandler)>

All seen event types: StoreArrayRecord, SimpleAssignmentRecord, MethodStartRecord, LoadInstanceRecord, IfRecord, InstanceOfRecord, NewObjectRecord, StoreInstanceRecord, NewArrayRecord, LoadStaticRecord, BinaryOperationRecord, MethodCallRecord, MethodReturnRecord, CastRecord, ArrayLengthRecord, LoadArrayRecord, MethodEndRecord, 
Ignored event types: IfRecord, 

JSON Encoded Analysis Data (for visualization):{"heapEdges":[{"step":0,"from":"1093767232","to":"1093767232","type":"create","field":"<org.ccil.cowan.tagsoup.Parser: org.xml.sax.ContentHandler theContentHandler>"},{"step":1,"from":"1093767232","to":"1093767232","type":"store","field":"<org.ccil.cowan.tagsoup.Parser: org.xml.sax.ext.LexicalHandler theLexicalHandler>"},{"step":2,"from":"1093767232","to":"1093767232","type":"store","field":"<org.ccil.cowan.tagsoup.Parser: org.xml.sax.DTDHandler theDTDHandler>"},{"step":3,"from":"1093767232","to":"1093767232","type":"store","field":"<org.ccil.cowan.tagsoup.Parser: org.xml.sax.ErrorHandler theErrorHandler>"},{"step":4,"from":"1093767232","to":"1093767232","type":"store","field":"<org.ccil.cowan.tagsoup.Parser: org.xml.sax.EntityResolver theEntityResolver>"},{"step":5,"from":"static.<org.ccil.cowan.tagsoup.Parser: boolean DEFAULT_NAMESPACES>","to":"static.<org.ccil.cowan.tagsoup.Parser: boolean DEFAULT_NAMESPACES>","type":"load","field":"<org.ccil.cowan.tagsoup.Parser: boolean DEFAULT_NAMESPACES>"},{"step":6,"from":"static.<org.ccil.cowan.tagsoup.Parser: boolean DEFAULT_NAMESPACES>","to":"1093767232","type":"store","field":"<org.ccil.cowan.tagsoup.Parser: boolean namespaces>"},{"step":7,"from":"static.<org.ccil.cowan.tagsoup.Parser: boolean DEFAULT_IGNORE_BOGONS>","to":"static.<org.ccil.cowan.tagsoup.Parser: boolean DEFAULT_IGNORE_BOGONS>","type":"load","field":"<org.ccil.cowan.tagsoup.Parser: boolean DEFAULT_IGNORE_BOGONS>"},{"step":8,"from":"static.<org.ccil.cowan.tagsoup.Parser: boolean DEFAULT_IGNORE_BOGONS>","to":"1093767232","type":"store","field":"<org.ccil.cowan.tagsoup.Parser: boolean ignoreBogons>"},{"step":9,"from":"static.<org.ccil.cowan.tagsoup.Parser: boolean DEFAULT_BOGONS_EMPTY>","to":"static.<org.ccil.cowan.tagsoup.Parser: boolean DEFAULT_BOGONS_EMPTY>","type":"load","field":"<org.ccil.cowan.tagsoup.Parser: boolean DEFAULT_BOGONS_EMPTY>"},{"step":10,"from":"static.<org.ccil.cowan.tagsoup.Parser: boolean DEFAULT_BOGONS_EMPTY>","to":"1093767232","type":"store","field":"<org.ccil.cowan.tagsoup.Parser: boolean bogonsEmpty>"},{"step":11,"from":"static.<org.ccil.cowan.tagsoup.Parser: boolean DEFAULT_ROOT_BOGONS>","to":"static.<org.ccil.cowan.tagsoup.Parser: boolean DEFAULT_ROOT_BOGONS>","type":"load","field":"<org.ccil.cowan.tagsoup.Parser: boolean DEFAULT_ROOT_BOGONS>"},{"step":12,"from":"static.<org.ccil.cowan.tagsoup.Parser: boolean DEFAULT_ROOT_BOGONS>","to":"1093767232","type":"store","field":"<org.ccil.cowan.tagsoup.Parser: boolean rootBogons>"},{"step":13,"from":"static.<org.ccil.cowan.tagsoup.Parser: boolean DEFAULT_DEFAULT_ATTRIBUTES>","to":"static.<org.ccil.cowan.tagsoup.Parser: boolean DEFAULT_DEFAULT_ATTRIBUTES>","type":"load","field":"<org.ccil.cowan.tagsoup.Parser: boolean DEFAULT_DEFAULT_ATTRIBUTES>"},{"step":14,"from":"static.<org.ccil.cowan.tagsoup.Parser: boolean DEFAULT_DEFAULT_ATTRIBUTES>","to":"1093767232","type":"store","field":"<org.ccil.cowan.tagsoup.Parser: boolean defaultAttributes>"},{"step":15,"from":"static.<org.ccil.cowan.tagsoup.Parser: boolean DEFAULT_TRANSLATE_COLONS>","to":"static.<org.ccil.cowan.tagsoup.Parser: boolean DEFAULT_TRANSLATE_COLONS>","type":"load","field":"<org.ccil.cowan.tagsoup.Parser: boolean DEFAULT_TRANSLATE_COLONS>"},{"step":16,"from":"static.<org.ccil.cowan.tagsoup.Parser: boolean DEFAULT_TRANSLATE_COLONS>","to":"1093767232","type":"store","field":"<org.ccil.cowan.tagsoup.Parser: boolean translateColons>"},{"step":17,"from":"static.<org.ccil.cowan.tagsoup.Parser: boolean DEFAULT_RESTART_ELEMENTS>","to":"static.<org.ccil.cowan.tagsoup.Parser: boolean DEFAULT_RESTART_ELEMENTS>","type":"load","field":"<org.ccil.cowan.tagsoup.Parser: boolean DEFAULT_RESTART_ELEMENTS>"},{"step":18,"from":"static.<org.ccil.cowan.tagsoup.Parser: boolean DEFAULT_RESTART_ELEMENTS>","to":"1093767232","type":"store","field":"<org.ccil.cowan.tagsoup.Parser: boolean restartElements>"},{"step":19,"from":"static.<org.ccil.cowan.tagsoup.Parser: boolean DEFAULT_IGNORABLE_WHITESPACE>","to":"static.<org.ccil.cowan.tagsoup.Parser: boolean DEFAULT_IGNORABLE_WHITESPACE>","type":"load","field":"<org.ccil.cowan.tagsoup.Parser: boolean DEFAULT_IGNORABLE_WHITESPACE>"},{"step":20,"from":"static.<org.ccil.cowan.tagsoup.Parser: boolean DEFAULT_IGNORABLE_WHITESPACE>","to":"1093767232","type":"store","field":"<org.ccil.cowan.tagsoup.Parser: boolean ignorableWhitespace>"},{"step":21,"from":"static.<org.ccil.cowan.tagsoup.Parser: boolean DEFAULT_CDATA_ELEMENTS>","to":"static.<org.ccil.cowan.tagsoup.Parser: boolean DEFAULT_CDATA_ELEMENTS>","type":"load","field":"<org.ccil.cowan.tagsoup.Parser: boolean DEFAULT_CDATA_ELEMENTS>"},{"step":22,"from":"static.<org.ccil.cowan.tagsoup.Parser: boolean DEFAULT_CDATA_ELEMENTS>","to":"1093767232","type":"store","field":"<org.ccil.cowan.tagsoup.Parser: boolean CDATAElements>"},{"step":23,"from":"static.<java.util.HashMap: java.util.Map$Entry[] EMPTY_TABLE>","to":"1083997920","type":"load","field":"<java.util.HashMap: java.util.Map$Entry[] EMPTY_TABLE>"},{"step":24,"from":"1083997920","to":"1093767368","type":"store","field":"<java.util.HashMap: java.util.HashMap$HashMapEntry[] table>"},{"step":25,"from":"1093767368","to":"sdaReg11","type":"create","field":"<java.util.HashMap: int threshold>"},{"step":26,"from":"1093767232","to":"1093767368","type":"create","field":"<org.ccil.cowan.tagsoup.Parser: java.util.HashMap theFeatures>"},{"step":27,"from":"static.<org.ccil.cowan.tagsoup.Parser: boolean DEFAULT_NAMESPACES>","to":"static.<org.ccil.cowan.tagsoup.Parser: boolean DEFAULT_NAMESPACES>","type":"load","field":"<org.ccil.cowan.tagsoup.Parser: boolean DEFAULT_NAMESPACES>"},{"step":28,"from":"static.<java.lang.Boolean: java.lang.Boolean TRUE>","to":"1085835192","type":"load","field":"<java.lang.Boolean: java.lang.Boolean TRUE>"},{"step":29,"from":"1093767368","to":"1093767368.<java.util.HashMap: int modCount>","type":"load","field":"<java.util.HashMap: int modCount>"},{"step":30,"from":"sdaReg29","to":"1093767368","type":"store","field":"<java.util.HashMap: int modCount>"},{"step":31,"from":"1093767368","to":"1093767368.<java.util.HashMap: int size>","type":"load","field":"<java.util.HashMap: int size>"},{"step":32,"from":"sdaReg30","to":"1093767368","type":"store","field":"<java.util.HashMap: int size>"},{"step":33,"from":"1093767368","to":"1093769256","type":"create","field":"<java.util.HashMap: java.util.HashMap$HashMapEntry[] table>"},{"step":34,"from":"sdaReg38","to":"1093767368","type":"store","field":"<java.util.HashMap: int threshold>"},{"step":35,"from":"1093482344","to":"1093771160","type":"store","field":"<java.util.HashMap$HashMapEntry: java.lang.Object key>"},{"step":36,"from":"1085835192","to":"1093771160","type":"store","field":"<java.util.HashMap$HashMapEntry: java.lang.Object value>"},{"step":37,"from":"sdaReg25","to":"1093771160","type":"store","field":"<java.util.HashMap$HashMapEntry: int hash>"},{"step":38,"from":"1093769256","to":"1093771160","type":"create","field":"arrayIdx_int:3"},{"step":39,"from":"static.<java.lang.Boolean: java.lang.Boolean FALSE>","to":"1085835208","type":"load","field":"<java.lang.Boolean: java.lang.Boolean FALSE>"},{"step":40,"from":"sdaReg68","to":"1093767368","type":"store","field":"<java.util.HashMap: int modCount>"},{"step":41,"from":"sdaReg69","to":"1093767368","type":"store","field":"<java.util.HashMap: int size>"},{"step":42,"from":"1093482200","to":"1094471280","type":"store","field":"<java.util.HashMap$HashMapEntry: java.lang.Object key>"},{"step":43,"from":"1085835208","to":"1094471280","type":"store","field":"<java.util.HashMap$HashMapEntry: java.lang.Object value>"},{"step":44,"from":"sdaReg64","to":"1094471280","type":"store","field":"<java.util.HashMap$HashMapEntry: int hash>"},{"step":45,"from":"1093769256","to":"1094471280","type":"create","field":"arrayIdx_int:0"},{"step":46,"from":"static.<java.lang.Boolean: java.lang.Boolean FALSE>","to":"1085835208","type":"load","field":"<java.lang.Boolean: java.lang.Boolean FALSE>"},{"step":47,"from":"sdaReg94","to":"1093767368","type":"store","field":"<java.util.HashMap: int modCount>"},{"step":48,"from":"sdaReg95","to":"1093767368","type":"store","field":"<java.util.HashMap: int size>"},{"step":49,"from":"1093479576","to":"1093751992","type":"store","field":"<java.util.HashMap$HashMapEntry: java.lang.Object key>"},{"step":50,"from":"1085835208","to":"1093751992","type":"store","field":"<java.util.HashMap$HashMapEntry: java.lang.Object value>"},{"step":51,"from":"sdaReg90","to":"1093751992","type":"store","field":"<java.util.HashMap$HashMapEntry: int hash>"},{"step":52,"from":"1093769256","to":"1093751992","type":"create","field":"arrayIdx_int:1"},{"step":53,"from":"static.<java.lang.Boolean: java.lang.Boolean FALSE>","to":"1085835208","type":"load","field":"<java.lang.Boolean: java.lang.Boolean FALSE>"},{"step":54,"from":"sdaReg120","to":"1093767368","type":"store","field":"<java.util.HashMap: int modCount>"},{"step":55,"from":"sdaReg121","to":"1093767368","type":"store","field":"<java.util.HashMap: int size>"},{"step":56,"from":"1093479736","to":"1093753968","type":"store","field":"<java.util.HashMap$HashMapEntry: java.lang.Object key>"},{"step":57,"from":"1085835208","to":"1093753968","type":"store","field":"<java.util.HashMap$HashMapEntry: java.lang.Object value>"},{"step":58,"from":"sdaReg116","to":"1093753968","type":"store","field":"<java.util.HashMap$HashMapEntry: int hash>"},{"step":59,"from":"1094471280","to":"1093753968","type":"store","field":"<java.util.HashMap$HashMapEntry: java.util.HashMap$HashMapEntry next>"},{"step":60,"from":"1093769256","to":"1093753968","type":"create","field":"arrayIdx_int:0"},{"step":61,"from":"static.<java.lang.Boolean: java.lang.Boolean FALSE>","to":"1085835208","type":"load","field":"<java.lang.Boolean: java.lang.Boolean FALSE>"},{"step":62,"from":"sdaReg146","to":"1093767368","type":"store","field":"<java.util.HashMap: int modCount>"},{"step":63,"from":"sdaReg147","to":"1093767368","type":"store","field":"<java.util.HashMap: int size>"},{"step":64,"from":"1093767368","to":"1093755928","type":"create","field":"<java.util.HashMap: java.util.HashMap$HashMapEntry[] table>"},{"step":65,"from":"sdaReg155","to":"1093767368","type":"store","field":"<java.util.HashMap: int threshold>"},{"step":66,"from":"1093753968","to":"1093755928","type":"store","field":"arrayIdx_int:4"},{"step":67,"from":"1093751992","to":"1093755928","type":"store","field":"arrayIdx_int:5"},{"step":68,"from":"1093771160","to":"1093755928","type":"store","field":"arrayIdx_int:3"},{"step":69,"from":"1093480256","to":"1094533512","type":"store","field":"<java.util.HashMap$HashMapEntry: java.lang.Object key>"},{"step":70,"from":"1085835208","to":"1094533512","type":"store","field":"<java.util.HashMap$HashMapEntry: java.lang.Object value>"},{"step":71,"from":"sdaReg142","to":"1094533512","type":"store","field":"<java.util.HashMap$HashMapEntry: int hash>"},{"step":72,"from":"1093755928","to":"1094533512","type":"create","field":"arrayIdx_int:6"},{"step":73,"from":"static.<java.lang.Boolean: java.lang.Boolean FALSE>","to":"1085835208","type":"load","field":"<java.lang.Boolean: java.lang.Boolean FALSE>"},{"step":74,"from":"sdaReg190","to":"1093767368","type":"store","field":"<java.util.HashMap: int modCount>"},{"step":75,"from":"sdaReg191","to":"1093767368","type":"store","field":"<java.util.HashMap: int size>"},{"step":76,"from":"1093480392","to":"1094535496","type":"store","field":"<java.util.HashMap$HashMapEntry: java.lang.Object key>"},{"step":77,"from":"1085835208","to":"1094535496","type":"store","field":"<java.util.HashMap$HashMapEntry: java.lang.Object value>"},{"step":78,"from":"sdaReg186","to":"1094535496","type":"store","field":"<java.util.HashMap$HashMapEntry: int hash>"},{"step":79,"from":"1094533512","to":"1094535496","type":"store","field":"<java.util.HashMap$HashMapEntry: java.util.HashMap$HashMapEntry next>"},{"step":80,"from":"1093755928","to":"1094535496","type":"create","field":"arrayIdx_int:6"},{"step":81,"from":"static.<java.lang.Boolean: java.lang.Boolean TRUE>","to":"1085835192","type":"load","field":"<java.lang.Boolean: java.lang.Boolean TRUE>"},{"step":82,"from":"sdaReg216","to":"1093767368","type":"store","field":"<java.util.HashMap: int modCount>"},{"step":83,"from":"sdaReg217","to":"1093767368","type":"store","field":"<java.util.HashMap: int size>"},{"step":84,"from":"1093482472","to":"1093904760","type":"store","field":"<java.util.HashMap$HashMapEntry: java.lang.Object key>"},{"step":85,"from":"1085835192","to":"1093904760","type":"store","field":"<java.util.HashMap$HashMapEntry: java.lang.Object value>"},{"step":86,"from":"sdaReg212","to":"1093904760","type":"store","field":"<java.util.HashMap$HashMapEntry: int hash>"},{"step":87,"from":"1093755928","to":"1093904760","type":"create","field":"arrayIdx_int:7"},{"step":88,"from":"static.<java.lang.Boolean: java.lang.Boolean TRUE>","to":"1085835192","type":"load","field":"<java.lang.Boolean: java.lang.Boolean TRUE>"},{"step":89,"from":"sdaReg242","to":"1093767368","type":"store","field":"<java.util.HashMap: int modCount>"},{"step":90,"from":"sdaReg243","to":"1093767368","type":"store","field":"<java.util.HashMap: int size>"},{"step":91,"from":"1093767368","to":"1093904864","type":"create","field":"<java.util.HashMap: java.util.HashMap$HashMapEntry[] table>"},{"step":92,"from":"sdaReg251","to":"1093767368","type":"store","field":"<java.util.HashMap: int threshold>"},{"step":93,"from":"1093771160","to":"1093904864","type":"store","field":"arrayIdx_int:11"},{"step":94,"from":"1093753968","to":"1093904864","type":"store","field":"arrayIdx_int:4"},{"step":95,"from":"1093751992","to":"1093904864","type":"store","field":"arrayIdx_int:5"},{"step":96,"from":"1094535496","to":"1093904864","type":"store","field":"arrayIdx_int:14"},{"step":97,"from":"1093904760","to":"1093904864","type":"store","field":"arrayIdx_int:15"},{"step":98,"from":"1093483280","to":"1093906816","type":"store","field":"<java.util.HashMap$HashMapEntry: java.lang.Object key>"},{"step":99,"from":"1085835192","to":"1093906816","type":"store","field":"<java.util.HashMap$HashMapEntry: java.lang.Object value>"},{"step":100,"from":"sdaReg238","to":"1093906816","type":"store","field":"<java.util.HashMap$HashMapEntry: int hash>"},{"step":101,"from":"1093904864","to":"1093906816","type":"create","field":"arrayIdx_int:2"},{"step":102,"from":"static.<java.lang.Boolean: java.lang.Boolean FALSE>","to":"1085835208","type":"load","field":"<java.lang.Boolean: java.lang.Boolean FALSE>"},{"step":103,"from":"sdaReg286","to":"1093767368","type":"store","field":"<java.util.HashMap: int modCount>"},{"step":104,"from":"sdaReg287","to":"1093767368","type":"store","field":"<java.util.HashMap: int size>"},{"step":105,"from":"1093483768","to":"1094502072","type":"store","field":"<java.util.HashMap$HashMapEntry: java.lang.Object key>"},{"step":106,"from":"1085835208","to":"1094502072","type":"store","field":"<java.util.HashMap$HashMapEntry: java.lang.Object value>"},{"step":107,"from":"sdaReg282","to":"1094502072","type":"store","field":"<java.util.HashMap$HashMapEntry: int hash>"},{"step":108,"from":"1093904864","to":"1094502072","type":"create","field":"arrayIdx_int:12"},{"step":109,"from":"static.<java.lang.Boolean: java.lang.Boolean FALSE>","to":"1085835208","type":"load","field":"<java.lang.Boolean: java.lang.Boolean FALSE>"},{"step":110,"from":"sdaReg312","to":"1093767368","type":"store","field":"<java.util.HashMap: int modCount>"},{"step":111,"from":"sdaReg313","to":"1093767368","type":"store","field":"<java.util.HashMap: int size>"},{"step":112,"from":"1093484064","to":"1094504096","type":"store","field":"<java.util.HashMap$HashMapEntry: java.lang.Object key>"},{"step":113,"from":"1085835208","to":"1094504096","type":"store","field":"<java.util.HashMap$HashMapEntry: java.lang.Object value>"},{"step":114,"from":"sdaReg308","to":"1094504096","type":"store","field":"<java.util.HashMap$HashMapEntry: int hash>"},{"step":115,"from":"1093904864","to":"1094504096","type":"create","field":"arrayIdx_int:10"},{"step":116,"from":"static.<java.lang.Boolean: java.lang.Boolean FALSE>","to":"1085835208","type":"load","field":"<java.lang.Boolean: java.lang.Boolean FALSE>"},{"step":117,"from":"sdaReg338","to":"1093767368","type":"store","field":"<java.util.HashMap: int modCount>"},{"step":118,"from":"sdaReg339","to":"1093767368","type":"store","field":"<java.util.HashMap: int size>"},{"step":119,"from":"1093483912","to":"1094504200","type":"store","field":"<java.util.HashMap$HashMapEntry: java.lang.Object key>"},{"step":120,"from":"1085835208","to":"1094504200","type":"store","field":"<java.util.HashMap$HashMapEntry: java.lang.Object value>"},{"step":121,"from":"sdaReg334","to":"1094504200","type":"store","field":"<java.util.HashMap$HashMapEntry: int hash>"},{"step":122,"from":"1093904864","to":"1094504200","type":"create","field":"arrayIdx_int:13"},{"step":123,"from":"static.<java.lang.Boolean: java.lang.Boolean FALSE>","to":"1085835208","type":"load","field":"<java.lang.Boolean: java.lang.Boolean FALSE>"},{"step":124,"from":"sdaReg364","to":"1093767368","type":"store","field":"<java.util.HashMap: int modCount>"},{"step":125,"from":"sdaReg365","to":"1093767368","type":"store","field":"<java.util.HashMap: int size>"},{"step":126,"from":"1093484200","to":"1094756720","type":"store","field":"<java.util.HashMap$HashMapEntry: java.lang.Object key>"},{"step":127,"from":"1085835208","to":"1094756720","type":"store","field":"<java.util.HashMap$HashMapEntry: java.lang.Object value>"},{"step":128,"from":"sdaReg360","to":"1094756720","type":"store","field":"<java.util.HashMap$HashMapEntry: int hash>"},{"step":129,"from":"1093904760","to":"1094756720","type":"store","field":"<java.util.HashMap$HashMapEntry: java.util.HashMap$HashMapEntry next>"},{"step":130,"from":"1093904864","to":"1094756720","type":"create","field":"arrayIdx_int:15"},{"step":131,"from":"static.<java.lang.Boolean: java.lang.Boolean FALSE>","to":"1085835208","type":"load","field":"<java.lang.Boolean: java.lang.Boolean FALSE>"},{"step":132,"from":"sdaReg390","to":"1093767368","type":"store","field":"<java.util.HashMap: int modCount>"},{"step":133,"from":"sdaReg391","to":"1093767368","type":"store","field":"<java.util.HashMap: int size>"},{"step":134,"from":"1093484328","to":"1094756816","type":"store","field":"<java.util.HashMap$HashMapEntry: java.lang.Object key>"},{"step":135,"from":"1085835208","to":"1094756816","type":"store","field":"<java.util.HashMap$HashMapEntry: java.lang.Object value>"},{"step":136,"from":"sdaReg386","to":"1094756816","type":"store","field":"<java.util.HashMap$HashMapEntry: int hash>"},{"step":137,"from":"1094504200","to":"1094756816","type":"store","field":"<java.util.HashMap$HashMapEntry: java.util.HashMap$HashMapEntry next>"},{"step":138,"from":"1093904864","to":"1094756816","type":"create","field":"arrayIdx_int:13"},{"step":139,"from":"static.<java.lang.Boolean: java.lang.Boolean FALSE>","to":"1085835208","type":"load","field":"<java.lang.Boolean: java.lang.Boolean FALSE>"},{"step":140,"from":"1085835208","to":"1094756816","type":"store","field":"<java.util.HashMap$HashMapEntry: java.lang.Object value>"},{"step":141,"from":"static.<java.lang.Boolean: java.lang.Boolean FALSE>","to":"1085835208","type":"load","field":"<java.lang.Boolean: java.lang.Boolean FALSE>"},{"step":142,"from":"sdaReg434","to":"1093767368","type":"store","field":"<java.util.HashMap: int modCount>"},{"step":143,"from":"sdaReg435","to":"1093767368","type":"store","field":"<java.util.HashMap: int size>"},{"step":144,"from":"1093767368","to":"1094760832","type":"create","field":"<java.util.HashMap: java.util.HashMap$HashMapEntry[] table>"},{"step":145,"from":"sdaReg443","to":"1093767368","type":"store","field":"<java.util.HashMap: int threshold>"},{"step":146,"from":"1093906816","to":"1094760832","type":"store","field":"arrayIdx_int:2"},{"step":147,"from":"1093753968","to":"1094760832","type":"store","field":"arrayIdx_int:4"},{"step":148,"from":"1094471280","to":"1094760832","type":"store","field":"arrayIdx_int:20"},{"step":149,"from":"1093753968","to":"sdaReg452","type":"create","field":"<java.util.HashMap$HashMapEntry: java.util.HashMap$HashMapEntry next>"},{"step":150,"from":"1093751992","to":"1094760832","type":"store","field":"arrayIdx_int:21"},{"step":151,"from":"1094504096","to":"1094760832","type":"store","field":"arrayIdx_int:10"},{"step":152,"from":"1093771160","to":"1094760832","type":"store","field":"arrayIdx_int:11"},{"step":153,"from":"1094502072","to":"1094760832","type":"store","field":"arrayIdx_int:28"},{"step":154,"from":"1094756816","to":"1094760832","type":"store","field":"arrayIdx_int:13"},{"step":155,"from":"1094535496","to":"1094760832","type":"store","field":"arrayIdx_int:30"},{"step":156,"from":"1094533512","to":"1094760832","type":"store","field":"arrayIdx_int:14"},{"step":157,"from":"1094535496","to":"sdaReg453","type":"create","field":"<java.util.HashMap$HashMapEntry: java.util.HashMap$HashMapEntry next>"},{"step":158,"from":"1094756720","to":"1094760832","type":"store","field":"arrayIdx_int:31"},{"step":159,"from":"1093904760","to":"1094760832","type":"store","field":"arrayIdx_int:15"},{"step":160,"from":"1094756720","to":"sdaReg454","type":"create","field":"<java.util.HashMap$HashMapEntry: java.util.HashMap$HashMapEntry next>"},{"step":161,"from":"1093478928","to":"1093778016","type":"store","field":"<java.util.HashMap$HashMapEntry: java.lang.Object key>"},{"step":162,"from":"1085835208","to":"1093778016","type":"store","field":"<java.util.HashMap$HashMapEntry: java.lang.Object value>"},{"step":163,"from":"sdaReg430","to":"1093778016","type":"store","field":"<java.util.HashMap$HashMapEntry: int hash>"},{"step":164,"from":"1094760832","to":"1093778016","type":"create","field":"arrayIdx_int:9"},{"step":165,"from":"static.<org.ccil.cowan.tagsoup.Parser: boolean DEFAULT_IGNORE_BOGONS>","to":"static.<org.ccil.cowan.tagsoup.Parser: boolean DEFAULT_IGNORE_BOGONS>","type":"load","field":"<org.ccil.cowan.tagsoup.Parser: boolean DEFAULT_IGNORE_BOGONS>"},{"step":166,"from":"static.<java.lang.Boolean: java.lang.Boolean FALSE>","to":"1085835208","type":"load","field":"<java.lang.Boolean: java.lang.Boolean FALSE>"},{"step":167,"from":"sdaReg483","to":"1093767368","type":"store","field":"<java.util.HashMap: int modCount>"},{"step":168,"from":"sdaReg484","to":"1093767368","type":"store","field":"<java.util.HashMap: int size>"},{"step":169,"from":"1093480088","to":"1093777896","type":"store","field":"<java.util.HashMap$HashMapEntry: java.lang.Object key>"},{"step":170,"from":"1085835208","to":"1093777896","type":"store","field":"<java.util.HashMap$HashMapEntry: java.lang.Object value>"},{"step":171,"from":"sdaReg479","to":"1093777896","type":"store","field":"<java.util.HashMap$HashMapEntry: int hash>"},{"step":172,"from":"1094760832","to":"1093777896","type":"create","field":"arrayIdx_int:29"},{"step":173,"from":"static.<org.ccil.cowan.tagsoup.Parser: boolean DEFAULT_BOGONS_EMPTY>","to":"static.<org.ccil.cowan.tagsoup.Parser: boolean DEFAULT_BOGONS_EMPTY>","type":"load","field":"<org.ccil.cowan.tagsoup.Parser: boolean DEFAULT_BOGONS_EMPTY>"},{"step":174,"from":"static.<java.lang.Boolean: java.lang.Boolean FALSE>","to":"1085835208","type":"load","field":"<java.lang.Boolean: java.lang.Boolean FALSE>"},{"step":175,"from":"sdaReg510","to":"1093767368","type":"store","field":"<java.util.HashMap: int modCount>"},{"step":176,"from":"sdaReg511","to":"1093767368","type":"store","field":"<java.util.HashMap: int size>"},{"step":177,"from":"1093479232","to":"1093965160","type":"store","field":"<java.util.HashMap$HashMapEntry: java.lang.Object key>"},{"step":178,"from":"1085835208","to":"1093965160","type":"store","field":"<java.util.HashMap$HashMapEntry: java.lang.Object value>"},{"step":179,"from":"sdaReg506","to":"1093965160","type":"store","field":"<java.util.HashMap$HashMapEntry: int hash>"},{"step":180,"from":"1094760832","to":"1093965160","type":"create","field":"arrayIdx_int:7"},{"step":181,"from":"static.<org.ccil.cowan.tagsoup.Parser: boolean DEFAULT_ROOT_BOGONS>","to":"static.<org.ccil.cowan.tagsoup.Parser: boolean DEFAULT_ROOT_BOGONS>","type":"load","field":"<org.ccil.cowan.tagsoup.Parser: boolean DEFAULT_ROOT_BOGONS>"},{"step":182,"from":"static.<java.lang.Boolean: java.lang.Boolean TRUE>","to":"1085835192","type":"load","field":"<java.lang.Boolean: java.lang.Boolean TRUE>"},{"step":183,"from":"sdaReg537","to":"1093767368","type":"store","field":"<java.util.HashMap: int modCount>"},{"step":184,"from":"sdaReg538","to":"1093767368","type":"store","field":"<java.util.HashMap: int size>"},{"step":185,"from":"1093482792","to":"1093965976","type":"store","field":"<java.util.HashMap$HashMapEntry: java.lang.Object key>"},{"step":186,"from":"1085835192","to":"1093965976","type":"store","field":"<java.util.HashMap$HashMapEntry: java.lang.Object value>"},{"step":187,"from":"sdaReg533","to":"1093965976","type":"store","field":"<java.util.HashMap$HashMapEntry: int hash>"},{"step":188,"from":"1093906816","to":"1093965976","type":"store","field":"<java.util.HashMap$HashMapEntry: java.util.HashMap$HashMapEntry next>"},{"step":189,"from":"1094760832","to":"1093965976","type":"create","field":"arrayIdx_int:2"},{"step":190,"from":"static.<org.ccil.cowan.tagsoup.Parser: boolean DEFAULT_DEFAULT_ATTRIBUTES>","to":"static.<org.ccil.cowan.tagsoup.Parser: boolean DEFAULT_DEFAULT_ATTRIBUTES>","type":"load","field":"<org.ccil.cowan.tagsoup.Parser: boolean DEFAULT_DEFAULT_ATTRIBUTES>"},{"step":191,"from":"static.<java.lang.Boolean: java.lang.Boolean TRUE>","to":"1085835192","type":"load","field":"<java.lang.Boolean: java.lang.Boolean TRUE>"},{"step":192,"from":"sdaReg564","to":"1093767368","type":"store","field":"<java.util.HashMap: int modCount>"},{"step":193,"from":"sdaReg565","to":"1093767368","type":"store","field":"<java.util.HashMap: int size>"},{"step":194,"from":"1093479400","to":"1093967888","type":"store","field":"<java.util.HashMap$HashMapEntry: java.lang.Object key>"},{"step":195,"from":"1085835192","to":"1093967888","type":"store","field":"<java.util.HashMap$HashMapEntry: java.lang.Object value>"},{"step":196,"from":"sdaReg560","to":"1093967888","type":"store","field":"<java.util.HashMap$HashMapEntry: int hash>"},{"step":197,"from":"1094760832","to":"1093967888","type":"create","field":"arrayIdx_int:24"},{"step":198,"from":"static.<org.ccil.cowan.tagsoup.Parser: boolean DEFAULT_TRANSLATE_COLONS>","to":"static.<org.ccil.cowan.tagsoup.Parser: boolean DEFAULT_TRANSLATE_COLONS>","type":"load","field":"<org.ccil.cowan.tagsoup.Parser: boolean DEFAULT_TRANSLATE_COLONS>"},{"step":199,"from":"static.<java.lang.Boolean: java.lang.Boolean FALSE>","to":"1085835208","type":"load","field":"<java.lang.Boolean: java.lang.Boolean FALSE>"},{"step":200,"from":"sdaReg591","to":"1093767368","type":"store","field":"<java.util.HashMap: int modCount>"},{"step":201,"from":"sdaReg592","to":"1093767368","type":"store","field":"<java.util.HashMap: int size>"},{"step":202,"from":"1093483424","to":"1094329272","type":"store","field":"<java.util.HashMap$HashMapEntry: java.lang.Object key>"},{"step":203,"from":"1085835208","to":"1094329272","type":"store","field":"<java.util.HashMap$HashMapEntry: java.lang.Object value>"},{"step":204,"from":"sdaReg587","to":"1094329272","type":"store","field":"<java.util.HashMap$HashMapEntry: int hash>"},{"step":205,"from":"1093751992","to":"1094329272","type":"store","field":"<java.util.HashMap$HashMapEntry: java.util.HashMap$HashMapEntry next>"},{"step":206,"from":"1094760832","to":"1094329272","type":"create","field":"arrayIdx_int:21"},{"step":207,"from":"static.<org.ccil.cowan.tagsoup.Parser: boolean DEFAULT_RESTART_ELEMENTS>","to":"static.<org.ccil.cowan.tagsoup.Parser: boolean DEFAULT_RESTART_ELEMENTS>","type":"load","field":"<org.ccil.cowan.tagsoup.Parser: boolean DEFAULT_RESTART_ELEMENTS>"},{"step":208,"from":"static.<java.lang.Boolean: java.lang.Boolean TRUE>","to":"1085835192","type":"load","field":"<java.lang.Boolean: java.lang.Boolean TRUE>"},{"step":209,"from":"sdaReg618","to":"1093767368","type":"store","field":"<java.util.HashMap: int modCount>"},{"step":210,"from":"sdaReg619","to":"1093767368","type":"store","field":"<java.util.HashMap: int size>"},{"step":211,"from":"1093482616","to":"1093825968","type":"store","field":"<java.util.HashMap$HashMapEntry: java.lang.Object key>"},{"step":212,"from":"1085835192","to":"1093825968","type":"store","field":"<java.util.HashMap$HashMapEntry: java.lang.Object value>"},{"step":213,"from":"sdaReg614","to":"1093825968","type":"store","field":"<java.util.HashMap$HashMapEntry: int hash>"},{"step":214,"from":"1094760832","to":"1093825968","type":"create","field":"arrayIdx_int:23"},{"step":215,"from":"static.<org.ccil.cowan.tagsoup.Parser: boolean DEFAULT_IGNORABLE_WHITESPACE>","to":"static.<org.ccil.cowan.tagsoup.Parser: boolean DEFAULT_IGNORABLE_WHITESPACE>","type":"load","field":"<org.ccil.cowan.tagsoup.Parser: boolean DEFAULT_IGNORABLE_WHITESPACE>"},{"step":216,"from":"static.<java.lang.Boolean: java.lang.Boolean FALSE>","to":"1085835208","type":"load","field":"<java.lang.Boolean: java.lang.Boolean FALSE>"},{"step":217,"from":"sdaReg645","to":"1093767368","type":"store","field":"<java.util.HashMap: int modCount>"},{"step":218,"from":"sdaReg646","to":"1093767368","type":"store","field":"<java.util.HashMap: int size>"},{"step":219,"from":"1093479904","to":"1093582024","type":"store","field":"<java.util.HashMap$HashMapEntry: java.lang.Object key>"},{"step":220,"from":"1085835208","to":"1093582024","type":"store","field":"<java.util.HashMap$HashMapEntry: java.lang.Object value>"},{"step":221,"from":"sdaReg641","to":"1093582024","type":"store","field":"<java.util.HashMap$HashMapEntry: int hash>"},{"step":222,"from":"1093965976","to":"1093582024","type":"store","field":"<java.util.HashMap$HashMapEntry: java.util.HashMap$HashMapEntry next>"},{"step":223,"from":"1094760832","to":"1093582024","type":"create","field":"arrayIdx_int:2"},{"step":224,"from":"static.<org.ccil.cowan.tagsoup.Parser: boolean DEFAULT_CDATA_ELEMENTS>","to":"static.<org.ccil.cowan.tagsoup.Parser: boolean DEFAULT_CDATA_ELEMENTS>","type":"load","field":"<org.ccil.cowan.tagsoup.Parser: boolean DEFAULT_CDATA_ELEMENTS>"},{"step":225,"from":"static.<java.lang.Boolean: java.lang.Boolean TRUE>","to":"1085835192","type":"load","field":"<java.lang.Boolean: java.lang.Boolean TRUE>"},{"step":226,"from":"sdaReg672","to":"1093767368","type":"store","field":"<java.util.HashMap: int modCount>"},{"step":227,"from":"sdaReg673","to":"1093767368","type":"store","field":"<java.util.HashMap: int size>"},{"step":228,"from":"1093478760","to":"1093427576","type":"store","field":"<java.util.HashMap$HashMapEntry: java.lang.Object key>"},{"step":229,"from":"1085835192","to":"1093427576","type":"store","field":"<java.util.HashMap$HashMapEntry: java.lang.Object value>"},{"step":230,"from":"sdaReg668","to":"1093427576","type":"store","field":"<java.util.HashMap$HashMapEntry: int hash>"},{"step":231,"from":"1094760832","to":"1093427576","type":"create","field":"arrayIdx_int:1"},{"step":232,"from":"1093767232","to":"sdaReg683","type":"create","field":"<org.ccil.cowan.tagsoup.Parser: org.ccil.cowan.tagsoup.Element theNewElement>"},{"step":233,"from":"1093767232","to":"sdaReg684","type":"create","field":"<org.ccil.cowan.tagsoup.Parser: java.lang.String theAttributeName>"},{"step":234,"from":"1093767232","to":"sdaReg685","type":"create","field":"<org.ccil.cowan.tagsoup.Parser: boolean theDoctypeIsPresent>"},{"step":235,"from":"1093767232","to":"sdaReg686","type":"create","field":"<org.ccil.cowan.tagsoup.Parser: java.lang.String theDoctypePublicId>"},{"step":236,"from":"1093767232","to":"sdaReg687","type":"create","field":"<org.ccil.cowan.tagsoup.Parser: java.lang.String theDoctypeSystemId>"},{"step":237,"from":"1093767232","to":"sdaReg688","type":"create","field":"<org.ccil.cowan.tagsoup.Parser: java.lang.String theDoctypeName>"},{"step":238,"from":"1093767232","to":"sdaReg689","type":"create","field":"<org.ccil.cowan.tagsoup.Parser: java.lang.String thePITarget>"},{"step":239,"from":"1093767232","to":"sdaReg690","type":"create","field":"<org.ccil.cowan.tagsoup.Parser: org.ccil.cowan.tagsoup.Element theStack>"},{"step":240,"from":"1093767232","to":"sdaReg691","type":"create","field":"<org.ccil.cowan.tagsoup.Parser: org.ccil.cowan.tagsoup.Element theSaved>"},{"step":241,"from":"1093767232","to":"sdaReg692","type":"create","field":"<org.ccil.cowan.tagsoup.Parser: org.ccil.cowan.tagsoup.Element thePCDATA>"},{"step":242,"from":"1093767232","to":"sdaReg693","type":"create","field":"<org.ccil.cowan.tagsoup.Parser: int theEntity>"},{"step":243,"from":"1093767232","to":"sdaReg694","type":"create","field":"<org.ccil.cowan.tagsoup.Parser: boolean virginStack>"},{"step":244,"from":"1093767232","to":"1093733000","type":"create","field":"<org.ccil.cowan.tagsoup.Parser: char[] theCommentBuffer>"},{"step":245,"from":"static.<android.text.Html$HtmlParser: org.ccil.cowan.tagsoup.HTMLSchema schema>","to":"1085096528","type":"load","field":"<android.text.Html$HtmlParser: org.ccil.cowan.tagsoup.HTMLSchema schema>"},{"step":246,"from":"1085096528","to":"1093767232","type":"store","field":"<org.ccil.cowan.tagsoup.Parser: org.ccil.cowan.tagsoup.Schema theSchema>"},{"step":247,"from":"sdaReg0","to":"1093495288","type":"store","field":"<android.text.HtmlToSpannedConverter: java.lang.String mSource>"},{"step":248,"from":"static.<android.text.SpannableStringBuilder: android.text.InputFilter[] NO_FILTERS>","to":"1085328680","type":"load","field":"<android.text.SpannableStringBuilder: android.text.InputFilter[] NO_FILTERS>"},{"step":249,"from":"1085328680","to":"1094558008","type":"store","field":"<android.text.SpannableStringBuilder: android.text.InputFilter[] mFilters>"},{"step":250,"from":"1094558008","to":"1094755928","type":"create","field":"<android.text.SpannableStringBuilder: char[] mText>"},{"step":251,"from":"sdaReg719","to":"1094558008","type":"store","field":"<android.text.SpannableStringBuilder: int mGapStart>"},{"step":252,"from":"sdaReg728","to":"1094558008","type":"store","field":"<android.text.SpannableStringBuilder: int mGapLength>"},{"step":253,"from":"1083981616","to":"1083912376","type":"model"},{"step":254,"from":"sdaReg733","to":"1094755928","type":"model"},{"step":255,"from":"1094558008","to":"sdaReg734","type":"create","field":"<android.text.SpannableStringBuilder: int mSpanCount>"},{"step":256,"from":"1094558008","to":"1093728632","type":"create","field":"<android.text.SpannableStringBuilder: java.lang.Object[] mSpans>"},{"step":257,"from":"1094558008","to":"1093637408","type":"create","field":"<android.text.SpannableStringBuilder: int[] mSpanStarts>"},{"step":258,"from":"1094558008","to":"1093683744","type":"create","field":"<android.text.SpannableStringBuilder: int[] mSpanEnds>"},{"step":259,"from":"1094558008","to":"1093491816","type":"create","field":"<android.text.SpannableStringBuilder: int[] mSpanFlags>"},{"step":260,"from":"1093495288","to":"1094558008","type":"create","field":"<android.text.HtmlToSpannedConverter: android.text.SpannableStringBuilder mSpannableStringBuilder>"},{"step":261,"from":"1093767232","to":"1093495288","type":"store","field":"<android.text.HtmlToSpannedConverter: org.xml.sax.XMLReader mReader>"},{"step":262,"from":"1093767232","to":"1093495288","type":"create","field":"<org.ccil.cowan.tagsoup.Parser: org.xml.sax.ContentHandler theContentHandler>"},{"step":263,"from":"1093520880","to":"1093520880","type":"create","field":"<java.io.Reader: java.lang.Object lock>"},{"step":264,"from":"1093520880","to":"sdaReg758","type":"create","field":"<java.io.StringReader: int markpos>"},{"step":265,"from":"sdaReg754","to":"1093520880","type":"store","field":"<java.io.StringReader: java.lang.String str>"},{"step":266,"from":"sdaReg759","to":"1093520880","type":"store","field":"<java.io.StringReader: int count>"},{"step":267,"from":"1093520880","to":"1093520848","type":"store","field":"<org.xml.sax.InputSource: java.io.Reader characterStream>"},{"step":268,"from":"1093767232","to":"1093463112","type":"create","field":"<org.ccil.cowan.tagsoup.Parser: org.ccil.cowan.tagsoup.Scanner theScanner>"},{"step":269,"from":"1093767232","to":"1093846376","type":"store","field":"<org.ccil.cowan.tagsoup.Parser$1: org.ccil.cowan.tagsoup.Parser this$0>"},{"step":270,"from":"1093767232","to":"1093846376","type":"create","field":"<org.ccil.cowan.tagsoup.Parser: org.ccil.cowan.tagsoup.AutoDetector theAutoDetector>"},{"step":271,"from":"1085096528","to":"1084913208","type":"load","field":"<org.ccil.cowan.tagsoup.Schema: java.util.HashMap theElementTypes>"},{"step":272,"from":"sdaReg776","to":"sdaReg777","type":"model"},{"step":273,"from":"1084913208","to":"1085325888","type":"load","field":"<java.util.HashMap: java.util.HashMap$HashMapEntry[] table>"},{"step":274,"from":"1085325888","to":"1085000544","type":"load","field":"arrayIdx_int:19"},{"step":275,"from":"1085000544","to":"1085033016","type":"load","field":"<java.util.HashMap$HashMapEntry: java.lang.Object key>"},{"step":276,"from":"1085000544","to":"1084842864","type":"load","field":"<java.util.HashMap$HashMapEntry: java.lang.Object value>"},{"step":277,"from":"1084842864","to":"1093463744","type":"store","field":"<org.ccil.cowan.tagsoup.Element: org.ccil.cowan.tagsoup.ElementType theType>"},{"step":278,"from":"1084842864","to":"1085042048","type":"load","field":"<org.ccil.cowan.tagsoup.ElementType: org.ccil.cowan.tagsoup.AttributesImpl theAtts>"},{"step":279,"from":"1085042048","to":"1093577152","type":"model"},{"step":280,"from":"1093463744","to":"1093577152","type":"create","field":"<org.ccil.cowan.tagsoup.Element: org.ccil.cowan.tagsoup.AttributesImpl theAtts>"},{"step":281,"from":"1093463744","to":"sdaReg802","type":"create","field":"<org.ccil.cowan.tagsoup.Element: org.ccil.cowan.tagsoup.Element theNext>"},{"step":282,"from":"1093463744","to":"sdaReg803","type":"create","field":"<org.ccil.cowan.tagsoup.Element: boolean preclosed>"},{"step":283,"from":"1093767232","to":"1093463744","type":"create","field":"<org.ccil.cowan.tagsoup.Parser: org.ccil.cowan.tagsoup.Element theStack>"},{"step":284,"from":"1085096528","to":"1084913208","type":"load","field":"<org.ccil.cowan.tagsoup.Schema: java.util.HashMap theElementTypes>"},{"step":285,"from":"sdaReg806","to":"sdaReg807","type":"model"},{"step":286,"from":"1084913208","to":"1085325888","type":"load","field":"<java.util.HashMap: java.util.HashMap$HashMapEntry[] table>"},{"step":287,"from":"1085325888","to":"1085146552","type":"load","field":"arrayIdx_int:58"},{"step":288,"from":"1085146552","to":"1085146432","type":"load","field":"<java.util.HashMap$HashMapEntry: java.lang.Object key>"},{"step":289,"from":"1085146552","to":"1085146552.<java.util.HashMap$HashMapEntry: int hash>","type":"load","field":"<java.util.HashMap$HashMapEntry: int hash>"},{"step":290,"from":"1085146552","to":"1085035312","type":"load","field":"<java.util.HashMap$HashMapEntry: java.util.HashMap$HashMapEntry next>"},{"step":291,"from":"1085035312","to":"1085036328","type":"load","field":"<java.util.HashMap$HashMapEntry: java.lang.Object key>"},{"step":292,"from":"1085035312","to":"1084842648","type":"load","field":"<java.util.HashMap$HashMapEntry: java.lang.Object value>"},{"step":293,"from":"1084842648","to":"1093577176","type":"store","field":"<org.ccil.cowan.tagsoup.Element: org.ccil.cowan.tagsoup.ElementType theType>"},{"step":294,"from":"1084842648","to":"1085030992","type":"load","field":"<org.ccil.cowan.tagsoup.ElementType: org.ccil.cowan.tagsoup.AttributesImpl theAtts>"},{"step":295,"from":"1085030992","to":"1093714712","type":"model"},{"step":296,"from":"1093577176","to":"1093714712","type":"create","field":"<org.ccil.cowan.tagsoup.Element: org.ccil.cowan.tagsoup.AttributesImpl theAtts>"},{"step":297,"from":"1093577176","to":"sdaReg832","type":"create","field":"<org.ccil.cowan.tagsoup.Element: org.ccil.cowan.tagsoup.Element theNext>"},{"step":298,"from":"1093577176","to":"sdaReg833","type":"create","field":"<org.ccil.cowan.tagsoup.Element: boolean preclosed>"},{"step":299,"from":"1093767232","to":"1093577176","type":"create","field":"<org.ccil.cowan.tagsoup.Parser: org.ccil.cowan.tagsoup.Element thePCDATA>"},{"step":300,"from":"1093767232","to":"sdaReg835","type":"create","field":"<org.ccil.cowan.tagsoup.Parser: org.ccil.cowan.tagsoup.Element theNewElement>"},{"step":301,"from":"1093767232","to":"sdaReg836","type":"create","field":"<org.ccil.cowan.tagsoup.Parser: java.lang.String theAttributeName>"},{"step":302,"from":"1093767232","to":"sdaReg837","type":"create","field":"<org.ccil.cowan.tagsoup.Parser: java.lang.String thePITarget>"},{"step":303,"from":"1093767232","to":"sdaReg838","type":"create","field":"<org.ccil.cowan.tagsoup.Parser: org.ccil.cowan.tagsoup.Element theSaved>"},{"step":304,"from":"1093767232","to":"sdaReg839","type":"create","field":"<org.ccil.cowan.tagsoup.Parser: int theEntity>"},{"step":305,"from":"1093767232","to":"sdaReg840","type":"create","field":"<org.ccil.cowan.tagsoup.Parser: boolean virginStack>"},{"step":306,"from":"sdaReg841","to":"1093767232","type":"store","field":"<org.ccil.cowan.tagsoup.Parser: java.lang.String theDoctypeSystemId>"},{"step":307,"from":"sdaReg841","to":"1093767232","type":"store","field":"<org.ccil.cowan.tagsoup.Parser: java.lang.String theDoctypePublicId>"},{"step":308,"from":"sdaReg841","to":"1093767232","type":"store","field":"<org.ccil.cowan.tagsoup.Parser: java.lang.String theDoctypeName>"},{"step":309,"from":"1093520848","to":"1093520848.<org.xml.sax.InputSource: java.lang.String encoding>","type":"load","field":"<org.xml.sax.InputSource: java.lang.String encoding>"},{"step":310,"from":"1093520848","to":"1093520848.<org.xml.sax.InputSource: java.lang.String publicId>","type":"load","field":"<org.xml.sax.InputSource: java.lang.String publicId>"},{"step":311,"from":"1093520848","to":"1093520848.<org.xml.sax.InputSource: java.lang.String systemId>","type":"load","field":"<org.xml.sax.InputSource: java.lang.String systemId>"},{"step":312,"from":"1093520848","to":"1093520848.<org.xml.sax.InputSource: java.lang.String publicId>","type":"load","field":"<org.xml.sax.InputSource: java.lang.String publicId>"},{"step":313,"from":"1093520848","to":"1093520848.<org.xml.sax.InputSource: java.lang.String systemId>","type":"load","field":"<org.xml.sax.InputSource: java.lang.String systemId>"},{"step":314,"from":"1093463112","to":"1093520848.<org.xml.sax.InputSource: java.lang.String publicId>","type":"model"},{"step":315,"from":"1093463112","to":"1093520848.<org.xml.sax.InputSource: java.lang.String systemId>","type":"model"},{"step":316,"from":"1093520848.<org.xml.sax.InputSource: java.lang.String publicId>","to":"1093463112","type":"model"},{"step":317,"from":"1093520848.<org.xml.sax.InputSource: java.lang.String publicId>","to":"1093520848.<org.xml.sax.InputSource: java.lang.String systemId>","type":"model"},{"step":318,"from":"1093520848.<org.xml.sax.InputSource: java.lang.String systemId>","to":"1093463112","type":"model"},{"step":319,"from":"1093520848.<org.xml.sax.InputSource: java.lang.String systemId>","to":"1093520848.<org.xml.sax.InputSource: java.lang.String publicId>","type":"model"},{"step":320,"from":"1093463112","to":"1093495288","type":"model"},{"step":321,"from":"1085096528","to":"1085096528.<org.ccil.cowan.tagsoup.Schema: java.lang.String theURI>","type":"load","field":"<org.ccil.cowan.tagsoup.Schema: java.lang.String theURI>"},{"step":322,"from":"1085096528","to":"1085096528.<org.ccil.cowan.tagsoup.Schema: java.lang.String thePrefix>","type":"load","field":"<org.ccil.cowan.tagsoup.Schema: java.lang.String thePrefix>"},{"step":323,"from":"1085096528","to":"1085096528.<org.ccil.cowan.tagsoup.Schema: java.lang.String theURI>","type":"load","field":"<org.ccil.cowan.tagsoup.Schema: java.lang.String theURI>"},{"step":324,"from":"1093463112","to":"1093520880","type":"model"},{"step":325,"from":"1093463112","to":"1093767232","type":"model"},{"step":326,"from":"1093520880","to":"1093463112","type":"model"},{"step":327,"from":"1093520880","to":"1093767232","type":"model"},{"step":328,"from":"1093767232","to":"1093463112","type":"model"},{"step":329,"from":"1093767232","to":"1093520880","type":"model"},{"step":330,"from":"1084659448","to":"sdaReg871","type":"model"},{"step":331,"from":"static.<com.android.internal.util.ArrayUtils: java.lang.Object[] sCache>","to":"1084375760","type":"load","field":"<com.android.internal.util.ArrayUtils: java.lang.Object[] sCache>"},{"step":332,"from":"1084375760","to":"1085268040","type":"load","field":"arrayIdx_int:42"},{"step":333,"from":"1085268040","to":"1084833288","type":"model"},{"step":334,"from":"1084833288","to":"1084659448","type":"model"}],"parameters":[{"id":"sdaReg0","name":"arg#0","klass":"string"},{"id":"0","name":"arg#1","klass":"android.text.Html$ImageGetter"},{"id":"0","name":"arg#2","klass":"android.text.Html$TagHandler"}],"returns":[{"id":"1094558008","name":"return","klass":"android.text.Spanned"}],"colors":{"heapLocToColor":{"sdaReg294":[1, 2],"sdaReg293":[19],"sdaReg296":[37],"sdaReg192":[13],"sdaReg295":[37],"sdaReg576":[13],"sdaReg297":[13],"sdaReg579":[59],"sdaReg578":[19],"sdaReg299":[19],"sdaReg199":[30],"sdaReg198":[28],"sdaReg195":[30],"sdaReg290":[19],"sdaReg194":[19],"sdaReg197":[19],"sdaReg291":[37],"1085000544":[68],"sdaReg572":[1, 2],"sdaReg573":[58],"sdaReg574":[58],"1094502072":[37],"sdaReg575":[19],"sdaReg571":[15],"1085835208":[19],"sdaReg587":[59],"1093751992":[23],"0":[1, 2],"sdaReg585":[59],"sdaReg586":[59],"sdaReg583":[59],"sdaReg584":[59],"sdaReg581":[59],"sdaReg582":[59],"sdaReg580":[59],"sdaReg599":[23],"sdaReg598":[19],"static.<org.ccil.cowan.tagsoup.Parser: boolean DEFAULT_IGNORE_BOGONS>":[5],"sdaReg171":[19],"sdaReg173":[28],"sdaReg172":[1, 2],"sdaReg175":[13],"sdaReg174":[28],"sdaReg698":[3],"sdaReg177":[19],"sdaReg697":[68],"sdaReg179":[29],"sdaReg178":[29],"1093520848.<org.xml.sax.InputSource: java.lang.String encoding>":[82],"static.<org.ccil.cowan.tagsoup.Parser: boolean DEFAULT_BOGONS_EMPTY>":[6],"sdaReg695":[3],"sdaReg696":[3],"sdaReg590":[59],"static.<java.util.HashMap: java.util.Map$Entry[] EMPTY_TABLE>":[14],"sdaReg593":[13],"sdaReg595":[19],"sdaReg596":[60],"sdaReg182":[29],"sdaReg181":[29],"sdaReg180":[29],"sdaReg186":[29],"sdaReg185":[29],"sdaReg184":[29],"sdaReg183":[29],"sdaReg189":[29],"1093463744":[87],"1093582024":[64],"static.<org.ccil.cowan.tagsoup.Parser: boolean DEFAULT_DEFAULT_ATTRIBUTES>":[8],"1094756720":[43],"1083997920":[14],"static.<java.lang.Boolean: java.lang.Boolean FALSE>":[19],"static.<android.text.Html$HtmlParser: org.ccil.cowan.tagsoup.HTMLSchema schema>":[68],"1084913208.<java.util.HashMap: java.util.HashMap$HashMapEntry[] table>":[68],"1084833288":[98, 97],"1094558008":[73],"1093904760":[32],"1093463112":[85],"1094756816":[45],"1085035312":[68],"1094329272":[60],"1083912376":[77],"1085146552.<java.util.HashMap$HashMapEntry: int hash>":[68],"sdaReg630":[13],"sdaReg778":[68],"sdaReg779":[89],"sdaReg67":[20],"sdaReg64":[20],"sdaReg777":[88],"sdaReg774":[86],"sdaReg62":[20],"sdaReg775":[68],"sdaReg63":[20],"sdaReg773":[86],"sdaReg72":[19],"sdaReg772":[3],"1094755928":[76],"sdaReg771":[86],"sdaReg70":[13],"sdaReg770":[85],"sdaReg639":[63],"1093577176":[91],"sdaReg634":[63],"sdaReg633":[63],"sdaReg632":[19],"sdaReg638":[63],"sdaReg637":[63],"sdaReg636":[63],"sdaReg635":[63],"1085096528.<org.ccil.cowan.tagsoup.Schema: java.util.HashMap theElementTypes>":[68],"1094504096":[39],"sdaReg640":[63],"sdaReg641":[63],"sdaReg77":[21],"sdaReg78":[21],"sdaReg79":[13],"sdaReg785":[89],"sdaReg73":[21],"sdaReg786":[89],"sdaReg787":[89],"sdaReg75":[19],"sdaReg76":[1, 2],"sdaReg782":[89],"sdaReg81":[19],"sdaReg504":[53],"sdaReg781":[89],"sdaReg503":[53],"sdaReg784":[89],"sdaReg83":[22],"sdaReg506":[53],"sdaReg783":[89],"sdaReg82":[22],"sdaReg505":[53],"sdaReg500":[53],"sdaReg780":[89],"sdaReg502":[53],"sdaReg501":[53],"sdaReg644":[63],"sdaReg647":[13],"sdaReg649":[19],"sdaReg509":[53],"static.<org.ccil.cowan.tagsoup.Parser: boolean DEFAULT_TRANSLATE_COLONS>":[9],"static.<com.android.internal.util.ArrayUtils: java.lang.Object[] sCache>":[97],"sdaReg798":[87],"sdaReg86":[22],"sdaReg799":[68],"sdaReg87":[22],"sdaReg796":[68],"sdaReg84":[22],"sdaReg85":[22],"1085146552":[68],"1093728632":[78],"sdaReg88":[22],"sdaReg89":[22],"sdaReg791":[68],"sdaReg90":[22],"sdaReg790":[89],"sdaReg512":[13],"sdaReg795":[87],"sdaReg517":[19],"sdaReg794":[68],"sdaReg93":[22],"sdaReg793":[68],"sdaReg515":[54],"sdaReg792":[68],"sdaReg617":[61],"sdaReg514":[19],"sdaReg614":[61],"sdaReg519":[54],"sdaReg613":[61],"sdaReg518":[1, 2],"sdaReg612":[61],"sdaReg611":[61],"sdaReg610":[61],"1085036328":[68],"sdaReg96":[13],"sdaReg98":[19],"sdaReg99":[23],"1085033016":[68],"sdaReg520":[54],"sdaReg522":[13],"sdaReg521":[15],"sdaReg524":[15],"sdaReg629":[19],"sdaReg526":[55],"sdaReg628":[62],"sdaReg525":[55],"sdaReg528":[55],"sdaReg527":[55],"sdaReg625":[15],"sdaReg529":[55],"sdaReg627":[62],"sdaReg626":[1, 2],"sdaReg620":[13],"sdaReg623":[62],"sdaReg622":[15],"sdaReg531":[55],"sdaReg530":[55],"sdaReg732":[77],"sdaReg730":[76],"1093967888":[58],"sdaReg876":[98, 99, 97],"sdaReg875":[98, 97],"sdaReg874":[96],"1085096528":[68],"sdaReg873":[96],"sdaReg674":[13],"sdaReg879":[97],"sdaReg671":[65],"sdaReg677":[66],"sdaReg676":[15],"sdaReg871":[96],"sdaReg872":[96],"sdaReg679":[15],"static.<java.lang.Boolean: java.lang.Boolean TRUE>":[15],"sdaReg539":[13],"sdaReg536":[55],"sdaReg532":[55],"sdaReg533":[55],"sdaReg746":[73],"sdaReg745":[73],"sdaReg748":[72],"sdaReg542":[56],"sdaReg747":[72],"sdaReg541":[15],"sdaReg744":[73],"sdaReg681":[66],"static.<org.ccil.cowan.tagsoup.Parser: boolean DEFAULT_IGNORABLE_WHITESPACE>":[11],"sdaReg680":[1, 2],"sdaReg749":[72],"sdaReg682":[66],"sdaReg880":[97],"sdaReg883":[73],"1093767368.<java.util.HashMap: int modCount>":[13],"sdaReg547":[56],"sdaReg548":[15],"sdaReg549":[13],"sdaReg544":[15],"sdaReg545":[35],"sdaReg546":[56],"1093520848.<org.xml.sax.InputSource: java.lang.String publicId>":[85, 82],"sdaReg755":[83],"sdaReg753":[83],"sdaReg752":[72],"sdaReg759":[84],"sdaReg553":[57],"sdaReg552":[57],"sdaReg757":[83],"sdaReg551":[15],"sdaReg859":[68],"sdaReg756":[83],"sdaReg858":[68],"sdaReg652":[19],"sdaReg857":[95],"sdaReg856":[68],"sdaReg650":[64],"sdaReg853":[82],"sdaReg852":[82],"sdaReg851":[83],"sdaReg659":[15],"sdaReg850":[82],"sdaReg657":[13],"sdaReg655":[64],"sdaReg656":[15],"sdaReg653":[56],"1094760832":[49],"sdaReg654":[64],"sdaReg556":[57],"sdaReg557":[57],"sdaReg554":[57],"sdaReg555":[57],"sdaReg750":[3],"sdaReg751":[72],"1093577152":[90],"sdaReg558":[57],"sdaReg559":[57],"sdaReg764":[82],"sdaReg763":[82],"sdaReg766":[82],"sdaReg560":[57],"sdaReg765":[83],"sdaReg768":[82],"sdaReg767":[3],"sdaReg769":[3],"sdaReg563":[57],"sdaReg661":[65],"sdaReg660":[65],"sdaReg663":[65],"sdaReg662":[65],"sdaReg863":[73],"sdaReg668":[65],"sdaReg860":[73],"static.<org.ccil.cowan.tagsoup.Parser: boolean DEFAULT_RESTART_ELEMENTS>":[10],"sdaReg664":[65],"sdaReg665":[65],"sdaReg666":[65],"sdaReg667":[65],"sdaReg566":[13],"sdaReg568":[15],"sdaReg569":[58],"sdaReg760":[83],"sdaReg761":[82],"sdaReg762":[83],"sdaReg429":[48],"sdaReg428":[48],"sdaReg427":[48],"sdaReg426":[48],"sdaReg425":[48],"sdaReg424":[48],"sdaReg423":[48],"sdaReg422":[48],"sdaReg326":[40],"static.<org.ccil.cowan.tagsoup.Parser: boolean DEFAULT_CDATA_ELEMENTS>":[12],"sdaReg325":[19],"sdaReg323":[13],"1093427576":[66],"1094471280":[21],"sdaReg329":[40],"sdaReg328":[40],"sdaReg327":[40],"sdaReg828":[91],"1094533512":[28],"sdaReg13":[15],"sdaReg829":[68],"sdaReg14":[13],"sdaReg826":[68],"sdaReg12":[13],"sdaReg321":[39],"sdaReg10":[14],"sdaReg322":[39],"sdaReg320":[1, 2],"sdaReg820":[93],"sdaReg821":[68],"sdaReg421":[19],"1093769256":[17],"sdaReg19":[16],"sdaReg824":[68],"sdaReg17":[16],"sdaReg825":[91],"sdaReg18":[16],"sdaReg822":[68],"sdaReg823":[68],"sdaReg16":[15],"sdaReg416":[47],"sdaReg415":[46],"sdaReg418":[45],"sdaReg417":[13],"sdaReg412":[46],"sdaReg411":[46],"static.<android.text.SpannableStringBuilder: android.text.InputFilter[] NO_FILTERS>":[75],"sdaReg314":[13],"sdaReg317":[39],"sdaReg316":[19],"sdaReg419":[13],"sdaReg319":[19],"sdaReg815":[93],"sdaReg816":[93],"sdaReg817":[93],"1085268040":[97],"1093825968":[62],"sdaReg311":[38],"sdaReg810":[93],"sdaReg410":[46],"sdaReg811":[93],"sdaReg812":[93],"1085096528.<org.ccil.cowan.tagsoup.Schema: java.lang.String thePrefix>":[68],"sdaReg813":[93],"sdaReg814":[93],"sdaReg444":[49],"sdaReg308":[38],"sdaReg307":[38],"sdaReg306":[38],"1093520880":[85, 83],"1085328680":[75],"sdaReg305":[38],"sdaReg304":[38],"sdaReg303":[38],"sdaReg302":[38],"sdaReg301":[38],"sdaReg300":[38],"sdaReg848":[82],"sdaReg849":[82],"sdaReg846":[82],"sdaReg847":[1, 2],"sdaReg844":[82],"sdaReg845":[83],"sdaReg842":[3],"sdaReg843":[82],"1093965976":[56],"1093777896":[52],"sdaReg433":[48],"sdaReg436":[13],"1093767232":[85, 3],"sdaReg439":[13],"1085030992":[68],"sdaReg834":[91],"sdaReg830":[68],"sdaReg430":[48],"sdaReg831":[94],"1085325888":[68],"sdaReg60":[20],"sdaReg61":[20],"sdaReg721":[74],"sdaReg720":[74],"sdaReg728":[74],"1093965160":[54],"1093753968":[25],"sdaReg59":[20],"sdaReg58":[20],"sdaReg57":[20],"sdaReg56":[20],"1093767368":[13],"sdaReg55":[19],"sdaReg53":[13],"sdaReg52":[18],"sdaReg51":[18],"sdaReg712":[73],"sdaReg714":[74],"sdaReg715":[73],"sdaReg50":[1, 2],"sdaReg710":[72],"sdaReg711":[73],"sdaReg718":[73],"sdaReg719":[74],"1093733000":[67],"sdaReg49":[15],"1093491816":[81],"1093778016":[50],"1084659448":[98, 99, 97],"sdaReg44":[13],"1093846376":[86],"sdaReg47":[18],"sdaReg46":[15],"sdaReg41":[17],"sdaReg700":[68],"1093755928":[27],"sdaReg408":[46],"sdaReg409":[46],"1085042048":[68],"sdaReg703":[71],"sdaReg608":[61],"sdaReg609":[61],"sdaReg701":[69],"sdaReg606":[61],"sdaReg702":[70],"sdaReg607":[61],"sdaReg707":[1, 2],"sdaReg708":[1, 2],"sdaReg605":[15],"sdaReg403":[19],"sdaReg705":[68],"sdaReg602":[15],"sdaReg400":[45],"sdaReg706":[72],"sdaReg603":[13],"sdaReg401":[13],"sdaReg600":[60],"sdaReg200":[30],"sdaReg406":[46],"sdaReg601":[60],"sdaReg201":[13],"sdaReg407":[46],"sdaReg709":[3],"sdaReg404":[46],"sdaReg405":[46],"sdaReg205":[31],"sdaReg204":[31],"sdaReg39":[17],"sdaReg801":[90],"sdaReg203":[15],"sdaReg800":[68],"sdaReg209":[31],"sdaReg208":[31],"sdaReg207":[31],"sdaReg206":[31],"sdaReg31":[13],"sdaReg809":[93],"sdaReg30":[13],"sdaReg808":[68],"sdaReg807":[92],"sdaReg805":[68],"sdaReg34":[13],"sdaReg804":[87],"sdaReg8":[13],"sdaReg9":[14],"sdaReg6":[13],"sdaReg7":[13],"sdaReg4":[3],"sdaReg5":[13],"1085146432":[68],"1084913208":[68],"sdaReg29":[13],"sdaReg28":[16],"1093520848":[82],"sdaReg3":[3],"sdaReg2":[3],"sdaReg21":[16],"sdaReg1":[3],"sdaReg20":[16],"sdaReg0":[0],"sdaReg23":[16],"sdaReg22":[16],"sdaReg25":[16],"sdaReg24":[16],"sdaReg125":[25],"sdaReg127":[19],"sdaReg128":[21],"sdaReg129":[25],"sdaReg229":[15],"sdaReg224":[1, 2],"sdaReg225":[32],"sdaReg226":[32],"sdaReg227":[13],"sdaReg221":[32],"sdaReg220":[15],"sdaReg223":[15],"sdaReg122":[13],"sdaReg124":[19],"sdaReg116":[24],"sdaReg394":[19],"1093904864":[34],"sdaReg395":[45],"sdaReg490":[19],"sdaReg114":[24],"1093767368.<java.util.HashMap: int size>":[13],"sdaReg392":[13],"1093520848.<org.xml.sax.InputSource: java.lang.String systemId>":[85, 82],"sdaReg115":[24],"sdaReg398":[41],"sdaReg399":[45],"sdaReg119":[24],"sdaReg397":[19],"sdaReg497":[19],"sdaReg498":[53],"sdaReg495":[13],"sdaReg218":[13],"sdaReg215":[31],"sdaReg493":[52],"sdaReg494":[19],"sdaReg491":[1, 2],"sdaReg492":[52],"sdaReg212":[31],"sdaReg211":[31],"sdaReg210":[31],"sdaReg499":[53],"1084842864":[68],"sdaReg113":[24],"sdaReg112":[24],"sdaReg111":[24],"sdaReg110":[24],"1093495288":[72],"sdaReg107":[19],"sdaReg385":[44],"sdaReg108":[24],"sdaReg386":[44],"sdaReg109":[24],"sdaReg103":[23],"sdaReg381":[44],"1093637408":[79],"sdaReg104":[23],"sdaReg382":[44],"sdaReg105":[13],"1093771160":[18],"sdaReg383":[44],"sdaReg384":[44],"sdaReg247":[13],"sdaReg380":[44],"sdaReg241":[33],"sdaReg244":[13],"sdaReg102":[1, 2],"sdaReg101":[19],"sdaReg389":[44],"sdaReg377":[19],"sdaReg374":[43],"sdaReg375":[13],"sdaReg372":[32],"sdaReg373":[43],"sdaReg371":[19],"sdaReg237":[33],"sdaReg238":[33],"sdaReg235":[33],"sdaReg236":[33],"sdaReg230":[33],"1094504200":[41],"sdaReg234":[33],"sdaReg233":[33],"sdaReg232":[33],"sdaReg231":[33],"sdaReg379":[44],"sdaReg378":[44],"sdaReg463":[19],"sdaReg465":[50],"sdaReg464":[1, 2],"sdaReg269":[35],"sdaReg268":[1, 2],"sdaReg461":[50],"sdaReg460":[19],"sdaReg360":[42],"sdaReg169":[28],"static.<org.ccil.cowan.tagsoup.Parser: boolean DEFAULT_NAMESPACES>":[4],"sdaReg363":[42],"sdaReg366":[13],"sdaReg368":[19],"sdaReg163":[27],"sdaReg369":[43],"sdaReg166":[13],"sdaReg168":[19],"sdaReg264":[15],"sdaReg265":[35],"sdaReg267":[15],"sdaReg466":[50],"sdaReg467":[19],"sdaReg262":[13],"sdaReg468":[13],"sdaReg259":[34],"sdaReg351":[19],"sdaReg355":[42],"1085835192":[15],"sdaReg354":[42],"sdaReg353":[42],"sdaReg352":[42],"sdaReg358":[42],"sdaReg359":[42],"sdaReg356":[42],"sdaReg151":[13],"sdaReg357":[42],"sdaReg156":[27],"1094535496":[30],"sdaReg252":[34],"sdaReg458":[13],"sdaReg455":[49],"sdaReg482":[51],"sdaReg485":[13],"sdaReg487":[19],"1085096528.<org.ccil.cowan.tagsoup.Schema: java.lang.String theURI>":[68],"sdaReg342":[19],"sdaReg343":[41],"sdaReg148":[13],"sdaReg340":[13],"sdaReg349":[13],"sdaReg145":[26],"1084375760":[97],"sdaReg345":[19],"sdaReg140":[26],"sdaReg346":[1, 2],"sdaReg141":[26],"sdaReg280":[36],"sdaReg347":[41],"sdaReg142":[26],"sdaReg281":[36],"sdaReg348":[41],"sdaReg282":[36],"sdaReg488":[52],"1093683744":[80],"sdaReg285":[36],"1093714712":[94],"sdaReg288":[13],"sdaReg472":[51],"sdaReg471":[51],"sdaReg470":[19],"sdaReg279":[36],"sdaReg476":[51],"sdaReg475":[51],"sdaReg474":[51],"1093906816":[35],"sdaReg473":[51],"sdaReg333":[40],"sdaReg332":[40],"sdaReg331":[40],"1084842648":[68],"sdaReg330":[40],"sdaReg139":[26],"sdaReg138":[26],"sdaReg137":[26],"sdaReg136":[26],"sdaReg134":[26],"sdaReg135":[26],"sdaReg133":[19],"sdaReg130":[25],"sdaReg131":[13],"static.<org.ccil.cowan.tagsoup.Parser: boolean DEFAULT_ROOT_BOGONS>":[7],"sdaReg270":[35],"sdaReg337":[40],"sdaReg334":[40],"sdaReg273":[19],"sdaReg479":[51],"sdaReg274":[36],"sdaReg271":[13],"sdaReg477":[51],"sdaReg478":[51],"sdaReg277":[36],"sdaReg278":[36],"sdaReg275":[36],"sdaReg276":[36]},"colorToColor":{"0":[72],"3":[85, 86, 3, 83, 72],"4":[3],"5":[3],"6":[3],"7":[3],"8":[3],"9":[3],"10":[3],"11":[3],"12":[3],"13":[3, 13],"14":[13],"15":[35, 32, 18, 66, 58, 56, 62],"17":[13],"16":[18],"19":[64, 39, 37, 43, 41, 45, 50, 21, 54, 23, 52, 25, 28, 60, 30],"18":[34, 17, 49, 27],"21":[17, 49, 25],"20":[21],"23":[34, 17, 49, 27, 60],"22":[23],"25":[34, 17, 49, 27],"24":[25],"27":[13],"26":[28],"29":[30],"28":[49, 27, 30],"31":[32],"30":[34, 49, 27],"34":[13],"35":[34, 49, 56],"32":[34, 49, 43, 27],"33":[35],"38":[39],"39":[34, 49],"36":[37],"37":[34, 49],"42":[43],"43":[34, 49],"40":[41],"41":[34, 45],"44":[45],"45":[34, 49],"51":[52],"50":[49],"49":[13],"48":[50],"55":[56],"54":[49],"53":[54],"52":[49],"59":[60],"58":[49],"57":[58],"56":[49, 64],"63":[64],"62":[49],"61":[62],"60":[49],"68":[87, 3, 94, 91, 90],"64":[49],"65":[66],"66":[49],"67":[3],"76":[73],"78":[73],"79":[73],"72":[3],"73":[100, 72],"74":[73],"75":[73],"85":[85, 3, 83, 82, 72],"84":[83],"87":[3],"86":[3],"81":[73],"80":[73],"83":[85, 3, 83, 82],"82":[85, 82],"94":[91],"91":[3],"90":[87]},"colorToLabel":{"0":"arg#0","1":"arg#1","2":"arg#2","4":"<org.ccil.cowan.tagsoup.Parser: boolean DEFAULT_NAMESPACES>","5":"<org.ccil.cowan.tagsoup.Parser: boolean DEFAULT_IGNORE_BOGONS>","6":"<org.ccil.cowan.tagsoup.Parser: boolean DEFAULT_BOGONS_EMPTY>","7":"<org.ccil.cowan.tagsoup.Parser: boolean DEFAULT_ROOT_BOGONS>","8":"<org.ccil.cowan.tagsoup.Parser: boolean DEFAULT_DEFAULT_ATTRIBUTES>","9":"<org.ccil.cowan.tagsoup.Parser: boolean DEFAULT_TRANSLATE_COLONS>","10":"<org.ccil.cowan.tagsoup.Parser: boolean DEFAULT_RESTART_ELEMENTS>","11":"<org.ccil.cowan.tagsoup.Parser: boolean DEFAULT_IGNORABLE_WHITESPACE>","12":"<org.ccil.cowan.tagsoup.Parser: boolean DEFAULT_CDATA_ELEMENTS>","14":"<java.util.HashMap: java.util.Map$Entry[] EMPTY_TABLE>","15":"<java.lang.Boolean: java.lang.Boolean TRUE>","19":"<java.lang.Boolean: java.lang.Boolean FALSE>","68":"<android.text.Html$HtmlParser: org.ccil.cowan.tagsoup.HTMLSchema schema>","75":"<android.text.SpannableStringBuilder: android.text.InputFilter[] NO_FILTERS>","97":"<com.android.internal.util.ArrayUtils: java.lang.Object[] sCache>","100":"return"}}}

Generated Model

