Scanning method <android.os.Bundle: boolean getBoolean(java.lang.String,boolean)>

All seen event types: BinaryOperationRecord, MethodReturnRecord, MethodCallRecord, CastRecord, ArrayLengthRecord, LoadInstanceRecord, MethodStartRecord, LoadArrayRecord, MethodEndRecord, IfRecord, 
Ignored event types: IfRecord, 

JSON Encoded Analysis Data (for visualization):{"heapEdges":[{"step":0,"from":"1093782648","to":"1093940760","type":"load","field":"<android.os.Bundle: java.util.Map mMap>"},{"step":1,"from":"1093940760","to":"1093940816","type":"load","field":"<java.util.HashMap: java.util.HashMap$HashMapEntry[] table>"},{"step":2,"from":"1093940816","to":"1093940896","type":"load","field":"arrayIdx_int:2"},{"step":3,"from":"1093940896","to":"1093532504","type":"load","field":"<java.util.HashMap$HashMapEntry: java.lang.Object key>"},{"step":4,"from":"1093940896","to":"1085837744","type":"load","field":"<java.util.HashMap$HashMapEntry: java.lang.Object value>"},{"step":5,"from":"1085837744","to":"sdaReg18","type":"model"}],"parameters":[{"id":"1093782648","name":"this","klass":"android.os.Bundle"},{"id":"sdaReg0","name":"arg#1","klass":"string"},{"id":"sdaReg1","name":"arg#2","klass":"boolean"}],"returns":[{"id":"sdaReg18","name":"return","klass":"boolean"}],"colors":{"heapLocToColor":{"sdaReg8":[3],"sdaReg9":[3],"sdaReg6":[3],"sdaReg7":[3],"sdaReg4":[3],"sdaReg5":[3],"sdaReg11":[3],"1085837744":[0],"sdaReg12":[3],"1093782648":[0],"sdaReg10":[3],"sdaReg3":[0],"sdaReg2":[0],"1093940896":[0],"sdaReg1":[2],"sdaReg0":[1],"sdaReg17":[0],"1093940760":[0],"sdaReg18":[0, 4],"sdaReg15":[3],"1093940816":[0],"sdaReg16":[0],"1093532504":[0]},"colorToColor":{"0":[5],"4":[5]},"colorToLabel":{"0":"this","1":"arg#1","2":"arg#2","5":"return"}}}

Generated Model
	this->return

