Scanning method <java.io.RandomAccessFile: java.io.FileDescriptor getFD()>

All seen event types: LoadInstanceRecord, 
Ignored event types: 

JSON Encoded Analysis Data (for visualization):{"heapEdges":[{"step":0,"from":"1093666296","to":"1093667328","type":"load","field":"<java.io.RandomAccessFile: java.io.FileDescriptor fd>"}],"parameters":[{"id":"1093666296","name":"this","klass":"java.io.RandomAccessFile"}],"returns":[{"id":"1093667328","name":"return","klass":"java.io.FileDescriptor"}],"colors":{"heapLocToColor":{"1093666296":[0],"1093667328":[0]},"colorToColor":{"0":[1]},"colorToLabel":{"0":"this","1":"return"}}}

Generated Model
	this->return

