Scanning method <java.io.DataInputStream: int skipBytes(int)>

All seen event types: BinaryOperationRecord, SimpleAssignmentRecord, MethodReturnRecord, MethodCallRecord, MethodStartRecord, CastRecord, LoadInstanceRecord, MethodEndRecord, IfRecord, StoreInstanceRecord, 
Ignored event types: IfRecord, 

JSON Encoded Analysis Data (for visualization):{"heapEdges":[{"step":0,"from":"1093652528","to":"1093652664","type":"load","field":"<java.io.FilterInputStream: java.io.InputStream in>"},{"step":1,"from":"1093652664","to":"1093652664.<java.io.ByteArrayInputStream: int pos>","type":"load","field":"<java.io.ByteArrayInputStream: int pos>"},{"step":2,"from":"1093652664","to":"1093652664.<java.io.ByteArrayInputStream: int count>","type":"load","field":"<java.io.ByteArrayInputStream: int count>"},{"step":3,"from":"1093652664","to":"1093652664.<java.io.ByteArrayInputStream: int pos>","type":"load","field":"<java.io.ByteArrayInputStream: int pos>"},{"step":4,"from":"1093652664","to":"1093652664.<java.io.ByteArrayInputStream: int pos>","type":"load","field":"<java.io.ByteArrayInputStream: int pos>"},{"step":5,"from":"sdaReg11","to":"1093652664","type":"store","field":"<java.io.ByteArrayInputStream: int pos>"}],"parameters":[{"id":"1093652528","name":"this","klass":"java.io.DataInputStream"},{"id":"sdaReg0","name":"arg#1","klass":"int"}],"returns":[{"id":"sdaReg1","name":"return","klass":"int"}],"colors":{"heapLocToColor":{"sdaReg8":[0, 1],"sdaReg9":[0],"sdaReg6":[0],"sdaReg7":[0],"sdaReg4":[0],"sdaReg5":[1],"1093652664":[0],"sdaReg13":[0],"sdaReg14":[0],"sdaReg11":[0, 1],"1093652664.<java.io.ByteArrayInputStream: int count>":[0],"sdaReg12":[0],"sdaReg10":[0, 1],"sdaReg3":[1],"sdaReg2":[1],"sdaReg1":[0],"sdaReg0":[1],"sdaReg17":[0],"1093652528":[0],"1093652664.<java.io.ByteArrayInputStream: int pos>":[0],"sdaReg15":[0]},"colorToColor":{"0":[0, 2],"1":[0]},"colorToLabel":{"0":"this","1":"arg#1","2":"return"}}}

Generated Model
	this->return
	arg#1->this
	arg#1->return

