Scanning method <android.location.Location: void setExtras(android.os.Bundle)>

All seen event types: StoreArrayRecord, SimpleAssignmentRecord, MethodStartRecord, LoadInstanceRecord, IfRecord, NewObjectRecord, StoreInstanceRecord, NewArrayRecord, BinaryOperationRecord, MethodCallRecord, MethodReturnRecord, CastRecord, ArrayLengthRecord, LoadArrayRecord, MethodEndRecord, 
Ignored event types: IfRecord, 

JSON Encoded Analysis Data (for visualization):{"heapEdges":[{"step":0,"from":"1093633264","to":"sdaReg3","type":"create","field":"<android.os.Bundle: java.util.Map mMap>"},{"step":1,"from":"1093633264","to":"sdaReg4","type":"create","field":"<android.os.Bundle: android.os.Parcel mParcelledData>"},{"step":2,"from":"1093633264","to":"sdaReg5","type":"create","field":"<android.os.Bundle: boolean mHasFds>"},{"step":3,"from":"1093633264","to":"sdaReg6","type":"create","field":"<android.os.Bundle: boolean mFdsKnown>"},{"step":4,"from":"1093633264","to":"sdaReg7","type":"create","field":"<android.os.Bundle: boolean mAllowFds>"},{"step":5,"from":"1093633264","to":"sdaReg8","type":"create","field":"<android.os.Bundle: android.os.Parcel mParcelledData>"},{"step":6,"from":"1093779208","to":"1093721384","type":"load","field":"<android.os.Bundle: java.util.Map mMap>"},{"step":7,"from":"1093779208","to":"1093721384","type":"load","field":"<android.os.Bundle: java.util.Map mMap>"},{"step":8,"from":"1093721384","to":"1093721384.<java.util.HashMap: int size>","type":"load","field":"<java.util.HashMap: int size>"},{"step":9,"from":"1093969544","to":"1093969600","type":"create","field":"<java.util.HashMap: java.util.HashMap$HashMapEntry[] table>"},{"step":10,"from":"sdaReg25","to":"1093969544","type":"store","field":"<java.util.HashMap: int threshold>"},{"step":11,"from":"1093721384","to":"1093505664","type":"store","field":"<java.util.HashMap$EntrySet: java.util.HashMap this$0>"},{"step":12,"from":"1093721384","to":"1093505664","type":"create","field":"<java.util.HashMap: java.util.Set entrySet>"},{"step":13,"from":"1093721384","to":"1093969640","type":"store","field":"<java.util.HashMap$EntryIterator: java.util.HashMap this$0>"},{"step":14,"from":"1093721384","to":"1093969640","type":"store","field":"<java.util.HashMap$HashIterator: java.util.HashMap this$0>"},{"step":15,"from":"1093721384","to":"1093721384.<java.util.HashMap: int modCount>","type":"load","field":"<java.util.HashMap: int modCount>"},{"step":16,"from":"1093721384.<java.util.HashMap: int modCount>","to":"1093969640","type":"store","field":"<java.util.HashMap$HashIterator: int expectedModCount>"},{"step":17,"from":"1093721384","to":"1093600384","type":"load","field":"<java.util.HashMap: java.util.HashMap$HashMapEntry[] table>"},{"step":18,"from":"1093969640","to":"1093969640.<java.util.HashMap$HashIterator: int nextIndex>","type":"load","field":"<java.util.HashMap$HashIterator: int nextIndex>"},{"step":19,"from":"1093969640","to":"1093969640.<java.util.HashMap$HashIterator: int nextIndex>","type":"load","field":"<java.util.HashMap$HashIterator: int nextIndex>"},{"step":20,"from":"sdaReg54","to":"1093969640","type":"store","field":"<java.util.HashMap$HashIterator: int nextIndex>"},{"step":21,"from":"sdaReg54","to":"1093969640","type":"store","field":"<java.util.HashMap$HashIterator: int nextIndex>"},{"step":22,"from":"sdaReg54","to":"1093969640","type":"store","field":"<java.util.HashMap$HashIterator: int nextIndex>"},{"step":23,"from":"1093600384","to":"1093763600","type":"load","field":"arrayIdx_int:2"},{"step":24,"from":"1093763600","to":"1093969640","type":"store","field":"<java.util.HashMap$HashIterator: java.util.HashMap$HashMapEntry nextEntry>"},{"step":25,"from":"1093721384","to":"1093721384.<java.util.HashMap: int modCount>","type":"load","field":"<java.util.HashMap: int modCount>"},{"step":26,"from":"1093721384","to":"1093600384","type":"load","field":"<java.util.HashMap: java.util.HashMap$HashMapEntry[] table>"},{"step":27,"from":"sdaReg68","to":"1093969640","type":"store","field":"<java.util.HashMap$HashIterator: int nextIndex>"},{"step":28,"from":"1093600384","to":"1093600424","type":"load","field":"arrayIdx_int:3"},{"step":29,"from":"1093600424","to":"1093969640","type":"store","field":"<java.util.HashMap$HashIterator: java.util.HashMap$HashMapEntry nextEntry>"},{"step":30,"from":"1093763600","to":"1093969640","type":"store","field":"<java.util.HashMap$HashIterator: java.util.HashMap$HashMapEntry lastEntryReturned>"},{"step":31,"from":"1093763600","to":"1093552592","type":"load","field":"<java.util.HashMap$HashMapEntry: java.lang.Object key>"},{"step":32,"from":"1093763600","to":"1085840800","type":"load","field":"<java.util.HashMap$HashMapEntry: java.lang.Object value>"},{"step":33,"from":"1093552592","to":"1093971376","type":"store","field":"<java.util.HashMap$HashMapEntry: java.lang.Object key>"},{"step":34,"from":"1085840800","to":"1093971376","type":"store","field":"<java.util.HashMap$HashMapEntry: java.lang.Object value>"},{"step":35,"from":"sdaReg88","to":"1093971376","type":"store","field":"<java.util.HashMap$HashMapEntry: int hash>"},{"step":36,"from":"1093969600","to":"1093971376","type":"create","field":"arrayIdx_int:2"},{"step":37,"from":"1093969544","to":"1093969544.<java.util.HashMap: int size>","type":"load","field":"<java.util.HashMap: int size>"},{"step":38,"from":"sdaReg104","to":"1093969544","type":"store","field":"<java.util.HashMap: int size>"},{"step":39,"from":"1093721384","to":"1093721384.<java.util.HashMap: int modCount>","type":"load","field":"<java.util.HashMap: int modCount>"},{"step":40,"from":"1093721384","to":"1093600384","type":"load","field":"<java.util.HashMap: java.util.HashMap$HashMapEntry[] table>"},{"step":41,"from":"1093600424","to":"1093969640","type":"store","field":"<java.util.HashMap$HashIterator: java.util.HashMap$HashMapEntry lastEntryReturned>"},{"step":42,"from":"1093600424","to":"1093552496","type":"load","field":"<java.util.HashMap$HashMapEntry: java.lang.Object key>"},{"step":43,"from":"1093600424","to":"1085837760","type":"load","field":"<java.util.HashMap$HashMapEntry: java.lang.Object value>"},{"step":44,"from":"1093552496","to":"1093973104","type":"store","field":"<java.util.HashMap$HashMapEntry: java.lang.Object key>"},{"step":45,"from":"1085837760","to":"1093973104","type":"store","field":"<java.util.HashMap$HashMapEntry: java.lang.Object value>"},{"step":46,"from":"sdaReg129","to":"1093973104","type":"store","field":"<java.util.HashMap$HashMapEntry: int hash>"},{"step":47,"from":"1093969600","to":"1093973104","type":"create","field":"arrayIdx_int:3"},{"step":48,"from":"sdaReg145","to":"1093969544","type":"store","field":"<java.util.HashMap: int size>"},{"step":49,"from":"1093633264","to":"1093969544","type":"create","field":"<android.os.Bundle: java.util.Map mMap>"},{"step":50,"from":"1093779208","to":"1093779208.<android.os.Bundle: boolean mHasFds>","type":"load","field":"<android.os.Bundle: boolean mHasFds>"},{"step":51,"from":"1093779208.<android.os.Bundle: boolean mHasFds>","to":"1093633264","type":"store","field":"<android.os.Bundle: boolean mHasFds>"},{"step":52,"from":"1093779208","to":"1093779208.<android.os.Bundle: boolean mFdsKnown>","type":"load","field":"<android.os.Bundle: boolean mFdsKnown>"},{"step":53,"from":"1093779208.<android.os.Bundle: boolean mFdsKnown>","to":"1093633264","type":"store","field":"<android.os.Bundle: boolean mFdsKnown>"},{"step":54,"from":"1093779208","to":"1083999984","type":"load","field":"<android.os.Bundle: java.lang.ClassLoader mClassLoader>"},{"step":55,"from":"1083999984","to":"1093633264","type":"store","field":"<android.os.Bundle: java.lang.ClassLoader mClassLoader>"},{"step":56,"from":"1093798944","to":"1093633264","type":"create","field":"<android.location.Location: android.os.Bundle mExtras>"}],"parameters":[{"id":"1093798944","name":"this","klass":"android.location.Location"},{"id":"1093779208","name":"arg#1","klass":"android.os.Bundle"}],"returns":[{"id":null,"name":"return","klass":null}],"colors":{"heapLocToColor":{"sdaReg125":[9],"sdaReg126":[9],"sdaReg127":[9],"sdaReg128":[9],"sdaReg129":[9],"1093779208.<android.os.Bundle: boolean mFdsKnown>":[1],"sdaReg69":[1],"sdaReg66":[6],"1093721384.<java.util.HashMap: java.util.HashMap$HashMapEntry[] table>":[1],"sdaReg64":[6],"sdaReg65":[6],"sdaReg62":[6],"sdaReg13":[1],"sdaReg72":[1],"sdaReg14":[1],"sdaReg71":[1],"sdaReg11":[1],"sdaReg70":[1],"sdaReg12":[1],"sdaReg10":[1],"sdaReg120":[1],"sdaReg19":[3],"sdaReg122":[9],"sdaReg17":[3],"sdaReg121":[9],"1093552496":[1],"sdaReg18":[3],"sdaReg124":[9],"sdaReg15":[1],"sdaReg123":[9],"sdaReg16":[3],"sdaReg116":[1],"sdaReg117":[1],"sdaReg114":[1],"sdaReg115":[1],"1093721384.<java.util.HashMap: int size>":[1],"sdaReg118":[3],"1093779208.<android.os.Bundle: java.util.Map mMap>":[1],"sdaReg119":[1],"sdaReg77":[3],"sdaReg78":[1],"1093779208.<android.os.Bundle: boolean mHasFds>":[1],"sdaReg79":[1],"sdaReg73":[1],"sdaReg74":[1],"sdaReg75":[1],"sdaReg76":[1],"sdaReg81":[7],"1085837760":[1],"sdaReg80":[7],"sdaReg83":[7],"sdaReg82":[7],"sdaReg113":[1],"sdaReg112":[1],"sdaReg111":[1],"sdaReg107":[6],"sdaReg108":[6],"sdaReg109":[6],"sdaReg103":[8],"sdaReg104":[3],"sdaReg105":[6],"sdaReg86":[7],"sdaReg87":[7],"sdaReg84":[7],"sdaReg85":[7],"sdaReg88":[7],"sdaReg94":[1],"sdaReg93":[3],"sdaReg91":[7],"sdaReg102":[8],"sdaReg101":[8],"sdaReg95":[1],"1093969544":[3],"sdaReg97":[8],"sdaReg98":[1],"1093763600":[1],"sdaReg99":[1],"1093969544.<java.util.HashMap: int size>":[3],"1093969640":[6],"sdaReg60":[6],"sdaReg61":[6],"1093600384":[1],"1093971376":[8],"sdaReg59":[6],"sdaReg58":[6],"sdaReg57":[6],"sdaReg54":[6],"sdaReg51":[6],"sdaReg50":[1],"1093779208":[1],"1093798944":[0],"sdaReg49":[6],"sdaReg48":[1],"sdaReg45":[6],"sdaReg44":[1],"1093600424":[1],"sdaReg47":[6],"sdaReg46":[1],"1093973104":[10],"sdaReg41":[5],"sdaReg40":[5],"sdaReg43":[5],"sdaReg42":[5],"1093721384.<java.util.HashMap: int modCount>":[1],"1093505664":[5],"sdaReg148":[3],"sdaReg149":[2],"sdaReg143":[10],"sdaReg144":[10],"sdaReg39":[5],"sdaReg38":[5],"sdaReg146":[6],"sdaReg37":[5],"sdaReg140":[1],"sdaReg142":[10],"sdaReg32":[5],"1083999984":[1],"sdaReg31":[1],"sdaReg30":[5],"1093721384":[1],"sdaReg36":[5],"1093552592":[1],"sdaReg35":[5],"1093633264":[2],"sdaReg34":[5],"sdaReg33":[1],"sdaReg9":[3],"sdaReg139":[1],"sdaReg138":[10],"1093969600":[4],"sdaReg136":[1],"sdaReg134":[3],"sdaReg27":[3],"sdaReg135":[1],"sdaReg26":[3],"sdaReg132":[9],"sdaReg29":[1],"sdaReg28":[1],"1093969640.<java.util.HashMap$HashIterator: int nextIndex>":[6],"sdaReg2":[2],"sdaReg1":[1],"sdaReg21":[3],"sdaReg0":[2],"1085840800":[1]},"colorToColor":{"1":[2, 5, 6, 8, 10],"2":[0],"3":[2, 3],"4":[3],"5":[1],"6":[6],"7":[8],"8":[4],"9":[10],"10":[4]},"colorToLabel":{"0":"this","1":"arg#1","11":"return"}}}

Generated Model
	arg#1->this

