Scanning method <java.util.HashMap: java.util.Iterator newEntryIterator()>

All seen event types: BinaryOperationRecord, SimpleAssignmentRecord, MethodReturnRecord, MethodCallRecord, ArrayLengthRecord, LoadInstanceRecord, MethodStartRecord, LoadArrayRecord, MethodEndRecord, IfRecord, StoreInstanceRecord, NewObjectRecord, 
Ignored event types: IfRecord, 

JSON Encoded Analysis Data (for visualization):{"heapEdges":[{"step":0,"from":"1093294040","to":"1093302040","type":"store","field":"<java.util.HashMap$EntryIterator: java.util.HashMap this$0>"},{"step":1,"from":"1093294040","to":"1093302040","type":"store","field":"<java.util.HashMap$HashIterator: java.util.HashMap this$0>"},{"step":2,"from":"1093294040","to":"1093294040.<java.util.HashMap: int modCount>","type":"load","field":"<java.util.HashMap: int modCount>"},{"step":3,"from":"1093294040.<java.util.HashMap: int modCount>","to":"1093302040","type":"store","field":"<java.util.HashMap$HashIterator: int expectedModCount>"},{"step":4,"from":"1093294040","to":"1093296000","type":"load","field":"<java.util.HashMap: java.util.HashMap$HashMapEntry[] table>"},{"step":5,"from":"1093302040","to":"1093302040.<java.util.HashMap$HashIterator: int nextIndex>","type":"load","field":"<java.util.HashMap$HashIterator: int nextIndex>"},{"step":6,"from":"1093302040","to":"1093302040.<java.util.HashMap$HashIterator: int nextIndex>","type":"load","field":"<java.util.HashMap$HashIterator: int nextIndex>"},{"step":7,"from":"sdaReg9","to":"1093302040","type":"store","field":"<java.util.HashMap$HashIterator: int nextIndex>"},{"step":8,"from":"1093296000","to":"1093296056","type":"load","field":"arrayIdx_int:0"},{"step":9,"from":"1093296056","to":"1093302040","type":"store","field":"<java.util.HashMap$HashIterator: java.util.HashMap$HashMapEntry nextEntry>"}],"parameters":[{"id":"1093294040","name":"this","klass":"java.util.HashMap"}],"returns":[{"id":"1093302040","name":"return","klass":"java.util.Iterator"}],"colors":{"heapLocToColor":{"1093294040":[0],"sdaReg9":[1],"sdaReg6":[1],"sdaReg4":[1],"sdaReg5":[0],"1093296000":[0],"sdaReg11":[1],"sdaReg12":[1],"sdaReg10":[1],"sdaReg3":[0],"sdaReg2":[1],"1093294040.<java.util.HashMap: int modCount>":[0],"1093302040.<java.util.HashMap$HashIterator: int nextIndex>":[1],"sdaReg1":[0],"sdaReg0":[1],"1093296056":[0],"1093302040":[1]},"colorToColor":{"0":[1],"1":[1, 2]},"colorToLabel":{"0":"this","2":"return"}}}

Generated Model
	this->return

