Scanning method <android.os.Bundle: boolean getBoolean(java.lang.String)>

All seen event types: BinaryOperationRecord, MethodReturnRecord, MethodCallRecord, CastRecord, ArrayLengthRecord, LoadInstanceRecord, MethodStartRecord, LoadArrayRecord, MethodEndRecord, IfRecord, 
Ignored event types: IfRecord, 

JSON Encoded Analysis Data (for visualization):{"heapEdges":[{"step":0,"from":"1094071360","to":"1094080064","type":"load","field":"<android.os.Bundle: java.util.Map mMap>"},{"step":1,"from":"1094080064","to":"1094080120","type":"load","field":"<java.util.HashMap: java.util.HashMap$HashMapEntry[] table>"},{"step":2,"from":"1094080120","to":"1093939016","type":"load","field":"arrayIdx_int:1"},{"step":3,"from":"1093939016","to":"1093539280","type":"load","field":"<java.util.HashMap$HashMapEntry: java.lang.Object key>"},{"step":4,"from":"1093939016","to":"1085837760","type":"load","field":"<java.util.HashMap$HashMapEntry: java.lang.Object value>"},{"step":5,"from":"1085837760","to":"sdaReg20","type":"model"}],"parameters":[{"id":"1094071360","name":"this","klass":"android.os.Bundle"},{"id":"sdaReg0","name":"arg#1","klass":"string"}],"returns":[{"id":"sdaReg20","name":"return","klass":"boolean"}],"colors":{"heapLocToColor":{"sdaReg8":[2],"sdaReg9":[2],"sdaReg6":[2],"sdaReg7":[2],"sdaReg4":[0],"1094071360":[0],"sdaReg5":[0],"1093939016":[0],"1093539280":[0],"1094080120":[0],"sdaReg13":[2],"1085837760":[0],"sdaReg14":[2],"sdaReg11":[2],"sdaReg12":[2],"sdaReg10":[2],"sdaReg2":[0],"sdaReg19":[0],"sdaReg1":[0],"1094080064":[0],"sdaReg20":[0, 3],"sdaReg0":[1],"sdaReg17":[2],"sdaReg18":[0]},"colorToColor":{"0":[4],"3":[4]},"colorToLabel":{"0":"this","1":"arg#1","4":"return"}}}

Generated Model
	this->return

