Scanning method <java.util.HashMap$EntryIterator: java.util.Map$Entry next()>

All seen event types: MethodReturnRecord, MethodCallRecord, ArrayLengthRecord, LoadInstanceRecord, MethodStartRecord, MethodEndRecord, IfRecord, StoreInstanceRecord, 
Ignored event types: IfRecord, 

JSON Encoded Analysis Data (for visualization):{"heapEdges":[{"step":0,"from":"1093566368","to":"1093306008","type":"load","field":"<java.util.HashMap$HashIterator: java.util.HashMap this$0>"},{"step":1,"from":"1093306008","to":"1093306008.<java.util.HashMap: int modCount>","type":"load","field":"<java.util.HashMap: int modCount>"},{"step":2,"from":"1093566368","to":"1093566368.<java.util.HashMap$HashIterator: int expectedModCount>","type":"load","field":"<java.util.HashMap$HashIterator: int expectedModCount>"},{"step":3,"from":"1093566368","to":"1093304800","type":"load","field":"<java.util.HashMap$HashIterator: java.util.HashMap$HashMapEntry nextEntry>"},{"step":4,"from":"1093566368","to":"1093304800","type":"load","field":"<java.util.HashMap$HashIterator: java.util.HashMap$HashMapEntry nextEntry>"},{"step":5,"from":"1093566368","to":"1093306008","type":"load","field":"<java.util.HashMap$HashIterator: java.util.HashMap this$0>"},{"step":6,"from":"1093306008","to":"1093305096","type":"load","field":"<java.util.HashMap: java.util.HashMap$HashMapEntry[] table>"},{"step":7,"from":"1093566368","to":"1093566368.<java.util.HashMap$HashIterator: int nextIndex>","type":"load","field":"<java.util.HashMap$HashIterator: int nextIndex>"},{"step":8,"from":"1093304800","to":"1093566368","type":"store","field":"<java.util.HashMap$HashIterator: java.util.HashMap$HashMapEntry lastEntryReturned>"}],"parameters":[{"id":"1093566368","name":"this","klass":"java.util.HashMap$EntryIterator"}],"returns":[{"id":"1093304800","name":"return","klass":"java.util.Map$Entry"}],"colors":{"heapLocToColor":{"1093566368":[0],"1093305096":[0],"1093306008":[0],"1093304800":[0],"sdaReg2":[0],"1093566368.<java.util.HashMap$HashIterator: int nextIndex>":[0],"1093566368.<java.util.HashMap$HashIterator: int expectedModCount>":[0],"sdaReg0":[0],"1093566368.<java.util.HashMap$HashIterator: java.util.HashMap this$0>":[0],"1093306008.<java.util.HashMap: int modCount>":[0],"1093566368.<java.util.HashMap$HashIterator: java.util.HashMap$HashMapEntry nextEntry>":[0]},"colorToColor":{"0":[0, 1]},"colorToLabel":{"0":"this","1":"return"}}}

Generated Model
	this->return

