Scanning method <java.util.HashMap$EntryIterator: java.util.Map$Entry next()>

All seen event types: BinaryOperationRecord, MethodReturnRecord, MethodCallRecord, ArrayLengthRecord, LoadInstanceRecord, MethodStartRecord, LoadArrayRecord, MethodEndRecord, IfRecord, StoreInstanceRecord, 
Ignored event types: IfRecord, 

JSON Encoded Analysis Data (for visualization):{"heapEdges":[{"step":0,"from":"1093264216","to":"1093430200","type":"load","field":"<java.util.HashMap$HashIterator: java.util.HashMap this$0>"},{"step":1,"from":"1093430200","to":"1093430200.<java.util.HashMap: int modCount>","type":"load","field":"<java.util.HashMap: int modCount>"},{"step":2,"from":"1093264216","to":"1093264216.<java.util.HashMap$HashIterator: int expectedModCount>","type":"load","field":"<java.util.HashMap$HashIterator: int expectedModCount>"},{"step":3,"from":"1093264216","to":"1093443776","type":"load","field":"<java.util.HashMap$HashIterator: java.util.HashMap$HashMapEntry nextEntry>"},{"step":4,"from":"1093264216","to":"1093443776","type":"load","field":"<java.util.HashMap$HashIterator: java.util.HashMap$HashMapEntry nextEntry>"},{"step":5,"from":"1093264216","to":"1093430200","type":"load","field":"<java.util.HashMap$HashIterator: java.util.HashMap this$0>"},{"step":6,"from":"1093430200","to":"1093430256","type":"load","field":"<java.util.HashMap: java.util.HashMap$HashMapEntry[] table>"},{"step":7,"from":"1093264216","to":"1093264216.<java.util.HashMap$HashIterator: int nextIndex>","type":"load","field":"<java.util.HashMap$HashIterator: int nextIndex>"},{"step":8,"from":"1093264216","to":"1093264216.<java.util.HashMap$HashIterator: int nextIndex>","type":"load","field":"<java.util.HashMap$HashIterator: int nextIndex>"},{"step":9,"from":"sdaReg2","to":"1093264216","type":"store","field":"<java.util.HashMap$HashIterator: int nextIndex>"},{"step":10,"from":"sdaReg2","to":"1093264216","type":"store","field":"<java.util.HashMap$HashIterator: int nextIndex>"},{"step":11,"from":"sdaReg2","to":"1093264216","type":"store","field":"<java.util.HashMap$HashIterator: int nextIndex>"},{"step":12,"from":"1093430256","to":"1093428728","type":"load","field":"arrayIdx_int:3"},{"step":13,"from":"1093428728","to":"1093264216","type":"store","field":"<java.util.HashMap$HashIterator: java.util.HashMap$HashMapEntry nextEntry>"},{"step":14,"from":"1093443776","to":"1093264216","type":"store","field":"<java.util.HashMap$HashIterator: java.util.HashMap$HashMapEntry lastEntryReturned>"}],"parameters":[{"id":"1093264216","name":"this","klass":"java.util.HashMap$EntryIterator"}],"returns":[{"id":"1093443776","name":"return","klass":"java.util.Map$Entry"}],"colors":{"heapLocToColor":{"1093264216.<java.util.HashMap$HashIterator: java.util.HashMap this$0>":[0],"sdaReg5":[0],"1093430200.<java.util.HashMap: int modCount>":[0],"1093264216.<java.util.HashMap$HashIterator: int nextIndex>":[0],"1093264216":[0],"1093264216.<java.util.HashMap$HashIterator: int expectedModCount>":[0],"1093430200":[0],"1093428728":[0],"1093443776":[0],"sdaReg2":[0],"sdaReg0":[0],"1093264216.<java.util.HashMap$HashIterator: java.util.HashMap$HashMapEntry nextEntry>":[0],"1093430256":[0]},"colorToColor":{"0":[0, 1]},"colorToLabel":{"0":"this","1":"return"}}}

Generated Model
	this->return

