Scanning method <java.util.HashMap$EntryIterator: java.util.Map$Entry next()>

All seen event types: MethodReturnRecord, MethodCallRecord, LoadInstanceRecord, MethodStartRecord, MethodEndRecord, IfRecord, StoreInstanceRecord, 
Ignored event types: IfRecord, 

JSON Encoded Analysis Data (for visualization):{"heapEdges":[{"step":0,"from":"1093582992","to":"1093265824","type":"load","field":"<java.util.HashMap$HashIterator: java.util.HashMap this$0>"},{"step":1,"from":"1093265824","to":"1093265824.<java.util.HashMap: int modCount>","type":"load","field":"<java.util.HashMap: int modCount>"},{"step":2,"from":"1093582992","to":"1093582992.<java.util.HashMap$HashIterator: int expectedModCount>","type":"load","field":"<java.util.HashMap$HashIterator: int expectedModCount>"},{"step":3,"from":"1093582992","to":"1093229184","type":"load","field":"<java.util.HashMap$HashIterator: java.util.HashMap$HashMapEntry nextEntry>"},{"step":4,"from":"1093582992","to":"1093229184","type":"load","field":"<java.util.HashMap$HashIterator: java.util.HashMap$HashMapEntry nextEntry>"},{"step":5,"from":"1093582992","to":"1093265824","type":"load","field":"<java.util.HashMap$HashIterator: java.util.HashMap this$0>"},{"step":6,"from":"1093265824","to":"1093229128","type":"load","field":"<java.util.HashMap: java.util.HashMap$HashMapEntry[] table>"},{"step":7,"from":"1093229184","to":"1093278184","type":"load","field":"<java.util.HashMap$HashMapEntry: java.util.HashMap$HashMapEntry next>"},{"step":8,"from":"1093278184","to":"1093582992","type":"store","field":"<java.util.HashMap$HashIterator: java.util.HashMap$HashMapEntry nextEntry>"},{"step":9,"from":"1093229184","to":"1093582992","type":"store","field":"<java.util.HashMap$HashIterator: java.util.HashMap$HashMapEntry lastEntryReturned>"}],"parameters":[{"id":"1093582992","name":"this","klass":"java.util.HashMap$EntryIterator"}],"returns":[{"id":"1093229184","name":"return","klass":"java.util.Map$Entry"}],"colors":{"heapLocToColor":{"1093229184":[0],"1093278184":[0],"1093582992.<java.util.HashMap$HashIterator: int expectedModCount>":[0],"1093265824.<java.util.HashMap: int modCount>":[0],"1093582992":[0],"1093582992.<java.util.HashMap$HashIterator: java.util.HashMap$HashMapEntry nextEntry>":[0],"sdaReg1":[0],"1093582992.<java.util.HashMap$HashIterator: java.util.HashMap this$0>":[0],"sdaReg0":[0],"1093265824":[0],"1093229128":[0]},"colorToColor":{"0":[0, 1]},"colorToLabel":{"0":"this","1":"return"}}}

Generated Model
	this->return

