Scanning method <android.os.Bundle: android.os.Parcelable getParcelable(java.lang.String)>

All seen event types: BinaryOperationRecord, MethodReturnRecord, MethodCallRecord, CastRecord, ArrayLengthRecord, LoadInstanceRecord, MethodStartRecord, LoadArrayRecord, MethodEndRecord, IfRecord, 
Ignored event types: IfRecord, 

JSON Encoded Analysis Data (for visualization):{"heapEdges":[{"step":0,"from":"1093922584","to":"1093439184","type":"load","field":"<android.os.Bundle: java.util.Map mMap>"},{"step":1,"from":"1093439184","to":"1093545728","type":"load","field":"<java.util.HashMap: java.util.HashMap$HashMapEntry[] table>"},{"step":2,"from":"1093545728","to":"1093545768","type":"load","field":"arrayIdx_int:2"},{"step":3,"from":"1093545768","to":"1093509248","type":"load","field":"<java.util.HashMap$HashMapEntry: java.lang.Object key>"},{"step":4,"from":"1093545768","to":"1093826696","type":"load","field":"<java.util.HashMap$HashMapEntry: java.lang.Object value>"}],"parameters":[{"id":"1093922584","name":"this","klass":"android.os.Bundle"},{"id":"sdaReg0","name":"arg#1","klass":"string"}],"returns":[{"id":"1093826696","name":"return","klass":"android.os.Parcelable"}],"colors":{"heapLocToColor":{"sdaReg8":[2],"sdaReg9":[2],"sdaReg6":[2],"sdaReg7":[2],"1093545728":[0],"sdaReg4":[2],"sdaReg5":[2],"sdaReg14":[2],"sdaReg11":[2],"1093922584":[0],"1093545768":[0],"sdaReg10":[2],"sdaReg3":[2],"sdaReg2":[0],"1093826696":[0],"sdaReg1":[0],"sdaReg0":[1],"1093509248":[0],"1093439184":[0],"sdaReg15":[0],"sdaReg16":[0]},"colorToColor":{"0":[3]},"colorToLabel":{"0":"this","1":"arg#1","3":"return"}}}

Generated Model
	this->return

