Scanning method <java.io.InputStreamReader: java.lang.String getEncoding()>

All seen event types: SimpleAssignmentRecord, MethodReturnRecord, MethodCallRecord, LoadInstanceRecord, MethodStartRecord, MethodEndRecord, IfRecord, 
Ignored event types: IfRecord, 

JSON Encoded Analysis Data (for visualization):{"heapEdges":[{"step":0,"from":"1093412712","to":"1093594192","type":"load","field":"<java.io.InputStreamReader: java.io.InputStream in>"},{"step":1,"from":"1093412712","to":"1093415032","type":"load","field":"<java.io.InputStreamReader: java.nio.charset.CharsetDecoder decoder>"},{"step":2,"from":"1093415032","to":"1084328848","type":"load","field":"<java.nio.charset.CharsetDecoder: java.nio.charset.Charset cs>"},{"step":3,"from":"1084328848","to":"sdaReg4","type":"model"}],"parameters":[{"id":"1093412712","name":"this","klass":"java.io.InputStreamReader"}],"returns":[{"id":"sdaReg4","name":"return","klass":"string"}],"colors":{"heapLocToColor":{"1093412712":[0],"1084328848":[0],"sdaReg4":[1],"sdaReg3":[0],"1093415032":[0],"sdaReg2":[0],"sdaReg0":[0],"1093594192":[0]},"colorToColor":{"0":[1],"1":[2]},"colorToLabel":{"0":"this","2":"return"}}}

Generated Model
	this->return

