Scanning method <android.os.Bundle: java.util.ArrayList getIntegerArrayList(java.lang.String)>

All seen event types: StoreArrayRecord, SimpleAssignmentRecord, ExitMonitorRecord, MethodStartRecord, LoadInstanceRecord, IfRecord, NewObjectRecord, StoreInstanceRecord, LoadStaticRecord, NewArrayRecord, BinaryOperationRecord, MethodCallRecord, MethodReturnRecord, SwitchRecord, EnterMonitorRecord, ArrayLengthRecord, CastRecord, LoadArrayRecord, MethodEndRecord, 
Ignored event types: ExitMonitorRecord, SwitchRecord, EnterMonitorRecord, IfRecord, 

JSON Encoded Analysis Data (for visualization):{"heapEdges":[{"step":0,"from":"1093579304","to":"1093468624","type":"load","field":"<android.os.Bundle: android.os.Parcel mParcelledData>"},{"step":1,"from":"1093579304","to":"1093468624","type":"load","field":"<android.os.Bundle: android.os.Parcel mParcelledData>"},{"step":2,"from":"1093468624","to":"sdaReg2","type":"model"},{"step":3,"from":"static.<java.util.HashMap: java.util.Map$Entry[] EMPTY_TABLE>","to":"1083997920","type":"load","field":"<java.util.HashMap: java.util.Map$Entry[] EMPTY_TABLE>"},{"step":4,"from":"1083997920","to":"1093860328","type":"store","field":"<java.util.HashMap: java.util.HashMap$HashMapEntry[] table>"},{"step":5,"from":"1093860328","to":"sdaReg9","type":"create","field":"<java.util.HashMap: int threshold>"},{"step":6,"from":"1093579304","to":"1093860328","type":"create","field":"<android.os.Bundle: java.util.Map mMap>"},{"step":7,"from":"1093579304","to":"1093468624","type":"load","field":"<android.os.Bundle: android.os.Parcel mParcelledData>"},{"step":8,"from":"1093468624","to":"sdaReg16","type":"model"},{"step":9,"from":"1093468624","to":"sdaReg17","type":"model"},{"step":10,"from":"1093468624","to":"sdaReg21","type":"model"},{"step":11,"from":"1093468624","to":"sdaReg24","type":"model"},{"step":12,"from":"1093628656","to":"1093590976","type":"create","field":"<java.util.ArrayList: java.lang.Object[] array>"},{"step":13,"from":"1093468624","to":"sdaReg38","type":"model"},{"step":14,"from":"1093468624","to":"sdaReg39","type":"model"},{"step":15,"from":"sdaReg39","to":"1093589928","type":"model"},{"step":16,"from":"1093628656","to":"1093628656.<java.util.ArrayList: int size>","type":"load","field":"<java.util.ArrayList: int size>"},{"step":17,"from":"1093590976","to":"1093589928","type":"create","field":"arrayIdx_int:0"},{"step":18,"from":"sdaReg45","to":"1093628656","type":"store","field":"<java.util.ArrayList: int size>"},{"step":19,"from":"1093628656","to":"1093628656.<java.util.AbstractList: int modCount>","type":"load","field":"<java.util.AbstractList: int modCount>"},{"step":20,"from":"sdaReg46","to":"1093628656","type":"store","field":"<java.util.AbstractList: int modCount>"},{"step":21,"from":"1093468624","to":"sdaReg50","type":"model"},{"step":22,"from":"1093468624","to":"sdaReg51","type":"model"},{"step":23,"from":"sdaReg51","to":"1093662464","type":"model"},{"step":24,"from":"1093590976","to":"1093662464","type":"create","field":"arrayIdx_int:1"},{"step":25,"from":"sdaReg57","to":"1093628656","type":"store","field":"<java.util.ArrayList: int size>"},{"step":26,"from":"sdaReg58","to":"1093628656","type":"store","field":"<java.util.AbstractList: int modCount>"},{"step":27,"from":"1093860328","to":"1093860328.<java.util.HashMap: int modCount>","type":"load","field":"<java.util.HashMap: int modCount>"},{"step":28,"from":"sdaReg77","to":"1093860328","type":"store","field":"<java.util.HashMap: int modCount>"},{"step":29,"from":"1093860328","to":"1093860328.<java.util.HashMap: int size>","type":"load","field":"<java.util.HashMap: int size>"},{"step":30,"from":"sdaReg78","to":"1093860328","type":"store","field":"<java.util.HashMap: int size>"},{"step":31,"from":"1093860328","to":"1093963568","type":"create","field":"<java.util.HashMap: java.util.HashMap$HashMapEntry[] table>"},{"step":32,"from":"sdaReg86","to":"1093860328","type":"store","field":"<java.util.HashMap: int threshold>"},{"step":33,"from":"1093502760","to":"1093963608","type":"store","field":"<java.util.HashMap$HashMapEntry: java.lang.Object key>"},{"step":34,"from":"1093963608","to":"1093628656","type":"create","field":"<java.util.HashMap$HashMapEntry: java.lang.Object value>"},{"step":35,"from":"sdaReg73","to":"1093963608","type":"store","field":"<java.util.HashMap$HashMapEntry: int hash>"},{"step":36,"from":"1093963568","to":"1093963608","type":"create","field":"arrayIdx_int:2"},{"step":37,"from":"1093579304","to":"1093468624","type":"load","field":"<android.os.Bundle: android.os.Parcel mParcelledData>"},{"step":38,"from":"1093468624","to":"1093468624.<android.os.Parcel: int mOwnObject>","type":"load","field":"<android.os.Parcel: int mOwnObject>"},{"step":39,"from":"static.<android.os.Parcel: android.os.Parcel[] sOwnedPool>","to":"1084044960","type":"load","field":"<android.os.Parcel: android.os.Parcel[] sOwnedPool>"},{"step":40,"from":"1093468624","to":"1084044960","type":"store","field":"arrayIdx_int:0"},{"step":41,"from":"1093579304","to":"sdaReg105","type":"create","field":"<android.os.Bundle: android.os.Parcel mParcelledData>"}],"parameters":[{"id":"1093579304","name":"this","klass":"android.os.Bundle"},{"id":"sdaReg0","name":"arg#1","klass":"string"}],"returns":[{"id":"1093628656","name":"return","klass":"java.util.ArrayList"}],"colors":{"heapLocToColor":{"1084044960":[20],"sdaReg68":[17],"sdaReg69":[17],"sdaReg66":[17],"sdaReg67":[17],"sdaReg64":[9],"sdaReg65":[17],"sdaReg62":[3],"sdaReg72":[17],"sdaReg14":[0],"sdaReg71":[17],"sdaReg11":[0],"sdaReg70":[17],"sdaReg12":[3],"sdaReg10":[3],"sdaReg120":[9],"1093590976":[10],"sdaReg19":[0],"sdaReg17":[0, 6],"sdaReg121":[9],"sdaReg16":[0, 5],"sdaReg114":[21],"sdaReg115":[21],"sdaReg118":[21],"sdaReg119":[22],"sdaReg77":[3],"sdaReg78":[3],"sdaReg79":[3],"sdaReg73":[17],"1093579304.<android.os.Bundle: android.os.Parcel mParcelledData>":[0],"sdaReg76":[17],"1093468624":[0],"sdaReg82":[3],"sdaReg113":[21],"1093579304":[0],"sdaReg112":[21],"sdaReg111":[21],"sdaReg110":[21],"sdaReg107":[21],"sdaReg108":[21],"sdaReg109":[21],"sdaReg103":[20],"sdaReg106":[3],"sdaReg87":[18],"1093860328.<java.util.HashMap: int modCount>":[3],"sdaReg89":[18],"1093860328.<java.util.HashMap: int size>":[3],"sdaReg94":[9],"sdaReg92":[3],"sdaReg100":[19],"static.<java.util.HashMap: java.util.Map$Entry[] EMPTY_TABLE>":[4],"sdaReg102":[20],"sdaReg101":[0],"1093860328":[3],"sdaReg95":[19],"sdaReg97":[9],"sdaReg99":[19],"1093662464":[16],"sdaReg60":[9],"sdaReg61":[9],"1083997920":[4],"sdaReg55":[16],"sdaReg54":[9],"sdaReg53":[16],"1093628656":[9],"sdaReg52":[16],"sdaReg51":[0, 15],"1093468624.<android.os.Parcel: int mOwnObject>":[0],"sdaReg50":[0, 14],"sdaReg48":[0],"sdaReg45":[9],"sdaReg46":[9],"sdaReg41":[13],"sdaReg40":[13],"sdaReg43":[13],"sdaReg42":[9],"1093589928":[13],"static.<android.os.Parcel: android.os.Parcel[] sOwnedPool>":[20],"1093628656.<java.util.AbstractList: int modCount>":[9],"1093963608":[19],"sdaReg39":[0, 12],"sdaReg38":[0, 11],"sdaReg32":[9],"1093628656.<java.util.ArrayList: int size>":[9],"sdaReg31":[9],"sdaReg30":[9],"sdaReg36":[0],"1093963568":[18],"sdaReg34":[9],"sdaReg33":[0],"sdaReg8":[4],"sdaReg6":[3],"sdaReg7":[4],"sdaReg4":[3],"sdaReg5":[3],"sdaReg27":[9],"sdaReg26":[9],"sdaReg29":[9],"sdaReg28":[9],"sdaReg3":[3],"sdaReg2":[0, 2],"sdaReg1":[0],"sdaReg21":[0, 7],"sdaReg0":[1],"sdaReg22":[0],"sdaReg25":[9],"sdaReg24":[0, 8]},"colorToColor":{"17":[19],"0":[16, 20, 13],"16":[10],"19":[18],"18":[3],"3":[0, 3],"4":[3],"9":[19, 23, 9],"10":[9],"12":[13],"13":[10],"15":[16]},"colorToLabel":{"0":"this","1":"arg#1","4":"<java.util.HashMap: java.util.Map$Entry[] EMPTY_TABLE>","20":"<android.os.Parcel: android.os.Parcel[] sOwnedPool>","23":"return"}}}

Generated Model
	this->return
	this-><android.os.Parcel: android.os.Parcel[] sOwnedPool>

