Scanning method <java.io.SequenceInputStream: void nextStream()>

All seen event types: SimpleAssignmentRecord, ExitMonitorRecord, LoadInstanceRecord, MethodStartRecord, IfRecord, StoreInstanceRecord, BinaryOperationRecord, MethodCallRecord, MethodReturnRecord, EnterMonitorRecord, CastRecord, LoadArrayRecord, MethodEndRecord, 
Ignored event types: ExitMonitorRecord, EnterMonitorRecord, IfRecord, 

JSON Encoded Analysis Data (for visualization):{"heapEdges":[{"step":0,"from":"1093320128","to":"1093461488","type":"load","field":"<java.io.SequenceInputStream: java.io.InputStream in>"},{"step":1,"from":"1093320128","to":"1093461488","type":"load","field":"<java.io.SequenceInputStream: java.io.InputStream in>"},{"step":2,"from":"1093320128","to":"1093320208","type":"load","field":"<java.io.SequenceInputStream: java.util.Enumeration e>"},{"step":3,"from":"1093320208","to":"1093320208.<java.util.Vector$1: int pos>","type":"load","field":"<java.util.Vector$1: int pos>"},{"step":4,"from":"1093320208","to":"1093320152","type":"load","field":"<java.util.Vector$1: java.util.Vector this$0>"},{"step":5,"from":"1093320152","to":"1093320152.<java.util.Vector: int elementCount>","type":"load","field":"<java.util.Vector: int elementCount>"},{"step":6,"from":"1093320128","to":"1093320208","type":"load","field":"<java.io.SequenceInputStream: java.util.Enumeration e>"},{"step":7,"from":"1093320208","to":"1093320152","type":"load","field":"<java.util.Vector$1: java.util.Vector this$0>"},{"step":8,"from":"1093320208","to":"1093320208.<java.util.Vector$1: int pos>","type":"load","field":"<java.util.Vector$1: int pos>"},{"step":9,"from":"1093320208","to":"1093320152","type":"load","field":"<java.util.Vector$1: java.util.Vector this$0>"},{"step":10,"from":"1093320152","to":"1093320152.<java.util.Vector: int elementCount>","type":"load","field":"<java.util.Vector: int elementCount>"},{"step":11,"from":"1093320208","to":"1093320152","type":"load","field":"<java.util.Vector$1: java.util.Vector this$0>"},{"step":12,"from":"1093320152","to":"1093320184","type":"load","field":"<java.util.Vector: java.lang.Object[] elementData>"},{"step":13,"from":"1093320208","to":"1093320208.<java.util.Vector$1: int pos>","type":"load","field":"<java.util.Vector$1: int pos>"},{"step":14,"from":"sdaReg5","to":"1093320208","type":"store","field":"<java.util.Vector$1: int pos>"},{"step":15,"from":"1093320184","to":"1093320072","type":"load","field":"arrayIdx_int:0"},{"step":16,"from":"1093320072","to":"1093320128","type":"store","field":"<java.io.SequenceInputStream: java.io.InputStream in>"}],"parameters":[{"id":"1093320128","name":"this","klass":"java.io.SequenceInputStream"}],"returns":[{"id":null,"name":"return","klass":null}],"colors":{"heapLocToColor":{"sdaReg6":[0],"1093320152":[0],"sdaReg7":[0],"1093320208.<java.util.Vector$1: int pos>":[0],"sdaReg4":[0],"1093320072":[0],"sdaReg5":[0],"1093320152.<java.util.Vector: int elementCount>":[0],"1093320208.<java.util.Vector$1: java.util.Vector this$0>":[0],"1093320128":[0],"1093320128.<java.io.SequenceInputStream: java.io.InputStream in>":[0],"1093320208":[0],"1093461488":[0],"sdaReg3":[0],"1093320128.<java.io.SequenceInputStream: java.util.Enumeration e>":[0],"1093320184":[0],"sdaReg1":[0],"sdaReg0":[0]},"colorToColor":{"0":[0]},"colorToLabel":{"0":"this","1":"return"}}}

Generated Model

