Scanning method <java.io.SequenceInputStream: void nextStream()>

All seen event types: SimpleAssignmentRecord, MethodReturnRecord, MethodCallRecord, MethodStartRecord, LoadInstanceRecord, MethodEndRecord, IfRecord, StoreInstanceRecord, 
Ignored event types: IfRecord, 

JSON Encoded Analysis Data (for visualization):{"heapEdges":[{"step":0,"from":"1093613792","to":"1093614344","type":"load","field":"<java.io.SequenceInputStream: java.io.InputStream in>"},{"step":1,"from":"1093613792","to":"1093614344","type":"load","field":"<java.io.SequenceInputStream: java.io.InputStream in>"},{"step":2,"from":"1093613792","to":"1093635160","type":"load","field":"<java.io.SequenceInputStream: java.util.Enumeration e>"},{"step":3,"from":"1093635160","to":"1093635160.<java.util.Vector$1: int pos>","type":"load","field":"<java.util.Vector$1: int pos>"},{"step":4,"from":"1093635160","to":"1093624840","type":"load","field":"<java.util.Vector$1: java.util.Vector this$0>"},{"step":5,"from":"1093624840","to":"1093624840.<java.util.Vector: int elementCount>","type":"load","field":"<java.util.Vector: int elementCount>"},{"step":6,"from":"1093613792","to":"sdaReg3","type":"create","field":"<java.io.SequenceInputStream: java.io.InputStream in>"}],"parameters":[{"id":"1093613792","name":"this","klass":"java.io.SequenceInputStream"}],"returns":[{"id":null,"name":"return","klass":null}],"colors":{"heapLocToColor":{"1093635160.<java.util.Vector$1: int pos>":[0],"1093624840":[0],"1093635160":[0],"1093613792":[0],"sdaReg1":[0],"sdaReg0":[0],"1093624840.<java.util.Vector: int elementCount>":[0],"1093613792.<java.io.SequenceInputStream: java.io.InputStream in>":[0],"1093614344":[0]},"colorToColor":{},"colorToLabel":{"0":"this","1":"return"}}}

Generated Model

