Scanning method <android.os.Bundle: void writeToParcel(android.os.Parcel,int)>

All seen event types: SimpleAssignmentRecord, LoadInstanceRecord, MethodStartRecord, IfRecord, InstanceOfRecord, NewObjectRecord, StoreInstanceRecord, BinaryOperationRecord, MethodCallRecord, MethodReturnRecord, ArrayLengthRecord, CastRecord, LoadArrayRecord, MethodEndRecord, 
Ignored event types: IfRecord, 

JSON Encoded Analysis Data (for visualization):{"heapEdges":[{"step":0,"from":"1093799696","to":"1093799696.<android.os.Bundle: boolean mAllowFds>","type":"load","field":"<android.os.Bundle: boolean mAllowFds>"},{"step":1,"from":"1093475480","to":"1093799696.<android.os.Bundle: boolean mAllowFds>","type":"model"},{"step":2,"from":"1093475480","to":"sdaReg1","type":"model"},{"step":3,"from":"1093799696.<android.os.Bundle: boolean mAllowFds>","to":"1093475480","type":"model"},{"step":4,"from":"1093799696.<android.os.Bundle: boolean mAllowFds>","to":"sdaReg1","type":"model"},{"step":5,"from":"1093475480","to":"sdaReg2","type":"model"},{"step":6,"from":"1093799696","to":"1093532160","type":"load","field":"<android.os.Bundle: java.util.Map mMap>"},{"step":7,"from":"1093532160","to":"1093590336","type":"store","field":"<java.util.HashMap$EntrySet: java.util.HashMap this$0>"},{"step":8,"from":"1093532160","to":"1093590336","type":"create","field":"<java.util.HashMap: java.util.Set entrySet>"},{"step":9,"from":"1093532160","to":"1093532160.<java.util.HashMap: int size>","type":"load","field":"<java.util.HashMap: int size>"},{"step":10,"from":"1093475480","to":"1093532160.<java.util.HashMap: int size>","type":"model"},{"step":11,"from":"1093532160.<java.util.HashMap: int size>","to":"1093475480","type":"model"},{"step":12,"from":"1093532160","to":"1093840992","type":"store","field":"<java.util.HashMap$EntryIterator: java.util.HashMap this$0>"},{"step":13,"from":"1093532160","to":"1093840992","type":"store","field":"<java.util.HashMap$HashIterator: java.util.HashMap this$0>"},{"step":14,"from":"1093532160","to":"1093532160.<java.util.HashMap: int modCount>","type":"load","field":"<java.util.HashMap: int modCount>"},{"step":15,"from":"1093532160.<java.util.HashMap: int modCount>","to":"1093840992","type":"store","field":"<java.util.HashMap$HashIterator: int expectedModCount>"},{"step":16,"from":"1093532160","to":"1093775104","type":"load","field":"<java.util.HashMap: java.util.HashMap$HashMapEntry[] table>"},{"step":17,"from":"1093840992","to":"1093840992.<java.util.HashMap$HashIterator: int nextIndex>","type":"load","field":"<java.util.HashMap$HashIterator: int nextIndex>"},{"step":18,"from":"1093840992","to":"1093840992.<java.util.HashMap$HashIterator: int nextIndex>","type":"load","field":"<java.util.HashMap$HashIterator: int nextIndex>"},{"step":19,"from":"sdaReg31","to":"1093840992","type":"store","field":"<java.util.HashMap$HashIterator: int nextIndex>"},{"step":20,"from":"1093775104","to":"1093775216","type":"load","field":"arrayIdx_int:0"},{"step":21,"from":"1093775216","to":"1093840992","type":"store","field":"<java.util.HashMap$HashIterator: java.util.HashMap$HashMapEntry nextEntry>"},{"step":22,"from":"1093532160","to":"1093532160.<java.util.HashMap: int modCount>","type":"load","field":"<java.util.HashMap: int modCount>"},{"step":23,"from":"1093532160","to":"1093775104","type":"load","field":"<java.util.HashMap: java.util.HashMap$HashMapEntry[] table>"},{"step":24,"from":"1093775216","to":"1093513744","type":"load","field":"<java.util.HashMap$HashMapEntry: java.util.HashMap$HashMapEntry next>"},{"step":25,"from":"1093513744","to":"1093840992","type":"store","field":"<java.util.HashMap$HashIterator: java.util.HashMap$HashMapEntry nextEntry>"},{"step":26,"from":"1093775216","to":"1093840992","type":"store","field":"<java.util.HashMap$HashIterator: java.util.HashMap$HashMapEntry lastEntryReturned>"},{"step":27,"from":"1093775216","to":"1093518120","type":"load","field":"<java.util.HashMap$HashMapEntry: java.lang.Object key>"},{"step":28,"from":"1093475480","to":"sdaReg51","type":"model"},{"step":29,"from":"sdaReg51","to":"1093475480","type":"model"},{"step":30,"from":"1093775216","to":"1083976944","type":"load","field":"<java.util.HashMap$HashMapEntry: java.lang.Object value>"},{"step":31,"from":"1083976944","to":"sdaReg59","type":"model"},{"step":32,"from":"1093475480","to":"sdaReg59","type":"model"},{"step":33,"from":"sdaReg59","to":"1093475480","type":"model"},{"step":34,"from":"1093532160","to":"1093532160.<java.util.HashMap: int modCount>","type":"load","field":"<java.util.HashMap: int modCount>"},{"step":35,"from":"1093532160","to":"1093775104","type":"load","field":"<java.util.HashMap: java.util.HashMap$HashMapEntry[] table>"},{"step":36,"from":"sdaReg66","to":"1093840992","type":"store","field":"<java.util.HashMap$HashIterator: int nextIndex>"},{"step":37,"from":"1093775104","to":"1093796352","type":"load","field":"arrayIdx_int:1"},{"step":38,"from":"1093796352","to":"1093840992","type":"store","field":"<java.util.HashMap$HashIterator: java.util.HashMap$HashMapEntry nextEntry>"},{"step":39,"from":"1093513744","to":"1093840992","type":"store","field":"<java.util.HashMap$HashIterator: java.util.HashMap$HashMapEntry lastEntryReturned>"},{"step":40,"from":"1093513744","to":"1084420848","type":"load","field":"<java.util.HashMap$HashMapEntry: java.lang.Object key>"},{"step":41,"from":"1093475480","to":"sdaReg75","type":"model"},{"step":42,"from":"sdaReg75","to":"1093475480","type":"model"},{"step":43,"from":"1093513744","to":"1093517736","type":"load","field":"<java.util.HashMap$HashMapEntry: java.lang.Object value>"},{"step":44,"from":"1093475480","to":"sdaReg81","type":"model"},{"step":45,"from":"sdaReg81","to":"1093475480","type":"model"},{"step":46,"from":"1093532160","to":"1093532160.<java.util.HashMap: int modCount>","type":"load","field":"<java.util.HashMap: int modCount>"},{"step":47,"from":"1093532160","to":"1093775104","type":"load","field":"<java.util.HashMap: java.util.HashMap$HashMapEntry[] table>"},{"step":48,"from":"sdaReg88","to":"1093840992","type":"store","field":"<java.util.HashMap$HashIterator: int nextIndex>"},{"step":49,"from":"1093775104","to":"1093593264","type":"load","field":"arrayIdx_int:2"},{"step":50,"from":"1093593264","to":"1093840992","type":"store","field":"<java.util.HashMap$HashIterator: java.util.HashMap$HashMapEntry nextEntry>"},{"step":51,"from":"1093796352","to":"1093840992","type":"store","field":"<java.util.HashMap$HashIterator: java.util.HashMap$HashMapEntry lastEntryReturned>"},{"step":52,"from":"1093796352","to":"1085340984","type":"load","field":"<java.util.HashMap$HashMapEntry: java.lang.Object key>"},{"step":53,"from":"1093475480","to":"sdaReg97","type":"model"},{"step":54,"from":"sdaReg97","to":"1093475480","type":"model"},{"step":55,"from":"1093796352","to":"1093590352","type":"load","field":"<java.util.HashMap$HashMapEntry: java.lang.Object value>"},{"step":56,"from":"1093475480","to":"sdaReg103","type":"model"},{"step":57,"from":"sdaReg103","to":"1093475480","type":"model"},{"step":58,"from":"1093532160","to":"1093532160.<java.util.HashMap: int modCount>","type":"load","field":"<java.util.HashMap: int modCount>"},{"step":59,"from":"1093532160","to":"1093775104","type":"load","field":"<java.util.HashMap: java.util.HashMap$HashMapEntry[] table>"},{"step":60,"from":"sdaReg110","to":"1093840992","type":"store","field":"<java.util.HashMap$HashIterator: int nextIndex>"},{"step":61,"from":"1093775104","to":"1093923376","type":"load","field":"arrayIdx_int:3"},{"step":62,"from":"1093923376","to":"1093840992","type":"store","field":"<java.util.HashMap$HashIterator: java.util.HashMap$HashMapEntry nextEntry>"},{"step":63,"from":"1093593264","to":"1093840992","type":"store","field":"<java.util.HashMap$HashIterator: java.util.HashMap$HashMapEntry lastEntryReturned>"},{"step":64,"from":"1093593264","to":"1084612152","type":"load","field":"<java.util.HashMap$HashMapEntry: java.lang.Object key>"},{"step":65,"from":"1093475480","to":"sdaReg119","type":"model"},{"step":66,"from":"sdaReg119","to":"1093475480","type":"model"},{"step":67,"from":"1093593264","to":"1093937328","type":"load","field":"<java.util.HashMap$HashMapEntry: java.lang.Object value>"},{"step":68,"from":"1093475480","to":"sdaReg125","type":"model"},{"step":69,"from":"sdaReg125","to":"1093475480","type":"model"},{"step":70,"from":"1093532160","to":"1093532160.<java.util.HashMap: int modCount>","type":"load","field":"<java.util.HashMap: int modCount>"},{"step":71,"from":"1093532160","to":"1093775104","type":"load","field":"<java.util.HashMap: java.util.HashMap$HashMapEntry[] table>"},{"step":72,"from":"sdaReg132","to":"1093840992","type":"store","field":"<java.util.HashMap$HashIterator: int nextIndex>"},{"step":73,"from":"sdaReg132","to":"1093840992","type":"store","field":"<java.util.HashMap$HashIterator: int nextIndex>"},{"step":74,"from":"1093775104","to":"1093492640","type":"load","field":"arrayIdx_int:5"},{"step":75,"from":"1093492640","to":"1093840992","type":"store","field":"<java.util.HashMap$HashIterator: java.util.HashMap$HashMapEntry nextEntry>"},{"step":76,"from":"1093923376","to":"1093840992","type":"store","field":"<java.util.HashMap$HashIterator: java.util.HashMap$HashMapEntry lastEntryReturned>"},{"step":77,"from":"1093923376","to":"1093518272","type":"load","field":"<java.util.HashMap$HashMapEntry: java.lang.Object key>"},{"step":78,"from":"1093475480","to":"sdaReg142","type":"model"},{"step":79,"from":"sdaReg142","to":"1093475480","type":"model"},{"step":80,"from":"1093923376","to":"1083976944","type":"load","field":"<java.util.HashMap$HashMapEntry: java.lang.Object value>"},{"step":81,"from":"1083976944","to":"sdaReg150","type":"model"},{"step":82,"from":"1093475480","to":"sdaReg150","type":"model"},{"step":83,"from":"sdaReg150","to":"1093475480","type":"model"},{"step":84,"from":"1093532160","to":"1093532160.<java.util.HashMap: int modCount>","type":"load","field":"<java.util.HashMap: int modCount>"},{"step":85,"from":"1093532160","to":"1093775104","type":"load","field":"<java.util.HashMap: java.util.HashMap$HashMapEntry[] table>"},{"step":86,"from":"sdaReg157","to":"1093840992","type":"store","field":"<java.util.HashMap$HashIterator: int nextIndex>"},{"step":87,"from":"sdaReg157","to":"1093840992","type":"store","field":"<java.util.HashMap$HashIterator: int nextIndex>"},{"step":88,"from":"1093492640","to":"1093840992","type":"store","field":"<java.util.HashMap$HashIterator: java.util.HashMap$HashMapEntry lastEntryReturned>"},{"step":89,"from":"1093492640","to":"1093518056","type":"load","field":"<java.util.HashMap$HashMapEntry: java.lang.Object key>"},{"step":90,"from":"1093475480","to":"sdaReg168","type":"model"},{"step":91,"from":"sdaReg168","to":"1093475480","type":"model"},{"step":92,"from":"1093492640","to":"1093532808","type":"load","field":"<java.util.HashMap$HashMapEntry: java.lang.Object value>"},{"step":93,"from":"1093475480","to":"sdaReg174","type":"model"},{"step":94,"from":"sdaReg174","to":"1093475480","type":"model"},{"step":95,"from":"1093475480","to":"sdaReg177","type":"model"},{"step":96,"from":"1093475480","to":"sdaReg178","type":"model"},{"step":97,"from":"sdaReg178","to":"1093475480","type":"model"},{"step":98,"from":"1093475480","to":"sdaReg179","type":"model"},{"step":99,"from":"sdaReg179","to":"1093475480","type":"model"},{"step":100,"from":"1093475480","to":"sdaReg177","type":"model"},{"step":101,"from":"sdaReg177","to":"1093475480","type":"model"},{"step":102,"from":"1093475480","to":"sdaReg1","type":"model"},{"step":103,"from":"sdaReg1","to":"1093475480","type":"model"}],"parameters":[{"id":"1093799696","name":"this","klass":"android.os.Bundle"},{"id":"1093475480","name":"arg#1","klass":"android.os.Parcel"},{"id":"sdaReg0","name":"arg#2","klass":"int"}],"returns":[{"id":null,"name":"return","klass":null}],"colors":{"heapLocToColor":{"sdaReg125":[0, 1],"sdaReg126":[6],"sdaReg128":[6],"sdaReg129":[6],"1093513744":[0],"1093775216":[0],"sdaReg68":[0],"sdaReg69":[0],"1093518272":[0],"sdaReg67":[0],"sdaReg64":[6],"sdaReg62":[6],"sdaReg63":[6],"sdaReg13":[5],"sdaReg72":[1],"sdaReg14":[5],"1083976944":[0],"sdaReg71":[0],"sdaReg11":[5],"sdaReg70":[0],"sdaReg12":[5],"sdaReg10":[5],"sdaReg120":[0],"sdaReg19":[5],"1093518120":[0],"sdaReg122":[1],"sdaReg17":[5],"sdaReg121":[0],"sdaReg18":[5],"sdaReg15":[5],"sdaReg123":[0],"sdaReg16":[5],"sdaReg116":[1],"sdaReg117":[0],"sdaReg114":[0],"sdaReg115":[0],"sdaReg119":[0, 1],"sdaReg77":[0],"sdaReg78":[1],"sdaReg79":[0],"sdaReg73":[0],"sdaReg75":[0, 1],"sdaReg76":[0],"sdaReg81":[0, 1],"sdaReg82":[6],"1093593264":[0],"sdaReg113":[0],"sdaReg112":[0],"sdaReg111":[0],"sdaReg107":[6],"sdaReg108":[6],"1093590336":[5],"sdaReg103":[0, 1],"sdaReg104":[6],"sdaReg171":[1],"sdaReg170":[0],"sdaReg106":[6],"sdaReg86":[6],"sdaReg172":[0],"1093475480":[1],"sdaReg175":[6],"sdaReg84":[6],"sdaReg174":[0, 1],"sdaReg85":[6],"sdaReg177":[1, 9],"sdaReg179":[1, 4, 9],"sdaReg178":[1, 4],"sdaReg89":[0],"sdaReg90":[0],"sdaReg94":[1],"sdaReg93":[0],"1093517736":[0],"sdaReg92":[0],"sdaReg91":[0],"sdaReg100":[1],"1093532160.<java.util.HashMap: int modCount>":[0],"sdaReg101":[0],"1093799696":[0],"sdaReg95":[0],"sdaReg97":[0, 1],"sdaReg98":[0],"sdaReg99":[0],"1093840992.<java.util.HashMap$HashIterator: int nextIndex>":[6],"1093590352":[0],"sdaReg60":[6],"1084420848":[0],"sdaReg169":[0],"1093937328":[0],"sdaReg161":[0],"sdaReg162":[0],"1093923376":[0],"sdaReg163":[0],"sdaReg164":[0],"sdaReg165":[1],"sdaReg166":[0],"sdaReg168":[0, 1],"sdaReg59":[0, 1, 7],"sdaReg58":[0],"sdaReg55":[0],"sdaReg54":[1],"1093796352":[0],"sdaReg53":[0],"sdaReg52":[0],"sdaReg160":[0],"sdaReg51":[0, 1],"1093532160.<java.util.HashMap: java.util.HashMap$HashMapEntry[] table>":[0],"1093923376.<java.util.HashMap$HashMapEntry: java.lang.Object value>":[0],"1093532160":[0],"sdaReg153":[6],"sdaReg150":[0, 1, 8],"sdaReg151":[6],"sdaReg49":[0],"sdaReg48":[1],"sdaReg154":[6],"sdaReg155":[6],"sdaReg45":[0],"sdaReg44":[0],"sdaReg47":[0],"sdaReg46":[0],"sdaReg41":[6],"sdaReg40":[6],"sdaReg43":[0],"sdaReg42":[0],"1093799696.<android.os.Bundle: boolean mAllowFds>":[0, 1],"1093492640":[0],"1085340984":[0],"sdaReg149":[0],"sdaReg143":[0],"sdaReg144":[0],"sdaReg39":[6],"1093532808":[0],"sdaReg145":[1],"sdaReg146":[0],"sdaReg37":[6],"sdaReg140":[0],"sdaReg142":[0, 1],"1093532160.<java.util.HashMap: int size>":[0, 1],"sdaReg32":[6],"1093840992":[6],"sdaReg31":[6],"sdaReg36":[6],"sdaReg35":[6],"sdaReg34":[6],"sdaReg33":[6],"1093775104":[0],"sdaReg8":[5],"sdaReg9":[0],"sdaReg6":[5],"sdaReg7":[0],"sdaReg4":[0],"sdaReg5":[0],"1084612152":[0],"sdaReg139":[1],"sdaReg138":[0],"sdaReg137":[0],"sdaReg136":[0],"sdaReg134":[0],"sdaReg27":[0],"sdaReg135":[0],"sdaReg26":[6],"sdaReg28":[6],"sdaReg130":[6],"sdaReg3":[1],"sdaReg2":[1, 4],"sdaReg21":[0],"sdaReg1":[1, 3],"1093518056":[0],"sdaReg20":[5],"sdaReg0":[2],"sdaReg23":[0],"sdaReg22":[6],"sdaReg25":[0],"sdaReg24":[6]},"colorToColor":{"0":[1, 3, 5, 6],"1":[1, 3],"3":[1],"4":[1],"5":[0],"6":[6],"7":[1],"8":[1],"9":[1]},"colorToLabel":{"0":"this","1":"arg#1","2":"arg#2","10":"return"}}}

Generated Model
	this->arg#1

