Scanning method <java.nio.CharBuffer: java.nio.CharBuffer put(java.nio.CharBuffer)>

All seen event types: NewArrayRecord, BinaryOperationRecord, MethodReturnRecord, MethodCallRecord, ArrayLengthRecord, LoadInstanceRecord, MethodStartRecord, MethodEndRecord, IfRecord, StoreInstanceRecord, 
Ignored event types: IfRecord, 

JSON Encoded Analysis Data (for visualization):{"heapEdges":[{"step":0,"from":"1093485144","to":"1093485144.<java.nio.Buffer: int limit>","type":"load","field":"<java.nio.Buffer: int limit>"},{"step":1,"from":"1093485144","to":"1093485144.<java.nio.Buffer: int position>","type":"load","field":"<java.nio.Buffer: int position>"},{"step":2,"from":"1093428176","to":"1093428176.<java.nio.Buffer: int limit>","type":"load","field":"<java.nio.Buffer: int limit>"},{"step":3,"from":"1093428176","to":"1093428176.<java.nio.Buffer: int position>","type":"load","field":"<java.nio.Buffer: int position>"},{"step":4,"from":"1093485144","to":"1093485144.<java.nio.Buffer: int limit>","type":"load","field":"<java.nio.Buffer: int limit>"},{"step":5,"from":"1093485144","to":"1093485144.<java.nio.Buffer: int position>","type":"load","field":"<java.nio.Buffer: int position>"},{"step":6,"from":"1093485144","to":"1093485144.<java.nio.Buffer: int limit>","type":"load","field":"<java.nio.Buffer: int limit>"},{"step":7,"from":"1093485144","to":"1093485144.<java.nio.Buffer: int position>","type":"load","field":"<java.nio.Buffer: int position>"},{"step":8,"from":"1093485144","to":"1093485192","type":"load","field":"<java.nio.CharArrayBuffer: char[] backingArray>"},{"step":9,"from":"1093485144","to":"1093485144.<java.nio.CharArrayBuffer: int offset>","type":"load","field":"<java.nio.CharArrayBuffer: int offset>"},{"step":10,"from":"1093485144","to":"1093485144.<java.nio.Buffer: int position>","type":"load","field":"<java.nio.Buffer: int position>"},{"step":11,"from":"1093485192","to":"1093687072","type":"model"},{"step":12,"from":"1093485144","to":"1093485144.<java.nio.Buffer: int position>","type":"load","field":"<java.nio.Buffer: int position>"},{"step":13,"from":"sdaReg15","to":"1093485144","type":"store","field":"<java.nio.Buffer: int position>"},{"step":14,"from":"1093428176","to":"1093428176.<java.nio.Buffer: int limit>","type":"load","field":"<java.nio.Buffer: int limit>"},{"step":15,"from":"1093428176","to":"1093428176.<java.nio.Buffer: int position>","type":"load","field":"<java.nio.Buffer: int position>"},{"step":16,"from":"1093428176","to":"1093428224","type":"load","field":"<java.nio.CharArrayBuffer: char[] backingArray>"},{"step":17,"from":"1093428176","to":"1093428176.<java.nio.CharArrayBuffer: int offset>","type":"load","field":"<java.nio.CharArrayBuffer: int offset>"},{"step":18,"from":"1093428176","to":"1093428176.<java.nio.Buffer: int position>","type":"load","field":"<java.nio.Buffer: int position>"},{"step":19,"from":"1093687072","to":"1093428224","type":"model"},{"step":20,"from":"1093428176","to":"1093428176.<java.nio.Buffer: int position>","type":"load","field":"<java.nio.Buffer: int position>"},{"step":21,"from":"sdaReg26","to":"1093428176","type":"store","field":"<java.nio.Buffer: int position>"}],"parameters":[{"id":"1093428176","name":"this","klass":"java.nio.CharBuffer"},{"id":"1093485144","name":"arg#1","klass":"java.nio.CharBuffer"}],"returns":[{"id":"1093428176","name":"return","klass":"java.nio.CharBuffer"}],"colors":{"heapLocToColor":{"1093428176.<java.nio.Buffer: int limit>":[0],"1093485144.<java.nio.Buffer: int position>":[1],"sdaReg13":[1],"sdaReg14":[1],"sdaReg12":[1],"sdaReg10":[2],"1093485192":[1],"1093428176.<java.nio.CharArrayBuffer: int offset>":[0],"sdaReg17":[0],"sdaReg18":[2],"sdaReg15":[1],"sdaReg16":[1],"sdaReg9":[1],"sdaReg6":[1],"sdaReg7":[2],"sdaReg4":[1],"sdaReg5":[1],"1093428224":[0],"1093485144.<java.nio.Buffer: int limit>":[1],"1093428176.<java.nio.Buffer: int position>":[0],"sdaReg27":[0],"sdaReg26":[0],"sdaReg3":[0],"sdaReg2":[0],"1093485144":[1],"sdaReg21":[2],"sdaReg1":[1],"sdaReg20":[0],"sdaReg0":[1],"sdaReg23":[0],"1093428176":[0],"1093687072":[2],"1093485144.<java.nio.CharArrayBuffer: int offset>":[1],"sdaReg25":[0],"sdaReg24":[0]},"colorToColor":{"0":[0, 3],"1":[1, 2],"2":[0]},"colorToLabel":{"0":"this","1":"arg#1","3":"return"}}}

Generated Model
	this->return
	arg#1->this
	arg#1->return

