Scanning method <java.io.PrintWriter: void <init>(java.io.Writer)>

All seen event types: MethodReturnRecord, MethodCallRecord, 
Ignored event types: 

JSON Encoded Analysis Data (for visualization):{"heapEdges":[{"step":0,"from":"1093624400","to":"1093625336","type":"model"},{"step":1,"from":"1093625336","to":"1093624400","type":"model"},{"step":2,"from":"1093625336","to":"1093624400","type":"model"}],"parameters":[{"id":"1093624400","name":"this","klass":"java.io.PrintWriter"},{"id":"1093625336","name":"arg#1","klass":"java.io.Writer"}],"returns":[{"id":"1093624400","name":"return","klass":"java.io.PrintWriter"}],"colors":{"heapLocToColor":{"1093624400":[0],"1093625336":[0, 1],"sdaReg0":[0]},"colorToColor":{"0":[0, 2],"1":[0]},"colorToLabel":{"0":"this","1":"arg#1","2":"return"}}}

Generated Model
	this->return
	arg#1->this
	arg#1->return

