Scanning method <java.util.Arrays: java.util.List asList(java.lang.Object[])>

All seen event types: MethodReturnRecord, MethodCallRecord, MethodStartRecord, IfRecord, MethodEndRecord, StoreInstanceRecord, NewObjectRecord, 
Ignored event types: IfRecord, 

JSON Encoded Analysis Data (for visualization):{"heapEdges":[{"step":0,"from":"1093644632","to":"1093514736","type":"store","field":"<java.util.Arrays$ArrayList: java.lang.Object[] a>"}],"parameters":[{"id":"1093644632","name":"arg#0","klass":"java.lang.Object[]"}],"returns":[{"id":"1093514736","name":"return","klass":"java.util.List"}],"colors":{"heapLocToColor":{"sdaReg6":[1],"sdaReg7":[1],"sdaReg4":[1],"sdaReg5":[1],"sdaReg3":[1],"1093514736":[1],"sdaReg2":[1],"sdaReg1":[0],"sdaReg0":[1],"1093644632":[0]},"colorToColor":{"0":[1],"1":[2]},"colorToLabel":{"0":"arg#0","2":"return"}}}

Generated Model
	arg#0->return

