Scanning method <java.util.ArrayList: java.util.Iterator iterator()>

All seen event types: MethodReturnRecord, MethodCallRecord, LoadInstanceRecord, MethodStartRecord, MethodEndRecord, StoreInstanceRecord, NewObjectRecord, 
Ignored event types: 

JSON Encoded Analysis Data (for visualization):{"heapEdges":[{"step":0,"from":"1093622784","to":"1093623016","type":"store","field":"<java.util.ArrayList$ArrayListIterator: java.util.ArrayList this$0>"},{"step":1,"from":"1093622784","to":"1093622784.<java.util.ArrayList: int size>","type":"load","field":"<java.util.ArrayList: int size>"},{"step":2,"from":"1093622784.<java.util.ArrayList: int size>","to":"1093623016","type":"store","field":"<java.util.ArrayList$ArrayListIterator: int remaining>"},{"step":3,"from":"1093623016","to":"sdaReg5","type":"create","field":"<java.util.ArrayList$ArrayListIterator: int removalIndex>"},{"step":4,"from":"1093622784","to":"1093622784.<java.util.AbstractList: int modCount>","type":"load","field":"<java.util.AbstractList: int modCount>"},{"step":5,"from":"1093622784.<java.util.AbstractList: int modCount>","to":"1093623016","type":"store","field":"<java.util.ArrayList$ArrayListIterator: int expectedModCount>"}],"parameters":[{"id":"1093622784","name":"this","klass":"java.util.ArrayList"}],"returns":[{"id":"1093623016","name":"return","klass":"java.util.Iterator"}],"colors":{"heapLocToColor":{"sdaReg6":[1],"sdaReg7":[1],"1093622784.<java.util.ArrayList: int size>":[0],"sdaReg4":[1],"1093622784.<java.util.AbstractList: int modCount>":[0],"sdaReg3":[0],"sdaReg2":[1],"1093623016":[1],"sdaReg1":[0],"sdaReg0":[1],"1093622784":[0]},"colorToColor":{"0":[1],"1":[2]},"colorToLabel":{"0":"this","2":"return"}}}

Generated Model
	this->return

