Scanning method <java.util.Formatter: java.lang.Object getArgument(java.lang.Object[],int,java.util.Formatter$FormatSpecifierParser,java.lang.Object,boolean)>

All seen event types: ArrayLengthRecord, LoadArrayRecord, IfRecord, 
Ignored event types: IfRecord, 

JSON Encoded Analysis Data (for visualization):{"heapEdges":[{"step":0,"from":"1093871728","to":"1093308440","type":"load","field":"arrayIdx_int:0"}],"parameters":[{"id":"1093415144","name":"this","klass":"java.util.Formatter"},{"id":"1093871728","name":"arg#1","klass":"java.lang.Object[]"},{"id":"sdaReg0","name":"arg#2","klass":"int"},{"id":"1093301920","name":"arg#3","klass":"java.util.Formatter$FormatSpecifierParser"},{"id":"0","name":"arg#4","klass":"java.lang.Object"},{"id":"sdaReg1","name":"arg#5","klass":"boolean"}],"returns":[{"id":"1093308440","name":"return","klass":"java.lang.Object"}],"colors":{"heapLocToColor":{"1093415144":[0],"0":[4],"1093871728":[1],"1093308440":[1],"sdaReg1":[5],"sdaReg0":[2],"1093301920":[3]},"colorToColor":{"1":[6]},"colorToLabel":{"0":"this","1":"arg#1","2":"arg#2","3":"arg#3","4":"arg#4","5":"arg#5","6":"return"}}}

Generated Model
	arg#1->return

