Scanning method <java.util.ArrayList: int newCapacity(int)>

All seen event types: BinaryOperationRecord, SimpleAssignmentRecord, IfRecord, 
Ignored event types: IfRecord, 

JSON Encoded Analysis Data (for visualization):{"heapEdges":[],"parameters":[{"id":"sdaReg0","name":"arg#0","klass":"int"}],"returns":[{"id":"sdaReg3","name":"return","klass":"int"}],"colors":{"heapLocToColor":{"sdaReg3":[0],"sdaReg2":[0],"sdaReg1":[0],"sdaReg0":[0]},"colorToColor":{"0":[1]},"colorToLabel":{"0":"arg#0","1":"return"}}}

Generated Model
	arg#0->return

