Scanning method <java.util.LinkedList: boolean addLastImpl(java.lang.Object)>

All seen event types: BinaryOperationRecord, SimpleAssignmentRecord, MethodReturnRecord, MethodCallRecord, MethodStartRecord, LoadInstanceRecord, MethodEndRecord, StoreInstanceRecord, NewObjectRecord, 
Ignored event types: 

JSON Encoded Analysis Data (for visualization):{"heapEdges":[{"step":0,"from":"1093410688","to":"1093555712","type":"load","field":"<java.util.LinkedList: java.util.LinkedList$Link voidLink>"},{"step":1,"from":"1093555712","to":"1093555712","type":"load","field":"<java.util.LinkedList$Link: java.util.LinkedList$Link previous>"},{"step":2,"from":"1093410688","to":"1093555712","type":"load","field":"<java.util.LinkedList: java.util.LinkedList$Link voidLink>"},{"step":3,"from":"1093736960","to":"1093446496","type":"store","field":"<java.util.LinkedList$Link: java.lang.Object data>"},{"step":4,"from":"1093555712","to":"1093446496","type":"store","field":"<java.util.LinkedList$Link: java.util.LinkedList$Link previous>"},{"step":5,"from":"1093555712","to":"1093446496","type":"store","field":"<java.util.LinkedList$Link: java.util.LinkedList$Link next>"},{"step":6,"from":"1093410688","to":"1093555712","type":"load","field":"<java.util.LinkedList: java.util.LinkedList$Link voidLink>"},{"step":7,"from":"1093555712","to":"1093446496","type":"create","field":"<java.util.LinkedList$Link: java.util.LinkedList$Link previous>"},{"step":8,"from":"1093446496","to":"1093555712","type":"store","field":"<java.util.LinkedList$Link: java.util.LinkedList$Link next>"},{"step":9,"from":"1093410688","to":"1093410688.<java.util.LinkedList: int size>","type":"load","field":"<java.util.LinkedList: int size>"},{"step":10,"from":"sdaReg7","to":"1093410688","type":"store","field":"<java.util.LinkedList: int size>"},{"step":11,"from":"1093410688","to":"1093410688.<java.util.AbstractList: int modCount>","type":"load","field":"<java.util.AbstractList: int modCount>"},{"step":12,"from":"sdaReg8","to":"1093410688","type":"store","field":"<java.util.AbstractList: int modCount>"}],"parameters":[{"id":"1093410688","name":"this","klass":"java.util.LinkedList"},{"id":"1093736960","name":"arg#1","klass":"java.lang.Object"}],"returns":[{"id":null,"name":"return","klass":"boolean"}],"colors":{"heapLocToColor":{"1093736960":[1],"sdaReg8":[0],"1093555712":[0],"sdaReg6":[2],"sdaReg7":[0],"sdaReg4":[2],"sdaReg5":[2],"1093446496":[2],"1093410688":[0],"1093410688.<java.util.LinkedList: int size>":[0],"sdaReg3":[0],"1093410688.<java.util.LinkedList: java.util.LinkedList$Link voidLink>":[0],"sdaReg2":[0],"1093555712.<java.util.LinkedList$Link: java.util.LinkedList$Link previous>":[0],"sdaReg1":[1],"sdaReg0":[2],"1093410688.<java.util.AbstractList: int modCount>":[0]},"colorToColor":{"0":[0, 2],"1":[2],"2":[0]},"colorToLabel":{"0":"this","1":"arg#1","3":"return"}}}

Generated Model
	arg#1->this

