Scanning method <java.io.Reader: int read()>

All seen event types: NewArrayRecord, SimpleAssignmentRecord, ExitMonitorRecord, MethodReturnRecord, MethodCallRecord, EnterMonitorRecord, LoadInstanceRecord, LoadArrayRecord, IfRecord, 
Ignored event types: ExitMonitorRecord, EnterMonitorRecord, IfRecord, 

JSON Encoded Analysis Data (for visualization):{"heapEdges":[{"step":0,"from":"1093671296","to":"1093671296","type":"load","field":"<java.io.Reader: java.lang.Object lock>"},{"step":1,"from":"1093671296","to":"1093727000","type":"model"},{"step":2,"from":"1093671296","to":"sdaReg1","type":"model"},{"step":3,"from":"1093727000","to":"1093671296","type":"model"},{"step":4,"from":"1093727000","to":"sdaReg1","type":"model"},{"step":5,"from":"1093727000","to":"1093727000.arrayIdx_int:0","type":"load","field":"arrayIdx_int:0"}],"parameters":[{"id":"1093671296","name":"this","klass":"java.io.Reader"}],"returns":[{"id":"1093727000.arrayIdx_int:0","name":"return","klass":"int"}],"colors":{"heapLocToColor":{"1093671296.<java.io.Reader: java.lang.Object lock>":[0],"1093727000":[0, 1],"1093671296":[0],"sdaReg1":[0, 2],"1093727000.arrayIdx_int:0":[0, 1],"sdaReg0":[0]},"colorToColor":{"0":[0, 2, 3],"1":[0, 2, 3]},"colorToLabel":{"0":"this","3":"return"}}}

Generated Model
	this->return

