Scanning method <java.util.Formatter: void doFormat(java.lang.String,java.lang.Object[])>

All seen event types: SimpleAssignmentRecord, MethodStartRecord, LoadInstanceRecord, IfRecord, InstanceOfRecord, NewObjectRecord, StoreInstanceRecord, BinaryOperationRecord, MethodCallRecord, MethodReturnRecord, SwitchRecord, ArrayLengthRecord, LoadArrayRecord, MethodEndRecord, 
Ignored event types: SwitchRecord, IfRecord, 

JSON Encoded Analysis Data (for visualization):{"heapEdges":[{"step":0,"from":"1093307376","to":"1093307376.<java.util.Formatter: boolean closed>","type":"load","field":"<java.util.Formatter: boolean closed>"},{"step":1,"from":"sdaReg0","to":"1093254528","type":"store","field":"<java.util.Formatter$FormatSpecifierParser: java.lang.String format>"},{"step":2,"from":"sdaReg4","to":"1093254528","type":"store","field":"<java.util.Formatter$FormatSpecifierParser: int length>"},{"step":3,"from":"1093307376","to":"sdaReg0","type":"model"},{"step":4,"from":"1093307376","to":"sdaReg12","type":"model"},{"step":5,"from":"1093307376","to":"sdaReg15","type":"model"},{"step":6,"from":"sdaReg0","to":"1093307376","type":"model"},{"step":7,"from":"sdaReg0","to":"sdaReg12","type":"model"},{"step":8,"from":"sdaReg0","to":"sdaReg15","type":"model"},{"step":9,"from":"sdaReg12","to":"1093307376","type":"model"},{"step":10,"from":"sdaReg12","to":"sdaReg0","type":"model"},{"step":11,"from":"sdaReg12","to":"sdaReg15","type":"model"},{"step":12,"from":"sdaReg15","to":"1093307376","type":"model"},{"step":13,"from":"sdaReg15","to":"sdaReg0","type":"model"},{"step":14,"from":"sdaReg15","to":"sdaReg12","type":"model"},{"step":15,"from":"sdaReg16","to":"1093254528","type":"store","field":"<java.util.Formatter$FormatSpecifierParser: int startIndex>"},{"step":16,"from":"sdaReg16","to":"1093254528","type":"store","field":"<java.util.Formatter$FormatSpecifierParser: int i>"},{"step":17,"from":"1093516720","to":"sdaReg21","type":"create","field":"<java.util.Formatter$FormatToken: int argIndex>"},{"step":18,"from":"1093516720","to":"sdaReg22","type":"create","field":"<java.util.Formatter$FormatToken: char conversionType>"},{"step":19,"from":"1093516720","to":"sdaReg23","type":"create","field":"<java.util.Formatter$FormatToken: int precision>"},{"step":20,"from":"1093516720","to":"sdaReg24","type":"create","field":"<java.util.Formatter$FormatToken: int width>"},{"step":21,"from":"sdaReg43","to":"1093254528","type":"store","field":"<java.util.Formatter$FormatSpecifierParser: int i>"},{"step":22,"from":"sdaReg44","to":"1093516720","type":"store","field":"<java.util.Formatter$FormatToken: char conversionType>"},{"step":23,"from":"1093508720","to":"1093287920","type":"load","field":"arrayIdx_int:0"},{"step":24,"from":"1093307376","to":"1093516720","type":"create","field":"<java.util.Formatter: java.util.Formatter$FormatToken formatToken>"},{"step":25,"from":"1093287920","to":"1093307376","type":"store","field":"<java.util.Formatter: java.lang.Object arg>"},{"step":26,"from":"1093516720","to":"1093516720.<java.util.Formatter$FormatToken: boolean flagComma>","type":"load","field":"<java.util.Formatter$FormatToken: boolean flagComma>"},{"step":27,"from":"1093516720","to":"1093516720.<java.util.Formatter$FormatToken: boolean flagMinus>","type":"load","field":"<java.util.Formatter$FormatToken: boolean flagMinus>"},{"step":28,"from":"1093516720","to":"1093516720.<java.util.Formatter$FormatToken: boolean flagParenthesis>","type":"load","field":"<java.util.Formatter$FormatToken: boolean flagParenthesis>"},{"step":29,"from":"1093516720","to":"1093516720.<java.util.Formatter$FormatToken: boolean flagPlus>","type":"load","field":"<java.util.Formatter$FormatToken: boolean flagPlus>"},{"step":30,"from":"1093516720","to":"1093516720.<java.util.Formatter$FormatToken: boolean flagSharp>","type":"load","field":"<java.util.Formatter$FormatToken: boolean flagSharp>"},{"step":31,"from":"1093516720","to":"1093516720.<java.util.Formatter$FormatToken: boolean flagSpace>","type":"load","field":"<java.util.Formatter$FormatToken: boolean flagSpace>"},{"step":32,"from":"1093516720","to":"1093516720.<java.util.Formatter$FormatToken: boolean flagZero>","type":"load","field":"<java.util.Formatter$FormatToken: boolean flagZero>"},{"step":33,"from":"1093287920","to":"sdaReg70","type":"model"},{"step":34,"from":"1093307376","to":"1093348064","type":"load","field":"<java.util.Formatter: java.lang.Appendable out>"},{"step":35,"from":"1093287920","to":"1093348064","type":"model"},{"step":36,"from":"1093307376","to":"sdaReg0","type":"model"},{"step":37,"from":"1093307376","to":"sdaReg12","type":"model"},{"step":38,"from":"1093307376","to":"sdaReg15","type":"model"},{"step":39,"from":"sdaReg0","to":"1093307376","type":"model"},{"step":40,"from":"sdaReg0","to":"sdaReg12","type":"model"},{"step":41,"from":"sdaReg0","to":"sdaReg15","type":"model"},{"step":42,"from":"sdaReg12","to":"1093307376","type":"model"},{"step":43,"from":"sdaReg12","to":"sdaReg0","type":"model"},{"step":44,"from":"sdaReg12","to":"sdaReg15","type":"model"},{"step":45,"from":"sdaReg15","to":"1093307376","type":"model"},{"step":46,"from":"sdaReg15","to":"sdaReg0","type":"model"},{"step":47,"from":"sdaReg15","to":"sdaReg12","type":"model"},{"step":48,"from":"sdaReg16","to":"1093254528","type":"store","field":"<java.util.Formatter$FormatSpecifierParser: int startIndex>"},{"step":49,"from":"sdaReg16","to":"1093254528","type":"store","field":"<java.util.Formatter$FormatSpecifierParser: int i>"},{"step":50,"from":"1093399304","to":"sdaReg83","type":"create","field":"<java.util.Formatter$FormatToken: int argIndex>"},{"step":51,"from":"1093399304","to":"sdaReg84","type":"create","field":"<java.util.Formatter$FormatToken: char conversionType>"},{"step":52,"from":"1093399304","to":"sdaReg85","type":"create","field":"<java.util.Formatter$FormatToken: int precision>"},{"step":53,"from":"1093399304","to":"sdaReg86","type":"create","field":"<java.util.Formatter$FormatToken: int width>"},{"step":54,"from":"sdaReg105","to":"1093254528","type":"store","field":"<java.util.Formatter$FormatSpecifierParser: int i>"},{"step":55,"from":"sdaReg106","to":"1093399304","type":"store","field":"<java.util.Formatter$FormatToken: char conversionType>"},{"step":56,"from":"1093508720","to":"1093507704","type":"load","field":"arrayIdx_int:1"},{"step":57,"from":"1093307376","to":"1093399304","type":"create","field":"<java.util.Formatter: java.util.Formatter$FormatToken formatToken>"},{"step":58,"from":"1093507704","to":"1093307376","type":"store","field":"<java.util.Formatter: java.lang.Object arg>"},{"step":59,"from":"1093399304","to":"1093399304.<java.util.Formatter$FormatToken: boolean flagComma>","type":"load","field":"<java.util.Formatter$FormatToken: boolean flagComma>"},{"step":60,"from":"1093399304","to":"1093399304.<java.util.Formatter$FormatToken: boolean flagMinus>","type":"load","field":"<java.util.Formatter$FormatToken: boolean flagMinus>"},{"step":61,"from":"1093399304","to":"1093399304.<java.util.Formatter$FormatToken: boolean flagParenthesis>","type":"load","field":"<java.util.Formatter$FormatToken: boolean flagParenthesis>"},{"step":62,"from":"1093399304","to":"1093399304.<java.util.Formatter$FormatToken: boolean flagPlus>","type":"load","field":"<java.util.Formatter$FormatToken: boolean flagPlus>"},{"step":63,"from":"1093399304","to":"1093399304.<java.util.Formatter$FormatToken: boolean flagSharp>","type":"load","field":"<java.util.Formatter$FormatToken: boolean flagSharp>"},{"step":64,"from":"1093399304","to":"1093399304.<java.util.Formatter$FormatToken: boolean flagSpace>","type":"load","field":"<java.util.Formatter$FormatToken: boolean flagSpace>"},{"step":65,"from":"1093399304","to":"1093399304.<java.util.Formatter$FormatToken: boolean flagZero>","type":"load","field":"<java.util.Formatter$FormatToken: boolean flagZero>"},{"step":66,"from":"1093507704","to":"sdaReg129","type":"model"},{"step":67,"from":"1093307376","to":"1093348064","type":"load","field":"<java.util.Formatter: java.lang.Appendable out>"},{"step":68,"from":"1093507704","to":"1093348064","type":"model"}],"parameters":[{"id":"1093307376","name":"this","klass":"java.util.Formatter"},{"id":"sdaReg0","name":"arg#1","klass":"string"},{"id":"1093508720","name":"arg#2","klass":"java.lang.Object[]"}],"returns":[{"id":null,"name":"return","klass":null}],"colors":{"heapLocToColor":{"sdaReg126":[17],"sdaReg129":[2, 24],"1093399304.<java.util.Formatter$FormatToken: boolean flagMinus>":[17],"1093516720.<java.util.Formatter$FormatToken: boolean flagSharp>":[7],"1093307376":[0],"sdaReg67":[7],"sdaReg64":[2],"sdaReg65":[7],"sdaReg62":[0],"sdaReg63":[7],"sdaReg13":[6],"sdaReg72":[15],"sdaReg14":[16, 6],"1093516720":[7],"sdaReg71":[2],"sdaReg11":[0, 6],"sdaReg70":[2, 14],"sdaReg12":[0],"sdaReg10":[5],"sdaReg120":[2],"sdaReg19":[7],"sdaReg122":[17],"sdaReg17":[3],"sdaReg121":[0],"sdaReg18":[7],"sdaReg124":[17],"sdaReg15":[0, 16, 6],"sdaReg123":[2],"sdaReg16":[0, 16, 6],"sdaReg116":[2],"sdaReg117":[3],"sdaReg115":[0],"sdaReg118":[2],"1093508720":[2],"sdaReg77":[0, 16, 6],"sdaReg78":[16],"sdaReg79":[3],"sdaReg73":[0],"sdaReg74":[2],"sdaReg76":[3],"sdaReg81":[17],"sdaReg80":[17],"sdaReg82":[17],"sdaReg113":[17],"1093307376.<java.util.Formatter: boolean closed>":[0],"sdaReg111":[17],"sdaReg110":[17],"sdaReg107":[17],"sdaReg108":[17],"sdaReg109":[17],"1093399304.<java.util.Formatter$FormatToken: boolean flagZero>":[17],"sdaReg103":[17],"1093287920":[2],"sdaReg104":[3],"sdaReg106":[23],"sdaReg87":[17],"1093399304.<java.util.Formatter$FormatToken: boolean flagSharp>":[17],"sdaReg88":[17],"sdaReg89":[3],"sdaReg90":[17],"1093516720.<java.util.Formatter$FormatToken: boolean flagMinus>":[7],"sdaReg94":[3],"sdaReg93":[19],"sdaReg92":[18],"sdaReg91":[3],"sdaReg100":[21],"sdaReg102":[3],"sdaReg101":[22],"1093516720.<java.util.Formatter$FormatToken: boolean flagSpace>":[7],"sdaReg95":[20],"sdaReg96":[17],"sdaReg99":[3],"1093399304.<java.util.Formatter$FormatToken: boolean flagPlus>":[17],"1093254528":[3],"sdaReg61":[2],"1093399304.<java.util.Formatter$FormatToken: boolean flagSpace>":[17],"1093399304.<java.util.Formatter$FormatToken: boolean flagParenthesis>":[17],"1093348064":[0],"sdaReg58":[3],"sdaReg57":[2],"sdaReg56":[0],"sdaReg52":[7],"1093399304":[17],"sdaReg50":[7],"1093507704":[2],"sdaReg48":[7],"sdaReg45":[7],"1093516720.<java.util.Formatter$FormatToken: boolean flagZero>":[7],"sdaReg44":[13],"sdaReg47":[7],"sdaReg46":[7],"sdaReg41":[7],"sdaReg40":[3],"sdaReg42":[3],"1093307376.<java.util.Formatter: java.lang.Appendable out>":[0],"sdaReg39":[12],"sdaReg38":[11],"sdaReg37":[3],"sdaReg32":[3],"sdaReg31":[9],"sdaReg30":[8],"sdaReg34":[7],"sdaReg33":[10],"sdaReg8":[2],"sdaReg6":[3],"sdaReg4":[4],"sdaReg5":[3],"1093516720.<java.util.Formatter$FormatToken: boolean flagPlus>":[7],"sdaReg27":[3],"sdaReg135":[3],"sdaReg26":[7],"sdaReg132":[0],"sdaReg29":[3],"1093516720.<java.util.Formatter$FormatToken: boolean flagComma>":[7],"sdaReg133":[2],"sdaReg28":[7],"sdaReg130":[2],"1093516720.<java.util.Formatter$FormatToken: boolean flagParenthesis>":[7],"sdaReg131":[25],"sdaReg3":[3],"sdaReg2":[3],"1093399304.<java.util.Formatter$FormatToken: boolean flagComma>":[17],"sdaReg1":[0],"sdaReg0":[0, 1],"sdaReg20":[7],"sdaReg25":[7]},"colorToColor":{"17":[0],"0":[0, 16, 1, 3, 6],"16":[0, 1, 3],"1":[0, 16, 3, 6],"2":[0],"4":[3],"23":[17],"6":[0, 1, 3],"7":[0],"13":[7]},"colorToLabel":{"0":"this","1":"arg#1","2":"arg#2","26":"return"}}}

Generated Model
	this->arg#1
	arg#2->this
	arg#2->arg#1
	arg#1->this

