Scanning method <java.util.TreeMap$Node: void <init>(java.util.TreeMap$Node,java.lang.Object)>

All seen event types: MethodReturnRecord, MethodCallRecord, StoreInstanceRecord, 
Ignored event types: 

JSON Encoded Analysis Data (for visualization):{"heapEdges":[{"step":0,"from":"1093301176","to":"1099705112","type":"store","field":"<java.util.TreeMap$Node: java.lang.Object key>"},{"step":1,"from":"1099705112","to":"sdaReg1","type":"create","field":"<java.util.TreeMap$Node: int height>"}],"parameters":[{"id":"1099705112","name":"this","klass":"java.util.TreeMap$Node"},{"id":"0","name":"arg#1","klass":"java.util.TreeMap$Node"},{"id":"1093301176","name":"arg#2","klass":"java.lang.Object"}],"returns":[{"id":"1099705112","name":"return","klass":"java.util.TreeMap$Node"}],"colors":{"heapLocToColor":{"0":[1],"1099705112":[0],"1093301176":[2],"sdaReg0":[0]},"colorToColor":{"0":[3],"2":[0]},"colorToLabel":{"0":"this","1":"arg#1","2":"arg#2","3":"return"}}}

Generated Model
	this->return
	arg#2->this
	arg#2->return

