Scanning method <java.util.TreeMap$Node: void <init>(java.util.TreeMap$Node,java.lang.Object)>

All seen event types: MethodReturnRecord, MethodCallRecord, StoreInstanceRecord, 
Ignored event types: 

JSON Encoded Analysis Data (for visualization):{"heapEdges":[{"step":0,"from":"1094178240","to":"1093532944","type":"store","field":"<java.util.TreeMap$Node: java.util.TreeMap$Node parent>"},{"step":1,"from":"1093431536","to":"1093532944","type":"store","field":"<java.util.TreeMap$Node: java.lang.Object key>"},{"step":2,"from":"1093532944","to":"sdaReg1","type":"create","field":"<java.util.TreeMap$Node: int height>"}],"parameters":[{"id":"1093532944","name":"this","klass":"java.util.TreeMap$Node"},{"id":"1094178240","name":"arg#1","klass":"java.util.TreeMap$Node"},{"id":"1093431536","name":"arg#2","klass":"java.lang.Object"}],"returns":[{"id":"1093532944","name":"return","klass":"java.util.TreeMap$Node"}],"colors":{"heapLocToColor":{"1093532944":[0],"1094178240":[1],"sdaReg0":[0],"1093431536":[2]},"colorToColor":{"0":[3],"1":[0],"2":[0]},"colorToLabel":{"0":"this","1":"arg#1","2":"arg#2","3":"return"}}}

Generated Model
	this->return
	arg#2->this
	arg#2->return
	arg#1->this
	arg#1->return

