Scanning method <java.util.TreeMap$Node: void <init>(java.util.TreeMap$Node,java.lang.Object)>

All seen event types: MethodReturnRecord, MethodCallRecord, StoreInstanceRecord, 
Ignored event types: 

JSON Encoded Analysis Data (for visualization):{"heapEdges":[{"step":0,"from":"1093938576","to":"1094612008","type":"store","field":"<java.util.TreeMap$Node: java.util.TreeMap$Node parent>"},{"step":1,"from":"1093377976","to":"1094612008","type":"store","field":"<java.util.TreeMap$Node: java.lang.Object key>"},{"step":2,"from":"1094612008","to":"sdaReg1","type":"create","field":"<java.util.TreeMap$Node: int height>"}],"parameters":[{"id":"1094612008","name":"this","klass":"java.util.TreeMap$Node"},{"id":"1093938576","name":"arg#1","klass":"java.util.TreeMap$Node"},{"id":"1093377976","name":"arg#2","klass":"java.lang.Object"}],"returns":[{"id":"1094612008","name":"return","klass":"java.util.TreeMap$Node"}],"colors":{"heapLocToColor":{"1094612008":[0],"sdaReg0":[0],"1093377976":[2],"1093938576":[1]},"colorToColor":{"0":[3],"1":[0],"2":[0]},"colorToLabel":{"0":"this","1":"arg#1","2":"arg#2","3":"return"}}}

Generated Model
	this->return
	arg#2->this
	arg#2->return
	arg#1->this
	arg#1->return

