Scanning method <tests.api.java.util.ArrayListTest: void setUp()>

All seen event types: StoreArrayRecord, SimpleAssignmentRecord, MethodStartRecord, LoadInstanceRecord, IfRecord, StoreInstanceRecord, NewObjectRecord, LoadStaticRecord, NewArrayRecord, BinaryOperationRecord, MethodCallRecord, MethodReturnRecord, ArrayLengthRecord, LoadArrayRecord, MethodEndRecord, 
Ignored event types: IfRecord, 

JSON Encoded Analysis Data (for visualization):{"heapEdges":[{"step":0,"from":"1093595120","to":"1093664672","type":"create","field":"<tests.api.java.util.ArrayListTest: java.lang.Object[] objArray>"},{"step":1,"from":"sdaReg2","to":"1093306720","type":"model"},{"step":2,"from":"1093664672","to":"1093306720","type":"create","field":"arrayIdx_int:0"},{"step":3,"from":"sdaReg2","to":"1093329600","type":"model"},{"step":4,"from":"1093664672","to":"1093329600","type":"create","field":"arrayIdx_int:1"},{"step":5,"from":"sdaReg2","to":"1093330152","type":"model"},{"step":6,"from":"1093664672","to":"1093330152","type":"create","field":"arrayIdx_int:2"},{"step":7,"from":"sdaReg2","to":"1093332984","type":"model"},{"step":8,"from":"1093664672","to":"1093332984","type":"create","field":"arrayIdx_int:3"},{"step":9,"from":"sdaReg2","to":"1093337472","type":"model"},{"step":10,"from":"1093664672","to":"1093337472","type":"create","field":"arrayIdx_int:4"},{"step":11,"from":"sdaReg2","to":"1093364712","type":"model"},{"step":12,"from":"1093664672","to":"1093364712","type":"create","field":"arrayIdx_int:5"},{"step":13,"from":"sdaReg2","to":"1093366304","type":"model"},{"step":14,"from":"1093664672","to":"1093366304","type":"create","field":"arrayIdx_int:6"},{"step":15,"from":"sdaReg2","to":"1093368944","type":"model"},{"step":16,"from":"1093664672","to":"1093368944","type":"create","field":"arrayIdx_int:7"},{"step":17,"from":"sdaReg2","to":"1093370016","type":"model"},{"step":18,"from":"1093664672","to":"1093370016","type":"create","field":"arrayIdx_int:8"},{"step":19,"from":"sdaReg2","to":"1093486040","type":"model"},{"step":20,"from":"1093664672","to":"1093486040","type":"create","field":"arrayIdx_int:9"},{"step":21,"from":"sdaReg2","to":"1093490608","type":"model"},{"step":22,"from":"1093664672","to":"1093490608","type":"create","field":"arrayIdx_int:10"},{"step":23,"from":"sdaReg2","to":"1093495360","type":"model"},{"step":24,"from":"1093664672","to":"1093495360","type":"create","field":"arrayIdx_int:11"},{"step":25,"from":"sdaReg2","to":"1093496928","type":"model"},{"step":26,"from":"1093664672","to":"1093496928","type":"create","field":"arrayIdx_int:12"},{"step":27,"from":"sdaReg2","to":"1093351528","type":"model"},{"step":28,"from":"1093664672","to":"1093351528","type":"create","field":"arrayIdx_int:13"},{"step":29,"from":"sdaReg2","to":"1093365240","type":"model"},{"step":30,"from":"1093664672","to":"1093365240","type":"create","field":"arrayIdx_int:14"},{"step":31,"from":"sdaReg2","to":"1093373240","type":"model"},{"step":32,"from":"1093664672","to":"1093373240","type":"create","field":"arrayIdx_int:15"},{"step":33,"from":"sdaReg2","to":"1093378584","type":"model"},{"step":34,"from":"1093664672","to":"1093378584","type":"create","field":"arrayIdx_int:16"},{"step":35,"from":"sdaReg2","to":"1093439256","type":"model"},{"step":36,"from":"1093664672","to":"1093439256","type":"create","field":"arrayIdx_int:17"},{"step":37,"from":"sdaReg2","to":"1093475496","type":"model"},{"step":38,"from":"1093664672","to":"1093475496","type":"create","field":"arrayIdx_int:18"},{"step":39,"from":"sdaReg2","to":"1093491640","type":"model"},{"step":40,"from":"1093664672","to":"1093491640","type":"create","field":"arrayIdx_int:19"},{"step":41,"from":"sdaReg2","to":"1093495888","type":"model"},{"step":42,"from":"1093664672","to":"1093495888","type":"create","field":"arrayIdx_int:20"},{"step":43,"from":"sdaReg2","to":"1093496400","type":"model"},{"step":44,"from":"1093664672","to":"1093496400","type":"create","field":"arrayIdx_int:21"},{"step":45,"from":"sdaReg2","to":"1093344568","type":"model"},{"step":46,"from":"1093664672","to":"1093344568","type":"create","field":"arrayIdx_int:22"},{"step":47,"from":"sdaReg2","to":"1093359032","type":"model"},{"step":48,"from":"1093664672","to":"1093359032","type":"create","field":"arrayIdx_int:23"},{"step":49,"from":"sdaReg2","to":"1093466520","type":"model"},{"step":50,"from":"1093664672","to":"1093466520","type":"create","field":"arrayIdx_int:24"},{"step":51,"from":"sdaReg2","to":"1093473088","type":"model"},{"step":52,"from":"1093664672","to":"1093473088","type":"create","field":"arrayIdx_int:25"},{"step":53,"from":"sdaReg2","to":"1093475992","type":"model"},{"step":54,"from":"1093664672","to":"1093475992","type":"create","field":"arrayIdx_int:26"},{"step":55,"from":"sdaReg2","to":"1093488048","type":"model"},{"step":56,"from":"1093664672","to":"1093488048","type":"create","field":"arrayIdx_int:27"},{"step":57,"from":"sdaReg2","to":"1093345504","type":"model"},{"step":58,"from":"1093664672","to":"1093345504","type":"create","field":"arrayIdx_int:28"},{"step":59,"from":"sdaReg2","to":"1093374800","type":"model"},{"step":60,"from":"1093664672","to":"1093374800","type":"create","field":"arrayIdx_int:29"},{"step":61,"from":"sdaReg2","to":"1093504280","type":"model"},{"step":62,"from":"1093664672","to":"1093504280","type":"create","field":"arrayIdx_int:30"},{"step":63,"from":"sdaReg2","to":"1093339840","type":"model"},{"step":64,"from":"1093664672","to":"1093339840","type":"create","field":"arrayIdx_int:31"},{"step":65,"from":"sdaReg2","to":"1093340728","type":"model"},{"step":66,"from":"1093664672","to":"1093340728","type":"create","field":"arrayIdx_int:32"},{"step":67,"from":"sdaReg2","to":"1093467912","type":"model"},{"step":68,"from":"1093664672","to":"1093467912","type":"create","field":"arrayIdx_int:33"},{"step":69,"from":"sdaReg2","to":"1093295824","type":"model"},{"step":70,"from":"1093664672","to":"1093295824","type":"create","field":"arrayIdx_int:34"},{"step":71,"from":"sdaReg2","to":"1093382240","type":"model"},{"step":72,"from":"1093664672","to":"1093382240","type":"create","field":"arrayIdx_int:35"},{"step":73,"from":"sdaReg2","to":"1093436512","type":"model"},{"step":74,"from":"1093664672","to":"1093436512","type":"create","field":"arrayIdx_int:36"},{"step":75,"from":"sdaReg2","to":"1093381448","type":"model"},{"step":76,"from":"1093664672","to":"1093381448","type":"create","field":"arrayIdx_int:37"},{"step":77,"from":"sdaReg2","to":"1093381840","type":"model"},{"step":78,"from":"1093664672","to":"1093381840","type":"create","field":"arrayIdx_int:38"},{"step":79,"from":"sdaReg2","to":"1093383040","type":"model"},{"step":80,"from":"1093664672","to":"1093383040","type":"create","field":"arrayIdx_int:39"},{"step":81,"from":"sdaReg2","to":"1093396392","type":"model"},{"step":82,"from":"1093664672","to":"1093396392","type":"create","field":"arrayIdx_int:40"},{"step":83,"from":"sdaReg2","to":"1093451896","type":"model"},{"step":84,"from":"1093664672","to":"1093451896","type":"create","field":"arrayIdx_int:41"},{"step":85,"from":"sdaReg2","to":"1093452680","type":"model"},{"step":86,"from":"1093664672","to":"1093452680","type":"create","field":"arrayIdx_int:42"},{"step":87,"from":"sdaReg2","to":"1093509184","type":"model"},{"step":88,"from":"1093664672","to":"1093509184","type":"create","field":"arrayIdx_int:43"},{"step":89,"from":"sdaReg2","to":"1093325784","type":"model"},{"step":90,"from":"1093664672","to":"1093325784","type":"create","field":"arrayIdx_int:44"},{"step":91,"from":"sdaReg2","to":"1093402456","type":"model"},{"step":92,"from":"1093664672","to":"1093402456","type":"create","field":"arrayIdx_int:45"},{"step":93,"from":"sdaReg2","to":"1093416904","type":"model"},{"step":94,"from":"1093664672","to":"1093416904","type":"create","field":"arrayIdx_int:46"},{"step":95,"from":"sdaReg2","to":"1093439832","type":"model"},{"step":96,"from":"1093664672","to":"1093439832","type":"create","field":"arrayIdx_int:47"},{"step":97,"from":"sdaReg2","to":"1093457688","type":"model"},{"step":98,"from":"1093664672","to":"1093457688","type":"create","field":"arrayIdx_int:48"},{"step":99,"from":"sdaReg2","to":"1093533816","type":"model"},{"step":100,"from":"1093664672","to":"1093533816","type":"create","field":"arrayIdx_int:49"},{"step":101,"from":"sdaReg2","to":"1093284424","type":"model"},{"step":102,"from":"1093664672","to":"1093284424","type":"create","field":"arrayIdx_int:50"},{"step":103,"from":"sdaReg2","to":"1093312264","type":"model"},{"step":104,"from":"1093664672","to":"1093312264","type":"create","field":"arrayIdx_int:51"},{"step":105,"from":"sdaReg2","to":"1093313208","type":"model"},{"step":106,"from":"1093664672","to":"1093313208","type":"create","field":"arrayIdx_int:52"},{"step":107,"from":"sdaReg2","to":"1093317744","type":"model"},{"step":108,"from":"1093664672","to":"1093317744","type":"create","field":"arrayIdx_int:53"},{"step":109,"from":"sdaReg2","to":"1093321120","type":"model"},{"step":110,"from":"1093664672","to":"1093321120","type":"create","field":"arrayIdx_int:54"},{"step":111,"from":"sdaReg2","to":"1093399064","type":"model"},{"step":112,"from":"1093664672","to":"1093399064","type":"create","field":"arrayIdx_int:55"},{"step":113,"from":"sdaReg2","to":"1093400704","type":"model"},{"step":114,"from":"1093664672","to":"1093400704","type":"create","field":"arrayIdx_int:56"},{"step":115,"from":"sdaReg2","to":"1093403552","type":"model"},{"step":116,"from":"1093664672","to":"1093403552","type":"create","field":"arrayIdx_int:57"},{"step":117,"from":"sdaReg2","to":"1093410368","type":"model"},{"step":118,"from":"1093664672","to":"1093410368","type":"create","field":"arrayIdx_int:58"},{"step":119,"from":"sdaReg2","to":"1093411336","type":"model"},{"step":120,"from":"1093664672","to":"1093411336","type":"create","field":"arrayIdx_int:59"},{"step":121,"from":"sdaReg2","to":"1093417256","type":"model"},{"step":122,"from":"1093664672","to":"1093417256","type":"create","field":"arrayIdx_int:60"},{"step":123,"from":"sdaReg2","to":"1093419528","type":"model"},{"step":124,"from":"1093664672","to":"1093419528","type":"create","field":"arrayIdx_int:61"},{"step":125,"from":"sdaReg2","to":"1093420496","type":"model"},{"step":126,"from":"1093664672","to":"1093420496","type":"create","field":"arrayIdx_int:62"},{"step":127,"from":"sdaReg2","to":"1093421192","type":"model"},{"step":128,"from":"1093664672","to":"1093421192","type":"create","field":"arrayIdx_int:63"},{"step":129,"from":"sdaReg2","to":"1093425496","type":"model"},{"step":130,"from":"1093664672","to":"1093425496","type":"create","field":"arrayIdx_int:64"},{"step":131,"from":"sdaReg2","to":"1093442040","type":"model"},{"step":132,"from":"1093664672","to":"1093442040","type":"create","field":"arrayIdx_int:65"},{"step":133,"from":"sdaReg2","to":"1093442360","type":"model"},{"step":134,"from":"1093664672","to":"1093442360","type":"create","field":"arrayIdx_int:66"},{"step":135,"from":"sdaReg2","to":"1093445344","type":"model"},{"step":136,"from":"1093664672","to":"1093445344","type":"create","field":"arrayIdx_int:67"},{"step":137,"from":"sdaReg2","to":"1093447824","type":"model"},{"step":138,"from":"1093664672","to":"1093447824","type":"create","field":"arrayIdx_int:68"},{"step":139,"from":"sdaReg2","to":"1093523568","type":"model"},{"step":140,"from":"1093664672","to":"1093523568","type":"create","field":"arrayIdx_int:69"},{"step":141,"from":"sdaReg2","to":"1093526256","type":"model"},{"step":142,"from":"1093664672","to":"1093526256","type":"create","field":"arrayIdx_int:70"},{"step":143,"from":"sdaReg2","to":"1093527912","type":"model"},{"step":144,"from":"1093664672","to":"1093527912","type":"create","field":"arrayIdx_int:71"},{"step":145,"from":"sdaReg2","to":"1093540504","type":"model"},{"step":146,"from":"1093664672","to":"1093540504","type":"create","field":"arrayIdx_int:72"},{"step":147,"from":"sdaReg2","to":"1093546416","type":"model"},{"step":148,"from":"1093664672","to":"1093546416","type":"create","field":"arrayIdx_int:73"},{"step":149,"from":"sdaReg2","to":"1093548368","type":"model"},{"step":150,"from":"1093664672","to":"1093548368","type":"create","field":"arrayIdx_int:74"},{"step":151,"from":"sdaReg2","to":"1093549712","type":"model"},{"step":152,"from":"1093664672","to":"1093549712","type":"create","field":"arrayIdx_int:75"},{"step":153,"from":"sdaReg2","to":"1093317136","type":"model"},{"step":154,"from":"1093664672","to":"1093317136","type":"create","field":"arrayIdx_int:76"},{"step":155,"from":"sdaReg2","to":"1093318672","type":"model"},{"step":156,"from":"1093664672","to":"1093318672","type":"create","field":"arrayIdx_int:77"},{"step":157,"from":"sdaReg2","to":"1093391488","type":"model"},{"step":158,"from":"1093664672","to":"1093391488","type":"create","field":"arrayIdx_int:78"},{"step":159,"from":"sdaReg2","to":"1093395704","type":"model"},{"step":160,"from":"1093664672","to":"1093395704","type":"create","field":"arrayIdx_int:79"},{"step":161,"from":"sdaReg2","to":"1093410056","type":"model"},{"step":162,"from":"1093664672","to":"1093410056","type":"create","field":"arrayIdx_int:80"},{"step":163,"from":"sdaReg2","to":"1093437120","type":"model"},{"step":164,"from":"1093664672","to":"1093437120","type":"create","field":"arrayIdx_int:81"},{"step":165,"from":"sdaReg2","to":"1093446896","type":"model"},{"step":166,"from":"1093664672","to":"1093446896","type":"create","field":"arrayIdx_int:82"},{"step":167,"from":"sdaReg2","to":"1093448432","type":"model"},{"step":168,"from":"1093664672","to":"1093448432","type":"create","field":"arrayIdx_int:83"},{"step":169,"from":"sdaReg2","to":"1093524224","type":"model"},{"step":170,"from":"1093664672","to":"1093524224","type":"create","field":"arrayIdx_int:84"},{"step":171,"from":"sdaReg2","to":"1093537592","type":"model"},{"step":172,"from":"1093664672","to":"1093537592","type":"create","field":"arrayIdx_int:85"},{"step":173,"from":"sdaReg2","to":"1093307208","type":"model"},{"step":174,"from":"1093664672","to":"1093307208","type":"create","field":"arrayIdx_int:86"},{"step":175,"from":"sdaReg2","to":"1093324864","type":"model"},{"step":176,"from":"1093664672","to":"1093324864","type":"create","field":"arrayIdx_int:87"},{"step":177,"from":"sdaReg2","to":"1093444560","type":"model"},{"step":178,"from":"1093664672","to":"1093444560","type":"create","field":"arrayIdx_int:88"},{"step":179,"from":"sdaReg2","to":"1093451328","type":"model"},{"step":180,"from":"1093664672","to":"1093451328","type":"create","field":"arrayIdx_int:89"},{"step":181,"from":"sdaReg2","to":"1093451592","type":"model"},{"step":182,"from":"1093664672","to":"1093451592","type":"create","field":"arrayIdx_int:90"},{"step":183,"from":"sdaReg2","to":"1093300704","type":"model"},{"step":184,"from":"1093664672","to":"1093300704","type":"create","field":"arrayIdx_int:91"},{"step":185,"from":"sdaReg2","to":"1093309480","type":"model"},{"step":186,"from":"1093664672","to":"1093309480","type":"create","field":"arrayIdx_int:92"},{"step":187,"from":"sdaReg2","to":"1093456032","type":"model"},{"step":188,"from":"1093664672","to":"1093456032","type":"create","field":"arrayIdx_int:93"},{"step":189,"from":"sdaReg2","to":"1093512304","type":"model"},{"step":190,"from":"1093664672","to":"1093512304","type":"create","field":"arrayIdx_int:94"},{"step":191,"from":"sdaReg2","to":"1093514072","type":"model"},{"step":192,"from":"1093664672","to":"1093514072","type":"create","field":"arrayIdx_int:95"},{"step":193,"from":"sdaReg2","to":"1093515096","type":"model"},{"step":194,"from":"1093664672","to":"1093515096","type":"create","field":"arrayIdx_int:96"},{"step":195,"from":"sdaReg2","to":"1093515352","type":"model"},{"step":196,"from":"1093664672","to":"1093515352","type":"create","field":"arrayIdx_int:97"},{"step":197,"from":"sdaReg2","to":"1093557256","type":"model"},{"step":198,"from":"1093664672","to":"1093557256","type":"create","field":"arrayIdx_int:98"},{"step":199,"from":"sdaReg2","to":"1093409736","type":"model"},{"step":200,"from":"1093664672","to":"1093409736","type":"create","field":"arrayIdx_int:99"},{"step":201,"from":"static.<libcore.util.EmptyArray: java.lang.Object[] OBJECT>","to":"1083994088","type":"load","field":"<libcore.util.EmptyArray: java.lang.Object[] OBJECT>"},{"step":202,"from":"1083994088","to":"1093410680","type":"store","field":"<java.util.ArrayList: java.lang.Object[] array>"},{"step":203,"from":"1093595120","to":"1093410680","type":"create","field":"<tests.api.java.util.ArrayListTest: java.util.List alist>"},{"step":204,"from":"1093410680","to":"1093410680.<java.util.ArrayList: int size>","type":"load","field":"<java.util.ArrayList: int size>"},{"step":205,"from":"1083994088","to":"1093256808","type":"model"},{"step":206,"from":"1093410680","to":"1093256808","type":"create","field":"<java.util.ArrayList: java.lang.Object[] array>"},{"step":207,"from":"1093306720","to":"1093256808","type":"store","field":"arrayIdx_int:0"},{"step":208,"from":"sdaReg219","to":"1093410680","type":"store","field":"<java.util.ArrayList: int size>"},{"step":209,"from":"1093410680","to":"1093410680.<java.util.AbstractList: int modCount>","type":"load","field":"<java.util.AbstractList: int modCount>"},{"step":210,"from":"sdaReg220","to":"1093410680","type":"store","field":"<java.util.AbstractList: int modCount>"},{"step":211,"from":"1093329600","to":"1093256808","type":"store","field":"arrayIdx_int:1"},{"step":212,"from":"sdaReg226","to":"1093410680","type":"store","field":"<java.util.ArrayList: int size>"},{"step":213,"from":"sdaReg227","to":"1093410680","type":"store","field":"<java.util.AbstractList: int modCount>"},{"step":214,"from":"1093330152","to":"1093256808","type":"store","field":"arrayIdx_int:2"},{"step":215,"from":"sdaReg233","to":"1093410680","type":"store","field":"<java.util.ArrayList: int size>"},{"step":216,"from":"sdaReg234","to":"1093410680","type":"store","field":"<java.util.AbstractList: int modCount>"},{"step":217,"from":"1093332984","to":"1093256808","type":"store","field":"arrayIdx_int:3"},{"step":218,"from":"sdaReg240","to":"1093410680","type":"store","field":"<java.util.ArrayList: int size>"},{"step":219,"from":"sdaReg241","to":"1093410680","type":"store","field":"<java.util.AbstractList: int modCount>"},{"step":220,"from":"1093337472","to":"1093256808","type":"store","field":"arrayIdx_int:4"},{"step":221,"from":"sdaReg247","to":"1093410680","type":"store","field":"<java.util.ArrayList: int size>"},{"step":222,"from":"sdaReg248","to":"1093410680","type":"store","field":"<java.util.AbstractList: int modCount>"},{"step":223,"from":"1093364712","to":"1093256808","type":"store","field":"arrayIdx_int:5"},{"step":224,"from":"sdaReg254","to":"1093410680","type":"store","field":"<java.util.ArrayList: int size>"},{"step":225,"from":"sdaReg255","to":"1093410680","type":"store","field":"<java.util.AbstractList: int modCount>"},{"step":226,"from":"1093366304","to":"1093256808","type":"store","field":"arrayIdx_int:6"},{"step":227,"from":"sdaReg261","to":"1093410680","type":"store","field":"<java.util.ArrayList: int size>"},{"step":228,"from":"sdaReg262","to":"1093410680","type":"store","field":"<java.util.AbstractList: int modCount>"},{"step":229,"from":"1093368944","to":"1093256808","type":"store","field":"arrayIdx_int:7"},{"step":230,"from":"sdaReg268","to":"1093410680","type":"store","field":"<java.util.ArrayList: int size>"},{"step":231,"from":"sdaReg269","to":"1093410680","type":"store","field":"<java.util.AbstractList: int modCount>"},{"step":232,"from":"1093370016","to":"1093256808","type":"store","field":"arrayIdx_int:8"},{"step":233,"from":"sdaReg275","to":"1093410680","type":"store","field":"<java.util.ArrayList: int size>"},{"step":234,"from":"sdaReg276","to":"1093410680","type":"store","field":"<java.util.AbstractList: int modCount>"},{"step":235,"from":"1093486040","to":"1093256808","type":"store","field":"arrayIdx_int:9"},{"step":236,"from":"sdaReg282","to":"1093410680","type":"store","field":"<java.util.ArrayList: int size>"},{"step":237,"from":"sdaReg283","to":"1093410680","type":"store","field":"<java.util.AbstractList: int modCount>"},{"step":238,"from":"1093490608","to":"1093256808","type":"store","field":"arrayIdx_int:10"},{"step":239,"from":"sdaReg289","to":"1093410680","type":"store","field":"<java.util.ArrayList: int size>"},{"step":240,"from":"sdaReg290","to":"1093410680","type":"store","field":"<java.util.AbstractList: int modCount>"},{"step":241,"from":"1093495360","to":"1093256808","type":"store","field":"arrayIdx_int:11"},{"step":242,"from":"sdaReg296","to":"1093410680","type":"store","field":"<java.util.ArrayList: int size>"},{"step":243,"from":"sdaReg297","to":"1093410680","type":"store","field":"<java.util.AbstractList: int modCount>"},{"step":244,"from":"1093256808","to":"1093256880","type":"model"},{"step":245,"from":"1093410680","to":"1093256880","type":"create","field":"<java.util.ArrayList: java.lang.Object[] array>"},{"step":246,"from":"1093496928","to":"1093256880","type":"store","field":"arrayIdx_int:12"},{"step":247,"from":"sdaReg306","to":"1093410680","type":"store","field":"<java.util.ArrayList: int size>"},{"step":248,"from":"sdaReg307","to":"1093410680","type":"store","field":"<java.util.AbstractList: int modCount>"},{"step":249,"from":"1093351528","to":"1093256880","type":"store","field":"arrayIdx_int:13"},{"step":250,"from":"sdaReg313","to":"1093410680","type":"store","field":"<java.util.ArrayList: int size>"},{"step":251,"from":"sdaReg314","to":"1093410680","type":"store","field":"<java.util.AbstractList: int modCount>"},{"step":252,"from":"1093365240","to":"1093256880","type":"store","field":"arrayIdx_int:14"},{"step":253,"from":"sdaReg320","to":"1093410680","type":"store","field":"<java.util.ArrayList: int size>"},{"step":254,"from":"sdaReg321","to":"1093410680","type":"store","field":"<java.util.AbstractList: int modCount>"},{"step":255,"from":"1093373240","to":"1093256880","type":"store","field":"arrayIdx_int:15"},{"step":256,"from":"sdaReg327","to":"1093410680","type":"store","field":"<java.util.ArrayList: int size>"},{"step":257,"from":"sdaReg328","to":"1093410680","type":"store","field":"<java.util.AbstractList: int modCount>"},{"step":258,"from":"1093378584","to":"1093256880","type":"store","field":"arrayIdx_int:16"},{"step":259,"from":"sdaReg334","to":"1093410680","type":"store","field":"<java.util.ArrayList: int size>"},{"step":260,"from":"sdaReg335","to":"1093410680","type":"store","field":"<java.util.AbstractList: int modCount>"},{"step":261,"from":"1093439256","to":"1093256880","type":"store","field":"arrayIdx_int:17"},{"step":262,"from":"sdaReg341","to":"1093410680","type":"store","field":"<java.util.ArrayList: int size>"},{"step":263,"from":"sdaReg342","to":"1093410680","type":"store","field":"<java.util.AbstractList: int modCount>"},{"step":264,"from":"1093256880","to":"1093256976","type":"model"},{"step":265,"from":"1093410680","to":"1093256976","type":"create","field":"<java.util.ArrayList: java.lang.Object[] array>"},{"step":266,"from":"1093475496","to":"1093256976","type":"store","field":"arrayIdx_int:18"},{"step":267,"from":"sdaReg351","to":"1093410680","type":"store","field":"<java.util.ArrayList: int size>"},{"step":268,"from":"sdaReg352","to":"1093410680","type":"store","field":"<java.util.AbstractList: int modCount>"},{"step":269,"from":"1093491640","to":"1093256976","type":"store","field":"arrayIdx_int:19"},{"step":270,"from":"sdaReg358","to":"1093410680","type":"store","field":"<java.util.ArrayList: int size>"},{"step":271,"from":"sdaReg359","to":"1093410680","type":"store","field":"<java.util.AbstractList: int modCount>"},{"step":272,"from":"1093495888","to":"1093256976","type":"store","field":"arrayIdx_int:20"},{"step":273,"from":"sdaReg365","to":"1093410680","type":"store","field":"<java.util.ArrayList: int size>"},{"step":274,"from":"sdaReg366","to":"1093410680","type":"store","field":"<java.util.AbstractList: int modCount>"},{"step":275,"from":"1093496400","to":"1093256976","type":"store","field":"arrayIdx_int:21"},{"step":276,"from":"sdaReg372","to":"1093410680","type":"store","field":"<java.util.ArrayList: int size>"},{"step":277,"from":"sdaReg373","to":"1093410680","type":"store","field":"<java.util.AbstractList: int modCount>"},{"step":278,"from":"1093344568","to":"1093256976","type":"store","field":"arrayIdx_int:22"},{"step":279,"from":"sdaReg379","to":"1093410680","type":"store","field":"<java.util.ArrayList: int size>"},{"step":280,"from":"sdaReg380","to":"1093410680","type":"store","field":"<java.util.AbstractList: int modCount>"},{"step":281,"from":"1093359032","to":"1093256976","type":"store","field":"arrayIdx_int:23"},{"step":282,"from":"sdaReg386","to":"1093410680","type":"store","field":"<java.util.ArrayList: int size>"},{"step":283,"from":"sdaReg387","to":"1093410680","type":"store","field":"<java.util.AbstractList: int modCount>"},{"step":284,"from":"1093466520","to":"1093256976","type":"store","field":"arrayIdx_int:24"},{"step":285,"from":"sdaReg393","to":"1093410680","type":"store","field":"<java.util.ArrayList: int size>"},{"step":286,"from":"sdaReg394","to":"1093410680","type":"store","field":"<java.util.AbstractList: int modCount>"},{"step":287,"from":"1093473088","to":"1093256976","type":"store","field":"arrayIdx_int:25"},{"step":288,"from":"sdaReg400","to":"1093410680","type":"store","field":"<java.util.ArrayList: int size>"},{"step":289,"from":"sdaReg401","to":"1093410680","type":"store","field":"<java.util.AbstractList: int modCount>"},{"step":290,"from":"1093475992","to":"1093256976","type":"store","field":"arrayIdx_int:26"},{"step":291,"from":"sdaReg407","to":"1093410680","type":"store","field":"<java.util.ArrayList: int size>"},{"step":292,"from":"sdaReg408","to":"1093410680","type":"store","field":"<java.util.AbstractList: int modCount>"},{"step":293,"from":"1093256976","to":"1093257104","type":"model"},{"step":294,"from":"1093410680","to":"1093257104","type":"create","field":"<java.util.ArrayList: java.lang.Object[] array>"},{"step":295,"from":"1093488048","to":"1093257104","type":"store","field":"arrayIdx_int:27"},{"step":296,"from":"sdaReg417","to":"1093410680","type":"store","field":"<java.util.ArrayList: int size>"},{"step":297,"from":"sdaReg418","to":"1093410680","type":"store","field":"<java.util.AbstractList: int modCount>"},{"step":298,"from":"1093345504","to":"1093257104","type":"store","field":"arrayIdx_int:28"},{"step":299,"from":"sdaReg424","to":"1093410680","type":"store","field":"<java.util.ArrayList: int size>"},{"step":300,"from":"sdaReg425","to":"1093410680","type":"store","field":"<java.util.AbstractList: int modCount>"},{"step":301,"from":"1093374800","to":"1093257104","type":"store","field":"arrayIdx_int:29"},{"step":302,"from":"sdaReg431","to":"1093410680","type":"store","field":"<java.util.ArrayList: int size>"},{"step":303,"from":"sdaReg432","to":"1093410680","type":"store","field":"<java.util.AbstractList: int modCount>"},{"step":304,"from":"1093504280","to":"1093257104","type":"store","field":"arrayIdx_int:30"},{"step":305,"from":"sdaReg438","to":"1093410680","type":"store","field":"<java.util.ArrayList: int size>"},{"step":306,"from":"sdaReg439","to":"1093410680","type":"store","field":"<java.util.AbstractList: int modCount>"},{"step":307,"from":"1093339840","to":"1093257104","type":"store","field":"arrayIdx_int:31"},{"step":308,"from":"sdaReg445","to":"1093410680","type":"store","field":"<java.util.ArrayList: int size>"},{"step":309,"from":"sdaReg446","to":"1093410680","type":"store","field":"<java.util.AbstractList: int modCount>"},{"step":310,"from":"1093340728","to":"1093257104","type":"store","field":"arrayIdx_int:32"},{"step":311,"from":"sdaReg452","to":"1093410680","type":"store","field":"<java.util.ArrayList: int size>"},{"step":312,"from":"sdaReg453","to":"1093410680","type":"store","field":"<java.util.AbstractList: int modCount>"},{"step":313,"from":"1093467912","to":"1093257104","type":"store","field":"arrayIdx_int:33"},{"step":314,"from":"sdaReg459","to":"1093410680","type":"store","field":"<java.util.ArrayList: int size>"},{"step":315,"from":"sdaReg460","to":"1093410680","type":"store","field":"<java.util.AbstractList: int modCount>"},{"step":316,"from":"1093295824","to":"1093257104","type":"store","field":"arrayIdx_int:34"},{"step":317,"from":"sdaReg466","to":"1093410680","type":"store","field":"<java.util.ArrayList: int size>"},{"step":318,"from":"sdaReg467","to":"1093410680","type":"store","field":"<java.util.AbstractList: int modCount>"},{"step":319,"from":"1093382240","to":"1093257104","type":"store","field":"arrayIdx_int:35"},{"step":320,"from":"sdaReg473","to":"1093410680","type":"store","field":"<java.util.ArrayList: int size>"},{"step":321,"from":"sdaReg474","to":"1093410680","type":"store","field":"<java.util.AbstractList: int modCount>"},{"step":322,"from":"1093436512","to":"1093257104","type":"store","field":"arrayIdx_int:36"},{"step":323,"from":"sdaReg480","to":"1093410680","type":"store","field":"<java.util.ArrayList: int size>"},{"step":324,"from":"sdaReg481","to":"1093410680","type":"store","field":"<java.util.AbstractList: int modCount>"},{"step":325,"from":"1093381448","to":"1093257104","type":"store","field":"arrayIdx_int:37"},{"step":326,"from":"sdaReg487","to":"1093410680","type":"store","field":"<java.util.ArrayList: int size>"},{"step":327,"from":"sdaReg488","to":"1093410680","type":"store","field":"<java.util.AbstractList: int modCount>"},{"step":328,"from":"1093381840","to":"1093257104","type":"store","field":"arrayIdx_int:38"},{"step":329,"from":"sdaReg494","to":"1093410680","type":"store","field":"<java.util.ArrayList: int size>"},{"step":330,"from":"sdaReg495","to":"1093410680","type":"store","field":"<java.util.AbstractList: int modCount>"},{"step":331,"from":"1093383040","to":"1093257104","type":"store","field":"arrayIdx_int:39"},{"step":332,"from":"sdaReg501","to":"1093410680","type":"store","field":"<java.util.ArrayList: int size>"},{"step":333,"from":"sdaReg502","to":"1093410680","type":"store","field":"<java.util.AbstractList: int modCount>"},{"step":334,"from":"1093257104","to":"1093257288","type":"model"},{"step":335,"from":"1093410680","to":"1093257288","type":"create","field":"<java.util.ArrayList: java.lang.Object[] array>"},{"step":336,"from":"1093396392","to":"1093257288","type":"store","field":"arrayIdx_int:40"},{"step":337,"from":"sdaReg511","to":"1093410680","type":"store","field":"<java.util.ArrayList: int size>"},{"step":338,"from":"sdaReg512","to":"1093410680","type":"store","field":"<java.util.AbstractList: int modCount>"},{"step":339,"from":"1093451896","to":"1093257288","type":"store","field":"arrayIdx_int:41"},{"step":340,"from":"sdaReg518","to":"1093410680","type":"store","field":"<java.util.ArrayList: int size>"},{"step":341,"from":"sdaReg519","to":"1093410680","type":"store","field":"<java.util.AbstractList: int modCount>"},{"step":342,"from":"1093452680","to":"1093257288","type":"store","field":"arrayIdx_int:42"},{"step":343,"from":"sdaReg525","to":"1093410680","type":"store","field":"<java.util.ArrayList: int size>"},{"step":344,"from":"sdaReg526","to":"1093410680","type":"store","field":"<java.util.AbstractList: int modCount>"},{"step":345,"from":"1093509184","to":"1093257288","type":"store","field":"arrayIdx_int:43"},{"step":346,"from":"sdaReg532","to":"1093410680","type":"store","field":"<java.util.ArrayList: int size>"},{"step":347,"from":"sdaReg533","to":"1093410680","type":"store","field":"<java.util.AbstractList: int modCount>"},{"step":348,"from":"1093325784","to":"1093257288","type":"store","field":"arrayIdx_int:44"},{"step":349,"from":"sdaReg539","to":"1093410680","type":"store","field":"<java.util.ArrayList: int size>"},{"step":350,"from":"sdaReg540","to":"1093410680","type":"store","field":"<java.util.AbstractList: int modCount>"},{"step":351,"from":"1093402456","to":"1093257288","type":"store","field":"arrayIdx_int:45"},{"step":352,"from":"sdaReg546","to":"1093410680","type":"store","field":"<java.util.ArrayList: int size>"},{"step":353,"from":"sdaReg547","to":"1093410680","type":"store","field":"<java.util.AbstractList: int modCount>"},{"step":354,"from":"1093416904","to":"1093257288","type":"store","field":"arrayIdx_int:46"},{"step":355,"from":"sdaReg553","to":"1093410680","type":"store","field":"<java.util.ArrayList: int size>"},{"step":356,"from":"sdaReg554","to":"1093410680","type":"store","field":"<java.util.AbstractList: int modCount>"},{"step":357,"from":"1093439832","to":"1093257288","type":"store","field":"arrayIdx_int:47"},{"step":358,"from":"sdaReg560","to":"1093410680","type":"store","field":"<java.util.ArrayList: int size>"},{"step":359,"from":"sdaReg561","to":"1093410680","type":"store","field":"<java.util.AbstractList: int modCount>"},{"step":360,"from":"1093457688","to":"1093257288","type":"store","field":"arrayIdx_int:48"},{"step":361,"from":"sdaReg567","to":"1093410680","type":"store","field":"<java.util.ArrayList: int size>"},{"step":362,"from":"sdaReg568","to":"1093410680","type":"store","field":"<java.util.AbstractList: int modCount>"},{"step":363,"from":"1093533816","to":"1093257288","type":"store","field":"arrayIdx_int:49"},{"step":364,"from":"sdaReg574","to":"1093410680","type":"store","field":"<java.util.ArrayList: int size>"},{"step":365,"from":"sdaReg575","to":"1093410680","type":"store","field":"<java.util.AbstractList: int modCount>"},{"step":366,"from":"1093284424","to":"1093257288","type":"store","field":"arrayIdx_int:50"},{"step":367,"from":"sdaReg581","to":"1093410680","type":"store","field":"<java.util.ArrayList: int size>"},{"step":368,"from":"sdaReg582","to":"1093410680","type":"store","field":"<java.util.AbstractList: int modCount>"},{"step":369,"from":"1093312264","to":"1093257288","type":"store","field":"arrayIdx_int:51"},{"step":370,"from":"sdaReg588","to":"1093410680","type":"store","field":"<java.util.ArrayList: int size>"},{"step":371,"from":"sdaReg589","to":"1093410680","type":"store","field":"<java.util.AbstractList: int modCount>"},{"step":372,"from":"1093313208","to":"1093257288","type":"store","field":"arrayIdx_int:52"},{"step":373,"from":"sdaReg595","to":"1093410680","type":"store","field":"<java.util.ArrayList: int size>"},{"step":374,"from":"sdaReg596","to":"1093410680","type":"store","field":"<java.util.AbstractList: int modCount>"},{"step":375,"from":"1093317744","to":"1093257288","type":"store","field":"arrayIdx_int:53"},{"step":376,"from":"sdaReg602","to":"1093410680","type":"store","field":"<java.util.ArrayList: int size>"},{"step":377,"from":"sdaReg603","to":"1093410680","type":"store","field":"<java.util.AbstractList: int modCount>"},{"step":378,"from":"1093321120","to":"1093257288","type":"store","field":"arrayIdx_int:54"},{"step":379,"from":"sdaReg609","to":"1093410680","type":"store","field":"<java.util.ArrayList: int size>"},{"step":380,"from":"sdaReg610","to":"1093410680","type":"store","field":"<java.util.AbstractList: int modCount>"},{"step":381,"from":"1093399064","to":"1093257288","type":"store","field":"arrayIdx_int:55"},{"step":382,"from":"sdaReg616","to":"1093410680","type":"store","field":"<java.util.ArrayList: int size>"},{"step":383,"from":"sdaReg617","to":"1093410680","type":"store","field":"<java.util.AbstractList: int modCount>"},{"step":384,"from":"1093400704","to":"1093257288","type":"store","field":"arrayIdx_int:56"},{"step":385,"from":"sdaReg623","to":"1093410680","type":"store","field":"<java.util.ArrayList: int size>"},{"step":386,"from":"sdaReg624","to":"1093410680","type":"store","field":"<java.util.AbstractList: int modCount>"},{"step":387,"from":"1093403552","to":"1093257288","type":"store","field":"arrayIdx_int:57"},{"step":388,"from":"sdaReg630","to":"1093410680","type":"store","field":"<java.util.ArrayList: int size>"},{"step":389,"from":"sdaReg631","to":"1093410680","type":"store","field":"<java.util.AbstractList: int modCount>"},{"step":390,"from":"1093410368","to":"1093257288","type":"store","field":"arrayIdx_int:58"},{"step":391,"from":"sdaReg637","to":"1093410680","type":"store","field":"<java.util.ArrayList: int size>"},{"step":392,"from":"sdaReg638","to":"1093410680","type":"store","field":"<java.util.AbstractList: int modCount>"},{"step":393,"from":"1093411336","to":"1093257288","type":"store","field":"arrayIdx_int:59"},{"step":394,"from":"sdaReg644","to":"1093410680","type":"store","field":"<java.util.ArrayList: int size>"},{"step":395,"from":"sdaReg645","to":"1093410680","type":"store","field":"<java.util.AbstractList: int modCount>"},{"step":396,"from":"1093257288","to":"1093683576","type":"model"},{"step":397,"from":"1093410680","to":"1093683576","type":"create","field":"<java.util.ArrayList: java.lang.Object[] array>"},{"step":398,"from":"1093417256","to":"1093683576","type":"store","field":"arrayIdx_int:60"},{"step":399,"from":"sdaReg654","to":"1093410680","type":"store","field":"<java.util.ArrayList: int size>"},{"step":400,"from":"sdaReg655","to":"1093410680","type":"store","field":"<java.util.AbstractList: int modCount>"},{"step":401,"from":"1093419528","to":"1093683576","type":"store","field":"arrayIdx_int:61"},{"step":402,"from":"sdaReg661","to":"1093410680","type":"store","field":"<java.util.ArrayList: int size>"},{"step":403,"from":"sdaReg662","to":"1093410680","type":"store","field":"<java.util.AbstractList: int modCount>"},{"step":404,"from":"1093420496","to":"1093683576","type":"store","field":"arrayIdx_int:62"},{"step":405,"from":"sdaReg668","to":"1093410680","type":"store","field":"<java.util.ArrayList: int size>"},{"step":406,"from":"sdaReg669","to":"1093410680","type":"store","field":"<java.util.AbstractList: int modCount>"},{"step":407,"from":"1093421192","to":"1093683576","type":"store","field":"arrayIdx_int:63"},{"step":408,"from":"sdaReg675","to":"1093410680","type":"store","field":"<java.util.ArrayList: int size>"},{"step":409,"from":"sdaReg676","to":"1093410680","type":"store","field":"<java.util.AbstractList: int modCount>"},{"step":410,"from":"1093425496","to":"1093683576","type":"store","field":"arrayIdx_int:64"},{"step":411,"from":"sdaReg682","to":"1093410680","type":"store","field":"<java.util.ArrayList: int size>"},{"step":412,"from":"sdaReg683","to":"1093410680","type":"store","field":"<java.util.AbstractList: int modCount>"},{"step":413,"from":"1093442040","to":"1093683576","type":"store","field":"arrayIdx_int:65"},{"step":414,"from":"sdaReg689","to":"1093410680","type":"store","field":"<java.util.ArrayList: int size>"},{"step":415,"from":"sdaReg690","to":"1093410680","type":"store","field":"<java.util.AbstractList: int modCount>"},{"step":416,"from":"1093442360","to":"1093683576","type":"store","field":"arrayIdx_int:66"},{"step":417,"from":"sdaReg696","to":"1093410680","type":"store","field":"<java.util.ArrayList: int size>"},{"step":418,"from":"sdaReg697","to":"1093410680","type":"store","field":"<java.util.AbstractList: int modCount>"},{"step":419,"from":"1093445344","to":"1093683576","type":"store","field":"arrayIdx_int:67"},{"step":420,"from":"sdaReg703","to":"1093410680","type":"store","field":"<java.util.ArrayList: int size>"},{"step":421,"from":"sdaReg704","to":"1093410680","type":"store","field":"<java.util.AbstractList: int modCount>"},{"step":422,"from":"1093447824","to":"1093683576","type":"store","field":"arrayIdx_int:68"},{"step":423,"from":"sdaReg710","to":"1093410680","type":"store","field":"<java.util.ArrayList: int size>"},{"step":424,"from":"sdaReg711","to":"1093410680","type":"store","field":"<java.util.AbstractList: int modCount>"},{"step":425,"from":"1093523568","to":"1093683576","type":"store","field":"arrayIdx_int:69"},{"step":426,"from":"sdaReg717","to":"1093410680","type":"store","field":"<java.util.ArrayList: int size>"},{"step":427,"from":"sdaReg718","to":"1093410680","type":"store","field":"<java.util.AbstractList: int modCount>"},{"step":428,"from":"1093526256","to":"1093683576","type":"store","field":"arrayIdx_int:70"},{"step":429,"from":"sdaReg724","to":"1093410680","type":"store","field":"<java.util.ArrayList: int size>"},{"step":430,"from":"sdaReg725","to":"1093410680","type":"store","field":"<java.util.AbstractList: int modCount>"},{"step":431,"from":"1093527912","to":"1093683576","type":"store","field":"arrayIdx_int:71"},{"step":432,"from":"sdaReg731","to":"1093410680","type":"store","field":"<java.util.ArrayList: int size>"},{"step":433,"from":"sdaReg732","to":"1093410680","type":"store","field":"<java.util.AbstractList: int modCount>"},{"step":434,"from":"1093540504","to":"1093683576","type":"store","field":"arrayIdx_int:72"},{"step":435,"from":"sdaReg738","to":"1093410680","type":"store","field":"<java.util.ArrayList: int size>"},{"step":436,"from":"sdaReg739","to":"1093410680","type":"store","field":"<java.util.AbstractList: int modCount>"},{"step":437,"from":"1093546416","to":"1093683576","type":"store","field":"arrayIdx_int:73"},{"step":438,"from":"sdaReg745","to":"1093410680","type":"store","field":"<java.util.ArrayList: int size>"},{"step":439,"from":"sdaReg746","to":"1093410680","type":"store","field":"<java.util.AbstractList: int modCount>"},{"step":440,"from":"1093548368","to":"1093683576","type":"store","field":"arrayIdx_int:74"},{"step":441,"from":"sdaReg752","to":"1093410680","type":"store","field":"<java.util.ArrayList: int size>"},{"step":442,"from":"sdaReg753","to":"1093410680","type":"store","field":"<java.util.AbstractList: int modCount>"},{"step":443,"from":"1093549712","to":"1093683576","type":"store","field":"arrayIdx_int:75"},{"step":444,"from":"sdaReg759","to":"1093410680","type":"store","field":"<java.util.ArrayList: int size>"},{"step":445,"from":"sdaReg760","to":"1093410680","type":"store","field":"<java.util.AbstractList: int modCount>"},{"step":446,"from":"1093317136","to":"1093683576","type":"store","field":"arrayIdx_int:76"},{"step":447,"from":"sdaReg766","to":"1093410680","type":"store","field":"<java.util.ArrayList: int size>"},{"step":448,"from":"sdaReg767","to":"1093410680","type":"store","field":"<java.util.AbstractList: int modCount>"},{"step":449,"from":"1093318672","to":"1093683576","type":"store","field":"arrayIdx_int:77"},{"step":450,"from":"sdaReg773","to":"1093410680","type":"store","field":"<java.util.ArrayList: int size>"},{"step":451,"from":"sdaReg774","to":"1093410680","type":"store","field":"<java.util.AbstractList: int modCount>"},{"step":452,"from":"1093391488","to":"1093683576","type":"store","field":"arrayIdx_int:78"},{"step":453,"from":"sdaReg780","to":"1093410680","type":"store","field":"<java.util.ArrayList: int size>"},{"step":454,"from":"sdaReg781","to":"1093410680","type":"store","field":"<java.util.AbstractList: int modCount>"},{"step":455,"from":"1093395704","to":"1093683576","type":"store","field":"arrayIdx_int:79"},{"step":456,"from":"sdaReg787","to":"1093410680","type":"store","field":"<java.util.ArrayList: int size>"},{"step":457,"from":"sdaReg788","to":"1093410680","type":"store","field":"<java.util.AbstractList: int modCount>"},{"step":458,"from":"1093410056","to":"1093683576","type":"store","field":"arrayIdx_int:80"},{"step":459,"from":"sdaReg794","to":"1093410680","type":"store","field":"<java.util.ArrayList: int size>"},{"step":460,"from":"sdaReg795","to":"1093410680","type":"store","field":"<java.util.AbstractList: int modCount>"},{"step":461,"from":"1093437120","to":"1093683576","type":"store","field":"arrayIdx_int:81"},{"step":462,"from":"sdaReg801","to":"1093410680","type":"store","field":"<java.util.ArrayList: int size>"},{"step":463,"from":"sdaReg802","to":"1093410680","type":"store","field":"<java.util.AbstractList: int modCount>"},{"step":464,"from":"1093446896","to":"1093683576","type":"store","field":"arrayIdx_int:82"},{"step":465,"from":"sdaReg808","to":"1093410680","type":"store","field":"<java.util.ArrayList: int size>"},{"step":466,"from":"sdaReg809","to":"1093410680","type":"store","field":"<java.util.AbstractList: int modCount>"},{"step":467,"from":"1093448432","to":"1093683576","type":"store","field":"arrayIdx_int:83"},{"step":468,"from":"sdaReg815","to":"1093410680","type":"store","field":"<java.util.ArrayList: int size>"},{"step":469,"from":"sdaReg816","to":"1093410680","type":"store","field":"<java.util.AbstractList: int modCount>"},{"step":470,"from":"1093524224","to":"1093683576","type":"store","field":"arrayIdx_int:84"},{"step":471,"from":"sdaReg822","to":"1093410680","type":"store","field":"<java.util.ArrayList: int size>"},{"step":472,"from":"sdaReg823","to":"1093410680","type":"store","field":"<java.util.AbstractList: int modCount>"},{"step":473,"from":"1093537592","to":"1093683576","type":"store","field":"arrayIdx_int:85"},{"step":474,"from":"sdaReg829","to":"1093410680","type":"store","field":"<java.util.ArrayList: int size>"},{"step":475,"from":"sdaReg830","to":"1093410680","type":"store","field":"<java.util.AbstractList: int modCount>"},{"step":476,"from":"1093307208","to":"1093683576","type":"store","field":"arrayIdx_int:86"},{"step":477,"from":"sdaReg836","to":"1093410680","type":"store","field":"<java.util.ArrayList: int size>"},{"step":478,"from":"sdaReg837","to":"1093410680","type":"store","field":"<java.util.AbstractList: int modCount>"},{"step":479,"from":"1093324864","to":"1093683576","type":"store","field":"arrayIdx_int:87"},{"step":480,"from":"sdaReg843","to":"1093410680","type":"store","field":"<java.util.ArrayList: int size>"},{"step":481,"from":"sdaReg844","to":"1093410680","type":"store","field":"<java.util.AbstractList: int modCount>"},{"step":482,"from":"1093444560","to":"1093683576","type":"store","field":"arrayIdx_int:88"},{"step":483,"from":"sdaReg850","to":"1093410680","type":"store","field":"<java.util.ArrayList: int size>"},{"step":484,"from":"sdaReg851","to":"1093410680","type":"store","field":"<java.util.AbstractList: int modCount>"},{"step":485,"from":"1093451328","to":"1093683576","type":"store","field":"arrayIdx_int:89"},{"step":486,"from":"sdaReg857","to":"1093410680","type":"store","field":"<java.util.ArrayList: int size>"},{"step":487,"from":"sdaReg858","to":"1093410680","type":"store","field":"<java.util.AbstractList: int modCount>"},{"step":488,"from":"1093683576","to":"1093685656","type":"model"},{"step":489,"from":"1093410680","to":"1093685656","type":"create","field":"<java.util.ArrayList: java.lang.Object[] array>"},{"step":490,"from":"1093451592","to":"1093685656","type":"store","field":"arrayIdx_int:90"},{"step":491,"from":"sdaReg867","to":"1093410680","type":"store","field":"<java.util.ArrayList: int size>"},{"step":492,"from":"sdaReg868","to":"1093410680","type":"store","field":"<java.util.AbstractList: int modCount>"},{"step":493,"from":"1093300704","to":"1093685656","type":"store","field":"arrayIdx_int:91"},{"step":494,"from":"sdaReg874","to":"1093410680","type":"store","field":"<java.util.ArrayList: int size>"},{"step":495,"from":"sdaReg875","to":"1093410680","type":"store","field":"<java.util.AbstractList: int modCount>"},{"step":496,"from":"1093309480","to":"1093685656","type":"store","field":"arrayIdx_int:92"},{"step":497,"from":"sdaReg881","to":"1093410680","type":"store","field":"<java.util.ArrayList: int size>"},{"step":498,"from":"sdaReg882","to":"1093410680","type":"store","field":"<java.util.AbstractList: int modCount>"},{"step":499,"from":"1093456032","to":"1093685656","type":"store","field":"arrayIdx_int:93"},{"step":500,"from":"sdaReg888","to":"1093410680","type":"store","field":"<java.util.ArrayList: int size>"},{"step":501,"from":"sdaReg889","to":"1093410680","type":"store","field":"<java.util.AbstractList: int modCount>"},{"step":502,"from":"1093512304","to":"1093685656","type":"store","field":"arrayIdx_int:94"},{"step":503,"from":"sdaReg895","to":"1093410680","type":"store","field":"<java.util.ArrayList: int size>"},{"step":504,"from":"sdaReg896","to":"1093410680","type":"store","field":"<java.util.AbstractList: int modCount>"},{"step":505,"from":"1093514072","to":"1093685656","type":"store","field":"arrayIdx_int:95"},{"step":506,"from":"sdaReg902","to":"1093410680","type":"store","field":"<java.util.ArrayList: int size>"},{"step":507,"from":"sdaReg903","to":"1093410680","type":"store","field":"<java.util.AbstractList: int modCount>"},{"step":508,"from":"1093515096","to":"1093685656","type":"store","field":"arrayIdx_int:96"},{"step":509,"from":"sdaReg909","to":"1093410680","type":"store","field":"<java.util.ArrayList: int size>"},{"step":510,"from":"sdaReg910","to":"1093410680","type":"store","field":"<java.util.AbstractList: int modCount>"},{"step":511,"from":"1093515352","to":"1093685656","type":"store","field":"arrayIdx_int:97"},{"step":512,"from":"sdaReg916","to":"1093410680","type":"store","field":"<java.util.ArrayList: int size>"},{"step":513,"from":"sdaReg917","to":"1093410680","type":"store","field":"<java.util.AbstractList: int modCount>"},{"step":514,"from":"1093557256","to":"1093685656","type":"store","field":"arrayIdx_int:98"},{"step":515,"from":"sdaReg923","to":"1093410680","type":"store","field":"<java.util.ArrayList: int size>"},{"step":516,"from":"sdaReg924","to":"1093410680","type":"store","field":"<java.util.AbstractList: int modCount>"},{"step":517,"from":"1093409736","to":"1093685656","type":"store","field":"arrayIdx_int:99"},{"step":518,"from":"sdaReg930","to":"1093410680","type":"store","field":"<java.util.ArrayList: int size>"},{"step":519,"from":"sdaReg931","to":"1093410680","type":"store","field":"<java.util.AbstractList: int modCount>"}],"parameters":[{"id":"1093595120","name":"this","klass":"tests.api.java.util.ArrayListTest"}],"returns":[{"id":null,"name":"return","klass":null}],"colors":{"heapLocToColor":{"sdaReg294":[13],"sdaReg190":[95],"sdaReg293":[102],"sdaReg192":[96],"1093490608":[12],"sdaReg579":[52],"sdaReg578":[102],"sdaReg198":[99],"sdaReg194":[97],"sdaReg196":[98],"1093496400":[23],"sdaReg572":[51],"sdaReg571":[102],"1093307208":[88],"1093486040":[11],"1093514072":[97],"1093595120":[0],"1093523568":[71],"sdaReg585":[102],"sdaReg586":[53],"sdaReg599":[102],"1093509184":[45],"sdaReg170":[85],"1093515352":[99],"sdaReg172":[86],"sdaReg174":[87],"sdaReg176":[88],"1093421192":[65],"sdaReg178":[89],"sdaReg693":[102],"sdaReg694":[68],"1093451896":[43],"1093437120":[83],"sdaReg592":[102],"sdaReg593":[54],"1093475496":[20],"sdaReg182":[91],"sdaReg180":[90],"sdaReg186":[93],"sdaReg184":[92],"sdaReg188":[94],"1093345504":[30],"1093436512":[38],"1093312264":[53],"1093533816":[51],"1093416904":[48],"1093457688":[50],"1093364712":[7],"1093378584":[18],"1093466520":[26],"1093419528":[63],"1093444560":[90],"1093445344":[69],"1093318672":[79],"1093344568":[24],"1093306720":[2],"1093417256":[62],"1093317744":[55],"sdaReg68":[34],"1093410680.<java.util.ArrayList: int size>":[102],"sdaReg66":[33],"sdaReg778":[80],"sdaReg64":[32],"sdaReg777":[102],"sdaReg62":[31],"1093473088":[27],"sdaReg72":[36],"sdaReg70":[35],"sdaReg771":[79],"sdaReg770":[102],"1093425496":[66],"sdaReg634":[102],"sdaReg635":[60],"1093512304":[96],"1093410368":[60],"1093382240":[37],"sdaReg641":[102],"sdaReg78":[39],"sdaReg785":[81],"sdaReg74":[37],"1093256808":[104],"sdaReg76":[38],"sdaReg80":[40],"sdaReg506":[42],"sdaReg784":[102],"sdaReg82":[41],"sdaReg505":[102],"sdaReg642":[61],"sdaReg649":[62],"sdaReg648":[102],"1093491640":[21],"sdaReg899":[102],"1093411336":[61],"sdaReg798":[102],"sdaReg86":[43],"sdaReg799":[83],"sdaReg84":[42],"sdaReg88":[44],"sdaReg90":[45],"sdaReg791":[102],"sdaReg94":[47],"sdaReg516":[43],"sdaReg92":[46],"sdaReg515":[102],"sdaReg792":[82],"sdaReg893":[96],"sdaReg892":[102],"sdaReg614":[57],"1093395704":[81],"1093439832":[49],"sdaReg613":[102],"1093456032":[95],"1093368944":[9],"sdaReg96":[48],"sdaReg98":[49],"sdaReg522":[102],"1093540504":[74],"sdaReg523":[44],"1093557256":[100],"sdaReg628":[59],"sdaReg529":[102],"sdaReg627":[102],"sdaReg621":[58],"sdaReg620":[102],"1093373240":[17],"sdaReg530":[45],"sdaReg736":[74],"sdaReg735":[102],"1093537592":[87],"sdaReg879":[94],"sdaReg673":[65],"sdaReg878":[102],"sdaReg672":[102],"1093300704":[93],"sdaReg871":[102],"sdaReg872":[93],"sdaReg679":[102],"sdaReg536":[102],"sdaReg537":[46],"1093504280":[32],"1093383040":[41],"sdaReg742":[102],"1093439256":[19],"sdaReg743":[75],"sdaReg885":[102],"sdaReg886":[95],"sdaReg680":[66],"1093400704":[58],"sdaReg749":[102],"sdaReg686":[102],"sdaReg687":[67],"1093548368":[76],"1093295824":[36],"1093257288":[108],"sdaReg543":[102],"1093410056":[82],"sdaReg544":[47],"sdaReg551":[48],"sdaReg757":[77],"sdaReg550":[102],"sdaReg756":[102],"sdaReg855":[91],"sdaReg854":[102],"1093325784":[46],"sdaReg659":[63],"sdaReg658":[102],"1093396392":[42],"sdaReg557":[102],"1093329600":[3],"sdaReg750":[76],"sdaReg558":[49],"sdaReg764":[78],"sdaReg763":[102],"sdaReg564":[102],"sdaReg862":[92],"1093685656":[110],"1093526256":[72],"sdaReg861":[102],"sdaReg665":[102],"sdaReg666":[64],"1093332984":[5],"sdaReg565":[50],"1093399064":[57],"sdaReg429":[31],"sdaReg428":[102],"sdaReg422":[30],"1093317136":[78],"sdaReg325":[17],"sdaReg324":[102],"1093340728":[34],"sdaReg14":[7],"1093475992":[28],"sdaReg826":[102],"sdaReg827":[87],"sdaReg12":[6],"sdaReg10":[5],"sdaReg820":[86],"1093410680":[102],"1093256976":[106],"sdaReg421":[102],"sdaReg18":[9],"sdaReg16":[8],"sdaReg412":[29],"sdaReg411":[102],"1093256880":[105],"1093381840":[40],"sdaReg317":[102],"sdaReg318":[16],"sdaReg819":[102],"1093467912":[35],"sdaReg310":[102],"sdaReg311":[15],"1093683576":[109],"sdaReg812":[102],"sdaReg813":[85],"1093515096":[98],"sdaReg449":[102],"sdaReg301":[14],"sdaReg300":[102],"sdaReg848":[90],"sdaReg847":[102],"sdaReg442":[102],"sdaReg443":[33],"sdaReg840":[102],"sdaReg841":[89],"sdaReg436":[32],"sdaReg435":[102],"1093410680.<java.util.AbstractList: int modCount>":[102],"1093447824":[70],"1093309480":[94],"1093351528":[15],"1093527912":[73],"sdaReg833":[102],"sdaReg834":[88],"1093381448":[39],"sdaReg60":[30],"sdaReg721":[102],"sdaReg722":[72],"1093366304":[8],"static.<libcore.util.EmptyArray: java.lang.Object[] OBJECT>":[103],"sdaReg729":[73],"sdaReg728":[102],"sdaReg928":[101],"sdaReg927":[102],"sdaReg58":[29],"sdaReg56":[28],"sdaReg921":[100],"sdaReg920":[102],"sdaReg54":[27],"1093495360":[13],"sdaReg52":[26],"sdaReg714":[102],"sdaReg50":[25],"sdaReg715":[71],"1093409736":[101],"1093488048":[29],"1093370016":[10],"1093420496":[64],"sdaReg914":[99],"sdaReg48":[24],"sdaReg44":[22],"sdaReg913":[102],"1093324864":[89],"sdaReg46":[23],"sdaReg40":[20],"sdaReg42":[21],"sdaReg700":[102],"1093546416":[75],"sdaReg606":[102],"sdaReg701":[69],"sdaReg607":[56],"sdaReg707":[102],"sdaReg708":[70],"sdaReg200":[100],"sdaReg600":[55],"sdaReg404":[102],"sdaReg405":[28],"sdaReg906":[102],"sdaReg205":[102],"sdaReg204":[102],"sdaReg38":[19],"sdaReg202":[101],"sdaReg209":[102],"sdaReg208":[102],"sdaReg207":[102],"sdaReg907":[98],"1093442040":[67],"sdaReg206":[102],"1093451328":[91],"sdaReg32":[16],"1093402456":[47],"sdaReg30":[15],"sdaReg36":[18],"sdaReg806":[84],"sdaReg900":[97],"sdaReg805":[102],"sdaReg34":[17],"sdaReg8":[4],"sdaReg6":[3],"sdaReg4":[2],"1093448432":[85],"sdaReg26":[13],"sdaReg28":[14],"sdaReg0":[0],"sdaReg20":[10],"sdaReg22":[11],"1093495888":[22],"sdaReg24":[12],"sdaReg126":[63],"sdaReg128":[64],"sdaReg224":[3],"sdaReg220":[102],"sdaReg223":[102],"sdaReg120":[60],"sdaReg122":[61],"sdaReg124":[62],"sdaReg116":[58],"sdaReg114":[57],"sdaReg398":[27],"sdaReg118":[59],"sdaReg397":[102],"sdaReg219":[102],"sdaReg498":[102],"sdaReg217":[102],"sdaReg390":[102],"sdaReg391":[26],"sdaReg213":[102],"sdaReg491":[102],"sdaReg214":[2],"sdaReg492":[40],"1093446896":[84],"1093257104":[107],"sdaReg210":[102],"1083994088":[103],"sdaReg499":[41],"1093451592":[92],"sdaReg112":[56],"sdaReg110":[55],"sdaReg108":[54],"1093337472":[6],"sdaReg104":[52],"sdaReg383":[102],"sdaReg106":[53],"sdaReg384":[25],"sdaReg245":[6],"sdaReg244":[102],"sdaReg100":[50],"sdaReg102":[51],"sdaReg376":[102],"sdaReg377":[24],"1093284424":[52],"sdaReg370":[23],"sdaReg237":[102],"sdaReg238":[5],"1093403552":[59],"sdaReg230":[102],"sdaReg231":[4],"1093524224":[86],"1093365240":[16],"sdaReg463":[102],"1093452680":[44],"sdaReg464":[36],"1093313208":[54],"1093359032":[25],"sdaReg362":[102],"1093374800":[31],"sdaReg363":[22],"sdaReg162":[81],"sdaReg369":[102],"sdaReg164":[82],"1093321120":[56],"sdaReg166":[83],"sdaReg168":[84],"1093664672":[1],"sdaReg265":[102],"sdaReg266":[9],"sdaReg160":[80],"sdaReg450":[34],"sdaReg259":[8],"sdaReg258":[102],"sdaReg158":[79],"sdaReg355":[102],"1093330152":[4],"sdaReg152":[76],"1093339840":[33],"sdaReg150":[75],"sdaReg356":[21],"sdaReg156":[78],"sdaReg154":[77],"1093391488":[80],"sdaReg251":[102],"sdaReg457":[35],"sdaReg252":[7],"sdaReg456":[102],"sdaReg485":[39],"sdaReg484":[102],"1093442360":[68],"1093496928":[14],"1093549712":[77],"sdaReg148":[74],"sdaReg144":[72],"sdaReg146":[73],"sdaReg345":[102],"sdaReg140":[70],"sdaReg346":[20],"sdaReg280":[11],"sdaReg142":[71],"sdaReg286":[102],"sdaReg287":[12],"sdaReg471":[37],"sdaReg470":[102],"sdaReg279":[102],"sdaReg332":[18],"sdaReg331":[102],"sdaReg138":[69],"sdaReg136":[68],"sdaReg134":[67],"sdaReg132":[66],"sdaReg338":[102],"sdaReg339":[19],"sdaReg130":[65],"sdaReg273":[10],"sdaReg477":[102],"sdaReg272":[102],"sdaReg478":[38]},"colorToColor":{"1":[0],"2":[1, 104],"3":[1, 104],"4":[1, 104],"5":[1, 104],"6":[1, 104],"7":[1, 104],"8":[1, 104],"9":[1, 104],"10":[1, 104],"11":[1, 104],"12":[1, 104],"13":[1, 104],"14":[1, 105],"15":[1, 105],"17":[1, 105],"16":[1, 105],"19":[1, 105],"18":[1, 105],"21":[1, 106],"20":[1, 106],"23":[1, 106],"22":[1, 106],"25":[1, 106],"24":[1, 106],"27":[1, 106],"26":[1, 106],"29":[1, 107],"28":[1, 106],"31":[1, 107],"30":[1, 107],"34":[1, 107],"35":[1, 107],"32":[1, 107],"33":[1, 107],"38":[1, 107],"39":[1, 107],"36":[1, 107],"37":[1, 107],"42":[1, 108],"43":[1, 108],"40":[1, 107],"41":[1, 107],"46":[1, 108],"47":[1, 108],"44":[1, 108],"45":[1, 108],"51":[1, 108],"50":[1, 108],"49":[1, 108],"48":[1, 108],"55":[1, 108],"54":[1, 108],"53":[1, 108],"52":[1, 108],"59":[1, 108],"58":[1, 108],"57":[1, 108],"56":[1, 108],"63":[1, 109],"62":[1, 109],"61":[1, 108],"60":[1, 108],"68":[1, 109],"69":[1, 109],"70":[1, 109],"71":[1, 109],"64":[1, 109],"65":[1, 109],"66":[1, 109],"67":[1, 109],"76":[1, 109],"77":[1, 109],"78":[1, 109],"79":[1, 109],"72":[1, 109],"73":[1, 109],"74":[1, 109],"75":[1, 109],"85":[1, 109],"84":[1, 109],"87":[1, 109],"86":[1, 109],"81":[1, 109],"80":[1, 109],"83":[1, 109],"82":[1, 109],"93":[1, 110],"92":[1, 110],"95":[1, 110],"94":[1, 110],"89":[1, 109],"88":[1, 109],"91":[1, 109],"90":[1, 109],"102":[102, 0],"103":[102, 104],"100":[1, 110],"101":[1, 110],"98":[1, 110],"99":[1, 110],"96":[1, 110],"97":[1, 110],"110":[102],"108":[102, 109],"109":[102, 110],"106":[102, 107],"107":[102, 108],"104":[102, 105],"105":[102, 106]},"colorToLabel":{"0":"this","103":"<libcore.util.EmptyArray: java.lang.Object[] OBJECT>","111":"return"}}}

Generated Model

