Scanning method <java.util.Formatter: void checkNotClosed()>

All seen event types: LoadInstanceRecord, IfRecord, 
Ignored event types: IfRecord, 

JSON Encoded Analysis Data (for visualization):{"heapEdges":[{"step":0,"from":"1093301960","to":"1093301960.<java.util.Formatter: boolean closed>","type":"load","field":"<java.util.Formatter: boolean closed>"}],"parameters":[{"id":"1093301960","name":"this","klass":"java.util.Formatter"}],"returns":[{"id":null,"name":"return","klass":null}],"colors":{"heapLocToColor":{"1093301960":[0],"1093301960.<java.util.Formatter: boolean closed>":[0]},"colorToColor":{},"colorToLabel":{"0":"this","1":"return"}}}

Generated Model

