Scanning method <android.os.Bundle: void readFromParcelInner(android.os.Parcel,int)>

All seen event types: SimpleAssignmentRecord, ExitMonitorRecord, MethodStartRecord, IfRecord, NewObjectRecord, StoreInstanceRecord, LoadStaticRecord, BinaryOperationRecord, MethodCallRecord, MethodReturnRecord, EnterMonitorRecord, LoadArrayRecord, MethodEndRecord, 
Ignored event types: ExitMonitorRecord, EnterMonitorRecord, IfRecord, 

JSON Encoded Analysis Data (for visualization):{"heapEdges":[{"step":0,"from":"1093464416","to":"sdaReg1","type":"model"},{"step":1,"from":"1093464416","to":"sdaReg2","type":"model"},{"step":2,"from":"1093464416","to":"sdaReg3","type":"model"},{"step":3,"from":"sdaReg3","to":"1093464416","type":"model"},{"step":4,"from":"static.<android.os.Parcel: android.os.Parcel[] sOwnedPool>","to":"1084044960","type":"load","field":"<android.os.Parcel: android.os.Parcel[] sOwnedPool>"},{"step":5,"from":"1093794176","to":"sdaReg7","type":"model"},{"step":6,"from":"sdaReg7","to":"1093794176","type":"model"},{"step":7,"from":"1093794176","to":"1093464416","type":"model"},{"step":8,"from":"1093794176","to":"sdaReg2","type":"model"},{"step":9,"from":"1093794176","to":"sdaReg0","type":"model"},{"step":10,"from":"1093464416","to":"1093794176","type":"model"},{"step":11,"from":"1093464416","to":"sdaReg2","type":"model"},{"step":12,"from":"1093464416","to":"sdaReg0","type":"model"},{"step":13,"from":"sdaReg2","to":"1093794176","type":"model"},{"step":14,"from":"sdaReg2","to":"1093464416","type":"model"},{"step":15,"from":"sdaReg2","to":"sdaReg0","type":"model"},{"step":16,"from":"sdaReg0","to":"1093794176","type":"model"},{"step":17,"from":"sdaReg0","to":"1093464416","type":"model"},{"step":18,"from":"sdaReg0","to":"sdaReg2","type":"model"},{"step":19,"from":"1093691568","to":"1093794176","type":"create","field":"<android.os.Bundle: android.os.Parcel mParcelledData>"},{"step":20,"from":"1093794176","to":"sdaReg11","type":"model"},{"step":21,"from":"sdaReg11","to":"1093691568","type":"store","field":"<android.os.Bundle: boolean mHasFds>"},{"step":22,"from":"1093691568","to":"sdaReg12","type":"create","field":"<android.os.Bundle: boolean mFdsKnown>"}],"parameters":[{"id":"1093691568","name":"this","klass":"android.os.Bundle"},{"id":"1093464416","name":"arg#1","klass":"android.os.Parcel"},{"id":"sdaReg0","name":"arg#2","klass":"int"}],"returns":[{"id":null,"name":"return","klass":null}],"colors":{"heapLocToColor":{"sdaReg8":[6],"sdaReg9":[6],"sdaReg6":[6],"static.<android.os.Parcel: android.os.Parcel[] sOwnedPool>":[5],"1084044960":[5],"sdaReg7":[6],"1093464416":[1, 6],"sdaReg4":[5],"1093794176":[6],"1093691568":[0],"sdaReg11":[6, 7],"sdaReg10":[6],"sdaReg3":[1, 2, 4],"sdaReg2":[1, 4, 6],"sdaReg1":[1, 3],"sdaReg0":[2, 6]},"colorToColor":{"1":[1, 2, 4, 6],"2":[1, 4, 6],"4":[1, 2, 6],"6":[0, 1, 2, 4, 6],"7":[0]},"colorToLabel":{"0":"this","1":"arg#1","2":"arg#2","5":"<android.os.Parcel: android.os.Parcel[] sOwnedPool>","8":"return"}}}

Generated Model
	arg#2->this
	arg#2->arg#1
	arg#1->this
	arg#1->arg#2

