Scanning method <java.util.Vector: void addElement(java.lang.Object)>

All seen event types: StoreArrayRecord, SimpleAssignmentRecord, LoadInstanceRecord, MethodStartRecord, IfRecord, StoreInstanceRecord, NewArrayRecord, BinaryOperationRecord, MethodCallRecord, MethodReturnRecord, ArrayLengthRecord, CastRecord, MethodEndRecord, 
Ignored event types: IfRecord, 

JSON Encoded Analysis Data (for visualization):{"heapEdges":[{"step":0,"from":"1093624680","to":"1093624680.<java.util.Vector: int elementCount>","type":"load","field":"<java.util.Vector: int elementCount>"},{"step":1,"from":"1093624680","to":"1093654712","type":"load","field":"<java.util.Vector: java.lang.Object[] elementData>"},{"step":2,"from":"1093624680","to":"1093624680.<java.util.Vector: int capacityIncrement>","type":"load","field":"<java.util.Vector: int capacityIncrement>"},{"step":3,"from":"1093624680","to":"1093654712","type":"load","field":"<java.util.Vector: java.lang.Object[] elementData>"},{"step":4,"from":"1093624680","to":"1093654712","type":"load","field":"<java.util.Vector: java.lang.Object[] elementData>"},{"step":5,"from":"1093624680","to":"1093654712","type":"load","field":"<java.util.Vector: java.lang.Object[] elementData>"},{"step":6,"from":"1093624680","to":"1093624680.<java.util.Vector: int elementCount>","type":"load","field":"<java.util.Vector: int elementCount>"},{"step":7,"from":"1093654712","to":"1093694728","type":"model"},{"step":8,"from":"1093624680","to":"1093694728","type":"create","field":"<java.util.Vector: java.lang.Object[] elementData>"},{"step":9,"from":"1093624680","to":"1093624680.<java.util.Vector: int elementCount>","type":"load","field":"<java.util.Vector: int elementCount>"},{"step":10,"from":"sdaReg10","to":"1093624680","type":"store","field":"<java.util.Vector: int elementCount>"},{"step":11,"from":"1093694632","to":"1093694728","type":"store","field":"arrayIdx_int:80"},{"step":12,"from":"1093624680","to":"1093624680.<java.util.AbstractList: int modCount>","type":"load","field":"<java.util.AbstractList: int modCount>"},{"step":13,"from":"sdaReg11","to":"1093624680","type":"store","field":"<java.util.AbstractList: int modCount>"}],"parameters":[{"id":"1093624680","name":"this","klass":"java.util.Vector"},{"id":"1093694632","name":"arg#1","klass":"java.lang.Object"}],"returns":[{"id":null,"name":"return","klass":null}],"colors":{"heapLocToColor":{"1093624680":[0],"1093624680.<java.util.Vector: java.lang.Object[] elementData>":[0],"sdaReg9":[2],"1093624680.<java.util.Vector: int elementCount>":[0],"sdaReg7":[0],"1093624680.<java.util.Vector: int capacityIncrement>":[0],"1093654712":[0],"sdaReg11":[0],"sdaReg10":[0],"1093694632":[1],"1093624680.<java.util.AbstractList: int modCount>":[0],"sdaReg1":[0],"1093694728":[2]},"colorToColor":{"0":[0, 2],"1":[2],"2":[0]},"colorToLabel":{"0":"this","1":"arg#1","3":"return"}}}

Generated Model
	arg#1->this

