Scanning method <java.util.Vector: void addElement(java.lang.Object)>

All seen event types: BinaryOperationRecord, StoreArrayRecord, ArrayLengthRecord, LoadInstanceRecord, IfRecord, StoreInstanceRecord, 
Ignored event types: IfRecord, 

JSON Encoded Analysis Data (for visualization):{"heapEdges":[{"step":0,"from":"1093618192","to":"1093618192.<java.util.Vector: int elementCount>","type":"load","field":"<java.util.Vector: int elementCount>"},{"step":1,"from":"1093618192","to":"1093640096","type":"load","field":"<java.util.Vector: java.lang.Object[] elementData>"},{"step":2,"from":"1093618192","to":"1093640096","type":"load","field":"<java.util.Vector: java.lang.Object[] elementData>"},{"step":3,"from":"1093618192","to":"1093618192.<java.util.Vector: int elementCount>","type":"load","field":"<java.util.Vector: int elementCount>"},{"step":4,"from":"sdaReg1","to":"1093618192","type":"store","field":"<java.util.Vector: int elementCount>"},{"step":5,"from":"1093246832","to":"1093640096","type":"store","field":"arrayIdx_int:67"},{"step":6,"from":"1093618192","to":"1093618192.<java.util.AbstractList: int modCount>","type":"load","field":"<java.util.AbstractList: int modCount>"},{"step":7,"from":"sdaReg2","to":"1093618192","type":"store","field":"<java.util.AbstractList: int modCount>"}],"parameters":[{"id":"1093618192","name":"this","klass":"java.util.Vector"},{"id":"1093246832","name":"arg#1","klass":"java.lang.Object"}],"returns":[{"id":null,"name":"return","klass":null}],"colors":{"heapLocToColor":{"1093640096":[0],"1093618192.<java.util.Vector: int elementCount>":[0],"1093618192":[0],"1093618192.<java.util.AbstractList: int modCount>":[0],"sdaReg2":[0],"sdaReg1":[0],"1093618192.<java.util.Vector: java.lang.Object[] elementData>":[0],"1093246832":[1]},"colorToColor":{"0":[0],"1":[0]},"colorToLabel":{"0":"this","1":"arg#1","2":"return"}}}

Generated Model
	arg#1->this

