Scanning method <android.location.Location: boolean hasAltitude()>

All seen event types: LoadInstanceRecord, 
Ignored event types: 

JSON Encoded Analysis Data (for visualization):{"heapEdges":[{"step":0,"from":"1093958232","to":"1093958232.<android.location.Location: boolean mHasAltitude>","type":"load","field":"<android.location.Location: boolean mHasAltitude>"}],"parameters":[{"id":"1093958232","name":"this","klass":"android.location.Location"}],"returns":[{"id":"1093958232.<android.location.Location: boolean mHasAltitude>","name":"return","klass":"boolean"}],"colors":{"heapLocToColor":{"1093958232.<android.location.Location: boolean mHasAltitude>":[0],"1093958232":[0]},"colorToColor":{"0":[1]},"colorToLabel":{"0":"this","1":"return"}}}

Generated Model
	this->return

