Scanning method <java.io.StringReader: void checkNotClosed()>

All seen event types: SimpleAssignmentRecord, MethodReturnRecord, MethodCallRecord, LoadInstanceRecord, MethodStartRecord, MethodEndRecord, IfRecord, 
Ignored event types: IfRecord, 

JSON Encoded Analysis Data (for visualization):{"heapEdges":[{"step":0,"from":"1093625856","to":"1093625856.<java.io.StringReader: java.lang.String str>","type":"load","field":"<java.io.StringReader: java.lang.String str>"}],"parameters":[{"id":"1093625856","name":"this","klass":"java.io.StringReader"}],"returns":[{"id":null,"name":"return","klass":null}],"colors":{"heapLocToColor":{"1093625856.<java.io.StringReader: java.lang.String str>":[0],"sdaReg0":[0],"1093625856":[0]},"colorToColor":{},"colorToLabel":{"0":"this","1":"return"}}}

Generated Model

