Scanning method <java.net.URLConnection: java.lang.String getDefaultRequestProperty(java.lang.String)>

All seen event types: 
Ignored event types: 

JSON Encoded Analysis Data (for visualization):{"heapEdges":[],"parameters":[{"id":"sdaReg0","name":"arg#0","klass":"string"}],"returns":[{"id":null,"name":"return","klass":"string"}],"colors":{"heapLocToColor":{"sdaReg0":[0]},"colorToColor":{},"colorToLabel":{"0":"arg#0","1":"return"}}}

Generated Model

