Scanning method <java.util.ArrayList: void clear()>

All seen event types: BinaryOperationRecord, StoreArrayRecord, SimpleAssignmentRecord, MethodReturnRecord, MethodCallRecord, ArrayLengthRecord, MethodStartRecord, LoadInstanceRecord, MethodEndRecord, IfRecord, StoreInstanceRecord, 
Ignored event types: IfRecord, 

JSON Encoded Analysis Data (for visualization):{"heapEdges":[{"step":0,"from":"1093398408","to":"1093398408.<java.util.ArrayList: int size>","type":"load","field":"<java.util.ArrayList: int size>"},{"step":1,"from":"1093398408","to":"1093617616","type":"load","field":"<java.util.ArrayList: java.lang.Object[] array>"},{"step":2,"from":"1093398408","to":"1093398408.<java.util.ArrayList: int size>","type":"load","field":"<java.util.ArrayList: int size>"},{"step":3,"from":"1093398408","to":"sdaReg4","type":"create","field":"<java.util.ArrayList: int size>"},{"step":4,"from":"1093398408","to":"1093398408.<java.util.AbstractList: int modCount>","type":"load","field":"<java.util.AbstractList: int modCount>"},{"step":5,"from":"sdaReg5","to":"1093398408","type":"store","field":"<java.util.AbstractList: int modCount>"}],"parameters":[{"id":"1093398408","name":"this","klass":"java.util.ArrayList"}],"returns":[{"id":null,"name":"return","klass":null}],"colors":{"heapLocToColor":{"sdaReg5":[0],"1093398408.<java.util.ArrayList: int size>":[0],"sdaReg0":[0],"1093398408.<java.util.AbstractList: int modCount>":[0],"1093398408":[0],"1093617616":[0]},"colorToColor":{"0":[0]},"colorToLabel":{"0":"this","1":"return"}}}

Generated Model

