Scanning method <java.util.ArrayList: boolean remove(java.lang.Object)>

All seen event types: BinaryOperationRecord, StoreArrayRecord, SimpleAssignmentRecord, MethodReturnRecord, MethodCallRecord, LoadInstanceRecord, LoadArrayRecord, IfRecord, StoreInstanceRecord, 
Ignored event types: IfRecord, 

JSON Encoded Analysis Data (for visualization):{"heapEdges":[{"step":0,"from":"1093317512","to":"1093749568","type":"load","field":"<java.util.ArrayList: java.lang.Object[] array>"},{"step":1,"from":"1093317512","to":"1093317512.<java.util.ArrayList: int size>","type":"load","field":"<java.util.ArrayList: int size>"},{"step":2,"from":"1093749568","to":"1084428816","type":"load","field":"arrayIdx_int:0"},{"step":3,"from":"1093749568","to":"sdaReg5","type":"create","field":"arrayIdx_int:6"},{"step":4,"from":"sdaReg3","to":"1093317512","type":"store","field":"<java.util.ArrayList: int size>"},{"step":5,"from":"1093317512","to":"1093317512.<java.util.AbstractList: int modCount>","type":"load","field":"<java.util.AbstractList: int modCount>"},{"step":6,"from":"sdaReg6","to":"1093317512","type":"store","field":"<java.util.AbstractList: int modCount>"}],"parameters":[{"id":"1093317512","name":"this","klass":"java.util.ArrayList"},{"id":"1084428816","name":"arg#1","klass":"java.lang.Object"}],"returns":[{"id":null,"name":"return","klass":"boolean"}],"colors":{"heapLocToColor":{"1093317512.<java.util.ArrayList: int size>":[0],"1093317512":[0],"1093317512.<java.util.AbstractList: int modCount>":[0],"sdaReg6":[0],"sdaReg4":[0],"sdaReg3":[0],"sdaReg1":[2],"1084428816":[0, 1],"1093749568":[0],"1093749568.arrayIdx_int:0":[1]},"colorToColor":{"0":[0]},"colorToLabel":{"0":"this","1":"arg#1","3":"return"}}}

Generated Model

