Scanning method <java.util.ArrayList: boolean contains(java.lang.Object)>

All seen event types: BinaryOperationRecord, SimpleAssignmentRecord, MethodReturnRecord, MethodCallRecord, LoadInstanceRecord, LoadArrayRecord, IfRecord, 
Ignored event types: IfRecord, 

JSON Encoded Analysis Data (for visualization):{"heapEdges":[{"step":0,"from":"1093519824","to":"1094129696","type":"load","field":"<java.util.ArrayList: java.lang.Object[] array>"},{"step":1,"from":"1093519824","to":"1093519824.<java.util.ArrayList: int size>","type":"load","field":"<java.util.ArrayList: int size>"},{"step":2,"from":"1094129696","to":"1093852672","type":"load","field":"arrayIdx_int:0"},{"step":3,"from":"1094129696","to":"1094178736","type":"load","field":"arrayIdx_int:1"},{"step":4,"from":"1094129696","to":"1094032064","type":"load","field":"arrayIdx_int:2"},{"step":5,"from":"1094129696","to":"1094193096","type":"load","field":"arrayIdx_int:3"},{"step":6,"from":"1094129696","to":"1093854368","type":"load","field":"arrayIdx_int:4"},{"step":7,"from":"1094129696","to":"1093571160","type":"load","field":"arrayIdx_int:5"},{"step":8,"from":"1094129696","to":"1093259736","type":"load","field":"arrayIdx_int:6"},{"step":9,"from":"1094129696","to":"1093229088","type":"load","field":"arrayIdx_int:7"},{"step":10,"from":"1094129696","to":"1094295272","type":"load","field":"arrayIdx_int:8"},{"step":11,"from":"1094129696","to":"1093748960","type":"load","field":"arrayIdx_int:9"},{"step":12,"from":"1094129696","to":"1093798120","type":"load","field":"arrayIdx_int:10"},{"step":13,"from":"1094129696","to":"1093750272","type":"load","field":"arrayIdx_int:11"},{"step":14,"from":"1094129696","to":"1093306400","type":"load","field":"arrayIdx_int:12"},{"step":15,"from":"1094129696","to":"1093431536","type":"load","field":"arrayIdx_int:13"},{"step":16,"from":"1094129696","to":"1093475704","type":"load","field":"arrayIdx_int:14"},{"step":17,"from":"1094129696","to":"1093342360","type":"load","field":"arrayIdx_int:15"},{"step":18,"from":"1094129696","to":"1093464024","type":"load","field":"arrayIdx_int:16"},{"step":19,"from":"1094129696","to":"1093474640","type":"load","field":"arrayIdx_int:17"},{"step":20,"from":"1094129696","to":"1093571344","type":"load","field":"arrayIdx_int:18"},{"step":21,"from":"1094129696","to":"1093594080","type":"load","field":"arrayIdx_int:19"},{"step":22,"from":"1094129696","to":"1093319400","type":"load","field":"arrayIdx_int:20"},{"step":23,"from":"1094129696","to":"1093336024","type":"load","field":"arrayIdx_int:21"},{"step":24,"from":"1094129696","to":"1093336536","type":"load","field":"arrayIdx_int:22"},{"step":25,"from":"1094129696","to":"1093254744","type":"load","field":"arrayIdx_int:23"},{"step":26,"from":"1094129696","to":"1093789280","type":"load","field":"arrayIdx_int:24"},{"step":27,"from":"1094129696","to":"1093447440","type":"load","field":"arrayIdx_int:25"},{"step":28,"from":"1094129696","to":"1093472464","type":"load","field":"arrayIdx_int:26"},{"step":29,"from":"1094129696","to":"1093250392","type":"load","field":"arrayIdx_int:27"},{"step":30,"from":"1094129696","to":"1093288432","type":"load","field":"arrayIdx_int:28"},{"step":31,"from":"1094129696","to":"1093327392","type":"load","field":"arrayIdx_int:29"},{"step":32,"from":"1094129696","to":"1093340760","type":"load","field":"arrayIdx_int:30"},{"step":33,"from":"1094129696","to":"1093351976","type":"load","field":"arrayIdx_int:31"},{"step":34,"from":"1094129696","to":"1093437704","type":"load","field":"arrayIdx_int:32"},{"step":35,"from":"1094129696","to":"1093441328","type":"load","field":"arrayIdx_int:33"},{"step":36,"from":"1094129696","to":"1093355656","type":"load","field":"arrayIdx_int:34"},{"step":37,"from":"1094129696","to":"1093335456","type":"load","field":"arrayIdx_int:35"},{"step":38,"from":"1094129696","to":"1093297184","type":"load","field":"arrayIdx_int:36"},{"step":39,"from":"1094129696","to":"1093309728","type":"load","field":"arrayIdx_int:37"},{"step":40,"from":"1094129696","to":"1093356848","type":"load","field":"arrayIdx_int:38"},{"step":41,"from":"1094129696","to":"1093356456","type":"load","field":"arrayIdx_int:39"},{"step":42,"from":"1094129696","to":"1093375120","type":"load","field":"arrayIdx_int:40"},{"step":43,"from":"1094129696","to":"1093458456","type":"load","field":"arrayIdx_int:41"},{"step":44,"from":"1094129696","to":"1094472424","type":"load","field":"arrayIdx_int:42"},{"step":45,"from":"1094129696","to":"1093284216","type":"load","field":"arrayIdx_int:43"},{"step":46,"from":"1094129696","to":"1093309160","type":"load","field":"arrayIdx_int:44"},{"step":47,"from":"1094129696","to":"1093343376","type":"load","field":"arrayIdx_int:45"},{"step":48,"from":"1094129696","to":"1093348216","type":"load","field":"arrayIdx_int:46"},{"step":49,"from":"1094129696","to":"1093349608","type":"load","field":"arrayIdx_int:47"},{"step":50,"from":"1094129696","to":"1093432024","type":"load","field":"arrayIdx_int:48"},{"step":51,"from":"1094129696","to":"1093514912","type":"load","field":"arrayIdx_int:49"},{"step":52,"from":"1094129696","to":"1093517776","type":"load","field":"arrayIdx_int:50"}],"parameters":[{"id":"1093519824","name":"this","klass":"java.util.ArrayList"},{"id":"1093259016","name":"arg#1","klass":"java.lang.Object"}],"returns":[{"id":null,"name":"return","klass":"boolean"}],"colors":{"heapLocToColor":{"1093349608":[0],"1093571344":[0],"sdaReg13":[14],"sdaReg14":[15],"sdaReg11":[12],"1093437704":[0],"1093306400":[0],"sdaReg12":[13],"sdaReg10":[11],"1093514912":[0],"sdaReg19":[20],"1093798120":[0],"sdaReg17":[18],"sdaReg18":[19],"sdaReg15":[16],"sdaReg16":[17],"1094129696":[0],"1093288432":[0],"1094472424":[0],"1093254744":[0],"1093464024":[0],"1093447440":[0],"1093375120":[0],"1093789280":[0],"1093284216":[0],"1094193096":[0],"1093852672":[0],"1093319400":[0],"1093594080":[0],"1093854368":[0],"1093348216":[0],"1094295272":[0],"1093458456":[0],"1093475704":[0],"1093748960":[0],"1093309728":[0],"1093432024":[0],"1093519824":[0],"1093336536":[0],"sdaReg51":[52],"1093297184":[0],"1093356848":[0],"sdaReg50":[51],"1093355656":[0],"sdaReg49":[50],"sdaReg48":[49],"sdaReg45":[46],"1093340760":[0],"sdaReg44":[45],"sdaReg47":[48],"sdaReg46":[47],"sdaReg41":[42],"sdaReg40":[41],"sdaReg43":[44],"1093351976":[0],"sdaReg42":[43],"1093342360":[0],"1093517776":[0],"1093327392":[0],"1093519824.<java.util.ArrayList: int size>":[0],"1093356456":[0],"sdaReg39":[40],"1094178736":[0],"sdaReg38":[39],"sdaReg37":[38],"1093750272":[0],"sdaReg32":[33],"1093474640":[0],"sdaReg31":[32],"sdaReg30":[31],"sdaReg36":[37],"sdaReg35":[36],"sdaReg34":[35],"sdaReg33":[34],"1093441328":[0],"1093571160":[0],"1094032064":[0],"sdaReg8":[9],"sdaReg9":[10],"sdaReg6":[7],"sdaReg7":[8],"sdaReg4":[5],"sdaReg5":[6],"1093259736":[0],"1093259016":[1],"1093343376":[0],"1093431536":[0],"1093472464":[0],"sdaReg27":[28],"1093229088":[0],"sdaReg26":[27],"sdaReg29":[30],"1093336024":[0],"sdaReg28":[29],"1093250392":[0],"sdaReg3":[4],"sdaReg2":[3],"1093309160":[0],"sdaReg21":[22],"sdaReg1":[2],"sdaReg20":[21],"sdaReg23":[24],"sdaReg22":[23],"sdaReg25":[26],"1093335456":[0],"sdaReg24":[25]},"colorToColor":{},"colorToLabel":{"0":"this","1":"arg#1","53":"return"}}}

Generated Model

