Scanning method <java.util.ArrayList: boolean contains(java.lang.Object)>

All seen event types: BinaryOperationRecord, SimpleAssignmentRecord, MethodReturnRecord, MethodCallRecord, LoadInstanceRecord, LoadArrayRecord, IfRecord, 
Ignored event types: IfRecord, 

JSON Encoded Analysis Data (for visualization):{"heapEdges":[{"step":0,"from":"1093519824","to":"1094129696","type":"load","field":"<java.util.ArrayList: java.lang.Object[] array>"},{"step":1,"from":"1093519824","to":"1093519824.<java.util.ArrayList: int size>","type":"load","field":"<java.util.ArrayList: int size>"},{"step":2,"from":"1094129696","to":"1093852672","type":"load","field":"arrayIdx_int:0"},{"step":3,"from":"1094129696","to":"1094178736","type":"load","field":"arrayIdx_int:1"},{"step":4,"from":"1094129696","to":"1094032064","type":"load","field":"arrayIdx_int:2"},{"step":5,"from":"1094129696","to":"1094193096","type":"load","field":"arrayIdx_int:3"},{"step":6,"from":"1094129696","to":"1093854368","type":"load","field":"arrayIdx_int:4"},{"step":7,"from":"1094129696","to":"1093571160","type":"load","field":"arrayIdx_int:5"},{"step":8,"from":"1094129696","to":"1093259736","type":"load","field":"arrayIdx_int:6"},{"step":9,"from":"1094129696","to":"1093229088","type":"load","field":"arrayIdx_int:7"},{"step":10,"from":"1094129696","to":"1094295272","type":"load","field":"arrayIdx_int:8"},{"step":11,"from":"1094129696","to":"1093748960","type":"load","field":"arrayIdx_int:9"},{"step":12,"from":"1094129696","to":"1093798120","type":"load","field":"arrayIdx_int:10"},{"step":13,"from":"1094129696","to":"1093750272","type":"load","field":"arrayIdx_int:11"},{"step":14,"from":"1094129696","to":"1093306400","type":"load","field":"arrayIdx_int:12"},{"step":15,"from":"1094129696","to":"1093431536","type":"load","field":"arrayIdx_int:13"},{"step":16,"from":"1094129696","to":"1093475704","type":"load","field":"arrayIdx_int:14"},{"step":17,"from":"1094129696","to":"1093342360","type":"load","field":"arrayIdx_int:15"},{"step":18,"from":"1094129696","to":"1093464024","type":"load","field":"arrayIdx_int:16"},{"step":19,"from":"1094129696","to":"1093474640","type":"load","field":"arrayIdx_int:17"},{"step":20,"from":"1094129696","to":"1093571344","type":"load","field":"arrayIdx_int:18"},{"step":21,"from":"1094129696","to":"1093594080","type":"load","field":"arrayIdx_int:19"},{"step":22,"from":"1094129696","to":"1093319400","type":"load","field":"arrayIdx_int:20"},{"step":23,"from":"1094129696","to":"1093336024","type":"load","field":"arrayIdx_int:21"},{"step":24,"from":"1094129696","to":"1093336536","type":"load","field":"arrayIdx_int:22"},{"step":25,"from":"1094129696","to":"1093254744","type":"load","field":"arrayIdx_int:23"},{"step":26,"from":"1094129696","to":"1093789280","type":"load","field":"arrayIdx_int:24"},{"step":27,"from":"1094129696","to":"1093447440","type":"load","field":"arrayIdx_int:25"},{"step":28,"from":"1094129696","to":"1093472464","type":"load","field":"arrayIdx_int:26"},{"step":29,"from":"1094129696","to":"1093250392","type":"load","field":"arrayIdx_int:27"},{"step":30,"from":"1094129696","to":"1093288432","type":"load","field":"arrayIdx_int:28"},{"step":31,"from":"1094129696","to":"1093327392","type":"load","field":"arrayIdx_int:29"},{"step":32,"from":"1094129696","to":"1093340760","type":"load","field":"arrayIdx_int:30"},{"step":33,"from":"1094129696","to":"1093351976","type":"load","field":"arrayIdx_int:31"},{"step":34,"from":"1094129696","to":"1093437704","type":"load","field":"arrayIdx_int:32"},{"step":35,"from":"1094129696","to":"1093441328","type":"load","field":"arrayIdx_int:33"},{"step":36,"from":"1094129696","to":"1093355656","type":"load","field":"arrayIdx_int:34"},{"step":37,"from":"1094129696","to":"1093335456","type":"load","field":"arrayIdx_int:35"},{"step":38,"from":"1094129696","to":"1093297184","type":"load","field":"arrayIdx_int:36"},{"step":39,"from":"1094129696","to":"1093309728","type":"load","field":"arrayIdx_int:37"},{"step":40,"from":"1094129696","to":"1093356848","type":"load","field":"arrayIdx_int:38"},{"step":41,"from":"1094129696","to":"1093356456","type":"load","field":"arrayIdx_int:39"},{"step":42,"from":"1094129696","to":"1093375120","type":"load","field":"arrayIdx_int:40"},{"step":43,"from":"1094129696","to":"1093458456","type":"load","field":"arrayIdx_int:41"},{"step":44,"from":"1094129696","to":"1094472424","type":"load","field":"arrayIdx_int:42"},{"step":45,"from":"1094129696","to":"1093284216","type":"load","field":"arrayIdx_int:43"},{"step":46,"from":"1094129696","to":"1093309160","type":"load","field":"arrayIdx_int:44"},{"step":47,"from":"1094129696","to":"1093343376","type":"load","field":"arrayIdx_int:45"},{"step":48,"from":"1094129696","to":"1093348216","type":"load","field":"arrayIdx_int:46"},{"step":49,"from":"1094129696","to":"1093349608","type":"load","field":"arrayIdx_int:47"},{"step":50,"from":"1094129696","to":"1093432024","type":"load","field":"arrayIdx_int:48"},{"step":51,"from":"1094129696","to":"1093514912","type":"load","field":"arrayIdx_int:49"},{"step":52,"from":"1094129696","to":"1093517776","type":"load","field":"arrayIdx_int:50"},{"step":53,"from":"1094129696","to":"1093522768","type":"load","field":"arrayIdx_int:51"},{"step":54,"from":"1094129696","to":"1093719400","type":"load","field":"arrayIdx_int:52"},{"step":55,"from":"1094129696","to":"1094062752","type":"load","field":"arrayIdx_int:53"},{"step":56,"from":"1094129696","to":"1094168576","type":"load","field":"arrayIdx_int:54"},{"step":57,"from":"1094129696","to":"1093256176","type":"load","field":"arrayIdx_int:55"},{"step":58,"from":"1094129696","to":"1093269216","type":"load","field":"arrayIdx_int:56"},{"step":59,"from":"1094129696","to":"1093283520","type":"load","field":"arrayIdx_int:57"},{"step":60,"from":"1094129696","to":"1093364232","type":"load","field":"arrayIdx_int:58"},{"step":61,"from":"1094129696","to":"1093379064","type":"load","field":"arrayIdx_int:59"},{"step":62,"from":"1094129696","to":"1093388184","type":"load","field":"arrayIdx_int:60"},{"step":63,"from":"1094129696","to":"1093392608","type":"load","field":"arrayIdx_int:61"},{"step":64,"from":"1094129696","to":"1093403480","type":"load","field":"arrayIdx_int:62"},{"step":65,"from":"1094129696","to":"1093427368","type":"load","field":"arrayIdx_int:63"},{"step":66,"from":"1094129696","to":"1093494376","type":"load","field":"arrayIdx_int:64"},{"step":67,"from":"1094129696","to":"1093507584","type":"load","field":"arrayIdx_int:65"},{"step":68,"from":"1094129696","to":"1093515616","type":"load","field":"arrayIdx_int:66"},{"step":69,"from":"1094129696","to":"1093292720","type":"load","field":"arrayIdx_int:67"},{"step":70,"from":"1094129696","to":"1093294536","type":"load","field":"arrayIdx_int:68"},{"step":71,"from":"1094129696","to":"1093355232","type":"load","field":"arrayIdx_int:69"},{"step":72,"from":"1094129696","to":"1093363904","type":"load","field":"arrayIdx_int:70"},{"step":73,"from":"1094129696","to":"1093370496","type":"load","field":"arrayIdx_int:71"},{"step":74,"from":"1094129696","to":"1093371152","type":"load","field":"arrayIdx_int:72"},{"step":75,"from":"1094129696","to":"1093383784","type":"load","field":"arrayIdx_int:73"},{"step":76,"from":"1094129696","to":"1093398912","type":"load","field":"arrayIdx_int:74"},{"step":77,"from":"1094129696","to":"1093400864","type":"load","field":"arrayIdx_int:75"},{"step":78,"from":"1094129696","to":"1093425680","type":"load","field":"arrayIdx_int:76"},{"step":79,"from":"1094129696","to":"1093492424","type":"load","field":"arrayIdx_int:77"},{"step":80,"from":"1094129696","to":"1093499016","type":"load","field":"arrayIdx_int:78"},{"step":81,"from":"1094129696","to":"1093524480","type":"load","field":"arrayIdx_int:79"},{"step":82,"from":"1094129696","to":"1093530040","type":"load","field":"arrayIdx_int:80"},{"step":83,"from":"1094129696","to":"1093571744","type":"load","field":"arrayIdx_int:81"},{"step":84,"from":"1094129696","to":"1093572512","type":"load","field":"arrayIdx_int:82"},{"step":85,"from":"1094129696","to":"1093573104","type":"load","field":"arrayIdx_int:83"},{"step":86,"from":"1094129696","to":"1093574168","type":"load","field":"arrayIdx_int:84"},{"step":87,"from":"1094129696","to":"1093218856","type":"load","field":"arrayIdx_int:85"},{"step":88,"from":"1094129696","to":"1093260328","type":"load","field":"arrayIdx_int:86"},{"step":89,"from":"1094129696","to":"1093284704","type":"load","field":"arrayIdx_int:87"},{"step":90,"from":"1094129696","to":"1093290848","type":"load","field":"arrayIdx_int:88"},{"step":91,"from":"1094129696","to":"1093293032","type":"load","field":"arrayIdx_int:89"},{"step":92,"from":"1094129696","to":"1093325376","type":"load","field":"arrayIdx_int:90"},{"step":93,"from":"1094129696","to":"1093375472","type":"load","field":"arrayIdx_int:91"},{"step":94,"from":"1094129696","to":"1093377976","type":"load","field":"arrayIdx_int:92"},{"step":95,"from":"1094129696","to":"1093382184","type":"load","field":"arrayIdx_int:93"},{"step":96,"from":"1094129696","to":"1093383472","type":"load","field":"arrayIdx_int:94"},{"step":97,"from":"1094129696","to":"1093396616","type":"load","field":"arrayIdx_int:95"},{"step":98,"from":"1094129696","to":"1093397624","type":"load","field":"arrayIdx_int:96"},{"step":99,"from":"1094129696","to":"1093412864","type":"load","field":"arrayIdx_int:97"},{"step":100,"from":"1094129696","to":"1093410536","type":"load","field":"arrayIdx_int:98"},{"step":101,"from":"1094129696","to":"1093420608","type":"load","field":"arrayIdx_int:99"},{"step":102,"from":"1094129696","to":"1093301176","type":"load","field":"arrayIdx_int:100"}],"parameters":[{"id":"1093519824","name":"this","klass":"java.util.ArrayList"},{"id":"1093301176","name":"arg#1","klass":"java.lang.Object"}],"returns":[{"id":null,"name":"return","klass":"boolean"}],"colors":{"heapLocToColor":{"1093494376":[0],"1093571344":[0],"sdaReg13":[14],"sdaReg14":[15],"1094129696.arrayIdx_int:100":[1],"sdaReg11":[12],"1093375472":[0],"sdaReg12":[13],"sdaReg10":[11],"sdaReg19":[20],"sdaReg17":[18],"sdaReg18":[19],"sdaReg15":[16],"sdaReg16":[17],"1093383784":[0],"1093427368":[0],"1094472424":[0],"1093383472":[0],"1093377976":[0],"1093254744":[0],"1094168576":[0],"1093464024":[0],"1093382184":[0],"1093447440":[0],"1093789280":[0],"1093571744":[0],"1094193096":[0],"1093852672":[0],"1093594080":[0],"1093398912":[0],"1093854368":[0],"1093293032":[0],"sdaReg60":[61],"sdaReg61":[62],"1093458456":[0],"1093475704":[0],"1093284704":[0],"1093420608":[0],"1093748960":[0],"1094062752":[0],"1093309728":[0],"1093432024":[0],"sdaReg59":[60],"sdaReg58":[59],"1093507584":[0],"1093260328":[0],"sdaReg57":[58],"1093336536":[0],"sdaReg56":[57],"sdaReg55":[56],"sdaReg54":[55],"sdaReg53":[54],"1093530040":[0],"sdaReg52":[53],"sdaReg51":[52],"sdaReg50":[51],"1093403480":[0],"1093355656":[0],"sdaReg49":[50],"sdaReg48":[49],"sdaReg45":[46],"sdaReg44":[45],"1093340760":[0],"1093719400":[0],"sdaReg47":[48],"sdaReg46":[47],"sdaReg41":[42],"sdaReg40":[41],"sdaReg43":[44],"sdaReg42":[43],"1093342360":[0],"1093517776":[0],"1093574168":[0],"1093364232":[0],"sdaReg39":[40],"sdaReg38":[39],"sdaReg37":[38],"1093524480":[0],"sdaReg32":[33],"sdaReg31":[32],"1093474640":[0],"sdaReg30":[31],"1093522768":[0],"1093515616":[0],"1093396616":[0],"sdaReg36":[37],"sdaReg35":[36],"sdaReg34":[35],"sdaReg33":[34],"1093571160":[0],"sdaReg8":[9],"1094032064":[0],"sdaReg9":[10],"sdaReg6":[7],"sdaReg7":[8],"sdaReg4":[5],"sdaReg5":[6],"sdaReg27":[28],"sdaReg26":[27],"1093229088":[0],"sdaReg29":[30],"1093256176":[0],"sdaReg28":[29],"sdaReg3":[4],"sdaReg2":[3],"sdaReg1":[2],"sdaReg21":[22],"sdaReg20":[21],"sdaReg23":[24],"sdaReg22":[23],"sdaReg25":[26],"sdaReg24":[25],"1093388184":[0],"1093363904":[0],"1093499016":[0],"1093294536":[0],"1093349608":[0],"sdaReg68":[69],"sdaReg69":[70],"sdaReg66":[67],"1093572512":[0],"sdaReg67":[68],"sdaReg64":[65],"sdaReg65":[66],"sdaReg62":[63],"sdaReg63":[64],"sdaReg72":[73],"sdaReg71":[72],"1093437704":[0],"sdaReg70":[71],"1093306400":[0],"1093514912":[0],"1093798120":[0],"1093392608":[0],"1093288432":[0],"1094129696":[0],"sdaReg77":[78],"sdaReg78":[79],"sdaReg79":[80],"1093379064":[0],"sdaReg73":[74],"sdaReg74":[75],"sdaReg75":[76],"sdaReg76":[77],"sdaReg81":[82],"sdaReg80":[81],"sdaReg83":[84],"sdaReg82":[83],"1093292720":[0],"1093412864":[0],"1093301176":[0, 1],"sdaReg86":[87],"1093371152":[0],"sdaReg87":[88],"sdaReg84":[85],"sdaReg85":[86],"sdaReg88":[89],"sdaReg89":[90],"sdaReg90":[91],"sdaReg94":[95],"sdaReg93":[94],"1093355232":[0],"sdaReg92":[93],"sdaReg91":[92],"sdaReg100":[101],"1093375120":[0],"sdaReg101":[102],"sdaReg95":[96],"sdaReg96":[97],"1093284216":[0],"sdaReg97":[98],"sdaReg98":[99],"sdaReg99":[100],"1093573104":[0],"1093319400":[0],"1093218856":[0],"1093410536":[0],"1093348216":[0],"1093269216":[0],"1094295272":[0],"1093519824":[0],"1093400864":[0],"1093325376":[0],"1093297184":[0],"1093356848":[0],"1093425680":[0],"1093351976":[0],"1093327392":[0],"1093519824.<java.util.ArrayList: int size>":[0],"1093356456":[0],"1094178736":[0],"1093750272":[0],"1093441328":[0],"1093492424":[0],"1093290848":[0],"1093283520":[0],"1093259736":[0],"1093343376":[0],"1093472464":[0],"1093431536":[0],"1093336024":[0],"1093370496":[0],"1093250392":[0],"1093397624":[0],"1093309160":[0],"1093335456":[0]},"colorToColor":{},"colorToLabel":{"0":"this","1":"arg#1","103":"return"}}}

Generated Model

