Scanning method <java.util.ArrayList: boolean contains(java.lang.Object)>

All seen event types: BinaryOperationRecord, SimpleAssignmentRecord, MethodReturnRecord, MethodCallRecord, LoadInstanceRecord, LoadArrayRecord, IfRecord, 
Ignored event types: IfRecord, 

JSON Encoded Analysis Data (for visualization):{"heapEdges":[{"step":0,"from":"1093434704","to":"1093624672","type":"load","field":"<java.util.ArrayList: java.lang.Object[] array>"},{"step":1,"from":"1093434704","to":"1093434704.<java.util.ArrayList: int size>","type":"load","field":"<java.util.ArrayList: int size>"},{"step":2,"from":"1093624672","to":"1093670200","type":"load","field":"arrayIdx_int:0"},{"step":3,"from":"1093624672","to":"1093267688","type":"load","field":"arrayIdx_int:1"},{"step":4,"from":"1093624672","to":"1093547016","type":"load","field":"arrayIdx_int:2"},{"step":5,"from":"1093624672","to":"1093546192","type":"load","field":"arrayIdx_int:3"},{"step":6,"from":"1093624672","to":"1093471336","type":"load","field":"arrayIdx_int:4"},{"step":7,"from":"1093624672","to":"1093473456","type":"load","field":"arrayIdx_int:5"},{"step":8,"from":"1093624672","to":"1093324264","type":"load","field":"arrayIdx_int:6"},{"step":9,"from":"1093624672","to":"1093327168","type":"load","field":"arrayIdx_int:7"},{"step":10,"from":"1093624672","to":"1093335232","type":"load","field":"arrayIdx_int:8"}],"parameters":[{"id":"1093434704","name":"this","klass":"java.util.ArrayList"},{"id":"1093583000","name":"arg#1","klass":"java.lang.Object"}],"returns":[{"id":null,"name":"return","klass":"boolean"}],"colors":{"heapLocToColor":{"sdaReg8":[9],"1093327168":[0],"sdaReg9":[10],"sdaReg6":[7],"1093434704":[0],"sdaReg7":[8],"1093434704.<java.util.ArrayList: int size>":[0],"1093335232":[0],"sdaReg4":[5],"sdaReg5":[6],"1093324264":[0],"1093473456":[0],"1093583000":[1],"1093547016":[0],"1093267688":[0],"1093670200":[0],"sdaReg3":[4],"sdaReg2":[3],"sdaReg1":[2],"1093546192":[0],"1093471336":[0],"1093624672":[0]},"colorToColor":{},"colorToLabel":{"0":"this","1":"arg#1","11":"return"}}}

Generated Model

