Scanning method <java.util.ArrayList: boolean contains(java.lang.Object)>

All seen event types: BinaryOperationRecord, SimpleAssignmentRecord, MethodReturnRecord, MethodCallRecord, LoadInstanceRecord, LoadArrayRecord, IfRecord, 
Ignored event types: IfRecord, 

JSON Encoded Analysis Data (for visualization):{"heapEdges":[{"step":0,"from":"1093519824","to":"1094129696","type":"load","field":"<java.util.ArrayList: java.lang.Object[] array>"},{"step":1,"from":"1093519824","to":"1093519824.<java.util.ArrayList: int size>","type":"load","field":"<java.util.ArrayList: int size>"},{"step":2,"from":"1094129696","to":"1093852672","type":"load","field":"arrayIdx_int:0"},{"step":3,"from":"1094129696","to":"1094178736","type":"load","field":"arrayIdx_int:1"},{"step":4,"from":"1094129696","to":"1094032064","type":"load","field":"arrayIdx_int:2"},{"step":5,"from":"1094129696","to":"1094193096","type":"load","field":"arrayIdx_int:3"},{"step":6,"from":"1094129696","to":"1093854368","type":"load","field":"arrayIdx_int:4"},{"step":7,"from":"1094129696","to":"1093571160","type":"load","field":"arrayIdx_int:5"},{"step":8,"from":"1094129696","to":"1093259736","type":"load","field":"arrayIdx_int:6"},{"step":9,"from":"1094129696","to":"1093229088","type":"load","field":"arrayIdx_int:7"},{"step":10,"from":"1094129696","to":"1094295272","type":"load","field":"arrayIdx_int:8"},{"step":11,"from":"1094129696","to":"1093748960","type":"load","field":"arrayIdx_int:9"},{"step":12,"from":"1094129696","to":"1093798120","type":"load","field":"arrayIdx_int:10"},{"step":13,"from":"1094129696","to":"1093750272","type":"load","field":"arrayIdx_int:11"},{"step":14,"from":"1094129696","to":"1093306400","type":"load","field":"arrayIdx_int:12"},{"step":15,"from":"1094129696","to":"1093431536","type":"load","field":"arrayIdx_int:13"},{"step":16,"from":"1094129696","to":"1093475704","type":"load","field":"arrayIdx_int:14"},{"step":17,"from":"1094129696","to":"1093342360","type":"load","field":"arrayIdx_int:15"},{"step":18,"from":"1094129696","to":"1093464024","type":"load","field":"arrayIdx_int:16"},{"step":19,"from":"1094129696","to":"1093474640","type":"load","field":"arrayIdx_int:17"},{"step":20,"from":"1094129696","to":"1093571344","type":"load","field":"arrayIdx_int:18"},{"step":21,"from":"1094129696","to":"1093594080","type":"load","field":"arrayIdx_int:19"},{"step":22,"from":"1094129696","to":"1093319400","type":"load","field":"arrayIdx_int:20"},{"step":23,"from":"1094129696","to":"1093336024","type":"load","field":"arrayIdx_int:21"},{"step":24,"from":"1094129696","to":"1093336536","type":"load","field":"arrayIdx_int:22"},{"step":25,"from":"1094129696","to":"1093254744","type":"load","field":"arrayIdx_int:23"},{"step":26,"from":"1094129696","to":"1093789280","type":"load","field":"arrayIdx_int:24"},{"step":27,"from":"1094129696","to":"1093447440","type":"load","field":"arrayIdx_int:25"}],"parameters":[{"id":"1093519824","name":"this","klass":"java.util.ArrayList"},{"id":"1093467616","name":"arg#1","klass":"java.lang.Object"}],"returns":[{"id":null,"name":"return","klass":"boolean"}],"colors":{"heapLocToColor":{"1094295272":[0],"1093475704":[0],"1093748960":[0],"1093571344":[0],"sdaReg13":[14],"sdaReg14":[15],"sdaReg11":[12],"1093467616":[1],"sdaReg12":[13],"1093306400":[0],"1093519824":[0],"sdaReg10":[11],"1093798120":[0],"sdaReg19":[20],"1093336536":[0],"sdaReg17":[18],"sdaReg18":[19],"sdaReg15":[16],"sdaReg16":[17],"1094129696":[0],"1093342360":[0],"1093254744":[0],"1093519824.<java.util.ArrayList: int size>":[0],"1093464024":[0],"1094178736":[0],"1093447440":[0],"1093750272":[0],"1093474640":[0],"1093789280":[0],"1093571160":[0],"sdaReg8":[9],"1094032064":[0],"sdaReg9":[10],"sdaReg6":[7],"sdaReg7":[8],"sdaReg4":[5],"sdaReg5":[6],"1093259736":[0],"1094193096":[0],"1093852672":[0],"1093431536":[0],"sdaReg26":[27],"1093229088":[0],"1093319400":[0],"1093594080":[0],"1093336024":[0],"sdaReg3":[4],"sdaReg2":[3],"sdaReg1":[2],"sdaReg21":[22],"1093854368":[0],"sdaReg20":[21],"sdaReg23":[24],"sdaReg22":[23],"sdaReg25":[26],"sdaReg24":[25]},"colorToColor":{},"colorToLabel":{"0":"this","1":"arg#1","28":"return"}}}

Generated Model

