Scanning method <java.util.ArrayList: boolean contains(java.lang.Object)>

All seen event types: SimpleAssignmentRecord, MethodReturnRecord, MethodCallRecord, LoadInstanceRecord, LoadArrayRecord, IfRecord, 
Ignored event types: IfRecord, 

JSON Encoded Analysis Data (for visualization):{"heapEdges":[{"step":0,"from":"1093519824","to":"1094129696","type":"load","field":"<java.util.ArrayList: java.lang.Object[] array>"},{"step":1,"from":"1093519824","to":"1093519824.<java.util.ArrayList: int size>","type":"load","field":"<java.util.ArrayList: int size>"},{"step":2,"from":"1094129696","to":"1093852672","type":"load","field":"arrayIdx_int:0"}],"parameters":[{"id":"1093519824","name":"this","klass":"java.util.ArrayList"},{"id":"1093505792","name":"arg#1","klass":"java.lang.Object"}],"returns":[{"id":null,"name":"return","klass":"boolean"}],"colors":{"heapLocToColor":{"1093519824":[0],"1094129696":[0],"1093519824.<java.util.ArrayList: int size>":[0],"sdaReg1":[2],"1093852672":[0],"1093505792":[1]},"colorToColor":{},"colorToLabel":{"0":"this","1":"arg#1","3":"return"}}}

Generated Model

