Scanning method <java.util.ArrayList: boolean addAll(int,java.util.Collection)>

All seen event types: StoreArrayRecord, SimpleAssignmentRecord, LoadInstanceRecord, MethodStartRecord, IfRecord, NewObjectRecord, StoreInstanceRecord, NewArrayRecord, BinaryOperationRecord, MethodCallRecord, MethodReturnRecord, ArrayLengthRecord, LoadArrayRecord, MethodEndRecord, 
Ignored event types: IfRecord, 

JSON Encoded Analysis Data (for visualization):{"heapEdges":[{"step":0,"from":"1093407352","to":"1093407352.<java.util.ArrayList: int size>","type":"load","field":"<java.util.ArrayList: int size>"},{"step":1,"from":"1093882080","to":"1094039048","type":"load","field":"<java.util.HashSet: java.util.HashMap backingMap>"},{"step":2,"from":"1094039048","to":"1094039048.<java.util.HashMap: int size>","type":"load","field":"<java.util.HashMap: int size>"},{"step":3,"from":"1093882080","to":"1094039048","type":"load","field":"<java.util.HashSet: java.util.HashMap backingMap>"},{"step":4,"from":"1094039048","to":"1093583976","type":"store","field":"<java.util.HashMap$KeySet: java.util.HashMap this$0>"},{"step":5,"from":"1094039048","to":"1093583976","type":"create","field":"<java.util.HashMap: java.util.Set keySet>"},{"step":6,"from":"1094039048","to":"1094203592","type":"store","field":"<java.util.HashMap$KeyIterator: java.util.HashMap this$0>"},{"step":7,"from":"1094039048","to":"1094203592","type":"store","field":"<java.util.HashMap$HashIterator: java.util.HashMap this$0>"},{"step":8,"from":"1094039048","to":"1094039104","type":"load","field":"<java.util.HashMap: java.util.HashMap$HashMapEntry entryForNullKey>"},{"step":9,"from":"1094039104","to":"1094203592","type":"store","field":"<java.util.HashMap$HashIterator: java.util.HashMap$HashMapEntry nextEntry>"},{"step":10,"from":"1094039048","to":"1094039048.<java.util.HashMap: int modCount>","type":"load","field":"<java.util.HashMap: int modCount>"},{"step":11,"from":"1094039048.<java.util.HashMap: int modCount>","to":"1094203592","type":"store","field":"<java.util.HashMap$HashIterator: int expectedModCount>"},{"step":12,"from":"1094039048","to":"1094039048.<java.util.HashMap: int modCount>","type":"load","field":"<java.util.HashMap: int modCount>"},{"step":13,"from":"1094039048","to":"1094039232","type":"load","field":"<java.util.HashMap: java.util.HashMap$HashMapEntry[] table>"},{"step":14,"from":"1094203592","to":"1094203592.<java.util.HashMap$HashIterator: int nextIndex>","type":"load","field":"<java.util.HashMap$HashIterator: int nextIndex>"},{"step":15,"from":"1094203592","to":"1094203592.<java.util.HashMap$HashIterator: int nextIndex>","type":"load","field":"<java.util.HashMap$HashIterator: int nextIndex>"},{"step":16,"from":"sdaReg39","to":"1094203592","type":"store","field":"<java.util.HashMap$HashIterator: int nextIndex>"},{"step":17,"from":"1094039232","to":"1094039272","type":"load","field":"arrayIdx_int:0"},{"step":18,"from":"1094039272","to":"1094203592","type":"store","field":"<java.util.HashMap$HashIterator: java.util.HashMap$HashMapEntry nextEntry>"},{"step":19,"from":"1094039104","to":"1094203592","type":"store","field":"<java.util.HashMap$HashIterator: java.util.HashMap$HashMapEntry lastEntryReturned>"},{"step":20,"from":"1094039048","to":"1094039048.<java.util.HashMap: int modCount>","type":"load","field":"<java.util.HashMap: int modCount>"},{"step":21,"from":"1094039048","to":"1094039232","type":"load","field":"<java.util.HashMap: java.util.HashMap$HashMapEntry[] table>"},{"step":22,"from":"sdaReg45","to":"1094203592","type":"store","field":"<java.util.HashMap$HashIterator: int nextIndex>"},{"step":23,"from":"1094039232","to":"1094039400","type":"load","field":"arrayIdx_int:1"},{"step":24,"from":"1094039400","to":"1094203592","type":"store","field":"<java.util.HashMap$HashIterator: java.util.HashMap$HashMapEntry nextEntry>"},{"step":25,"from":"1094039272","to":"1094203592","type":"store","field":"<java.util.HashMap$HashIterator: java.util.HashMap$HashMapEntry lastEntryReturned>"},{"step":26,"from":"1094039272","to":"1094039136","type":"load","field":"<java.util.HashMap$HashMapEntry: java.lang.Object key>"},{"step":27,"from":"1094039136","to":"1094203632","type":"store","field":"arrayIdx_int:1"},{"step":28,"from":"1094039048","to":"1094039048.<java.util.HashMap: int modCount>","type":"load","field":"<java.util.HashMap: int modCount>"},{"step":29,"from":"1094039048","to":"1094039232","type":"load","field":"<java.util.HashMap: java.util.HashMap$HashMapEntry[] table>"},{"step":30,"from":"sdaReg51","to":"1094203592","type":"store","field":"<java.util.HashMap$HashIterator: int nextIndex>"},{"step":31,"from":"sdaReg51","to":"1094203592","type":"store","field":"<java.util.HashMap$HashIterator: int nextIndex>"},{"step":32,"from":"1094039400","to":"1094203592","type":"store","field":"<java.util.HashMap$HashIterator: java.util.HashMap$HashMapEntry lastEntryReturned>"},{"step":33,"from":"1094039400","to":"1094039304","type":"load","field":"<java.util.HashMap$HashMapEntry: java.lang.Object key>"},{"step":34,"from":"1094039304","to":"1094203632","type":"store","field":"arrayIdx_int:2"},{"step":35,"from":"1093407352","to":"1093933736","type":"load","field":"<java.util.ArrayList: java.lang.Object[] array>"},{"step":36,"from":"1094203632","to":"1093933736","type":"model"},{"step":37,"from":"sdaReg58","to":"1093407352","type":"store","field":"<java.util.ArrayList: int size>"},{"step":38,"from":"1093407352","to":"1093407352.<java.util.AbstractList: int modCount>","type":"load","field":"<java.util.AbstractList: int modCount>"},{"step":39,"from":"sdaReg62","to":"1093407352","type":"store","field":"<java.util.AbstractList: int modCount>"}],"parameters":[{"id":"1093407352","name":"this","klass":"java.util.ArrayList"},{"id":"sdaReg0","name":"arg#1","klass":"int"},{"id":"1093882080","name":"arg#2","klass":"java.util.Collection"}],"returns":[{"id":null,"name":"return","klass":"boolean"}],"colors":{"heapLocToColor":{"sdaReg60":[1],"sdaReg61":[0, 1],"1094203592.<java.util.HashMap$HashIterator: int nextIndex>":[4],"sdaReg62":[0],"sdaReg13":[3],"1094039048.<java.util.HashMap: int size>":[2],"sdaReg14":[3],"sdaReg11":[3],"sdaReg12":[3],"sdaReg10":[2],"1093882080":[2],"1093407352":[0],"sdaReg58":[0],"sdaReg56":[5],"sdaReg19":[3],"sdaReg55":[2],"sdaReg54":[2],"sdaReg17":[3],"sdaReg18":[3],"sdaReg15":[3],"sdaReg16":[3],"1094203632":[5],"1093933736":[0],"1094039400":[2],"1093583976":[3],"1094039104":[2],"1094039048":[2],"1094039304":[2],"sdaReg49":[4],"sdaReg48":[4],"sdaReg47":[2],"sdaReg46":[2],"sdaReg40":[2],"sdaReg43":[4],"sdaReg42":[4],"1093407352.<java.util.ArrayList: int size>":[0],"1094039136":[2],"1094039232":[2],"1093407352.<java.util.AbstractList: int modCount>":[0],"sdaReg39":[4],"1093882080.<java.util.HashSet: java.util.HashMap backingMap>":[2],"sdaReg37":[4],"1094203592":[4],"sdaReg32":[4],"sdaReg31":[4],"sdaReg30":[4],"sdaReg36":[4],"1094039048.<java.util.HashMap: int modCount>":[2],"sdaReg34":[4],"sdaReg33":[4],"sdaReg8":[2],"sdaReg9":[3],"sdaReg6":[2],"sdaReg7":[3],"sdaReg5":[2],"1094039048.<java.util.HashMap: java.util.HashMap$HashMapEntry[] table>":[2],"sdaReg27":[2],"sdaReg26":[4],"sdaReg29":[4],"sdaReg28":[4],"1094039272":[2],"sdaReg3":[2],"sdaReg2":[2],"sdaReg1":[2],"sdaReg21":[2],"sdaReg0":[1],"sdaReg20":[3],"sdaReg23":[2],"sdaReg22":[4],"sdaReg25":[2],"sdaReg24":[4]},"colorToColor":{"0":[0],"2":[3, 4, 5],"3":[2],"4":[4],"5":[0]},"colorToLabel":{"0":"this","1":"arg#1","2":"arg#2","6":"return"}}}

Generated Model
	arg#2->this

