Scanning method <android.location.Location: void setBearing(float)>

All seen event types: BinaryOperationRecord, IfRecord, StoreInstanceRecord, 
Ignored event types: IfRecord, 

JSON Encoded Analysis Data (for visualization):{"heapEdges":[{"step":0,"from":"sdaReg0","to":"1093975032","type":"store","field":"<android.location.Location: float mBearing>"},{"step":1,"from":"1093975032","to":"sdaReg3","type":"create","field":"<android.location.Location: boolean mHasBearing>"}],"parameters":[{"id":"1093975032","name":"this","klass":"android.location.Location"},{"id":"sdaReg0","name":"arg#1","klass":"float"}],"returns":[{"id":null,"name":"return","klass":null}],"colors":{"heapLocToColor":{"1093975032":[0],"sdaReg2":[1],"sdaReg1":[1],"sdaReg0":[1]},"colorToColor":{"1":[0]},"colorToLabel":{"0":"this","1":"arg#1","2":"return"}}}

Generated Model
	arg#1->this

