Scanning method <android.os.Message: java.lang.String toString()>

All seen event types: BinaryOperationRecord, SimpleAssignmentRecord, MethodReturnRecord, MethodCallRecord, LoadInstanceRecord, MethodStartRecord, MethodEndRecord, IfRecord, NewObjectRecord, 
Ignored event types: IfRecord, 

JSON Encoded Analysis Data (for visualization):{"heapEdges":[{"step":0,"from":"1093523704","to":"1093523704.<android.os.Message: int what>","type":"load","field":"<android.os.Message: int what>"},{"step":1,"from":"1093523704.<android.os.Message: int what>","to":"1093873944","type":"model"},{"step":2,"from":"1093523704","to":"1093523704.<android.os.Message: long when>","type":"load","field":"<android.os.Message: long when>"},{"step":3,"from":"sdaReg4","to":"1093873944","type":"model"},{"step":4,"from":"1093873944","to":"sdaReg4","type":"model"},{"step":5,"from":"1093523704","to":"1093523704.<android.os.Message: int arg1>","type":"load","field":"<android.os.Message: int arg1>"},{"step":6,"from":"1093523704","to":"1093523704.<android.os.Message: int arg2>","type":"load","field":"<android.os.Message: int arg2>"},{"step":7,"from":"1093873944","to":"sdaReg5","type":"model"}],"parameters":[{"id":"1093523704","name":"this","klass":"android.os.Message"}],"returns":[{"id":"sdaReg5","name":"return","klass":"string"}],"colors":{"heapLocToColor":{"1093523704.<android.os.Message: int arg1>":[0],"1093873944":[2],"1093523704.<android.os.Message: long when>":[0],"1093523704":[0],"sdaReg4":[0, 1],"sdaReg5":[2, 3],"1093523704.<android.os.Message: int what>":[0],"sdaReg3":[2],"sdaReg2":[2],"sdaReg1":[0],"sdaReg0":[1],"1093523704.<android.os.Message: int arg2>":[0]},"colorToColor":{"0":[2],"1":[2],"2":[0, 1, 4],"3":[4]},"colorToLabel":{"0":"this","4":"return"}}}

Generated Model
	this->return

