Scanning method <java.util.HashMap$KeySet: java.util.Iterator iterator()>

All seen event types: BinaryOperationRecord, SimpleAssignmentRecord, MethodReturnRecord, MethodCallRecord, ArrayLengthRecord, MethodStartRecord, LoadInstanceRecord, LoadArrayRecord, MethodEndRecord, IfRecord, StoreInstanceRecord, NewObjectRecord, 
Ignored event types: IfRecord, 

JSON Encoded Analysis Data (for visualization):{"heapEdges":[{"step":0,"from":"1093647456","to":"1093556000","type":"load","field":"<java.util.HashMap$KeySet: java.util.HashMap this$0>"},{"step":1,"from":"1093556000","to":"1094413960","type":"store","field":"<java.util.HashMap$KeyIterator: java.util.HashMap this$0>"},{"step":2,"from":"1093556000","to":"1094413960","type":"store","field":"<java.util.HashMap$HashIterator: java.util.HashMap this$0>"},{"step":3,"from":"1093556000","to":"1093556000.<java.util.HashMap: int modCount>","type":"load","field":"<java.util.HashMap: int modCount>"},{"step":4,"from":"1093556000.<java.util.HashMap: int modCount>","to":"1094413960","type":"store","field":"<java.util.HashMap$HashIterator: int expectedModCount>"},{"step":5,"from":"1093556000","to":"1093563192","type":"load","field":"<java.util.HashMap: java.util.HashMap$HashMapEntry[] table>"},{"step":6,"from":"1094413960","to":"1094413960.<java.util.HashMap$HashIterator: int nextIndex>","type":"load","field":"<java.util.HashMap$HashIterator: int nextIndex>"},{"step":7,"from":"1094413960","to":"1094413960.<java.util.HashMap$HashIterator: int nextIndex>","type":"load","field":"<java.util.HashMap$HashIterator: int nextIndex>"},{"step":8,"from":"sdaReg10","to":"1094413960","type":"store","field":"<java.util.HashMap$HashIterator: int nextIndex>"},{"step":9,"from":"sdaReg10","to":"1094413960","type":"store","field":"<java.util.HashMap$HashIterator: int nextIndex>"},{"step":10,"from":"1093563192","to":"1093563232","type":"load","field":"arrayIdx_int:1"},{"step":11,"from":"1093563232","to":"1094413960","type":"store","field":"<java.util.HashMap$HashIterator: java.util.HashMap$HashMapEntry nextEntry>"}],"parameters":[{"id":"1093647456","name":"this","klass":"java.util.HashMap$KeySet"}],"returns":[{"id":"1094413960","name":"return","klass":"java.util.Iterator"}],"colors":{"heapLocToColor":{"1094413960":[1],"1093556000.<java.util.HashMap: int modCount>":[0],"1093556000":[0],"sdaReg6":[0],"1093563192":[0],"1093647456":[0],"sdaReg7":[1],"sdaReg4":[0],"sdaReg5":[1],"1094413960.<java.util.HashMap$HashIterator: int nextIndex>":[1],"sdaReg13":[1],"sdaReg14":[1],"sdaReg12":[1],"sdaReg10":[1],"sdaReg3":[1],"sdaReg2":[0],"sdaReg1":[1],"sdaReg0":[0],"sdaReg15":[1],"1093563232":[0]},"colorToColor":{"0":[1],"1":[1, 2]},"colorToLabel":{"0":"this","2":"return"}}}

Generated Model
	this->return

