Scanning method <java.util.TreeMap$Node: java.util.TreeMap$Node next()>

All seen event types: SimpleAssignmentRecord, LoadInstanceRecord, IfRecord, 
Ignored event types: IfRecord, 

JSON Encoded Analysis Data (for visualization):{"heapEdges":[{"step":0,"from":"1099725352","to":"1099725312","type":"load","field":"<java.util.TreeMap$Node: java.util.TreeMap$Node parent>"},{"step":1,"from":"1099725312","to":"1099705112","type":"load","field":"<java.util.TreeMap$Node: java.util.TreeMap$Node left>"}],"parameters":[{"id":"1099725352","name":"this","klass":"java.util.TreeMap$Node"}],"returns":[{"id":"0","name":"return","klass":"java.util.TreeMap$Node"}],"colors":{"heapLocToColor":{"1099725352":[0],"1099705112":[0],"1099725312":[0]},"colorToColor":{},"colorToLabel":{"0":"this","1":"return"}}}

Generated Model

