Scanning method <java.util.TreeMap$Node: java.util.TreeMap$Node next()>

All seen event types: SimpleAssignmentRecord, LoadInstanceRecord, IfRecord, 
Ignored event types: IfRecord, 

JSON Encoded Analysis Data (for visualization):{"heapEdges":[{"step":0,"from":"1093278744","to":"1093278784","type":"load","field":"<java.util.TreeMap$Node: java.util.TreeMap$Node parent>"},{"step":1,"from":"1093278784","to":"1093278744","type":"load","field":"<java.util.TreeMap$Node: java.util.TreeMap$Node left>"}],"parameters":[{"id":"1093278744","name":"this","klass":"java.util.TreeMap$Node"}],"returns":[{"id":"1093278784","name":"return","klass":"java.util.TreeMap$Node"}],"colors":{"heapLocToColor":{"1093278784":[0],"1093278744":[0],"1093278784.<java.util.TreeMap$Node: java.util.TreeMap$Node left>":[0]},"colorToColor":{"0":[1]},"colorToLabel":{"0":"this","1":"return"}}}

Generated Model
	this->return

