Scanning method <java.util.TreeMap$Node: java.util.TreeMap$Node next()>

All seen event types: SimpleAssignmentRecord, LoadInstanceRecord, IfRecord, 
Ignored event types: IfRecord, 

JSON Encoded Analysis Data (for visualization):{"heapEdges":[{"step":0,"from":"1096549760","to":"1096549720","type":"load","field":"<java.util.TreeMap$Node: java.util.TreeMap$Node parent>"},{"step":1,"from":"1096549720","to":"1096549680","type":"load","field":"<java.util.TreeMap$Node: java.util.TreeMap$Node left>"},{"step":2,"from":"1096549720","to":"1096549640","type":"load","field":"<java.util.TreeMap$Node: java.util.TreeMap$Node parent>"},{"step":3,"from":"1096549640","to":"1094588128","type":"load","field":"<java.util.TreeMap$Node: java.util.TreeMap$Node left>"},{"step":4,"from":"1096549640","to":"1096549800","type":"load","field":"<java.util.TreeMap$Node: java.util.TreeMap$Node parent>"},{"step":5,"from":"1096549800","to":"1096549640","type":"load","field":"<java.util.TreeMap$Node: java.util.TreeMap$Node left>"}],"parameters":[{"id":"1096549760","name":"this","klass":"java.util.TreeMap$Node"}],"returns":[{"id":"1096549800","name":"return","klass":"java.util.TreeMap$Node"}],"colors":{"heapLocToColor":{"1096549680":[0],"1096549800":[0],"1096549760":[0],"1096549640":[0],"1096549800.<java.util.TreeMap$Node: java.util.TreeMap$Node left>":[0],"1096549720":[0],"1094588128":[0]},"colorToColor":{"0":[1]},"colorToLabel":{"0":"this","1":"return"}}}

Generated Model
	this->return

