Scanning method <java.util.TreeMap$Node: java.util.TreeMap$Node next()>

All seen event types: SimpleAssignmentRecord, LoadInstanceRecord, IfRecord, 
Ignored event types: IfRecord, 

JSON Encoded Analysis Data (for visualization):{"heapEdges":[{"step":0,"from":"1098063872","to":"1093627160","type":"load","field":"<java.util.TreeMap$Node: java.util.TreeMap$Node parent>"},{"step":1,"from":"1093627160","to":"1098063872","type":"load","field":"<java.util.TreeMap$Node: java.util.TreeMap$Node left>"}],"parameters":[{"id":"1098063872","name":"this","klass":"java.util.TreeMap$Node"}],"returns":[{"id":"1093627160","name":"return","klass":"java.util.TreeMap$Node"}],"colors":{"heapLocToColor":{"1093627160.<java.util.TreeMap$Node: java.util.TreeMap$Node left>":[0],"1093627160":[0],"1098063872":[0]},"colorToColor":{"0":[1]},"colorToLabel":{"0":"this","1":"return"}}}

Generated Model
	this->return

