Scanning method <java.util.TreeMap$Node: java.util.TreeMap$Node next()>

All seen event types: SimpleAssignmentRecord, MethodReturnRecord, MethodCallRecord, MethodStartRecord, LoadInstanceRecord, MethodEndRecord, IfRecord, 
Ignored event types: IfRecord, 

JSON Encoded Analysis Data (for visualization):{"heapEdges":[{"step":0,"from":"1093232360","to":"1093232400","type":"load","field":"<java.util.TreeMap$Node: java.util.TreeMap$Node right>"},{"step":1,"from":"1093232360","to":"1093232400","type":"load","field":"<java.util.TreeMap$Node: java.util.TreeMap$Node right>"}],"parameters":[{"id":"1093232360","name":"this","klass":"java.util.TreeMap$Node"}],"returns":[{"id":"1093232400","name":"return","klass":"java.util.TreeMap$Node"}],"colors":{"heapLocToColor":{"1093232360.<java.util.TreeMap$Node: java.util.TreeMap$Node right>":[0],"1093232400":[0],"1093232360":[0],"sdaReg2":[0],"sdaReg1":[0],"sdaReg0":[0]},"colorToColor":{"0":[1]},"colorToLabel":{"0":"this","1":"return"}}}

Generated Model
	this->return

