Scanning method <java.util.TreeMap$Node: java.util.TreeMap$Node next()>

All seen event types: SimpleAssignmentRecord, LoadInstanceRecord, IfRecord, 
Ignored event types: IfRecord, 

JSON Encoded Analysis Data (for visualization):{"heapEdges":[{"step":0,"from":"1097169832","to":"1097169792","type":"load","field":"<java.util.TreeMap$Node: java.util.TreeMap$Node parent>"},{"step":1,"from":"1097169792","to":"1096366064","type":"load","field":"<java.util.TreeMap$Node: java.util.TreeMap$Node left>"},{"step":2,"from":"1097169792","to":"1097169872","type":"load","field":"<java.util.TreeMap$Node: java.util.TreeMap$Node parent>"},{"step":3,"from":"1097169872","to":"1097169792","type":"load","field":"<java.util.TreeMap$Node: java.util.TreeMap$Node left>"}],"parameters":[{"id":"1097169832","name":"this","klass":"java.util.TreeMap$Node"}],"returns":[{"id":"1097169872","name":"return","klass":"java.util.TreeMap$Node"}],"colors":{"heapLocToColor":{"1097169872.<java.util.TreeMap$Node: java.util.TreeMap$Node left>":[0],"1097169792":[0],"1097169872":[0],"1097169832":[0],"1096366064":[0]},"colorToColor":{"0":[1]},"colorToLabel":{"0":"this","1":"return"}}}

Generated Model
	this->return

