Scanning method <java.util.TreeMap$Node: java.util.TreeMap$Node next()>

All seen event types: SimpleAssignmentRecord, MethodReturnRecord, MethodCallRecord, MethodStartRecord, LoadInstanceRecord, MethodEndRecord, IfRecord, 
Ignored event types: IfRecord, 

JSON Encoded Analysis Data (for visualization):{"heapEdges":[{"step":0,"from":"1093938576","to":"1094908296","type":"load","field":"<java.util.TreeMap$Node: java.util.TreeMap$Node right>"},{"step":1,"from":"1093938576","to":"1094908296","type":"load","field":"<java.util.TreeMap$Node: java.util.TreeMap$Node right>"},{"step":2,"from":"1094908296","to":"1094612008","type":"load","field":"<java.util.TreeMap$Node: java.util.TreeMap$Node left>"}],"parameters":[{"id":"1093938576","name":"this","klass":"java.util.TreeMap$Node"}],"returns":[{"id":"1094612008","name":"return","klass":"java.util.TreeMap$Node"}],"colors":{"heapLocToColor":{"1093938576.<java.util.TreeMap$Node: java.util.TreeMap$Node right>":[0],"1094612008":[0],"sdaReg2":[0],"sdaReg1":[0],"sdaReg0":[0],"1094908296":[0],"1093938576":[0]},"colorToColor":{"0":[1]},"colorToLabel":{"0":"this","1":"return"}}}

Generated Model
	this->return

