Scanning method <java.util.TreeMap$Node: java.util.TreeMap$Node next()>

All seen event types: SimpleAssignmentRecord, LoadInstanceRecord, IfRecord, 
Ignored event types: IfRecord, 

JSON Encoded Analysis Data (for visualization):{"heapEdges":[{"step":0,"from":"1095349432","to":"1094908296","type":"load","field":"<java.util.TreeMap$Node: java.util.TreeMap$Node parent>"},{"step":1,"from":"1094908296","to":"1094612008","type":"load","field":"<java.util.TreeMap$Node: java.util.TreeMap$Node left>"},{"step":2,"from":"1094908296","to":"1093938576","type":"load","field":"<java.util.TreeMap$Node: java.util.TreeMap$Node parent>"},{"step":3,"from":"1093938576","to":"1097993720","type":"load","field":"<java.util.TreeMap$Node: java.util.TreeMap$Node left>"},{"step":4,"from":"1093938576","to":"1095420264","type":"load","field":"<java.util.TreeMap$Node: java.util.TreeMap$Node parent>"},{"step":5,"from":"1095420264","to":"1093938576","type":"load","field":"<java.util.TreeMap$Node: java.util.TreeMap$Node left>"}],"parameters":[{"id":"1095349432","name":"this","klass":"java.util.TreeMap$Node"}],"returns":[{"id":"1095420264","name":"return","klass":"java.util.TreeMap$Node"}],"colors":{"heapLocToColor":{"1095420264.<java.util.TreeMap$Node: java.util.TreeMap$Node left>":[0],"1094612008":[0],"1097993720":[0],"1094908296":[0],"1095420264":[0],"1093938576":[0],"1095349432":[0]},"colorToColor":{"0":[1]},"colorToLabel":{"0":"this","1":"return"}}}

Generated Model
	this->return

