Scanning method <java.util.HashMap$KeyIterator: void <init>(java.util.HashMap)>

All seen event types: BinaryOperationRecord, SimpleAssignmentRecord, MethodReturnRecord, MethodCallRecord, ArrayLengthRecord, LoadInstanceRecord, MethodStartRecord, LoadArrayRecord, MethodEndRecord, IfRecord, StoreInstanceRecord, 
Ignored event types: IfRecord, 

JSON Encoded Analysis Data (for visualization):{"heapEdges":[{"step":0,"from":"1093586016","to":"1093664960","type":"store","field":"<java.util.HashMap$KeyIterator: java.util.HashMap this$0>"},{"step":1,"from":"1093586016","to":"1093664960","type":"store","field":"<java.util.HashMap$HashIterator: java.util.HashMap this$0>"},{"step":2,"from":"1093586016","to":"1093586016.<java.util.HashMap: int modCount>","type":"load","field":"<java.util.HashMap: int modCount>"},{"step":3,"from":"1093586016.<java.util.HashMap: int modCount>","to":"1093664960","type":"store","field":"<java.util.HashMap$HashIterator: int expectedModCount>"},{"step":4,"from":"1093586016","to":"1093593208","type":"load","field":"<java.util.HashMap: java.util.HashMap$HashMapEntry[] table>"},{"step":5,"from":"1093664960","to":"1093664960.<java.util.HashMap$HashIterator: int nextIndex>","type":"load","field":"<java.util.HashMap$HashIterator: int nextIndex>"},{"step":6,"from":"1093664960","to":"1093664960.<java.util.HashMap$HashIterator: int nextIndex>","type":"load","field":"<java.util.HashMap$HashIterator: int nextIndex>"},{"step":7,"from":"sdaReg5","to":"1093664960","type":"store","field":"<java.util.HashMap$HashIterator: int nextIndex>"},{"step":8,"from":"sdaReg5","to":"1093664960","type":"store","field":"<java.util.HashMap$HashIterator: int nextIndex>"},{"step":9,"from":"sdaReg5","to":"1093664960","type":"store","field":"<java.util.HashMap$HashIterator: int nextIndex>"},{"step":10,"from":"1093593208","to":"1093593248","type":"load","field":"arrayIdx_int:2"},{"step":11,"from":"1093593248","to":"1093664960","type":"store","field":"<java.util.HashMap$HashIterator: java.util.HashMap$HashMapEntry nextEntry>"}],"parameters":[{"id":"1093664960","name":"this","klass":"java.util.HashMap$KeyIterator"},{"id":"1093586016","name":"arg#1","klass":"java.util.HashMap"}],"returns":[{"id":"1093664960","name":"return","klass":"java.util.HashMap$KeyIterator"}],"colors":{"heapLocToColor":{"sdaReg8":[0],"1093586016":[1],"1093593248":[1],"1093664960.<java.util.HashMap$HashIterator: int nextIndex>":[0],"sdaReg5":[0],"1093586016.<java.util.HashMap: int modCount>":[1],"1093664960":[0],"sdaReg2":[0],"sdaReg1":[1],"sdaReg0":[0],"1093593208":[1]},"colorToColor":{"0":[0, 2],"1":[0]},"colorToLabel":{"0":"this","1":"arg#1","2":"return"}}}

Generated Model
	this->return
	arg#1->this
	arg#1->return

