Scanning method <java.util.TreeSet: java.util.Iterator iterator()>

All seen event types: SimpleAssignmentRecord, MethodReturnRecord, MethodCallRecord, MethodStartRecord, LoadInstanceRecord, MethodEndRecord, IfRecord, StoreInstanceRecord, NewObjectRecord, 
Ignored event types: IfRecord, 

JSON Encoded Analysis Data (for visualization):{"heapEdges":[{"step":0,"from":"1094676392","to":"1093233072","type":"load","field":"<java.util.TreeSet: java.util.NavigableMap backingMap>"},{"step":1,"from":"1093233072","to":"1093493048","type":"store","field":"<java.util.TreeMap$KeySet: java.util.TreeMap this$0>"},{"step":2,"from":"1093233072","to":"1093493048","type":"create","field":"<java.util.TreeMap: java.util.TreeMap$KeySet keySet>"},{"step":3,"from":"1093233072","to":"1094259416","type":"load","field":"<java.util.TreeMap: java.util.TreeMap$Node root>"},{"step":4,"from":"1093233072","to":"1094259416","type":"load","field":"<java.util.TreeMap: java.util.TreeMap$Node root>"},{"step":5,"from":"1094259416","to":"1096265440","type":"load","field":"<java.util.TreeMap$Node: java.util.TreeMap$Node left>"},{"step":6,"from":"1096265440","to":"1093533024","type":"load","field":"<java.util.TreeMap$Node: java.util.TreeMap$Node left>"},{"step":7,"from":"1093533024","to":"1093447784","type":"load","field":"<java.util.TreeMap$Node: java.util.TreeMap$Node left>"},{"step":8,"from":"1093447784","to":"1094753864","type":"load","field":"<java.util.TreeMap$Node: java.util.TreeMap$Node left>"},{"step":9,"from":"1094753864","to":"1095430504","type":"load","field":"<java.util.TreeMap$Node: java.util.TreeMap$Node left>"},{"step":10,"from":"1095430504","to":"1093260488","type":"load","field":"<java.util.TreeMap$Node: java.util.TreeMap$Node left>"},{"step":11,"from":"1093493048","to":"1096199360","type":"store","field":"<java.util.TreeMap$KeySet$1: java.util.TreeMap$KeySet this$1>"},{"step":12,"from":"1093233072","to":"1096199360","type":"store","field":"<java.util.TreeMap$MapIterator: java.util.TreeMap this$0>"},{"step":13,"from":"1093233072","to":"1093233072.<java.util.TreeMap: int modCount>","type":"load","field":"<java.util.TreeMap: int modCount>"},{"step":14,"from":"1093233072.<java.util.TreeMap: int modCount>","to":"1096199360","type":"store","field":"<java.util.TreeMap$MapIterator: int expectedModCount>"},{"step":15,"from":"1093260488","to":"1096199360","type":"store","field":"<java.util.TreeMap$MapIterator: java.util.TreeMap$Node next>"}],"parameters":[{"id":"1094676392","name":"this","klass":"java.util.TreeSet"}],"returns":[{"id":"1096199360","name":"return","klass":"java.util.Iterator"}],"colors":{"heapLocToColor":{"1093233072.<java.util.TreeMap: java.util.TreeMap$Node root>":[0],"1093493048":[1],"1094676392":[0],"1093447784":[0],"sdaReg13":[0],"sdaReg14":[0],"sdaReg11":[1],"sdaReg12":[0],"sdaReg10":[1],"sdaReg19":[0],"1094259416":[0],"sdaReg17":[0],"sdaReg18":[2],"sdaReg15":[2],"sdaReg16":[1],"sdaReg8":[1],"1096265440":[0],"sdaReg9":[1],"sdaReg6":[1],"sdaReg7":[1],"sdaReg4":[1],"sdaReg5":[1],"1096199360":[2],"1093233072.<java.util.TreeMap: int modCount>":[0],"1093233072":[0],"1095430504":[0],"sdaReg3":[1],"sdaReg2":[0],"sdaReg21":[2],"sdaReg1":[1],"1094753864":[0],"sdaReg20":[0],"sdaReg0":[0],"1093533024":[0],"sdaReg23":[2],"sdaReg22":[2],"sdaReg24":[2],"1093260488":[0]},"colorToColor":{"0":[1, 2],"1":[0, 2],"2":[3]},"colorToLabel":{"0":"this","3":"return"}}}

Generated Model
	this->return

