Scanning method <java.util.TreeSet: java.util.Iterator iterator()>

All seen event types: SimpleAssignmentRecord, MethodReturnRecord, MethodCallRecord, MethodStartRecord, LoadInstanceRecord, MethodEndRecord, IfRecord, StoreInstanceRecord, NewObjectRecord, 
Ignored event types: IfRecord, 

JSON Encoded Analysis Data (for visualization):{"heapEdges":[{"step":0,"from":"1099705040","to":"1099705064","type":"load","field":"<java.util.TreeSet: java.util.NavigableMap backingMap>"},{"step":1,"from":"1099705064","to":"1093850104","type":"load","field":"<java.util.TreeMap: java.util.TreeMap$KeySet keySet>"},{"step":2,"from":"1093850104","to":"1099705064","type":"load","field":"<java.util.TreeMap$KeySet: java.util.TreeMap this$0>"},{"step":3,"from":"1099705064","to":"1099725312","type":"load","field":"<java.util.TreeMap: java.util.TreeMap$Node root>"},{"step":4,"from":"1093850104","to":"1099705064","type":"load","field":"<java.util.TreeMap$KeySet: java.util.TreeMap this$0>"},{"step":5,"from":"1099705064","to":"1099725312","type":"load","field":"<java.util.TreeMap: java.util.TreeMap$Node root>"},{"step":6,"from":"1099725312","to":"1099705112","type":"load","field":"<java.util.TreeMap$Node: java.util.TreeMap$Node left>"},{"step":7,"from":"1093850104","to":"1099873088","type":"store","field":"<java.util.TreeMap$KeySet$1: java.util.TreeMap$KeySet this$1>"},{"step":8,"from":"1093850104","to":"1099705064","type":"load","field":"<java.util.TreeMap$KeySet: java.util.TreeMap this$0>"},{"step":9,"from":"1099705064","to":"1099873088","type":"store","field":"<java.util.TreeMap$MapIterator: java.util.TreeMap this$0>"},{"step":10,"from":"1099705064","to":"1099705064.<java.util.TreeMap: int modCount>","type":"load","field":"<java.util.TreeMap: int modCount>"},{"step":11,"from":"1099705064.<java.util.TreeMap: int modCount>","to":"1099873088","type":"store","field":"<java.util.TreeMap$MapIterator: int expectedModCount>"},{"step":12,"from":"1099705112","to":"1099873088","type":"store","field":"<java.util.TreeMap$MapIterator: java.util.TreeMap$Node next>"}],"parameters":[{"id":"1099705040","name":"this","klass":"java.util.TreeSet"}],"returns":[{"id":"1099873088","name":"return","klass":"java.util.Iterator"}],"colors":{"heapLocToColor":{"sdaReg13":[1],"1093850104.<java.util.TreeMap$KeySet: java.util.TreeMap this$0>":[0],"sdaReg14":[1],"sdaReg11":[0],"1093850104":[0],"sdaReg12":[0],"1099705112":[0],"sdaReg10":[1],"sdaReg15":[1],"sdaReg16":[1],"sdaReg8":[0],"sdaReg9":[0],"sdaReg6":[0],"1099705064.<java.util.TreeMap: java.util.TreeMap$Node root>":[0],"sdaReg7":[1],"sdaReg4":[0],"sdaReg5":[0],"1099705064":[0],"1099705040":[0],"1099873088":[1],"1099705064.<java.util.TreeMap: int modCount>":[0],"1099725312":[0],"sdaReg3":[0],"sdaReg2":[0],"sdaReg0":[0]},"colorToColor":{"0":[1],"1":[2]},"colorToLabel":{"0":"this","2":"return"}}}

Generated Model
	this->return

