Scanning method <java.util.TreeSet: java.util.Iterator iterator()>

All seen event types: SimpleAssignmentRecord, MethodReturnRecord, MethodCallRecord, MethodStartRecord, LoadInstanceRecord, MethodEndRecord, IfRecord, StoreInstanceRecord, NewObjectRecord, 
Ignored event types: IfRecord, 

JSON Encoded Analysis Data (for visualization):{"heapEdges":[{"step":0,"from":"1093552000","to":"1093552024","type":"load","field":"<java.util.TreeSet: java.util.NavigableMap backingMap>"},{"step":1,"from":"1093552024","to":"1093623792","type":"store","field":"<java.util.TreeMap$KeySet: java.util.TreeMap this$0>"},{"step":2,"from":"1093552024","to":"1093623792","type":"create","field":"<java.util.TreeMap: java.util.TreeMap$KeySet keySet>"},{"step":3,"from":"1093623792","to":"1093623808","type":"store","field":"<java.util.TreeMap$KeySet$1: java.util.TreeMap$KeySet this$1>"},{"step":4,"from":"1093552024","to":"1093623808","type":"store","field":"<java.util.TreeMap$MapIterator: java.util.TreeMap this$0>"},{"step":5,"from":"1093552024","to":"1093552024.<java.util.TreeMap: int modCount>","type":"load","field":"<java.util.TreeMap: int modCount>"},{"step":6,"from":"1093552024.<java.util.TreeMap: int modCount>","to":"1093623808","type":"store","field":"<java.util.TreeMap$MapIterator: int expectedModCount>"}],"parameters":[{"id":"1093552000","name":"this","klass":"java.util.TreeSet"}],"returns":[{"id":"1093623808","name":"return","klass":"java.util.Iterator"}],"colors":{"heapLocToColor":{"1093623792":[1],"sdaReg13":[2],"1093552000":[0],"sdaReg14":[1],"sdaReg11":[1],"sdaReg10":[1],"sdaReg19":[2],"1093552024":[0],"sdaReg17":[0],"sdaReg16":[2],"sdaReg8":[1],"sdaReg9":[1],"sdaReg6":[1],"sdaReg7":[1],"sdaReg4":[1],"sdaReg5":[1],"1093552024.<java.util.TreeMap: int modCount>":[0],"sdaReg3":[1],"sdaReg2":[0],"sdaReg1":[1],"sdaReg21":[2],"sdaReg0":[0],"sdaReg20":[2],"sdaReg22":[2],"1093623808":[2]},"colorToColor":{"0":[1, 2],"1":[0, 2],"2":[3]},"colorToLabel":{"0":"this","3":"return"}}}

Generated Model
	this->return

