Scanning method <java.util.AbstractMap: void <init>()>

All seen event types: MethodReturnRecord, MethodCallRecord, 
Ignored event types: 

JSON Encoded Analysis Data (for visualization):{"heapEdges":[],"parameters":[{"id":"1093435544","name":"this","klass":"java.util.AbstractMap"}],"returns":[{"id":"1093435544","name":"return","klass":"java.util.AbstractMap"}],"colors":{"heapLocToColor":{"sdaReg0":[0],"1093435544":[0]},"colorToColor":{"0":[1]},"colorToLabel":{"0":"this","1":"return"}}}

Generated Model
	this->return

