Scanning method <java.io.ObjectInputStream: java.lang.ClassLoader getClosestUserClassLoader()>

All seen event types: LoadStaticRecord, BinaryOperationRecord, SimpleAssignmentRecord, MethodReturnRecord, MethodCallRecord, ArrayLengthRecord, LoadArrayRecord, IfRecord, 
Ignored event types: IfRecord, 

JSON Encoded Analysis Data (for visualization):{"heapEdges":[{"step":0,"from":"1093341080","to":"1085582952","type":"load","field":"arrayIdx_int:0"},{"step":1,"from":"1085582952","to":"1083999984","type":"model"},{"step":2,"from":"static.<java.io.ObjectInputStream: java.lang.ClassLoader bootstrapLoader>","to":"1083999984","type":"load","field":"<java.io.ObjectInputStream: java.lang.ClassLoader bootstrapLoader>"},{"step":3,"from":"1093341080","to":"1085582952","type":"load","field":"arrayIdx_int:1"},{"step":4,"from":"1085582952","to":"1083999984","type":"model"},{"step":5,"from":"static.<java.io.ObjectInputStream: java.lang.ClassLoader bootstrapLoader>","to":"1083999984","type":"load","field":"<java.io.ObjectInputStream: java.lang.ClassLoader bootstrapLoader>"},{"step":6,"from":"1093341080","to":"1085582952","type":"load","field":"arrayIdx_int:2"},{"step":7,"from":"1085582952","to":"1083999984","type":"model"},{"step":8,"from":"static.<java.io.ObjectInputStream: java.lang.ClassLoader bootstrapLoader>","to":"1083999984","type":"load","field":"<java.io.ObjectInputStream: java.lang.ClassLoader bootstrapLoader>"},{"step":9,"from":"1093341080","to":"1085582952","type":"load","field":"arrayIdx_int:3"},{"step":10,"from":"1085582952","to":"1083999984","type":"model"},{"step":11,"from":"static.<java.io.ObjectInputStream: java.lang.ClassLoader bootstrapLoader>","to":"1083999984","type":"load","field":"<java.io.ObjectInputStream: java.lang.ClassLoader bootstrapLoader>"},{"step":12,"from":"1093341080","to":"1085582952","type":"load","field":"arrayIdx_int:4"},{"step":13,"from":"1085582952","to":"1083999984","type":"model"},{"step":14,"from":"static.<java.io.ObjectInputStream: java.lang.ClassLoader bootstrapLoader>","to":"1083999984","type":"load","field":"<java.io.ObjectInputStream: java.lang.ClassLoader bootstrapLoader>"},{"step":15,"from":"1093341080","to":"1093339976","type":"load","field":"arrayIdx_int:5"},{"step":16,"from":"1093339976","to":"1093291176","type":"model"},{"step":17,"from":"static.<java.io.ObjectInputStream: java.lang.ClassLoader bootstrapLoader>","to":"1083999984","type":"load","field":"<java.io.ObjectInputStream: java.lang.ClassLoader bootstrapLoader>"},{"step":18,"from":"static.<java.io.ObjectInputStream: java.lang.ClassLoader systemLoader>","to":"1083999760","type":"load","field":"<java.io.ObjectInputStream: java.lang.ClassLoader systemLoader>"}],"parameters":[],"returns":[{"id":"1093291176","name":"return","klass":"java.lang.ClassLoader"}],"colors":{"heapLocToColor":{"sdaReg8":[0, 1, 2],"sdaReg9":[0, 3],"sdaReg6":[0, 1, 2],"sdaReg7":[0, 1, 2],"1093341080":[0],"1085582952":[0],"sdaReg4":[0, 1],"sdaReg5":[0, 1, 2],"1083999760":[4],"1093291176":[0, 3],"1093339976":[0],"static.<java.io.ObjectInputStream: java.lang.ClassLoader bootstrapLoader>":[0, 1, 2],"static.<java.io.ObjectInputStream: java.lang.ClassLoader systemLoader>":[4],"1083999984":[0, 1, 2],"sdaReg1":[0],"sdaReg0":[0],"1093341080.arrayIdx_int:2":[0],"1093341080.arrayIdx_int:1":[0],"1093341080.arrayIdx_int:4":[0],"1093341080.arrayIdx_int:3":[0]},"colorToColor":{"0":[5],"3":[5]},"colorToLabel":{"2":"<java.io.ObjectInputStream: java.lang.ClassLoader bootstrapLoader>","4":"<java.io.ObjectInputStream: java.lang.ClassLoader systemLoader>","5":"return"}}}

Generated Model

