Scanning method <android.location.Address: int describeContents()>

All seen event types: SimpleAssignmentRecord, LoadInstanceRecord, IfRecord, 
Ignored event types: IfRecord, 

JSON Encoded Analysis Data (for visualization):{"heapEdges":[],"parameters":[{"id":"1093511776","name":"this","klass":"android.location.Address"}],"returns":[{"id":"sdaReg0","name":"return","klass":"int"}],"colors":{"heapLocToColor":{"1093511776":[0]},"colorToColor":{},"colorToLabel":{"0":"this","1":"return"}}}

Generated Model

