Scanning method <java.net.URLConnection: void setReadTimeout(int)>

All seen event types: IfRecord, StoreInstanceRecord, 
Ignored event types: IfRecord, 

JSON Encoded Analysis Data (for visualization):{"heapEdges":[{"step":0,"from":"sdaReg0","to":"1093388240","type":"store","field":"<java.net.URLConnection: int readTimeout>"}],"parameters":[{"id":"1093388240","name":"this","klass":"java.net.URLConnection"},{"id":"sdaReg0","name":"arg#1","klass":"int"}],"returns":[{"id":null,"name":"return","klass":null}],"colors":{"heapLocToColor":{"1093388240":[0],"sdaReg0":[1]},"colorToColor":{"1":[0]},"colorToLabel":{"0":"this","1":"arg#1","2":"return"}}}

Generated Model
	arg#1->this

