Scanning method <java.io.ObjectInputStream: int read(byte[],int,int)>

All seen event types: BinaryOperationRecord, SimpleAssignmentRecord, MethodReturnRecord, MethodCallRecord, LoadInstanceRecord, MethodStartRecord, ArrayLengthRecord, MethodEndRecord, IfRecord, StoreInstanceRecord, 
Ignored event types: IfRecord, 

JSON Encoded Analysis Data (for visualization):{"heapEdges":[{"step":0,"from":"1093467248","to":"1093599944","type":"load","field":"<java.io.ObjectInputStream: java.io.InputStream primitiveData>"},{"step":1,"from":"1093467248","to":"1093443304","type":"load","field":"<java.io.ObjectInputStream: java.io.DataInputStream input>"},{"step":2,"from":"1093467248","to":"1093599944","type":"load","field":"<java.io.ObjectInputStream: java.io.InputStream primitiveData>"},{"step":3,"from":"1093599944","to":"1093599944.<java.io.ByteArrayInputStream: int count>","type":"load","field":"<java.io.ByteArrayInputStream: int count>"},{"step":4,"from":"1093599944","to":"1093599944.<java.io.ByteArrayInputStream: int pos>","type":"load","field":"<java.io.ByteArrayInputStream: int pos>"},{"step":5,"from":"1093467248","to":"1093599944","type":"load","field":"<java.io.ObjectInputStream: java.io.InputStream primitiveData>"},{"step":6,"from":"1093599944","to":"1093599944.<java.io.ByteArrayInputStream: int pos>","type":"load","field":"<java.io.ByteArrayInputStream: int pos>"},{"step":7,"from":"1093599944","to":"1093599944.<java.io.ByteArrayInputStream: int count>","type":"load","field":"<java.io.ByteArrayInputStream: int count>"},{"step":8,"from":"1093599944","to":"1093599944.<java.io.ByteArrayInputStream: int count>","type":"load","field":"<java.io.ByteArrayInputStream: int count>"},{"step":9,"from":"1093599944","to":"1093599944.<java.io.ByteArrayInputStream: int pos>","type":"load","field":"<java.io.ByteArrayInputStream: int pos>"},{"step":10,"from":"1093599944","to":"1093599976","type":"load","field":"<java.io.ByteArrayInputStream: byte[] buf>"},{"step":11,"from":"1093599944","to":"1093599944.<java.io.ByteArrayInputStream: int pos>","type":"load","field":"<java.io.ByteArrayInputStream: int pos>"},{"step":12,"from":"1093599976","to":"1093631408","type":"model"},{"step":13,"from":"1093599944","to":"1093599944.<java.io.ByteArrayInputStream: int pos>","type":"load","field":"<java.io.ByteArrayInputStream: int pos>"},{"step":14,"from":"sdaReg16","to":"1093599944","type":"store","field":"<java.io.ByteArrayInputStream: int pos>"}],"parameters":[{"id":"1093467248","name":"this","klass":"java.io.ObjectInputStream"},{"id":"1093631408","name":"arg#1","klass":"byte[]"},{"id":"sdaReg0","name":"arg#2","klass":"int"},{"id":"sdaReg1","name":"arg#3","klass":"int"}],"returns":[{"id":"sdaReg15","name":"return","klass":"int"}],"colors":{"heapLocToColor":{"1093467248.<java.io.ObjectInputStream: java.io.InputStream primitiveData>":[0],"sdaReg8":[0],"sdaReg9":[1],"sdaReg6":[0],"sdaReg7":[0],"sdaReg4":[2],"sdaReg5":[0],"1093599944":[0],"1093443304":[0],"1093599944.<java.io.ByteArrayInputStream: int count>":[0],"1093631408":[1],"sdaReg13":[0],"1093599944.<java.io.ByteArrayInputStream: int pos>":[0],"sdaReg14":[3],"sdaReg11":[2, 3],"sdaReg12":[2],"1093467248":[0],"sdaReg3":[2, 3],"sdaReg1":[3],"sdaReg0":[2],"sdaReg15":[3],"sdaReg16":[0, 3],"1093599976":[0]},"colorToColor":{"0":[0, 1],"3":[0, 4]},"colorToLabel":{"0":"this","1":"arg#1","2":"arg#2","3":"arg#3","4":"return"}}}

Generated Model
	this->arg#1
	arg#3->this
	arg#3->return
	arg#3->arg#1

