Scanning method <java.io.DataInputStream: int read(byte[],int,int)>

All seen event types: BinaryOperationRecord, SimpleAssignmentRecord, MethodReturnRecord, MethodCallRecord, ArrayLengthRecord, MethodStartRecord, LoadInstanceRecord, MethodEndRecord, IfRecord, StoreInstanceRecord, 
Ignored event types: IfRecord, 

JSON Encoded Analysis Data (for visualization):{"heapEdges":[{"step":0,"from":"1093679488","to":"1093679624","type":"load","field":"<java.io.FilterInputStream: java.io.InputStream in>"},{"step":1,"from":"1093679624","to":"1093679624.<java.io.ByteArrayInputStream: int pos>","type":"load","field":"<java.io.ByteArrayInputStream: int pos>"},{"step":2,"from":"1093679624","to":"1093679624.<java.io.ByteArrayInputStream: int count>","type":"load","field":"<java.io.ByteArrayInputStream: int count>"},{"step":3,"from":"1093679624","to":"1093679624.<java.io.ByteArrayInputStream: int count>","type":"load","field":"<java.io.ByteArrayInputStream: int count>"},{"step":4,"from":"1093679624","to":"1093679624.<java.io.ByteArrayInputStream: int pos>","type":"load","field":"<java.io.ByteArrayInputStream: int pos>"},{"step":5,"from":"1093679624","to":"1093679656","type":"load","field":"<java.io.ByteArrayInputStream: byte[] buf>"},{"step":6,"from":"1093679624","to":"1093679624.<java.io.ByteArrayInputStream: int pos>","type":"load","field":"<java.io.ByteArrayInputStream: int pos>"},{"step":7,"from":"1093679656","to":"1093680280","type":"model"},{"step":8,"from":"1093679624","to":"1093679624.<java.io.ByteArrayInputStream: int pos>","type":"load","field":"<java.io.ByteArrayInputStream: int pos>"},{"step":9,"from":"sdaReg10","to":"1093679624","type":"store","field":"<java.io.ByteArrayInputStream: int pos>"}],"parameters":[{"id":"1093679488","name":"this","klass":"java.io.DataInputStream"},{"id":"1093680280","name":"arg#1","klass":"byte[]"},{"id":"sdaReg0","name":"arg#2","klass":"int"},{"id":"sdaReg1","name":"arg#3","klass":"int"}],"returns":[{"id":"sdaReg9","name":"return","klass":"int"}],"colors":{"heapLocToColor":{"sdaReg8":[3],"sdaReg9":[3],"sdaReg6":[2],"sdaReg7":[0],"sdaReg5":[2, 3],"1093680280":[1],"1093679624":[0],"1093679656":[0],"sdaReg10":[0, 3],"1093679488":[0],"1093679624.<java.io.ByteArrayInputStream: int pos>":[0],"sdaReg3":[1],"1093679624.<java.io.ByteArrayInputStream: int count>":[0],"sdaReg2":[0],"sdaReg1":[3],"sdaReg0":[2]},"colorToColor":{"0":[0, 1],"3":[0, 4]},"colorToLabel":{"0":"this","1":"arg#1","2":"arg#2","3":"arg#3","4":"return"}}}

Generated Model
	this->arg#1
	arg#3->this
	arg#3->return
	arg#3->arg#1

