Scanning method <java.util.ArrayList: int lastIndexOf(java.lang.Object)>

All seen event types: BinaryOperationRecord, MethodReturnRecord, MethodCallRecord, LoadInstanceRecord, LoadArrayRecord, IfRecord, 
Ignored event types: IfRecord, 

JSON Encoded Analysis Data (for visualization):{"heapEdges":[{"step":0,"from":"1093414184","to":"1093686304","type":"load","field":"<java.util.ArrayList: java.lang.Object[] array>"},{"step":1,"from":"1093414184","to":"1093414184.<java.util.ArrayList: int size>","type":"load","field":"<java.util.ArrayList: int size>"},{"step":2,"from":"1093686304","to":"1093650888","type":"load","field":"arrayIdx_int:100"},{"step":3,"from":"1093686304","to":"1093297320","type":"load","field":"arrayIdx_int:99"},{"step":4,"from":"1093686304","to":"1093448208","type":"load","field":"arrayIdx_int:98"},{"step":5,"from":"1093686304","to":"1093447944","type":"load","field":"arrayIdx_int:97"},{"step":6,"from":"1093686304","to":"1093441176","type":"load","field":"arrayIdx_int:96"},{"step":7,"from":"1093686304","to":"1093321480","type":"load","field":"arrayIdx_int:95"},{"step":8,"from":"1093686304","to":"1093318624","type":"load","field":"arrayIdx_int:94"},{"step":9,"from":"1093686304","to":"1093311864","type":"load","field":"arrayIdx_int:93"},{"step":10,"from":"1093686304","to":"1093304096","type":"load","field":"arrayIdx_int:92"},{"step":11,"from":"1093686304","to":"1093534208","type":"load","field":"arrayIdx_int:91"},{"step":12,"from":"1093686304","to":"1093520840","type":"load","field":"arrayIdx_int:90"},{"step":13,"from":"1093686304","to":"1093445048","type":"load","field":"arrayIdx_int:89"},{"step":14,"from":"1093686304","to":"1093442568","type":"load","field":"arrayIdx_int:88"},{"step":15,"from":"1093686304","to":"1093315288","type":"load","field":"arrayIdx_int:87"},{"step":16,"from":"1093686304","to":"1093314048","type":"load","field":"arrayIdx_int:86"},{"step":17,"from":"1093686304","to":"1093305216","type":"load","field":"arrayIdx_int:85"},{"step":18,"from":"1093686304","to":"1093263312","type":"load","field":"arrayIdx_int:84"},{"step":19,"from":"1093686304","to":"1093553240","type":"load","field":"arrayIdx_int:83"},{"step":20,"from":"1093686304","to":"1093551928","type":"load","field":"arrayIdx_int:82"},{"step":21,"from":"1093686304","to":"1093550952","type":"load","field":"arrayIdx_int:81"},{"step":22,"from":"1093686304","to":"1093547680","type":"load","field":"arrayIdx_int:80"},{"step":23,"from":"1093686304","to":"1093544664","type":"load","field":"arrayIdx_int:79"},{"step":24,"from":"1093686304","to":"1093531472","type":"load","field":"arrayIdx_int:78"},{"step":25,"from":"1093686304","to":"1093525840","type":"load","field":"arrayIdx_int:77"},{"step":26,"from":"1093686304","to":"1093524528","type":"load","field":"arrayIdx_int:76"},{"step":27,"from":"1093686304","to":"1093517904","type":"load","field":"arrayIdx_int:75"},{"step":28,"from":"1093686304","to":"1093446576","type":"load","field":"arrayIdx_int:74"},{"step":29,"from":"1093686304","to":"1093446256","type":"load","field":"arrayIdx_int:73"},{"step":30,"from":"1093686304","to":"1093445360","type":"load","field":"arrayIdx_int:72"},{"step":31,"from":"1093686304","to":"1093424720","type":"load","field":"arrayIdx_int:71"},{"step":32,"from":"1093686304","to":"1093423408","type":"load","field":"arrayIdx_int:70"},{"step":33,"from":"1093686304","to":"1093423080","type":"load","field":"arrayIdx_int:69"},{"step":34,"from":"1093686304","to":"1093422112","type":"load","field":"arrayIdx_int:68"},{"step":35,"from":"1093686304","to":"1093417112","type":"load","field":"arrayIdx_int:67"},{"step":36,"from":"1093686304","to":"1093415168","type":"load","field":"arrayIdx_int:66"},{"step":37,"from":"1093686304","to":"1093413872","type":"load","field":"arrayIdx_int:65"},{"step":38,"from":"1093686304","to":"1093408280","type":"load","field":"arrayIdx_int:64"},{"step":39,"from":"1093686304","to":"1093407304","type":"load","field":"arrayIdx_int:63"},{"step":40,"from":"1093686304","to":"1093400168","type":"load","field":"arrayIdx_int:62"},{"step":41,"from":"1093686304","to":"1093391336","type":"load","field":"arrayIdx_int:61"},{"step":42,"from":"1093686304","to":"1093387104","type":"load","field":"arrayIdx_int:60"},{"step":43,"from":"1093686304","to":"1093316840","type":"load","field":"arrayIdx_int:59"},{"step":44,"from":"1093686304","to":"1093533568","type":"load","field":"arrayIdx_int:58"},{"step":45,"from":"1093686304","to":"1093530432","type":"load","field":"arrayIdx_int:57"},{"step":46,"from":"1093686304","to":"1093528328","type":"load","field":"arrayIdx_int:56"},{"step":47,"from":"1093686304","to":"1093410656","type":"load","field":"arrayIdx_int:55"},{"step":48,"from":"1093686304","to":"1093403640","type":"load","field":"arrayIdx_int:54"},{"step":49,"from":"1093686304","to":"1093325784","type":"load","field":"arrayIdx_int:53"},{"step":50,"from":"1093686304","to":"1093398696","type":"load","field":"arrayIdx_int:52"},{"step":51,"from":"1093686304","to":"1093307928","type":"load","field":"arrayIdx_int:51"},{"step":52,"from":"1093686304","to":"1093567680","type":"load","field":"arrayIdx_int:50"},{"step":53,"from":"1093686304","to":"1093521528","type":"load","field":"arrayIdx_int:49"},{"step":54,"from":"1093686304","to":"1093508176","type":"load","field":"arrayIdx_int:48"},{"step":55,"from":"1093686304","to":"1093508568","type":"load","field":"arrayIdx_int:47"},{"step":56,"from":"1093686304","to":"1093506584","type":"load","field":"arrayIdx_int:46"},{"step":57,"from":"1093686304","to":"1093506192","type":"load","field":"arrayIdx_int:45"},{"step":58,"from":"1093686304","to":"1093505000","type":"load","field":"arrayIdx_int:44"},{"step":59,"from":"1093686304","to":"1093504192","type":"load","field":"arrayIdx_int:43"},{"step":60,"from":"1093686304","to":"1093320776","type":"load","field":"arrayIdx_int:42"},{"step":61,"from":"1093686304","to":"1093338240","type":"load","field":"arrayIdx_int:41"},{"step":62,"from":"1093686304","to":"1093337344","type":"load","field":"arrayIdx_int:40"},{"step":63,"from":"1093686304","to":"1093336896","type":"load","field":"arrayIdx_int:39"},{"step":64,"from":"1093686304","to":"1093336008","type":"load","field":"arrayIdx_int:38"},{"step":65,"from":"1093686304","to":"1093501360","type":"load","field":"arrayIdx_int:37"},{"step":66,"from":"1093686304","to":"1093499936","type":"load","field":"arrayIdx_int:36"},{"step":67,"from":"1093686304","to":"1093349080","type":"load","field":"arrayIdx_int:35"},{"step":68,"from":"1093686304","to":"1093341656","type":"load","field":"arrayIdx_int:34"},{"step":69,"from":"1093686304","to":"1093485152","type":"load","field":"arrayIdx_int:33"},{"step":70,"from":"1093686304","to":"1093484168","type":"load","field":"arrayIdx_int:32"},{"step":71,"from":"1093686304","to":"1093471624","type":"load","field":"arrayIdx_int:31"},{"step":72,"from":"1093686304","to":"1093469216","type":"load","field":"arrayIdx_int:30"},{"step":73,"from":"1093686304","to":"1093371896","type":"load","field":"arrayIdx_int:29"},{"step":74,"from":"1093686304","to":"1093355160","type":"load","field":"arrayIdx_int:28"},{"step":75,"from":"1093686304","to":"1093339648","type":"load","field":"arrayIdx_int:27"},{"step":76,"from":"1093686304","to":"1093492504","type":"load","field":"arrayIdx_int:26"},{"step":77,"from":"1093686304","to":"1093490376","type":"load","field":"arrayIdx_int:25"},{"step":78,"from":"1093686304","to":"1093487744","type":"load","field":"arrayIdx_int:24"},{"step":79,"from":"1093686304","to":"1093471120","type":"load","field":"arrayIdx_int:23"},{"step":80,"from":"1093686304","to":"1093375200","type":"load","field":"arrayIdx_int:22"},{"step":81,"from":"1093686304","to":"1093374696","type":"load","field":"arrayIdx_int:21"},{"step":82,"from":"1093686304","to":"1093364496","type":"load","field":"arrayIdx_int:20"},{"step":83,"from":"1093686304","to":"1093359736","type":"load","field":"arrayIdx_int:19"},{"step":84,"from":"1093686304","to":"1093347088","type":"load","field":"arrayIdx_int:18"},{"step":85,"from":"1093686304","to":"1093343592","type":"load","field":"arrayIdx_int:17"},{"step":86,"from":"1093686304","to":"1093307712","type":"load","field":"arrayIdx_int:16"},{"step":87,"from":"1093686304","to":"1093298592","type":"load","field":"arrayIdx_int:15"},{"step":88,"from":"1093686304","to":"1093491976","type":"load","field":"arrayIdx_int:14"},{"step":89,"from":"1093686304","to":"1093491440","type":"load","field":"arrayIdx_int:13"},{"step":90,"from":"1093686304","to":"1093486184","type":"load","field":"arrayIdx_int:12"},{"step":91,"from":"1093686304","to":"1093478616","type":"load","field":"arrayIdx_int:11"},{"step":92,"from":"1093686304","to":"1093366088","type":"load","field":"arrayIdx_int:10"},{"step":93,"from":"1093686304","to":"1093365024","type":"load","field":"arrayIdx_int:9"},{"step":94,"from":"1093686304","to":"1093362384","type":"load","field":"arrayIdx_int:8"},{"step":95,"from":"1093686304","to":"1093360792","type":"load","field":"arrayIdx_int:7"},{"step":96,"from":"1093686304","to":"1093357136","type":"load","field":"arrayIdx_int:6"},{"step":97,"from":"1093686304","to":"1093354136","type":"load","field":"arrayIdx_int:5"},{"step":98,"from":"1093686304","to":"1093347608","type":"load","field":"arrayIdx_int:4"},{"step":99,"from":"1093686304","to":"1093458120","type":"load","field":"arrayIdx_int:3"},{"step":100,"from":"1093686304","to":"1093455288","type":"load","field":"arrayIdx_int:2"},{"step":101,"from":"1093686304","to":"1093257560","type":"load","field":"arrayIdx_int:1"},{"step":102,"from":"1093686304","to":"1093303336","type":"load","field":"arrayIdx_int:0"}],"parameters":[{"id":"1093414184","name":"this","klass":"java.util.ArrayList"},{"id":"1093433728","name":"arg#1","klass":"java.lang.Object"}],"returns":[{"id":null,"name":"return","klass":"int"}],"colors":{"heapLocToColor":{"1093349080":[0],"1093517904":[0],"1093423080":[0],"sdaReg13":[14],"1093366088":[0],"sdaReg14":[15],"sdaReg11":[12],"sdaReg12":[13],"1093337344":[0],"sdaReg10":[11],"1093534208":[0],"sdaReg19":[20],"sdaReg17":[18],"sdaReg18":[19],"sdaReg15":[16],"sdaReg16":[17],"1093447944":[0],"1093375200":[0],"1093424720":[0],"1093445048":[0],"1093553240":[0],"1093486184":[0],"1093336896":[0],"1093508176":[0],"1093414184":[0],"1093484168":[0],"1093398696":[0],"1093387104":[0],"1093257560":[0],"1093307712":[0],"1093307928":[0],"1093491440":[0],"1093446576":[0],"sdaReg60":[61],"1093408280":[0],"1093506584":[0],"sdaReg61":[62],"1093318624":[0],"1093508568":[0],"1093533568":[0],"1093311864":[0],"1093485152":[0],"1093525840":[0],"sdaReg59":[60],"sdaReg58":[59],"sdaReg57":[58],"sdaReg56":[57],"1093528328":[0],"sdaReg55":[56],"sdaReg54":[55],"sdaReg53":[54],"1093504192":[0],"sdaReg52":[53],"sdaReg51":[52],"sdaReg50":[51],"1093530432":[0],"1093315288":[0],"1093506192":[0],"1093458120":[0],"sdaReg49":[50],"1093339648":[0],"1093354136":[0],"sdaReg48":[49],"1093303336":[0],"sdaReg45":[46],"sdaReg44":[45],"1093490376":[0],"1093304096":[0],"sdaReg47":[48],"sdaReg46":[47],"sdaReg41":[42],"sdaReg40":[41],"sdaReg43":[44],"sdaReg42":[43],"1093471120":[0],"1093374696":[0],"1093520840":[0],"sdaReg39":[40],"sdaReg38":[39],"sdaReg37":[38],"1093362384":[0],"sdaReg32":[33],"sdaReg31":[32],"sdaReg30":[31],"sdaReg36":[37],"sdaReg35":[36],"1093422112":[0],"sdaReg34":[35],"sdaReg33":[34],"sdaReg8":[9],"sdaReg9":[10],"sdaReg6":[7],"sdaReg7":[8],"sdaReg4":[5],"sdaReg5":[6],"sdaReg27":[28],"sdaReg26":[27],"sdaReg29":[30],"sdaReg28":[29],"1093417112":[0],"1093321480":[0],"sdaReg3":[4],"1093338240":[0],"sdaReg2":[3],"sdaReg1":[2],"1093442568":[0],"sdaReg21":[22],"sdaReg0":[0],"sdaReg20":[21],"sdaReg23":[24],"sdaReg22":[23],"sdaReg25":[26],"sdaReg24":[25],"sdaReg68":[69],"1093445360":[0],"sdaReg69":[70],"sdaReg66":[67],"sdaReg67":[68],"sdaReg64":[65],"sdaReg65":[66],"sdaReg62":[63],"1093531472":[0],"sdaReg63":[64],"sdaReg72":[73],"sdaReg71":[72],"sdaReg70":[71],"1093347088":[0],"1093360792":[0],"1093314048":[0],"1093415168":[0],"1093501360":[0],"1093567680":[0],"1093407304":[0],"1093297320":[0],"1093492504":[0],"sdaReg77":[78],"sdaReg78":[79],"sdaReg79":[80],"1093469216":[0],"sdaReg73":[74],"sdaReg74":[75],"sdaReg75":[76],"1093365024":[0],"sdaReg76":[77],"1093686304":[0],"1093336008":[0],"sdaReg81":[82],"1093371896":[0],"sdaReg80":[81],"1093413872":[0],"sdaReg83":[84],"sdaReg82":[83],"1093343592":[0],"sdaReg86":[87],"1093320776":[0],"sdaReg87":[88],"sdaReg84":[85],"sdaReg85":[86],"sdaReg88":[89],"sdaReg89":[90],"1093359736":[0],"sdaReg90":[91],"sdaReg94":[95],"sdaReg93":[94],"sdaReg92":[93],"sdaReg91":[92],"sdaReg100":[101],"1093433728":[1],"1093403640":[0],"1093521528":[0],"sdaReg101":[102],"1093391336":[0],"1093547680":[0],"sdaReg95":[96],"1093423408":[0],"sdaReg96":[97],"sdaReg97":[98],"sdaReg98":[99],"sdaReg99":[100],"1093305216":[0],"1093551928":[0],"1093471624":[0],"1093487744":[0],"1093355160":[0],"1093441176":[0],"1093505000":[0],"1093364496":[0],"1093357136":[0],"1093491976":[0],"1093478616":[0],"1093455288":[0],"1093414184.<java.util.ArrayList: int size>":[0],"1093316840":[0],"1093544664":[0],"1093650888":[0],"1093550952":[0],"1093298592":[0],"1093448208":[0],"1093410656":[0],"1093325784":[0],"1093499936":[0],"1093341656":[0],"1093347608":[0],"1093446256":[0],"1093263312":[0],"1093400168":[0],"1093524528":[0]},"colorToColor":{},"colorToLabel":{"0":"this","1":"arg#1","103":"return"}}}

Generated Model

