Scanning method <java.util.ArrayList: int lastIndexOf(java.lang.Object)>

All seen event types: BinaryOperationRecord, LoadInstanceRecord, LoadArrayRecord, IfRecord, 
Ignored event types: IfRecord, 

JSON Encoded Analysis Data (for visualization):{"heapEdges":[{"step":0,"from":"1093414184","to":"1093686304","type":"load","field":"<java.util.ArrayList: java.lang.Object[] array>"},{"step":1,"from":"1093414184","to":"1093414184.<java.util.ArrayList: int size>","type":"load","field":"<java.util.ArrayList: int size>"},{"step":2,"from":"1093686304","to":"1093650888","type":"load","field":"arrayIdx_int:102"},{"step":3,"from":"1093686304","to":"1093297320","type":"load","field":"arrayIdx_int:101"},{"step":4,"from":"1093686304","to":"1093448208","type":"load","field":"arrayIdx_int:100"},{"step":5,"from":"1093686304","to":"1093447944","type":"load","field":"arrayIdx_int:99"},{"step":6,"from":"1093686304","to":"1093441176","type":"load","field":"arrayIdx_int:98"},{"step":7,"from":"1093686304","to":"1093321480","type":"load","field":"arrayIdx_int:97"},{"step":8,"from":"1093686304","to":"1093318624","type":"load","field":"arrayIdx_int:96"},{"step":9,"from":"1093686304","to":"1093311864","type":"load","field":"arrayIdx_int:95"},{"step":10,"from":"1093686304","to":"1093304096","type":"load","field":"arrayIdx_int:94"},{"step":11,"from":"1093686304","to":"1093534208","type":"load","field":"arrayIdx_int:93"},{"step":12,"from":"1093686304","to":"1093520840","type":"load","field":"arrayIdx_int:92"},{"step":13,"from":"1093686304","to":"1093445048","type":"load","field":"arrayIdx_int:91"},{"step":14,"from":"1093686304","to":"1093442568","type":"load","field":"arrayIdx_int:90"},{"step":15,"from":"1093686304","to":"1093315288","type":"load","field":"arrayIdx_int:89"},{"step":16,"from":"1093686304","to":"1093314048","type":"load","field":"arrayIdx_int:88"},{"step":17,"from":"1093686304","to":"1093305216","type":"load","field":"arrayIdx_int:87"},{"step":18,"from":"1093686304","to":"1093263312","type":"load","field":"arrayIdx_int:86"},{"step":19,"from":"1093686304","to":"1093553240","type":"load","field":"arrayIdx_int:85"},{"step":20,"from":"1093686304","to":"1093551928","type":"load","field":"arrayIdx_int:84"},{"step":21,"from":"1093686304","to":"1093550952","type":"load","field":"arrayIdx_int:83"},{"step":22,"from":"1093686304","to":"1093547680","type":"load","field":"arrayIdx_int:82"},{"step":23,"from":"1093686304","to":"1093544664","type":"load","field":"arrayIdx_int:81"},{"step":24,"from":"1093686304","to":"1093531472","type":"load","field":"arrayIdx_int:80"},{"step":25,"from":"1093686304","to":"1093525840","type":"load","field":"arrayIdx_int:79"},{"step":26,"from":"1093686304","to":"1093524528","type":"load","field":"arrayIdx_int:78"},{"step":27,"from":"1093686304","to":"1093517904","type":"load","field":"arrayIdx_int:77"},{"step":28,"from":"1093686304","to":"1093446576","type":"load","field":"arrayIdx_int:76"},{"step":29,"from":"1093686304","to":"1093446256","type":"load","field":"arrayIdx_int:75"},{"step":30,"from":"1093686304","to":"1093445360","type":"load","field":"arrayIdx_int:74"},{"step":31,"from":"1093686304","to":"1093424720","type":"load","field":"arrayIdx_int:73"},{"step":32,"from":"1093686304","to":"1093423408","type":"load","field":"arrayIdx_int:72"},{"step":33,"from":"1093686304","to":"1093423080","type":"load","field":"arrayIdx_int:71"},{"step":34,"from":"1093686304","to":"1093422112","type":"load","field":"arrayIdx_int:70"},{"step":35,"from":"1093686304","to":"1093417112","type":"load","field":"arrayIdx_int:69"},{"step":36,"from":"1093686304","to":"1093415168","type":"load","field":"arrayIdx_int:68"},{"step":37,"from":"1093686304","to":"1093413872","type":"load","field":"arrayIdx_int:67"},{"step":38,"from":"1093686304","to":"1093408280","type":"load","field":"arrayIdx_int:66"},{"step":39,"from":"1093686304","to":"1093407304","type":"load","field":"arrayIdx_int:65"},{"step":40,"from":"1093686304","to":"1093400168","type":"load","field":"arrayIdx_int:64"},{"step":41,"from":"1093686304","to":"1093391336","type":"load","field":"arrayIdx_int:63"},{"step":42,"from":"1093686304","to":"1093387104","type":"load","field":"arrayIdx_int:62"},{"step":43,"from":"1093686304","to":"1093316840","type":"load","field":"arrayIdx_int:61"},{"step":44,"from":"1093686304","to":"1093533568","type":"load","field":"arrayIdx_int:60"},{"step":45,"from":"1093686304","to":"1093530432","type":"load","field":"arrayIdx_int:59"},{"step":46,"from":"1093686304","to":"1093528328","type":"load","field":"arrayIdx_int:58"},{"step":47,"from":"1093686304","to":"1093410656","type":"load","field":"arrayIdx_int:57"},{"step":48,"from":"1093686304","to":"1093403640","type":"load","field":"arrayIdx_int:56"},{"step":49,"from":"1093686304","to":"1093325784","type":"load","field":"arrayIdx_int:55"},{"step":50,"from":"1093686304","to":"1093398696","type":"load","field":"arrayIdx_int:54"},{"step":51,"from":"1093686304","to":"1093307928","type":"load","field":"arrayIdx_int:53"},{"step":52,"from":"1093686304","to":"1093567680","type":"load","field":"arrayIdx_int:52"},{"step":53,"from":"1093686304","to":"1093521528","type":"load","field":"arrayIdx_int:51"}],"parameters":[{"id":"1093414184","name":"this","klass":"java.util.ArrayList"},{"id":"0","name":"arg#1","klass":"java.lang.Object"}],"returns":[{"id":"sdaReg0","name":"return","klass":"int"}],"colors":{"heapLocToColor":{"1093408280":[0],"1093318624":[0],"1093445360":[0],"1093517904":[0],"1093423080":[0],"1093531472":[0],"1093533568":[0],"1093311864":[0],"1093525840":[0],"1093314048":[0],"1093534208":[0],"1093415168":[0],"1093528328":[0],"1093567680":[0],"1093447944":[0],"1093407304":[0],"1093414184.<java.util.ArrayList: int size>":[0],"1093297320":[0],"1093530432":[0],"1093316840":[0],"1093544664":[0],"1093424720":[0],"1093550952":[0],"1093315288":[0],"1093650888":[0],"1093686304":[0],"1093445048":[0],"1093413872":[0],"0":[1],"1093553240":[0],"1093448208":[0],"1093304096":[0],"1093410656":[0],"1093414184":[0],"1093520840":[0],"1093398696":[0],"1093325784":[0],"1093387104":[0],"1093403640":[0],"1093521528":[0],"1093391336":[0],"1093422112":[0],"1093547680":[0],"1093446256":[0],"1093263312":[0],"1093400168":[0],"1093423408":[0],"1093305216":[0],"1093307928":[0],"1093551928":[0],"1093524528":[0],"1093321480":[0],"1093417112":[0],"1093442568":[0],"sdaReg0":[0],"1093446576":[0],"1093441176":[0]},"colorToColor":{"0":[2]},"colorToLabel":{"0":"this","1":"arg#1","2":"return"}}}

Generated Model
	this->return

