Scanning method <java.util.NoSuchElementException: void <init>()>

All seen event types: MethodReturnRecord, MethodCallRecord, 
Ignored event types: 

JSON Encoded Analysis Data (for visualization):{"heapEdges":[],"parameters":[{"id":"1096559704","name":"this","klass":"java.util.NoSuchElementException"}],"returns":[{"id":"1096559704","name":"return","klass":"java.util.NoSuchElementException"}],"colors":{"heapLocToColor":{"sdaReg0":[0],"1096559704":[0]},"colorToColor":{"0":[1]},"colorToLabel":{"0":"this","1":"return"}}}

Generated Model
	this->return

