Scanning method <java.io.CharArrayWriter: java.lang.String toString()>

All seen event types: SimpleAssignmentRecord, ExitMonitorRecord, MethodReturnRecord, MethodCallRecord, EnterMonitorRecord, LoadInstanceRecord, NewObjectRecord, 
Ignored event types: ExitMonitorRecord, EnterMonitorRecord, 

JSON Encoded Analysis Data (for visualization):{"heapEdges":[{"step":0,"from":"1093660032","to":"1093660056","type":"load","field":"<java.io.Writer: java.lang.Object lock>"},{"step":1,"from":"1093660032","to":"1093660336","type":"load","field":"<java.io.CharArrayWriter: char[] buf>"},{"step":2,"from":"1093660032","to":"1093660032.<java.io.CharArrayWriter: int count>","type":"load","field":"<java.io.CharArrayWriter: int count>"},{"step":3,"from":"1093660336","to":"1093660032.<java.io.CharArrayWriter: int count>","type":"model"},{"step":4,"from":"1093660336","to":"sdaReg1","type":"model"},{"step":5,"from":"1093660032.<java.io.CharArrayWriter: int count>","to":"1093660336","type":"model"},{"step":6,"from":"1093660032.<java.io.CharArrayWriter: int count>","to":"sdaReg1","type":"model"}],"parameters":[{"id":"1093660032","name":"this","klass":"java.io.CharArrayWriter"}],"returns":[{"id":"sdaReg1","name":"return","klass":"string"}],"colors":{"heapLocToColor":{"1093660056":[0],"1093660336":[0],"1093660032.<java.io.CharArrayWriter: int count>":[0],"1093660032":[0],"sdaReg1":[1]},"colorToColor":{"0":[0, 1],"1":[2]},"colorToLabel":{"0":"this","2":"return"}}}

Generated Model
	this->return

