Scanning method <android.os.Message: android.os.Handler getTarget()>

All seen event types: LoadInstanceRecord, 
Ignored event types: 

JSON Encoded Analysis Data (for visualization):{"heapEdges":[{"step":0,"from":"1093469384","to":"1093567312","type":"load","field":"<android.os.Message: android.os.Handler target>"}],"parameters":[{"id":"1093469384","name":"this","klass":"android.os.Message"}],"returns":[{"id":"1093567312","name":"return","klass":"android.os.Handler"}],"colors":{"heapLocToColor":{"1093567312":[0],"1093469384":[0]},"colorToColor":{"0":[1]},"colorToLabel":{"0":"this","1":"return"}}}

Generated Model
	this->return

