Scanning method <java.util.TreeMap: java.lang.Object put(java.lang.Object,java.lang.Object)>

All seen event types: SimpleAssignmentRecord, MethodStartRecord, LoadInstanceRecord, IfRecord, NewObjectRecord, StoreInstanceRecord, LoadStaticRecord, BinaryOperationRecord, MethodCallRecord, MethodReturnRecord, SwitchRecord, CastRecord, LoadArrayRecord, MethodEndRecord, 
Ignored event types: SwitchRecord, IfRecord, 

JSON Encoded Analysis Data (for visualization):{"heapEdges":[{"step":0,"from":"static.<java.util.TreeMap$Relation: java.util.TreeMap$Relation CREATE>","to":"1085707192","type":"load","field":"<java.util.TreeMap$Relation: java.util.TreeMap$Relation CREATE>"},{"step":1,"from":"1093233072","to":"1093533024","type":"load","field":"<java.util.TreeMap: java.util.TreeMap$Node root>"},{"step":2,"from":"1093233072","to":"1083970648","type":"load","field":"<java.util.TreeMap: java.util.Comparator comparator>"},{"step":3,"from":"static.<java.util.TreeMap: java.util.Comparator NATURAL_ORDER>","to":"1083970648","type":"load","field":"<java.util.TreeMap: java.util.Comparator NATURAL_ORDER>"},{"step":4,"from":"1093233072","to":"1093533024","type":"load","field":"<java.util.TreeMap: java.util.TreeMap$Node root>"},{"step":5,"from":"1093533024","to":"1093342360","type":"load","field":"<java.util.TreeMap$Node: java.lang.Object key>"},{"step":6,"from":"1093356848","to":"1093342360","type":"model"},{"step":7,"from":"1093356848","to":"sdaReg8","type":"model"},{"step":8,"from":"1093342360","to":"1093356848","type":"model"},{"step":9,"from":"1093342360","to":"sdaReg8","type":"model"},{"step":10,"from":"1093533024","to":"1095563624","type":"load","field":"<java.util.TreeMap$Node: java.util.TreeMap$Node right>"},{"step":11,"from":"1095563624","to":"1093254744","type":"load","field":"<java.util.TreeMap$Node: java.lang.Object key>"},{"step":12,"from":"1093356848","to":"1093254744","type":"model"},{"step":13,"from":"1093356848","to":"sdaReg11","type":"model"},{"step":14,"from":"1093254744","to":"1093356848","type":"model"},{"step":15,"from":"1093254744","to":"sdaReg11","type":"model"},{"step":16,"from":"1095563624","to":"1096265440","type":"load","field":"<java.util.TreeMap$Node: java.util.TreeMap$Node right>"},{"step":17,"from":"1096265440","to":"1093351976","type":"load","field":"<java.util.TreeMap$Node: java.lang.Object key>"},{"step":18,"from":"1093356848","to":"1093351976","type":"model"},{"step":19,"from":"1093356848","to":"sdaReg12","type":"model"},{"step":20,"from":"1093351976","to":"1093356848","type":"model"},{"step":21,"from":"1093351976","to":"sdaReg12","type":"model"},{"step":22,"from":"1096265440","to":"1095116944","type":"load","field":"<java.util.TreeMap$Node: java.util.TreeMap$Node right>"},{"step":23,"from":"1095116944","to":"1093335456","type":"load","field":"<java.util.TreeMap$Node: java.lang.Object key>"},{"step":24,"from":"1093356848","to":"1093335456","type":"model"},{"step":25,"from":"1093356848","to":"sdaReg13","type":"model"},{"step":26,"from":"1093335456","to":"1093356848","type":"model"},{"step":27,"from":"1093335456","to":"sdaReg13","type":"model"},{"step":28,"from":"1095116944","to":"1095064128","type":"load","field":"<java.util.TreeMap$Node: java.util.TreeMap$Node right>"},{"step":29,"from":"1095064128","to":"1093297184","type":"load","field":"<java.util.TreeMap$Node: java.lang.Object key>"},{"step":30,"from":"1093356848","to":"1093297184","type":"model"},{"step":31,"from":"1093356848","to":"sdaReg14","type":"model"},{"step":32,"from":"1093297184","to":"1093356848","type":"model"},{"step":33,"from":"1093297184","to":"sdaReg14","type":"model"},{"step":34,"from":"1095064128","to":"1094030776","type":"load","field":"<java.util.TreeMap$Node: java.util.TreeMap$Node right>"},{"step":35,"from":"1094030776","to":"1093309728","type":"load","field":"<java.util.TreeMap$Node: java.lang.Object key>"},{"step":36,"from":"1093356848","to":"1093309728","type":"model"},{"step":37,"from":"1093356848","to":"sdaReg15","type":"model"},{"step":38,"from":"1093309728","to":"1093356848","type":"model"},{"step":39,"from":"1093309728","to":"sdaReg15","type":"model"},{"step":40,"from":"static.<java.util.TreeMap$2: int[] $SwitchMap$java$util$TreeMap$Relation>","to":"1085752200","type":"load","field":"<java.util.TreeMap$2: int[] $SwitchMap$java$util$TreeMap$Relation>"},{"step":41,"from":"1085707192","to":"sdaReg16","type":"model"},{"step":42,"from":"1085752200","to":"1085752200.arrayIdx_int:3","type":"load","field":"arrayIdx_int:3"},{"step":43,"from":"1094030776","to":"1094030816","type":"store","field":"<java.util.TreeMap$Node: java.util.TreeMap$Node parent>"},{"step":44,"from":"1093356848","to":"1094030816","type":"store","field":"<java.util.TreeMap$Node: java.lang.Object key>"},{"step":45,"from":"1094030816","to":"sdaReg21","type":"create","field":"<java.util.TreeMap$Node: int height>"},{"step":46,"from":"1094030776","to":"1094030816","type":"create","field":"<java.util.TreeMap$Node: java.util.TreeMap$Node right>"},{"step":47,"from":"1093233072","to":"1093233072.<java.util.TreeMap: int size>","type":"load","field":"<java.util.TreeMap: int size>"},{"step":48,"from":"sdaReg24","to":"1093233072","type":"store","field":"<java.util.TreeMap: int size>"},{"step":49,"from":"1093233072","to":"1093233072.<java.util.TreeMap: int modCount>","type":"load","field":"<java.util.TreeMap: int modCount>"},{"step":50,"from":"sdaReg25","to":"1093233072","type":"store","field":"<java.util.TreeMap: int modCount>"},{"step":51,"from":"static.<java.util.TreeMap: boolean $assertionsDisabled>","to":"static.<java.util.TreeMap: boolean $assertionsDisabled>","type":"load","field":"<java.util.TreeMap: boolean $assertionsDisabled>"},{"step":52,"from":"sdaReg31","to":"sdaReg32","type":"model"},{"step":53,"from":"sdaReg31","to":"sdaReg34","type":"model"},{"step":54,"from":"sdaReg32","to":"sdaReg31","type":"model"},{"step":55,"from":"sdaReg32","to":"sdaReg34","type":"model"},{"step":56,"from":"sdaReg35","to":"1094030776","type":"store","field":"<java.util.TreeMap$Node: int height>"},{"step":57,"from":"1094030776","to":"1095064128","type":"load","field":"<java.util.TreeMap$Node: java.util.TreeMap$Node parent>"},{"step":58,"from":"1095064128","to":"1094030776","type":"load","field":"<java.util.TreeMap$Node: java.util.TreeMap$Node right>"},{"step":59,"from":"1095064128","to":"1094030776","type":"load","field":"<java.util.TreeMap$Node: java.util.TreeMap$Node right>"},{"step":60,"from":"1095064128","to":"1095116944","type":"load","field":"<java.util.TreeMap$Node: java.util.TreeMap$Node parent>"},{"step":61,"from":"1095064128","to":"sdaReg45","type":"create","field":"<java.util.TreeMap$Node: java.util.TreeMap$Node parent>"},{"step":62,"from":"1095116944","to":"1094030776","type":"store","field":"<java.util.TreeMap$Node: java.util.TreeMap$Node parent>"},{"step":63,"from":"1095116944","to":"1095583016","type":"load","field":"<java.util.TreeMap$Node: java.util.TreeMap$Node left>"},{"step":64,"from":"static.<java.util.TreeMap: boolean $assertionsDisabled>","to":"static.<java.util.TreeMap: boolean $assertionsDisabled>","type":"load","field":"<java.util.TreeMap: boolean $assertionsDisabled>"},{"step":65,"from":"1094030776","to":"1095116944","type":"store","field":"<java.util.TreeMap$Node: java.util.TreeMap$Node right>"},{"step":66,"from":"1095064128","to":"1094030776","type":"store","field":"<java.util.TreeMap$Node: java.util.TreeMap$Node left>"},{"step":67,"from":"1094030776","to":"1095064128","type":"store","field":"<java.util.TreeMap$Node: java.util.TreeMap$Node parent>"},{"step":68,"from":"sdaReg46","to":"sdaReg47","type":"model"},{"step":69,"from":"sdaReg46","to":"sdaReg48","type":"model"},{"step":70,"from":"sdaReg47","to":"sdaReg46","type":"model"},{"step":71,"from":"sdaReg47","to":"sdaReg48","type":"model"},{"step":72,"from":"sdaReg49","to":"1095064128","type":"store","field":"<java.util.TreeMap$Node: int height>"},{"step":73,"from":"sdaReg51","to":"1094030776","type":"store","field":"<java.util.TreeMap$Node: int height>"},{"step":74,"from":"1085638584","to":"1094030816","type":"store","field":"<java.util.TreeMap$Node: java.lang.Object value>"}],"parameters":[{"id":"1093233072","name":"this","klass":"java.util.TreeMap"},{"id":"1093356848","name":"arg#1","klass":"java.lang.Object"},{"id":"1085638584","name":"arg#2","klass":"java.lang.Object"}],"returns":[{"id":"0","name":"return","klass":"java.lang.Object"}],"colors":{"heapLocToColor":{"1095064128.<java.util.TreeMap$Node: java.util.TreeMap$Node right>":[0],"1094030816":[13],"sdaReg13":[1, 8],"1093309728":[0, 1],"1093233072.<java.util.TreeMap: int size>":[0],"sdaReg14":[1, 9],"sdaReg11":[1, 6],"sdaReg12":[1, 7],"1095563624":[0],"1085707192":[3],"sdaReg19":[1],"sdaReg17":[13],"sdaReg18":[0],"sdaReg52":[13],"sdaReg15":[1, 10],"sdaReg51":[17],"sdaReg16":[3, 12],"1093297184":[0, 1],"1093356848":[1],"sdaReg50":[17],"1085752200":[11],"1093233072":[0],"1095116944":[0],"static.<java.util.TreeMap$2: int[] $SwitchMap$java$util$TreeMap$Relation>":[11],"sdaReg49":[16],"sdaReg48":[16],"static.<java.util.TreeMap: boolean $assertionsDisabled>":[14],"sdaReg44":[0],"1085638584":[2],"1095064128":[0],"sdaReg41":[0],"1095064128.<java.util.TreeMap$Node: java.util.TreeMap$Node parent>":[0],"sdaReg40":[0],"sdaReg43":[0],"sdaReg42":[0],"1093351976":[0, 1],"1083970648":[0, 4],"1093342360":[0, 1],"1093233072.<java.util.TreeMap: java.util.TreeMap$Node root>":[0],"static.<java.util.TreeMap: java.util.Comparator NATURAL_ORDER>":[0, 4],"1093254744":[0, 1],"1085752200.arrayIdx_int:3":[11],"1094030776":[0],"sdaReg35":[15],"sdaReg34":[15],"1096265440":[0],"sdaReg8":[1, 5],"sdaReg9":[1, 5, 6, 7, 8, 9, 10],"sdaReg6":[1],"sdaReg7":[1],"sdaReg4":[1],"sdaReg5":[3],"static.<java.util.TreeMap$Relation: java.util.TreeMap$Relation CREATE>":[3],"1094030776.<java.util.TreeMap$Node: java.util.TreeMap$Node parent>":[0],"1093233072.<java.util.TreeMap: int modCount>":[0],"sdaReg27":[0],"sdaReg26":[0],"sdaReg29":[0],"sdaReg3":[0],"sdaReg2":[2],"sdaReg1":[1],"sdaReg0":[0],"1093533024":[0],"sdaReg20":[13],"sdaReg23":[13],"sdaReg22":[13],"1095583016":[0],"sdaReg25":[0],"1093335456":[0, 1],"sdaReg24":[0]},"colorToColor":{"17":[0],"0":[0, 1, 5, 6, 7, 8, 9, 10, 13],"16":[0],"1":[1, 5, 6, 7, 8, 9, 10, 13],"2":[13],"13":[0],"15":[0]},"colorToLabel":{"0":"this","1":"arg#1","2":"arg#2","3":"<java.util.TreeMap$Relation: java.util.TreeMap$Relation CREATE>","4":"<java.util.TreeMap: java.util.Comparator NATURAL_ORDER>","11":"<java.util.TreeMap$2: int[] $SwitchMap$java$util$TreeMap$Relation>","14":"<java.util.TreeMap: boolean $assertionsDisabled>","18":"return"}}}

Generated Model
	this->arg#1
	arg#2->this
	arg#2->arg#1
	arg#1->this

