Scanning method <java.util.TreeMap: java.lang.Object put(java.lang.Object,java.lang.Object)>

All seen event types: SimpleAssignmentRecord, MethodStartRecord, LoadInstanceRecord, IfRecord, NewObjectRecord, StoreInstanceRecord, LoadStaticRecord, BinaryOperationRecord, MethodCallRecord, MethodReturnRecord, SwitchRecord, CastRecord, LoadArrayRecord, MethodEndRecord, 
Ignored event types: SwitchRecord, IfRecord, 

JSON Encoded Analysis Data (for visualization):{"heapEdges":[{"step":0,"from":"static.<java.util.TreeMap$Relation: java.util.TreeMap$Relation CREATE>","to":"1085707192","type":"load","field":"<java.util.TreeMap$Relation: java.util.TreeMap$Relation CREATE>"},{"step":1,"from":"1093233072","to":"1096265440","type":"load","field":"<java.util.TreeMap: java.util.TreeMap$Node root>"},{"step":2,"from":"1093233072","to":"1083970648","type":"load","field":"<java.util.TreeMap: java.util.Comparator comparator>"},{"step":3,"from":"static.<java.util.TreeMap: java.util.Comparator NATURAL_ORDER>","to":"1083970648","type":"load","field":"<java.util.TreeMap: java.util.Comparator NATURAL_ORDER>"},{"step":4,"from":"1093233072","to":"1096265440","type":"load","field":"<java.util.TreeMap: java.util.TreeMap$Node root>"},{"step":5,"from":"1096265440","to":"1093351976","type":"load","field":"<java.util.TreeMap$Node: java.lang.Object key>"},{"step":6,"from":"1093524480","to":"1093351976","type":"model"},{"step":7,"from":"1093524480","to":"sdaReg8","type":"model"},{"step":8,"from":"1093351976","to":"1093524480","type":"model"},{"step":9,"from":"1093351976","to":"sdaReg8","type":"model"},{"step":10,"from":"1096265440","to":"1094845544","type":"load","field":"<java.util.TreeMap$Node: java.util.TreeMap$Node right>"},{"step":11,"from":"1094845544","to":"1093349608","type":"load","field":"<java.util.TreeMap$Node: java.lang.Object key>"},{"step":12,"from":"1093524480","to":"1093349608","type":"model"},{"step":13,"from":"1093524480","to":"sdaReg11","type":"model"},{"step":14,"from":"1093349608","to":"1093524480","type":"model"},{"step":15,"from":"1093349608","to":"sdaReg11","type":"model"},{"step":16,"from":"1094845544","to":"1094259416","type":"load","field":"<java.util.TreeMap$Node: java.util.TreeMap$Node right>"},{"step":17,"from":"1094259416","to":"1093427368","type":"load","field":"<java.util.TreeMap$Node: java.lang.Object key>"},{"step":18,"from":"1093524480","to":"1093427368","type":"model"},{"step":19,"from":"1093524480","to":"sdaReg12","type":"model"},{"step":20,"from":"1093427368","to":"1093524480","type":"model"},{"step":21,"from":"1093427368","to":"sdaReg12","type":"model"},{"step":22,"from":"1094259416","to":"1094410912","type":"load","field":"<java.util.TreeMap$Node: java.util.TreeMap$Node right>"},{"step":23,"from":"1094410912","to":"1093370496","type":"load","field":"<java.util.TreeMap$Node: java.lang.Object key>"},{"step":24,"from":"1093524480","to":"1093370496","type":"model"},{"step":25,"from":"1093524480","to":"sdaReg13","type":"model"},{"step":26,"from":"1093370496","to":"1093524480","type":"model"},{"step":27,"from":"1093370496","to":"sdaReg13","type":"model"},{"step":28,"from":"1094410912","to":"1093232440","type":"load","field":"<java.util.TreeMap$Node: java.util.TreeMap$Node right>"},{"step":29,"from":"1093232440","to":"1093400864","type":"load","field":"<java.util.TreeMap$Node: java.lang.Object key>"},{"step":30,"from":"1093524480","to":"1093400864","type":"model"},{"step":31,"from":"1093524480","to":"sdaReg14","type":"model"},{"step":32,"from":"1093400864","to":"1093524480","type":"model"},{"step":33,"from":"1093400864","to":"sdaReg14","type":"model"},{"step":34,"from":"1093232440","to":"1095979048","type":"load","field":"<java.util.TreeMap$Node: java.util.TreeMap$Node right>"},{"step":35,"from":"1095979048","to":"1093492424","type":"load","field":"<java.util.TreeMap$Node: java.lang.Object key>"},{"step":36,"from":"1093524480","to":"1093492424","type":"model"},{"step":37,"from":"1093524480","to":"sdaReg15","type":"model"},{"step":38,"from":"1093492424","to":"1093524480","type":"model"},{"step":39,"from":"1093492424","to":"sdaReg15","type":"model"},{"step":40,"from":"1095979048","to":"1096093784","type":"load","field":"<java.util.TreeMap$Node: java.util.TreeMap$Node right>"},{"step":41,"from":"1096093784","to":"1093499016","type":"load","field":"<java.util.TreeMap$Node: java.lang.Object key>"},{"step":42,"from":"1093524480","to":"1093499016","type":"model"},{"step":43,"from":"1093524480","to":"sdaReg16","type":"model"},{"step":44,"from":"1093499016","to":"1093524480","type":"model"},{"step":45,"from":"1093499016","to":"sdaReg16","type":"model"},{"step":46,"from":"static.<java.util.TreeMap$2: int[] $SwitchMap$java$util$TreeMap$Relation>","to":"1085752200","type":"load","field":"<java.util.TreeMap$2: int[] $SwitchMap$java$util$TreeMap$Relation>"},{"step":47,"from":"1085707192","to":"sdaReg17","type":"model"},{"step":48,"from":"1085752200","to":"1085752200.arrayIdx_int:3","type":"load","field":"arrayIdx_int:3"},{"step":49,"from":"1096093784","to":"1096093824","type":"store","field":"<java.util.TreeMap$Node: java.util.TreeMap$Node parent>"},{"step":50,"from":"1093524480","to":"1096093824","type":"store","field":"<java.util.TreeMap$Node: java.lang.Object key>"},{"step":51,"from":"1096093824","to":"sdaReg22","type":"create","field":"<java.util.TreeMap$Node: int height>"},{"step":52,"from":"1096093784","to":"1096093824","type":"create","field":"<java.util.TreeMap$Node: java.util.TreeMap$Node right>"},{"step":53,"from":"1093233072","to":"1093233072.<java.util.TreeMap: int size>","type":"load","field":"<java.util.TreeMap: int size>"},{"step":54,"from":"sdaReg25","to":"1093233072","type":"store","field":"<java.util.TreeMap: int size>"},{"step":55,"from":"1093233072","to":"1093233072.<java.util.TreeMap: int modCount>","type":"load","field":"<java.util.TreeMap: int modCount>"},{"step":56,"from":"sdaReg26","to":"1093233072","type":"store","field":"<java.util.TreeMap: int modCount>"},{"step":57,"from":"static.<java.util.TreeMap: boolean $assertionsDisabled>","to":"static.<java.util.TreeMap: boolean $assertionsDisabled>","type":"load","field":"<java.util.TreeMap: boolean $assertionsDisabled>"},{"step":58,"from":"sdaReg32","to":"sdaReg33","type":"model"},{"step":59,"from":"sdaReg32","to":"sdaReg35","type":"model"},{"step":60,"from":"sdaReg33","to":"sdaReg32","type":"model"},{"step":61,"from":"sdaReg33","to":"sdaReg35","type":"model"},{"step":62,"from":"sdaReg36","to":"1096093784","type":"store","field":"<java.util.TreeMap$Node: int height>"},{"step":63,"from":"1096093784","to":"1095979048","type":"load","field":"<java.util.TreeMap$Node: java.util.TreeMap$Node parent>"},{"step":64,"from":"1095979048","to":"1093788712","type":"load","field":"<java.util.TreeMap$Node: java.util.TreeMap$Node left>"},{"step":65,"from":"1095979048","to":"1096093784","type":"load","field":"<java.util.TreeMap$Node: java.util.TreeMap$Node right>"},{"step":66,"from":"1093788712","to":"1093788712.<java.util.TreeMap$Node: int height>","type":"load","field":"<java.util.TreeMap$Node: int height>"},{"step":67,"from":"static.<java.util.TreeMap: boolean $assertionsDisabled>","to":"static.<java.util.TreeMap: boolean $assertionsDisabled>","type":"load","field":"<java.util.TreeMap: boolean $assertionsDisabled>"},{"step":68,"from":"sdaReg32","to":"sdaReg33","type":"model"},{"step":69,"from":"sdaReg32","to":"sdaReg37","type":"model"},{"step":70,"from":"sdaReg33","to":"sdaReg32","type":"model"},{"step":71,"from":"sdaReg33","to":"sdaReg37","type":"model"},{"step":72,"from":"sdaReg36","to":"1095979048","type":"store","field":"<java.util.TreeMap$Node: int height>"},{"step":73,"from":"1095979048","to":"1093232440","type":"load","field":"<java.util.TreeMap$Node: java.util.TreeMap$Node parent>"},{"step":74,"from":"1093232440","to":"1093232360","type":"load","field":"<java.util.TreeMap$Node: java.util.TreeMap$Node left>"},{"step":75,"from":"1093232440","to":"1095979048","type":"load","field":"<java.util.TreeMap$Node: java.util.TreeMap$Node right>"},{"step":76,"from":"1093232360","to":"1093232360.<java.util.TreeMap$Node: int height>","type":"load","field":"<java.util.TreeMap$Node: int height>"},{"step":77,"from":"static.<java.util.TreeMap: boolean $assertionsDisabled>","to":"static.<java.util.TreeMap: boolean $assertionsDisabled>","type":"load","field":"<java.util.TreeMap: boolean $assertionsDisabled>"},{"step":78,"from":"sdaReg32","to":"sdaReg33","type":"model"},{"step":79,"from":"sdaReg32","to":"sdaReg38","type":"model"},{"step":80,"from":"sdaReg33","to":"sdaReg32","type":"model"},{"step":81,"from":"sdaReg33","to":"sdaReg38","type":"model"},{"step":82,"from":"sdaReg36","to":"1093232440","type":"store","field":"<java.util.TreeMap$Node: int height>"},{"step":83,"from":"1093232440","to":"1094410912","type":"load","field":"<java.util.TreeMap$Node: java.util.TreeMap$Node parent>"},{"step":84,"from":"1094410912","to":"1094410752","type":"load","field":"<java.util.TreeMap$Node: java.util.TreeMap$Node left>"},{"step":85,"from":"1094410912","to":"1093232440","type":"load","field":"<java.util.TreeMap$Node: java.util.TreeMap$Node right>"},{"step":86,"from":"1094410752","to":"1094410752.<java.util.TreeMap$Node: int height>","type":"load","field":"<java.util.TreeMap$Node: int height>"},{"step":87,"from":"static.<java.util.TreeMap: boolean $assertionsDisabled>","to":"static.<java.util.TreeMap: boolean $assertionsDisabled>","type":"load","field":"<java.util.TreeMap: boolean $assertionsDisabled>"},{"step":88,"from":"sdaReg32","to":"sdaReg33","type":"model"},{"step":89,"from":"sdaReg32","to":"sdaReg39","type":"model"},{"step":90,"from":"sdaReg33","to":"sdaReg32","type":"model"},{"step":91,"from":"sdaReg33","to":"sdaReg39","type":"model"},{"step":92,"from":"sdaReg36","to":"1094410912","type":"store","field":"<java.util.TreeMap$Node: int height>"},{"step":93,"from":"1094410912","to":"1094259416","type":"load","field":"<java.util.TreeMap$Node: java.util.TreeMap$Node parent>"},{"step":94,"from":"1094259416","to":"1096549800","type":"load","field":"<java.util.TreeMap$Node: java.util.TreeMap$Node left>"},{"step":95,"from":"1094259416","to":"1094410912","type":"load","field":"<java.util.TreeMap$Node: java.util.TreeMap$Node right>"},{"step":96,"from":"1096549800","to":"1096549800.<java.util.TreeMap$Node: int height>","type":"load","field":"<java.util.TreeMap$Node: int height>"},{"step":97,"from":"static.<java.util.TreeMap: boolean $assertionsDisabled>","to":"static.<java.util.TreeMap: boolean $assertionsDisabled>","type":"load","field":"<java.util.TreeMap: boolean $assertionsDisabled>"},{"step":98,"from":"sdaReg32","to":"sdaReg33","type":"model"},{"step":99,"from":"sdaReg32","to":"sdaReg40","type":"model"},{"step":100,"from":"sdaReg33","to":"sdaReg32","type":"model"},{"step":101,"from":"sdaReg33","to":"sdaReg40","type":"model"},{"step":102,"from":"sdaReg36","to":"1094259416","type":"store","field":"<java.util.TreeMap$Node: int height>"},{"step":103,"from":"1094259416","to":"1094845544","type":"load","field":"<java.util.TreeMap$Node: java.util.TreeMap$Node parent>"},{"step":104,"from":"1094845544","to":"1093944824","type":"load","field":"<java.util.TreeMap$Node: java.util.TreeMap$Node left>"},{"step":105,"from":"1094845544","to":"1094259416","type":"load","field":"<java.util.TreeMap$Node: java.util.TreeMap$Node right>"},{"step":106,"from":"1093944824","to":"1093944824.<java.util.TreeMap$Node: int height>","type":"load","field":"<java.util.TreeMap$Node: int height>"},{"step":107,"from":"1094259416","to":"1096549800","type":"load","field":"<java.util.TreeMap$Node: java.util.TreeMap$Node left>"},{"step":108,"from":"1094259416","to":"1094410912","type":"load","field":"<java.util.TreeMap$Node: java.util.TreeMap$Node right>"},{"step":109,"from":"1096549800","to":"1096549800.<java.util.TreeMap$Node: int height>","type":"load","field":"<java.util.TreeMap$Node: int height>"},{"step":110,"from":"1094845544","to":"1093944824","type":"load","field":"<java.util.TreeMap$Node: java.util.TreeMap$Node left>"},{"step":111,"from":"1094845544","to":"1094259416","type":"load","field":"<java.util.TreeMap$Node: java.util.TreeMap$Node right>"},{"step":112,"from":"1094259416","to":"1096549800","type":"load","field":"<java.util.TreeMap$Node: java.util.TreeMap$Node left>"},{"step":113,"from":"1094259416","to":"1094410912","type":"load","field":"<java.util.TreeMap$Node: java.util.TreeMap$Node right>"},{"step":114,"from":"1096549800","to":"1094845544","type":"store","field":"<java.util.TreeMap$Node: java.util.TreeMap$Node right>"},{"step":115,"from":"1094845544","to":"1096549800","type":"store","field":"<java.util.TreeMap$Node: java.util.TreeMap$Node parent>"},{"step":116,"from":"1094845544","to":"1096265440","type":"load","field":"<java.util.TreeMap$Node: java.util.TreeMap$Node parent>"},{"step":117,"from":"1094845544","to":"sdaReg49","type":"create","field":"<java.util.TreeMap$Node: java.util.TreeMap$Node parent>"},{"step":118,"from":"1096265440","to":"1094259416","type":"store","field":"<java.util.TreeMap$Node: java.util.TreeMap$Node parent>"},{"step":119,"from":"1096265440","to":"1093533024","type":"load","field":"<java.util.TreeMap$Node: java.util.TreeMap$Node left>"},{"step":120,"from":"static.<java.util.TreeMap: boolean $assertionsDisabled>","to":"static.<java.util.TreeMap: boolean $assertionsDisabled>","type":"load","field":"<java.util.TreeMap: boolean $assertionsDisabled>"},{"step":121,"from":"1094259416","to":"1096265440","type":"store","field":"<java.util.TreeMap$Node: java.util.TreeMap$Node right>"},{"step":122,"from":"1094845544","to":"1094259416","type":"store","field":"<java.util.TreeMap$Node: java.util.TreeMap$Node left>"},{"step":123,"from":"1094259416","to":"1094845544","type":"store","field":"<java.util.TreeMap$Node: java.util.TreeMap$Node parent>"},{"step":124,"from":"1093944824","to":"1093944824.<java.util.TreeMap$Node: int height>","type":"load","field":"<java.util.TreeMap$Node: int height>"},{"step":125,"from":"1096549800","to":"1096549800.<java.util.TreeMap$Node: int height>","type":"load","field":"<java.util.TreeMap$Node: int height>"},{"step":126,"from":"1093944824.<java.util.TreeMap$Node: int height>","to":"1096549800.<java.util.TreeMap$Node: int height>","type":"model"},{"step":127,"from":"1093944824.<java.util.TreeMap$Node: int height>","to":"sdaReg50","type":"model"},{"step":128,"from":"1096549800.<java.util.TreeMap$Node: int height>","to":"1093944824.<java.util.TreeMap$Node: int height>","type":"model"},{"step":129,"from":"1096549800.<java.util.TreeMap$Node: int height>","to":"sdaReg50","type":"model"},{"step":130,"from":"sdaReg51","to":"1094845544","type":"store","field":"<java.util.TreeMap$Node: int height>"},{"step":131,"from":"sdaReg53","to":"1094259416","type":"store","field":"<java.util.TreeMap$Node: int height>"},{"step":132,"from":"1085638584","to":"1096093824","type":"store","field":"<java.util.TreeMap$Node: java.lang.Object value>"}],"parameters":[{"id":"1093233072","name":"this","klass":"java.util.TreeMap"},{"id":"1093524480","name":"arg#1","klass":"java.lang.Object"},{"id":"1085638584","name":"arg#2","klass":"java.lang.Object"}],"returns":[{"id":"0","name":"return","klass":"java.lang.Object"}],"colors":{"heapLocToColor":{"1093499016":[0, 1],"1093349608":[0, 1],"1095979048.<java.util.TreeMap$Node: java.util.TreeMap$Node right>":[0],"sdaReg13":[1, 8],"1093233072.<java.util.TreeMap: int size>":[0],"sdaReg14":[1, 9],"sdaReg11":[1, 6],"sdaReg12":[1, 7],"sdaReg19":[0],"1094259416":[0],"sdaReg17":[3, 13],"sdaReg18":[14],"sdaReg15":[1, 10],"sdaReg16":[1, 11],"1093232440.<java.util.TreeMap$Node: java.util.TreeMap$Node parent>":[0],"1085752200":[12],"1093788712.<java.util.TreeMap$Node: int height>":[0],"1093944824.<java.util.TreeMap$Node: int height>":[0],"1095979048.<java.util.TreeMap$Node: java.util.TreeMap$Node parent>":[0],"1093427368":[0, 1],"1093233072.<java.util.TreeMap: java.util.TreeMap$Node root>":[0],"static.<java.util.TreeMap: java.util.Comparator NATURAL_ORDER>":[0, 4],"1093232440":[0],"1085752200.arrayIdx_int:3":[12],"1093232440.<java.util.TreeMap$Node: java.util.TreeMap$Node right>":[0],"1094410752":[0],"1094845544.<java.util.TreeMap$Node: java.util.TreeMap$Node right>":[0],"1094259416.<java.util.TreeMap$Node: java.util.TreeMap$Node right>":[0],"1094410752.<java.util.TreeMap$Node: int height>":[0],"1094259416.<java.util.TreeMap$Node: java.util.TreeMap$Node parent>":[0],"1093533024":[0],"1094410912":[0],"1093232360.<java.util.TreeMap$Node: int height>":[0],"1094845544":[0],"1093232360":[0],"1093400864":[0, 1],"1085707192":[3],"sdaReg54":[14],"sdaReg53":[22],"1096549800.<java.util.TreeMap$Node: int height>":[0],"sdaReg52":[22],"sdaReg51":[21],"sdaReg50":[21],"1093233072":[0],"static.<java.util.TreeMap$2: int[] $SwitchMap$java$util$TreeMap$Relation>":[12],"1096093784":[0],"sdaReg48":[0],"static.<java.util.TreeMap: boolean $assertionsDisabled>":[15],"1096093784.<java.util.TreeMap$Node: java.util.TreeMap$Node parent>":[0],"sdaReg45":[0],"sdaReg44":[0],"1085638584":[2],"sdaReg47":[0],"sdaReg46":[0],"sdaReg40":[20],"sdaReg43":[0],"1083970648":[0, 4],"1093351976":[0, 1],"sdaReg42":[0],"1096093824":[14],"1096549800":[0],"sdaReg39":[19],"sdaReg38":[18],"sdaReg37":[17],"1093524480":[1],"sdaReg32":[0],"1094845544.<java.util.TreeMap$Node: java.util.TreeMap$Node parent>":[0],"sdaReg30":[0],"1095979048":[0],"sdaReg36":[17, 16, 19, 18, 20],"sdaReg35":[16],"1093788712":[0],"sdaReg34":[0],"1093492424":[0, 1],"1096265440":[0],"sdaReg8":[1, 5],"sdaReg9":[1, 5, 6, 7, 8, 9, 10, 11],"sdaReg6":[1],"sdaReg7":[1],"sdaReg4":[1],"1094845544.<java.util.TreeMap$Node: java.util.TreeMap$Node left>":[0],"sdaReg5":[3],"1094410912.<java.util.TreeMap$Node: java.util.TreeMap$Node parent>":[0],"static.<java.util.TreeMap$Relation: java.util.TreeMap$Relation CREATE>":[3],"1094410912.<java.util.TreeMap$Node: java.util.TreeMap$Node right>":[0],"1093233072.<java.util.TreeMap: int modCount>":[0],"sdaReg27":[0],"sdaReg26":[0],"sdaReg28":[0],"1093370496":[0, 1],"1094259416.<java.util.TreeMap$Node: java.util.TreeMap$Node left>":[0],"1093944824":[0],"sdaReg3":[0],"sdaReg2":[2],"sdaReg21":[14],"sdaReg1":[1],"sdaReg20":[1],"sdaReg0":[0],"sdaReg23":[14],"sdaReg25":[0],"sdaReg24":[14]},"colorToColor":{"17":[0],"0":[0, 1, 5, 6, 7, 8, 9, 10, 11, 14, 17, 19, 18, 21, 20],"16":[0],"1":[1, 5, 6, 7, 8, 9, 10, 11, 14],"2":[14],"19":[0],"18":[0],"21":[0],"20":[0],"22":[0],"14":[0]},"colorToLabel":{"0":"this","1":"arg#1","2":"arg#2","3":"<java.util.TreeMap$Relation: java.util.TreeMap$Relation CREATE>","4":"<java.util.TreeMap: java.util.Comparator NATURAL_ORDER>","12":"<java.util.TreeMap$2: int[] $SwitchMap$java$util$TreeMap$Relation>","15":"<java.util.TreeMap: boolean $assertionsDisabled>","23":"return"}}}

Generated Model
	this->arg#1
	arg#2->this
	arg#2->arg#1
	arg#1->this

