Scanning method <android.util.Base64: byte[] encode(byte[],int,int,int)>

All seen event types: StoreArrayRecord, SimpleAssignmentRecord, LoadInstanceRecord, MethodStartRecord, IfRecord, NewObjectRecord, StoreInstanceRecord, LoadStaticRecord, NewArrayRecord, BinaryOperationRecord, MethodCallRecord, MethodReturnRecord, SwitchRecord, LoadArrayRecord, MethodEndRecord, 
Ignored event types: SwitchRecord, IfRecord, 

JSON Encoded Analysis Data (for visualization):{"heapEdges":[{"step":0,"from":"1093955824","to":"sdaReg2","type":"model"},{"step":1,"from":"sdaReg2","to":"1093955824","type":"model"},{"step":2,"from":"sdaReg2","to":"1093955824","type":"model"},{"step":3,"from":"1093955824","to":"1093955824.<android.util.Base64$Encoder: boolean do_padding>","type":"load","field":"<android.util.Base64$Encoder: boolean do_padding>"},{"step":4,"from":"1093955824","to":"1093955824.<android.util.Base64$Encoder: boolean do_newline>","type":"load","field":"<android.util.Base64$Encoder: boolean do_newline>"},{"step":5,"from":"1093955824","to":"1093955824.<android.util.Base64$Encoder: boolean do_cr>","type":"load","field":"<android.util.Base64$Encoder: boolean do_cr>"},{"step":6,"from":"1093955824","to":"1093466736","type":"create","field":"<android.util.Base64$Coder: byte[] output>"},{"step":7,"from":"1093955824","to":"1093738224","type":"load","field":"<android.util.Base64$Encoder: byte[] alphabet>"},{"step":8,"from":"1093955824","to":"1093955824.<android.util.Base64$Encoder: int count>","type":"load","field":"<android.util.Base64$Encoder: int count>"},{"step":9,"from":"1093955824","to":"1093955824.<android.util.Base64$Encoder: int tailLen>","type":"load","field":"<android.util.Base64$Encoder: int tailLen>"},{"step":10,"from":"1093955824","to":"1093955824.<android.util.Base64$Encoder: int tailLen>","type":"load","field":"<android.util.Base64$Encoder: int tailLen>"},{"step":11,"from":"1093955824","to":"1093955824.<android.util.Base64$Encoder: int tailLen>","type":"load","field":"<android.util.Base64$Encoder: int tailLen>"},{"step":12,"from":"1093490320","to":"1093490320.arrayIdx_int:0","type":"load","field":"arrayIdx_int:0"},{"step":13,"from":"1093955824","to":"1093955824.<android.util.Base64$Encoder: int tailLen>","type":"load","field":"<android.util.Base64$Encoder: int tailLen>"},{"step":14,"from":"sdaReg28","to":"1093955824","type":"store","field":"<android.util.Base64$Encoder: int tailLen>"},{"step":15,"from":"1093738224","to":"1093738224.arrayIdx_int:24","type":"load","field":"arrayIdx_int:24"},{"step":16,"from":"1093738224.arrayIdx_int:24","to":"1093466736","type":"store","field":"arrayIdx_int:0"},{"step":17,"from":"1093738224","to":"1093738224.arrayIdx_int:16","type":"load","field":"arrayIdx_int:16"},{"step":18,"from":"1093738224.arrayIdx_int:16","to":"1093466736","type":"store","field":"arrayIdx_int:1"},{"step":19,"from":"1093955824","to":"1093955824.<android.util.Base64$Encoder: boolean do_padding>","type":"load","field":"<android.util.Base64$Encoder: boolean do_padding>"},{"step":20,"from":"1093955824","to":"1093955824.<android.util.Base64$Encoder: boolean do_newline>","type":"load","field":"<android.util.Base64$Encoder: boolean do_newline>"},{"step":21,"from":"1093955824","to":"1093955824.<android.util.Base64$Encoder: boolean do_cr>","type":"load","field":"<android.util.Base64$Encoder: boolean do_cr>"},{"step":22,"from":"1093466736","to":"sdaReg34","type":"create","field":"arrayIdx_int:2"},{"step":23,"from":"static.<android.util.Base64$Encoder: boolean $assertionsDisabled>","to":"static.<android.util.Base64$Encoder: boolean $assertionsDisabled>","type":"load","field":"<android.util.Base64$Encoder: boolean $assertionsDisabled>"},{"step":24,"from":"static.<android.util.Base64$Encoder: boolean $assertionsDisabled>","to":"static.<android.util.Base64$Encoder: boolean $assertionsDisabled>","type":"load","field":"<android.util.Base64$Encoder: boolean $assertionsDisabled>"},{"step":25,"from":"sdaReg17","to":"1093955824","type":"store","field":"<android.util.Base64$Coder: int op>"},{"step":26,"from":"1093955824.<android.util.Base64$Encoder: int count>","to":"1093955824","type":"store","field":"<android.util.Base64$Encoder: int count>"},{"step":27,"from":"static.<android.util.Base64: boolean $assertionsDisabled>","to":"static.<android.util.Base64: boolean $assertionsDisabled>","type":"load","field":"<android.util.Base64: boolean $assertionsDisabled>"}],"parameters":[{"id":"1093490320","name":"arg#0","klass":"byte[]"},{"id":"sdaReg0","name":"arg#1","klass":"int"},{"id":"sdaReg1","name":"arg#2","klass":"int"},{"id":"sdaReg2","name":"arg#3","klass":"int"}],"returns":[{"id":"1093466736","name":"return","klass":"byte[]"}],"colors":{"heapLocToColor":{"1093490320.arrayIdx_int:0":[0],"1093955824.<android.util.Base64$Encoder: boolean do_padding>":[4],"1093466736":[5],"1093738224.arrayIdx_int:24":[4],"1093955824":[4],"sdaReg13":[2],"sdaReg14":[4],"sdaReg11":[2],"1093955824.<android.util.Base64$Encoder: boolean do_cr>":[4],"1093955824.<android.util.Base64$Encoder: int tailLen>":[4],"sdaReg10":[2],"sdaReg32":[0],"sdaReg31":[0],"sdaReg30":[0],"sdaReg19":[1, 2],"static.<android.util.Base64: boolean $assertionsDisabled>":[7],"sdaReg18":[1],"sdaReg15":[0],"static.<android.util.Base64$Encoder: boolean $assertionsDisabled>":[6],"1093955824.<android.util.Base64$Encoder: int count>":[4],"sdaReg8":[2],"sdaReg9":[2],"sdaReg6":[2],"sdaReg7":[2],"sdaReg4":[4],"sdaReg5":[2],"1093738224.arrayIdx_int:16":[4],"1093490320":[0],"sdaReg27":[0],"sdaReg26":[0],"sdaReg28":[4],"1093955824.<android.util.Base64$Encoder: boolean do_newline>":[4],"sdaReg3":[4],"sdaReg2":[3, 4],"sdaReg21":[1],"sdaReg1":[2],"sdaReg0":[1],"1093738224":[4],"sdaReg23":[1, 2],"sdaReg22":[1, 4],"sdaReg25":[1]},"colorToColor":{"3":[4],"4":[4, 5],"5":[4, 8]},"colorToLabel":{"0":"arg#0","1":"arg#1","2":"arg#2","3":"arg#3","6":"<android.util.Base64$Encoder: boolean $assertionsDisabled>","7":"<android.util.Base64: boolean $assertionsDisabled>","8":"return"}}}

Generated Model
	arg#3->return

