Scanning method <android.util.Base64: java.lang.String encodeToString(byte[],int,int,int)>

All seen event types: SimpleAssignmentRecord, MethodStartRecord, LoadInstanceRecord, IfRecord, NewObjectRecord, StoreInstanceRecord, NewArrayRecord, LoadStaticRecord, BinaryOperationRecord, MethodCallRecord, MethodReturnRecord, SwitchRecord, MethodEndRecord, 
Ignored event types: SwitchRecord, IfRecord, 

JSON Encoded Analysis Data (for visualization):{"heapEdges":[{"step":0,"from":"1093869296","to":"sdaReg2","type":"model"},{"step":1,"from":"sdaReg2","to":"1093869296","type":"model"},{"step":2,"from":"sdaReg2","to":"1093869296","type":"model"},{"step":3,"from":"1093869296","to":"1093869296.<android.util.Base64$Encoder: boolean do_padding>","type":"load","field":"<android.util.Base64$Encoder: boolean do_padding>"},{"step":4,"from":"1093869296","to":"1093869296.<android.util.Base64$Encoder: boolean do_newline>","type":"load","field":"<android.util.Base64$Encoder: boolean do_newline>"},{"step":5,"from":"1093869296","to":"1093427632","type":"create","field":"<android.util.Base64$Coder: byte[] output>"},{"step":6,"from":"1093869296","to":"1093831448","type":"load","field":"<android.util.Base64$Encoder: byte[] alphabet>"},{"step":7,"from":"1093869296","to":"1093869296.<android.util.Base64$Encoder: int count>","type":"load","field":"<android.util.Base64$Encoder: int count>"},{"step":8,"from":"1093869296","to":"1093869296.<android.util.Base64$Encoder: int tailLen>","type":"load","field":"<android.util.Base64$Encoder: int tailLen>"},{"step":9,"from":"1093869296","to":"1093869296.<android.util.Base64$Encoder: int tailLen>","type":"load","field":"<android.util.Base64$Encoder: int tailLen>"},{"step":10,"from":"1093869296","to":"1093869296.<android.util.Base64$Encoder: int tailLen>","type":"load","field":"<android.util.Base64$Encoder: int tailLen>"},{"step":11,"from":"1093869296","to":"1093869296.<android.util.Base64$Encoder: boolean do_newline>","type":"load","field":"<android.util.Base64$Encoder: boolean do_newline>"},{"step":12,"from":"static.<android.util.Base64$Encoder: boolean $assertionsDisabled>","to":"static.<android.util.Base64$Encoder: boolean $assertionsDisabled>","type":"load","field":"<android.util.Base64$Encoder: boolean $assertionsDisabled>"},{"step":13,"from":"static.<android.util.Base64$Encoder: boolean $assertionsDisabled>","to":"static.<android.util.Base64$Encoder: boolean $assertionsDisabled>","type":"load","field":"<android.util.Base64$Encoder: boolean $assertionsDisabled>"},{"step":14,"from":"sdaReg12","to":"1093869296","type":"store","field":"<android.util.Base64$Coder: int op>"},{"step":15,"from":"1093869296.<android.util.Base64$Encoder: int count>","to":"1093869296","type":"store","field":"<android.util.Base64$Encoder: int count>"},{"step":16,"from":"static.<android.util.Base64: boolean $assertionsDisabled>","to":"static.<android.util.Base64: boolean $assertionsDisabled>","type":"load","field":"<android.util.Base64: boolean $assertionsDisabled>"},{"step":17,"from":"1093427632","to":"sdaReg23","type":"model"}],"parameters":[{"id":"1093560192","name":"arg#0","klass":"byte[]"},{"id":"sdaReg0","name":"arg#1","klass":"int"},{"id":"sdaReg1","name":"arg#2","klass":"int"},{"id":"sdaReg2","name":"arg#3","klass":"int"}],"returns":[{"id":"sdaReg23","name":"return","klass":"string"}],"colors":{"heapLocToColor":{"1093869296.<android.util.Base64$Encoder: boolean do_padding>":[4],"1093869296.<android.util.Base64$Encoder: int count>":[4],"sdaReg13":[1],"sdaReg14":[1, 2],"sdaReg10":[0],"sdaReg19":[1, 4],"static.<android.util.Base64: boolean $assertionsDisabled>":[7],"1093831448":[4],"sdaReg17":[1, 4],"1093560192":[0],"sdaReg18":[1, 2],"sdaReg16":[1],"static.<android.util.Base64$Encoder: boolean $assertionsDisabled>":[6],"sdaReg8":[2],"sdaReg9":[4],"sdaReg6":[2],"sdaReg7":[2],"sdaReg4":[4],"sdaReg5":[4],"1093869296":[4],"1093427632":[5],"1093869296.<android.util.Base64$Encoder: boolean do_newline>":[4],"sdaReg3":[0],"sdaReg2":[3, 4],"sdaReg1":[2],"1093869296.<android.util.Base64$Encoder: int tailLen>":[4],"sdaReg20":[1, 2],"sdaReg0":[1],"sdaReg23":[8],"sdaReg22":[5]},"colorToColor":{"3":[4],"4":[4],"5":[4, 8],"8":[9]},"colorToLabel":{"0":"arg#0","1":"arg#1","2":"arg#2","3":"arg#3","6":"<android.util.Base64$Encoder: boolean $assertionsDisabled>","7":"<android.util.Base64: boolean $assertionsDisabled>","9":"return"}}}

Generated Model

