Scanning method <android.util.Base64: java.lang.String encodeToString(byte[],int,int,int)>

All seen event types: StoreArrayRecord, SimpleAssignmentRecord, MethodStartRecord, LoadInstanceRecord, IfRecord, NewObjectRecord, StoreInstanceRecord, LoadStaticRecord, NewArrayRecord, BinaryOperationRecord, MethodCallRecord, MethodReturnRecord, SwitchRecord, LoadArrayRecord, MethodEndRecord, 
Ignored event types: SwitchRecord, IfRecord, 

JSON Encoded Analysis Data (for visualization):{"heapEdges":[{"step":0,"from":"1094460000","to":"sdaReg2","type":"model"},{"step":1,"from":"sdaReg2","to":"1094460000","type":"model"},{"step":2,"from":"sdaReg2","to":"1094460000","type":"model"},{"step":3,"from":"1094460000","to":"1094460000.<android.util.Base64$Encoder: boolean do_padding>","type":"load","field":"<android.util.Base64$Encoder: boolean do_padding>"},{"step":4,"from":"1094460000","to":"1094460000.<android.util.Base64$Encoder: boolean do_newline>","type":"load","field":"<android.util.Base64$Encoder: boolean do_newline>"},{"step":5,"from":"1094460000","to":"1094460000.<android.util.Base64$Encoder: boolean do_cr>","type":"load","field":"<android.util.Base64$Encoder: boolean do_cr>"},{"step":6,"from":"1094460000","to":"1093593408","type":"create","field":"<android.util.Base64$Coder: byte[] output>"},{"step":7,"from":"1094460000","to":"1093831448","type":"load","field":"<android.util.Base64$Encoder: byte[] alphabet>"},{"step":8,"from":"1094460000","to":"1094460000.<android.util.Base64$Encoder: int count>","type":"load","field":"<android.util.Base64$Encoder: int count>"},{"step":9,"from":"1094460000","to":"1094460000.<android.util.Base64$Encoder: int tailLen>","type":"load","field":"<android.util.Base64$Encoder: int tailLen>"},{"step":10,"from":"1093560192","to":"1093560192.arrayIdx_int:0","type":"load","field":"arrayIdx_int:0"},{"step":11,"from":"1093560192","to":"1093560192.arrayIdx_int:1","type":"load","field":"arrayIdx_int:1"},{"step":12,"from":"1093560192","to":"1093560192.arrayIdx_int:2","type":"load","field":"arrayIdx_int:2"},{"step":13,"from":"1093831448","to":"1093831448.arrayIdx_int:63","type":"load","field":"arrayIdx_int:63"},{"step":14,"from":"1093831448.arrayIdx_int:63","to":"1093593408","type":"store","field":"arrayIdx_int:0"},{"step":15,"from":"1093831448","to":"1093831448.arrayIdx_int:62","type":"load","field":"arrayIdx_int:62"},{"step":16,"from":"1093831448.arrayIdx_int:62","to":"1093593408","type":"store","field":"arrayIdx_int:1"},{"step":17,"from":"1093831448","to":"1093831448.arrayIdx_int:59","type":"load","field":"arrayIdx_int:59"},{"step":18,"from":"1093831448.arrayIdx_int:59","to":"1093593408","type":"store","field":"arrayIdx_int:2"},{"step":19,"from":"1093831448","to":"1093831448.arrayIdx_int:29","type":"load","field":"arrayIdx_int:29"},{"step":20,"from":"1093831448.arrayIdx_int:29","to":"1093593408","type":"store","field":"arrayIdx_int:3"},{"step":21,"from":"1093560192","to":"1093560192.arrayIdx_int:3","type":"load","field":"arrayIdx_int:3"},{"step":22,"from":"1093560192","to":"1093560192.arrayIdx_int:4","type":"load","field":"arrayIdx_int:4"},{"step":23,"from":"1093560192","to":"1093560192.arrayIdx_int:5","type":"load","field":"arrayIdx_int:5"},{"step":24,"from":"1093831448","to":"1093831448.arrayIdx_int:51","type":"load","field":"arrayIdx_int:51"},{"step":25,"from":"1093831448.arrayIdx_int:51","to":"1093593408","type":"store","field":"arrayIdx_int:4"},{"step":26,"from":"1093831448","to":"1093831448.arrayIdx_int:11","type":"load","field":"arrayIdx_int:11"},{"step":27,"from":"1093831448.arrayIdx_int:11","to":"1093593408","type":"store","field":"arrayIdx_int:5"},{"step":28,"from":"1093831448","to":"1093831448.arrayIdx_int:46","type":"load","field":"arrayIdx_int:46"},{"step":29,"from":"1093831448.arrayIdx_int:46","to":"1093593408","type":"store","field":"arrayIdx_int:6"},{"step":30,"from":"1093831448","to":"1093831448.arrayIdx_int:42","type":"load","field":"arrayIdx_int:42"},{"step":31,"from":"1093831448.arrayIdx_int:42","to":"1093593408","type":"store","field":"arrayIdx_int:7"},{"step":32,"from":"1094460000","to":"1094460000.<android.util.Base64$Encoder: int tailLen>","type":"load","field":"<android.util.Base64$Encoder: int tailLen>"},{"step":33,"from":"1094460000","to":"1094460000.<android.util.Base64$Encoder: int tailLen>","type":"load","field":"<android.util.Base64$Encoder: int tailLen>"},{"step":34,"from":"1094460000","to":"1094460000.<android.util.Base64$Encoder: int tailLen>","type":"load","field":"<android.util.Base64$Encoder: int tailLen>"},{"step":35,"from":"1093560192","to":"1093560192.arrayIdx_int:6","type":"load","field":"arrayIdx_int:6"},{"step":36,"from":"1094460000","to":"1094460000.<android.util.Base64$Encoder: int tailLen>","type":"load","field":"<android.util.Base64$Encoder: int tailLen>"},{"step":37,"from":"1093560192","to":"1093560192.arrayIdx_int:7","type":"load","field":"arrayIdx_int:7"},{"step":38,"from":"1094460000","to":"1094460000.<android.util.Base64$Encoder: int tailLen>","type":"load","field":"<android.util.Base64$Encoder: int tailLen>"},{"step":39,"from":"sdaReg54","to":"1094460000","type":"store","field":"<android.util.Base64$Encoder: int tailLen>"},{"step":40,"from":"1093831448","to":"1093831448.arrayIdx_int:38","type":"load","field":"arrayIdx_int:38"},{"step":41,"from":"1093831448.arrayIdx_int:38","to":"1093593408","type":"store","field":"arrayIdx_int:8"},{"step":42,"from":"1093831448","to":"1093831448.arrayIdx_int:24","type":"load","field":"arrayIdx_int:24"},{"step":43,"from":"1093831448.arrayIdx_int:24","to":"1093593408","type":"store","field":"arrayIdx_int:9"},{"step":44,"from":"1093831448","to":"1093831448.arrayIdx_int:32","type":"load","field":"arrayIdx_int:32"},{"step":45,"from":"1093831448.arrayIdx_int:32","to":"1093593408","type":"store","field":"arrayIdx_int:10"},{"step":46,"from":"1094460000","to":"1094460000.<android.util.Base64$Encoder: boolean do_padding>","type":"load","field":"<android.util.Base64$Encoder: boolean do_padding>"},{"step":47,"from":"1093593408","to":"sdaReg63","type":"create","field":"arrayIdx_int:11"},{"step":48,"from":"1094460000","to":"1094460000.<android.util.Base64$Encoder: boolean do_newline>","type":"load","field":"<android.util.Base64$Encoder: boolean do_newline>"},{"step":49,"from":"1094460000","to":"1094460000.<android.util.Base64$Encoder: boolean do_cr>","type":"load","field":"<android.util.Base64$Encoder: boolean do_cr>"},{"step":50,"from":"1093593408","to":"sdaReg65","type":"create","field":"arrayIdx_int:12"},{"step":51,"from":"static.<android.util.Base64$Encoder: boolean $assertionsDisabled>","to":"static.<android.util.Base64$Encoder: boolean $assertionsDisabled>","type":"load","field":"<android.util.Base64$Encoder: boolean $assertionsDisabled>"},{"step":52,"from":"static.<android.util.Base64$Encoder: boolean $assertionsDisabled>","to":"static.<android.util.Base64$Encoder: boolean $assertionsDisabled>","type":"load","field":"<android.util.Base64$Encoder: boolean $assertionsDisabled>"},{"step":53,"from":"sdaReg18","to":"1094460000","type":"store","field":"<android.util.Base64$Coder: int op>"},{"step":54,"from":"1094460000.<android.util.Base64$Encoder: int count>","to":"1094460000","type":"store","field":"<android.util.Base64$Encoder: int count>"},{"step":55,"from":"static.<android.util.Base64: boolean $assertionsDisabled>","to":"static.<android.util.Base64: boolean $assertionsDisabled>","type":"load","field":"<android.util.Base64: boolean $assertionsDisabled>"},{"step":56,"from":"1093593408","to":"sdaReg68","type":"model"}],"parameters":[{"id":"1093560192","name":"arg#0","klass":"byte[]"},{"id":"sdaReg0","name":"arg#1","klass":"int"},{"id":"sdaReg1","name":"arg#2","klass":"int"},{"id":"sdaReg2","name":"arg#3","klass":"int"}],"returns":[{"id":"sdaReg68","name":"return","klass":"string"}],"colors":{"heapLocToColor":{"sdaReg60":[0],"sdaReg61":[0],"sdaReg68":[8],"sdaReg67":[5],"1093560192.arrayIdx_int:7":[0],"1093560192.arrayIdx_int:6":[0],"sdaReg14":[2],"1093560192.arrayIdx_int:5":[0],"sdaReg11":[2],"1093560192.arrayIdx_int:4":[0],"sdaReg12":[2],"sdaReg10":[2],"sdaReg59":[0],"1094460000":[4],"sdaReg57":[0],"1093831448.arrayIdx_int:42":[4],"sdaReg56":[0],"sdaReg19":[1],"static.<android.util.Base64: boolean $assertionsDisabled>":[7],"sdaReg54":[4],"1093560192.arrayIdx_int:3":[0],"1093831448":[4],"sdaReg53":[0],"1093831448.arrayIdx_int:46":[4],"1093560192.arrayIdx_int:2":[0],"sdaReg52":[0],"sdaReg15":[4],"1093560192.arrayIdx_int:1":[0],"sdaReg51":[0],"sdaReg16":[0],"1093560192.arrayIdx_int:0":[0],"static.<android.util.Base64$Encoder: boolean $assertionsDisabled>":[6],"1093831448.arrayIdx_int:11":[4],"sdaReg50":[1],"1093831448.arrayIdx_int:51":[4],"sdaReg49":[0],"sdaReg48":[0],"1094460000.<android.util.Base64$Encoder: boolean do_padding>":[4],"sdaReg45":[1, 2],"sdaReg44":[1, 4],"sdaReg47":[1],"sdaReg41":[0],"1093831448.arrayIdx_int:59":[4],"sdaReg43":[1, 2],"sdaReg42":[1, 4],"1093831448.arrayIdx_int:24":[4],"1093831448.arrayIdx_int:62":[4],"1094460000.<android.util.Base64$Encoder: int tailLen>":[4],"1093831448.arrayIdx_int:29":[4],"1094460000.<android.util.Base64$Encoder: boolean do_cr>":[4],"1094460000.<android.util.Base64$Encoder: boolean do_newline>":[4],"sdaReg39":[0],"sdaReg38":[0],"1094460000.<android.util.Base64$Encoder: int count>":[4],"sdaReg32":[0],"sdaReg31":[0],"sdaReg30":[0],"1093831448.arrayIdx_int:63":[4],"sdaReg36":[0],"1093560192":[0],"sdaReg35":[0],"sdaReg33":[0],"sdaReg8":[2],"sdaReg9":[2],"sdaReg6":[2],"sdaReg7":[2],"sdaReg4":[4],"1093831448.arrayIdx_int:32":[4],"sdaReg5":[4],"1093831448.arrayIdx_int:38":[4],"sdaReg27":[0],"sdaReg26":[0],"sdaReg29":[1],"sdaReg28":[0],"sdaReg3":[0],"sdaReg2":[3, 4],"sdaReg1":[2],"1093593408":[5],"sdaReg0":[1],"sdaReg20":[1, 2],"sdaReg23":[0],"sdaReg22":[1],"sdaReg25":[1],"sdaReg24":[0]},"colorToColor":{"3":[4],"4":[4, 5],"5":[4, 8],"8":[9]},"colorToLabel":{"0":"arg#0","1":"arg#1","2":"arg#2","3":"arg#3","6":"<android.util.Base64$Encoder: boolean $assertionsDisabled>","7":"<android.util.Base64: boolean $assertionsDisabled>","9":"return"}}}

Generated Model
	arg#3->return

