Scanning method <android.util.Base64: byte[] decode(byte[],int,int,int)>

All seen event types: StoreArrayRecord, SimpleAssignmentRecord, MethodStartRecord, LoadInstanceRecord, IfRecord, NewObjectRecord, StoreInstanceRecord, NewArrayRecord, LoadStaticRecord, BinaryOperationRecord, SwitchRecord, MethodCallRecord, MethodReturnRecord, ArrayLengthRecord, CastRecord, LoadArrayRecord, MethodEndRecord, 
Ignored event types: SwitchRecord, IfRecord, 

JSON Encoded Analysis Data (for visualization):{"heapEdges":[{"step":0,"from":"1093443688","to":"1094074960","type":"create","field":"<android.util.Base64$Coder: byte[] output>"},{"step":1,"from":"static.<android.util.Base64$Decoder: int[] DECODE>","to":"1093561360","type":"load","field":"<android.util.Base64$Decoder: int[] DECODE>"},{"step":2,"from":"1093561360","to":"1093443688","type":"store","field":"<android.util.Base64$Decoder: int[] alphabet>"},{"step":3,"from":"1093443688","to":"sdaReg11","type":"create","field":"<android.util.Base64$Decoder: int state>"},{"step":4,"from":"1093443688","to":"sdaReg12","type":"create","field":"<android.util.Base64$Decoder: int value>"},{"step":5,"from":"1093537272","to":"1093537272.arrayIdx_int:0","type":"load","field":"arrayIdx_int:0"},{"step":6,"from":"1093561360","to":"1093561360.arrayIdx_int:89","type":"load","field":"arrayIdx_int:89"},{"step":7,"from":"1093537272","to":"1093537272.arrayIdx_int:1","type":"load","field":"arrayIdx_int:1"},{"step":8,"from":"1093561360","to":"1093561360.arrayIdx_int:81","type":"load","field":"arrayIdx_int:81"},{"step":9,"from":"1093537272","to":"1093537272.arrayIdx_int:2","type":"load","field":"arrayIdx_int:2"},{"step":10,"from":"1093561360","to":"1093561360.arrayIdx_int:10","type":"load","field":"arrayIdx_int:10"},{"step":11,"from":"sdaReg29","to":"1094074960","type":"store","field":"arrayIdx_int:0"},{"step":12,"from":"sdaReg25","to":"1093443688","type":"store","field":"<android.util.Base64$Decoder: int state>"},{"step":13,"from":"sdaReg20","to":"1093443688","type":"store","field":"<android.util.Base64$Coder: int op>"},{"step":14,"from":"1094074960","to":"1093696184","type":"model"}],"parameters":[{"id":"1093537272","name":"arg#0","klass":"byte[]"},{"id":"sdaReg0","name":"arg#1","klass":"int"},{"id":"sdaReg1","name":"arg#2","klass":"int"},{"id":"sdaReg2","name":"arg#3","klass":"int"}],"returns":[{"id":"1093696184","name":"return","klass":"byte[]"}],"colors":{"heapLocToColor":{"sdaReg13":[4],"sdaReg14":[4],"1093561360.arrayIdx_int:81":[6],"sdaReg10":[3],"1093561360.arrayIdx_int:10":[6],"sdaReg19":[1, 2],"1093561360.arrayIdx_int:89":[6],"sdaReg18":[1],"sdaReg15":[4],"sdaReg16":[0],"sdaReg8":[4],"sdaReg9":[4],"sdaReg6":[5],"sdaReg7":[4],"sdaReg4":[2],"sdaReg5":[4],"static.<android.util.Base64$Decoder: int[] DECODE>":[6],"sdaReg26":[6],"sdaReg29":[6],"1093537272.arrayIdx_int:0":[0],"sdaReg28":[6],"1093537272.arrayIdx_int:2":[0],"1093561360":[6],"1093537272.arrayIdx_int:1":[0],"1093537272":[0],"sdaReg3":[2],"sdaReg2":[3],"sdaReg1":[2],"sdaReg21":[1],"1093443688":[4],"sdaReg0":[1],"sdaReg23":[0],"1094074960":[5],"sdaReg22":[1],"1093696184":[7],"sdaReg24":[6]},"colorToColor":{"5":[4, 7],"6":[4, 5],"7":[8]},"colorToLabel":{"0":"arg#0","1":"arg#1","2":"arg#2","3":"arg#3","6":"<android.util.Base64$Decoder: int[] DECODE>","8":"return"}}}

Generated Model

