Scanning method <android.util.Base64: byte[] decode(byte[],int,int,int)>

All seen event types: StoreArrayRecord, SimpleAssignmentRecord, MethodStartRecord, LoadInstanceRecord, IfRecord, NewObjectRecord, StoreInstanceRecord, NewArrayRecord, LoadStaticRecord, BinaryOperationRecord, SwitchRecord, MethodCallRecord, MethodReturnRecord, ArrayLengthRecord, CastRecord, LoadArrayRecord, MethodEndRecord, 
Ignored event types: SwitchRecord, IfRecord, 

JSON Encoded Analysis Data (for visualization):{"heapEdges":[{"step":0,"from":"1093846784","to":"1093846816","type":"create","field":"<android.util.Base64$Coder: byte[] output>"},{"step":1,"from":"static.<android.util.Base64$Decoder: int[] DECODE_WEBSAFE>","to":"1093755832","type":"load","field":"<android.util.Base64$Decoder: int[] DECODE_WEBSAFE>"},{"step":2,"from":"1093755832","to":"1093846784","type":"store","field":"<android.util.Base64$Decoder: int[] alphabet>"},{"step":3,"from":"1093846784","to":"sdaReg11","type":"create","field":"<android.util.Base64$Decoder: int state>"},{"step":4,"from":"1093846784","to":"sdaReg12","type":"create","field":"<android.util.Base64$Decoder: int value>"},{"step":5,"from":"1093456040","to":"1093456040.arrayIdx_int:0","type":"load","field":"arrayIdx_int:0"},{"step":6,"from":"1093755832","to":"1093755832.arrayIdx_int:95","type":"load","field":"arrayIdx_int:95"},{"step":7,"from":"1093456040","to":"1093456040.arrayIdx_int:1","type":"load","field":"arrayIdx_int:1"},{"step":8,"from":"1093755832","to":"1093755832.arrayIdx_int:45","type":"load","field":"arrayIdx_int:45"},{"step":9,"from":"1093456040","to":"1093456040.arrayIdx_int:2","type":"load","field":"arrayIdx_int:2"},{"step":10,"from":"1093755832","to":"1093755832.arrayIdx_int:55","type":"load","field":"arrayIdx_int:55"},{"step":11,"from":"1093456040","to":"1093456040.arrayIdx_int:3","type":"load","field":"arrayIdx_int:3"},{"step":12,"from":"1093755832","to":"1093755832.arrayIdx_int:100","type":"load","field":"arrayIdx_int:100"},{"step":13,"from":"sdaReg37","to":"1093846816","type":"store","field":"arrayIdx_int:2"},{"step":14,"from":"sdaReg40","to":"1093846816","type":"store","field":"arrayIdx_int:1"},{"step":15,"from":"sdaReg42","to":"1093846816","type":"store","field":"arrayIdx_int:0"},{"step":16,"from":"1093456040","to":"1093456040.arrayIdx_int:4","type":"load","field":"arrayIdx_int:4"},{"step":17,"from":"1093755832","to":"1093755832.arrayIdx_int:122","type":"load","field":"arrayIdx_int:122"},{"step":18,"from":"1093456040","to":"1093456040.arrayIdx_int:5","type":"load","field":"arrayIdx_int:5"},{"step":19,"from":"1093755832","to":"1093755832.arrayIdx_int:76","type":"load","field":"arrayIdx_int:76"},{"step":20,"from":"1093456040","to":"1093456040.arrayIdx_int:6","type":"load","field":"arrayIdx_int:6"},{"step":21,"from":"1093755832","to":"1093755832.arrayIdx_int:117","type":"load","field":"arrayIdx_int:117"},{"step":22,"from":"1093456040","to":"1093456040.arrayIdx_int:7","type":"load","field":"arrayIdx_int:7"},{"step":23,"from":"1093755832","to":"1093755832.arrayIdx_int:113","type":"load","field":"arrayIdx_int:113"},{"step":24,"from":"sdaReg37","to":"1093846816","type":"store","field":"arrayIdx_int:5"},{"step":25,"from":"sdaReg40","to":"1093846816","type":"store","field":"arrayIdx_int:4"},{"step":26,"from":"sdaReg42","to":"1093846816","type":"store","field":"arrayIdx_int:3"},{"step":27,"from":"1093456040","to":"1093456040.arrayIdx_int:8","type":"load","field":"arrayIdx_int:8"},{"step":28,"from":"1093755832","to":"1093755832.arrayIdx_int:109","type":"load","field":"arrayIdx_int:109"},{"step":29,"from":"1093456040","to":"1093456040.arrayIdx_int:9","type":"load","field":"arrayIdx_int:9"},{"step":30,"from":"1093755832","to":"1093755832.arrayIdx_int:81","type":"load","field":"arrayIdx_int:81"},{"step":31,"from":"1093456040","to":"1093456040.arrayIdx_int:10","type":"load","field":"arrayIdx_int:10"},{"step":32,"from":"1093755832","to":"1093755832.arrayIdx_int:61","type":"load","field":"arrayIdx_int:61"},{"step":33,"from":"1093456040","to":"1093456040.arrayIdx_int:11","type":"load","field":"arrayIdx_int:11"},{"step":34,"from":"1093755832","to":"1093755832.arrayIdx_int:61","type":"load","field":"arrayIdx_int:61"},{"step":35,"from":"1093456040","to":"1093456040.arrayIdx_int:8","type":"load","field":"arrayIdx_int:8"},{"step":36,"from":"1093755832","to":"1093755832.arrayIdx_int:109","type":"load","field":"arrayIdx_int:109"},{"step":37,"from":"1093456040","to":"1093456040.arrayIdx_int:9","type":"load","field":"arrayIdx_int:9"},{"step":38,"from":"1093755832","to":"1093755832.arrayIdx_int:81","type":"load","field":"arrayIdx_int:81"},{"step":39,"from":"1093456040","to":"1093456040.arrayIdx_int:10","type":"load","field":"arrayIdx_int:10"},{"step":40,"from":"1093755832","to":"1093755832.arrayIdx_int:61","type":"load","field":"arrayIdx_int:61"},{"step":41,"from":"sdaReg49","to":"1093846816","type":"store","field":"arrayIdx_int:6"},{"step":42,"from":"1093456040","to":"1093456040.arrayIdx_int:11","type":"load","field":"arrayIdx_int:11"},{"step":43,"from":"1093755832","to":"1093755832.arrayIdx_int:61","type":"load","field":"arrayIdx_int:61"},{"step":44,"from":"sdaReg45","to":"1093846784","type":"store","field":"<android.util.Base64$Decoder: int state>"},{"step":45,"from":"sdaReg20","to":"1093846784","type":"store","field":"<android.util.Base64$Coder: int op>"},{"step":46,"from":"1093846816","to":"1093499632","type":"model"}],"parameters":[{"id":"1093456040","name":"arg#0","klass":"byte[]"},{"id":"sdaReg0","name":"arg#1","klass":"int"},{"id":"sdaReg1","name":"arg#2","klass":"int"},{"id":"sdaReg2","name":"arg#3","klass":"int"}],"returns":[{"id":"1093499632","name":"return","klass":"byte[]"}],"colors":{"heapLocToColor":{"1093755832.arrayIdx_int:113":[6],"1093755832.arrayIdx_int:117":[6],"1093755832.arrayIdx_int:76":[6],"1093755832.arrayIdx_int:55":[6],"1093846816":[5],"sdaReg13":[4],"sdaReg14":[4],"sdaReg10":[3],"sdaReg19":[1, 2],"sdaReg18":[1],"sdaReg15":[4],"sdaReg16":[0],"1093755832.arrayIdx_int:100":[6],"1093755832.arrayIdx_int:45":[6],"1093755832.arrayIdx_int:109":[6],"sdaReg49":[6],"sdaReg48":[6],"1093456040.arrayIdx_int:10":[0],"1093456040.arrayIdx_int:11":[0],"sdaReg44":[0],"1093755832.arrayIdx_int:61":[6],"static.<android.util.Base64$Decoder: int[] DECODE_WEBSAFE>":[6],"sdaReg46":[6],"sdaReg41":[6],"sdaReg40":[6],"sdaReg43":[1],"sdaReg42":[6],"1093456040":[0],"1093456040.arrayIdx_int:9":[0],"1093456040.arrayIdx_int:8":[0],"1093846784":[4],"sdaReg39":[6],"sdaReg37":[6],"1093755832":[6],"1093499632":[7],"1093456040.arrayIdx_int:4":[0],"sdaReg32":[1],"1093456040.arrayIdx_int:5":[0],"sdaReg31":[6],"1093456040.arrayIdx_int:6":[0],"sdaReg30":[6],"1093456040.arrayIdx_int:7":[0],"1093456040.arrayIdx_int:0":[0],"1093755832.arrayIdx_int:95":[6],"1093456040.arrayIdx_int:1":[0],"sdaReg35":[6],"1093456040.arrayIdx_int:2":[0],"sdaReg34":[6],"1093456040.arrayIdx_int:3":[0],"sdaReg33":[0],"sdaReg8":[4],"sdaReg9":[4],"sdaReg6":[5],"sdaReg7":[4],"sdaReg4":[2],"sdaReg5":[4],"sdaReg27":[6],"sdaReg26":[6],"sdaReg29":[0],"sdaReg28":[1],"1093755832.arrayIdx_int:81":[6],"sdaReg3":[2],"sdaReg2":[3],"sdaReg21":[1],"sdaReg1":[2],"sdaReg0":[1],"sdaReg23":[6],"sdaReg22":[0],"sdaReg25":[0],"1093755832.arrayIdx_int:122":[6],"sdaReg24":[1]},"colorToColor":{"5":[4, 7],"6":[4, 5],"7":[8]},"colorToLabel":{"0":"arg#0","1":"arg#1","2":"arg#2","3":"arg#3","6":"<android.util.Base64$Decoder: int[] DECODE_WEBSAFE>","8":"return"}}}

Generated Model

