Scanning method <java.nio.CharBuffer: char[] array()>

All seen event types: MethodReturnRecord, MethodCallRecord, LoadInstanceRecord, MethodStartRecord, MethodEndRecord, 
Ignored event types: 

JSON Encoded Analysis Data (for visualization):{"heapEdges":[{"step":0,"from":"1093626208","to":"1093626256","type":"load","field":"<java.nio.CharArrayBuffer: char[] backingArray>"}],"parameters":[{"id":"1093626208","name":"this","klass":"java.nio.CharBuffer"}],"returns":[{"id":"1093626256","name":"return","klass":"char[]"}],"colors":{"heapLocToColor":{"sdaReg1":[0],"1093626256":[0],"sdaReg0":[0],"1093626208":[0]},"colorToColor":{"0":[1]},"colorToLabel":{"0":"this","1":"return"}}}

Generated Model
	this->return

