Scanning method <android.location.Location: float distanceTo(android.location.Location)>

All seen event types: StoreArrayRecord, SimpleAssignmentRecord, ExitMonitorRecord, LoadInstanceRecord, MethodStartRecord, IfRecord, StoreInstanceRecord, BinaryOperationRecord, MethodCallRecord, MethodReturnRecord, EnterMonitorRecord, CastRecord, ArrayLengthRecord, LoadArrayRecord, MethodEndRecord, 
Ignored event types: ExitMonitorRecord, EnterMonitorRecord, IfRecord, 

JSON Encoded Analysis Data (for visualization):{"heapEdges":[{"step":0,"from":"1093944704","to":"1093953112","type":"load","field":"<android.location.Location: float[] mResults>"},{"step":1,"from":"1093944704","to":"1093944704.<android.location.Location: double mLatitude>","type":"load","field":"<android.location.Location: double mLatitude>"},{"step":2,"from":"1093944704","to":"1093944704.<android.location.Location: double mLat1>","type":"load","field":"<android.location.Location: double mLat1>"},{"step":3,"from":"1093944704","to":"1093944704.<android.location.Location: double mLongitude>","type":"load","field":"<android.location.Location: double mLongitude>"},{"step":4,"from":"1093944704","to":"1093944704.<android.location.Location: double mLon1>","type":"load","field":"<android.location.Location: double mLon1>"},{"step":5,"from":"1093979728","to":"1093979728.<android.location.Location: double mLatitude>","type":"load","field":"<android.location.Location: double mLatitude>"},{"step":6,"from":"1093944704","to":"1093944704.<android.location.Location: double mLat2>","type":"load","field":"<android.location.Location: double mLat2>"},{"step":7,"from":"1093944704","to":"1093944704.<android.location.Location: double mLatitude>","type":"load","field":"<android.location.Location: double mLatitude>"},{"step":8,"from":"1093944704","to":"1093944704.<android.location.Location: double mLongitude>","type":"load","field":"<android.location.Location: double mLongitude>"},{"step":9,"from":"1093979728","to":"1093979728.<android.location.Location: double mLatitude>","type":"load","field":"<android.location.Location: double mLatitude>"},{"step":10,"from":"1093979728","to":"1093979728.<android.location.Location: double mLongitude>","type":"load","field":"<android.location.Location: double mLongitude>"},{"step":11,"from":"1093944704","to":"1093953112","type":"load","field":"<android.location.Location: float[] mResults>"},{"step":12,"from":"sdaReg6","to":"sdaReg22","type":"model"},{"step":13,"from":"sdaReg23","to":"sdaReg24","type":"model"},{"step":14,"from":"sdaReg7","to":"sdaReg26","type":"model"},{"step":15,"from":"sdaReg27","to":"sdaReg28","type":"model"},{"step":16,"from":"sdaReg24","to":"sdaReg29","type":"model"},{"step":17,"from":"sdaReg28","to":"sdaReg30","type":"model"},{"step":18,"from":"sdaReg24","to":"sdaReg31","type":"model"},{"step":19,"from":"sdaReg28","to":"sdaReg32","type":"model"},{"step":20,"from":"sdaReg43","to":"sdaReg46","type":"model"},{"step":21,"from":"sdaReg43","to":"sdaReg47","type":"model"},{"step":22,"from":"sdaReg55","to":"sdaReg56","type":"model"},{"step":23,"from":"sdaReg58","to":"sdaReg59","type":"model"},{"step":24,"from":"sdaReg56","to":"sdaReg59","type":"model"},{"step":25,"from":"sdaReg127","to":"sdaReg128","type":"model"},{"step":26,"from":"sdaReg43","to":"sdaReg130","type":"model"},{"step":27,"from":"sdaReg43","to":"sdaReg131","type":"model"},{"step":28,"from":"sdaReg55","to":"sdaReg132","type":"model"},{"step":29,"from":"sdaReg58","to":"sdaReg133","type":"model"},{"step":30,"from":"sdaReg132","to":"sdaReg133","type":"model"},{"step":31,"from":"sdaReg127","to":"sdaReg134","type":"model"},{"step":32,"from":"sdaReg43","to":"sdaReg135","type":"model"},{"step":33,"from":"sdaReg43","to":"sdaReg136","type":"model"},{"step":34,"from":"sdaReg55","to":"sdaReg137","type":"model"},{"step":35,"from":"sdaReg58","to":"sdaReg138","type":"model"},{"step":36,"from":"sdaReg137","to":"sdaReg138","type":"model"},{"step":37,"from":"sdaReg127","to":"sdaReg139","type":"model"},{"step":38,"from":"sdaReg43","to":"sdaReg140","type":"model"},{"step":39,"from":"sdaReg43","to":"sdaReg141","type":"model"},{"step":40,"from":"sdaReg55","to":"sdaReg142","type":"model"},{"step":41,"from":"sdaReg58","to":"sdaReg143","type":"model"},{"step":42,"from":"sdaReg142","to":"sdaReg143","type":"model"},{"step":43,"from":"sdaReg127","to":"sdaReg144","type":"model"},{"step":44,"from":"sdaReg43","to":"sdaReg145","type":"model"},{"step":45,"from":"sdaReg43","to":"sdaReg146","type":"model"},{"step":46,"from":"sdaReg55","to":"sdaReg147","type":"model"},{"step":47,"from":"sdaReg58","to":"sdaReg148","type":"model"},{"step":48,"from":"sdaReg147","to":"sdaReg148","type":"model"},{"step":49,"from":"sdaReg127","to":"sdaReg149","type":"model"},{"step":50,"from":"sdaReg153","to":"1093953112","type":"store","field":"arrayIdx_int:0"},{"step":51,"from":"sdaReg159","to":"sdaReg160","type":"model"},{"step":52,"from":"sdaReg155","to":"sdaReg160","type":"model"},{"step":53,"from":"sdaReg164","to":"1093953112","type":"store","field":"arrayIdx_int:1"},{"step":54,"from":"1093944704","to":"1093944704.<android.location.Location: double mLatitude>","type":"load","field":"<android.location.Location: double mLatitude>"},{"step":55,"from":"1093944704.<android.location.Location: double mLatitude>","to":"1093944704","type":"store","field":"<android.location.Location: double mLat1>"},{"step":56,"from":"1093944704","to":"1093944704.<android.location.Location: double mLongitude>","type":"load","field":"<android.location.Location: double mLongitude>"},{"step":57,"from":"1093944704.<android.location.Location: double mLongitude>","to":"1093944704","type":"store","field":"<android.location.Location: double mLon1>"},{"step":58,"from":"1093979728","to":"1093979728.<android.location.Location: double mLatitude>","type":"load","field":"<android.location.Location: double mLatitude>"},{"step":59,"from":"1093979728.<android.location.Location: double mLatitude>","to":"1093944704","type":"store","field":"<android.location.Location: double mLat2>"},{"step":60,"from":"1093979728","to":"1093979728.<android.location.Location: double mLongitude>","type":"load","field":"<android.location.Location: double mLongitude>"},{"step":61,"from":"1093979728.<android.location.Location: double mLongitude>","to":"1093944704","type":"store","field":"<android.location.Location: double mLon2>"},{"step":62,"from":"1093944704","to":"1093953112","type":"load","field":"<android.location.Location: float[] mResults>"},{"step":63,"from":"sdaReg166","to":"1093944704","type":"store","field":"<android.location.Location: float mDistance>"},{"step":64,"from":"1093944704","to":"1093953112","type":"load","field":"<android.location.Location: float[] mResults>"},{"step":65,"from":"sdaReg167","to":"1093944704","type":"store","field":"<android.location.Location: float mInitialBearing>"}],"parameters":[{"id":"1093944704","name":"this","klass":"android.location.Location"},{"id":"1093979728","name":"arg#1","klass":"android.location.Location"}],"returns":[{"id":null,"name":"return","klass":"float"}],"colors":{"heapLocToColor":{"sdaReg125":[32, 33, 6, 7, 8, 9, 10, 11, 12, 13, 15, 17, 16, 18, 21, 20, 23, 22, 25, 27, 26, 28, 31, 30],"sdaReg126":[0, 1, 6, 7, 8, 9, 10, 11, 12, 13, 15, 17, 16, 18, 21, 20, 23, 22, 25, 27, 26, 28, 31, 30, 32, 33],"sdaReg127":[0, 1, 6, 7, 8, 9, 10, 11, 12, 13, 15, 17, 16, 18, 21, 20, 23, 22, 25, 27, 26, 28, 31, 30, 32, 33],"sdaReg128":[14],"sdaReg129":[34, 19, 24, 29, 14],"sdaReg68":[32, 6, 7, 8, 9, 11, 12, 17, 16, 21, 22, 27, 26, 31],"sdaReg69":[32, 6, 7, 8, 9, 10, 11, 12, 15, 17, 16, 21, 20, 22, 25, 27, 26, 31, 30],"sdaReg66":[17, 16, 32, 21, 6, 22, 7, 27, 26, 11, 12, 31],"sdaReg67":[8, 9],"sdaReg64":[17, 16, 32, 21, 6, 22, 7, 27, 26, 11, 12, 31],"sdaReg65":[17, 16, 32, 21, 6, 22, 7, 27, 26, 11, 12, 31],"sdaReg62":[17, 16, 32, 21, 6, 22, 7, 27, 26, 11, 12, 31],"sdaReg63":[17, 16, 32, 21, 6, 22, 7, 27, 26, 11, 12, 31],"sdaReg72":[17, 16, 32, 21, 6, 22, 7, 27, 26, 11, 12, 31],"sdaReg71":[17, 16, 32, 21, 6, 22, 7, 27, 26, 11, 12, 31],"sdaReg70":[32, 6, 7, 8, 9, 10, 11, 12, 15, 17, 16, 21, 20, 22, 25, 27, 26, 31, 30],"1093979728.<android.location.Location: double mLatitude>":[1],"sdaReg120":[32, 6, 7, 8, 9, 10, 11, 12, 15, 17, 16, 21, 20, 22, 25, 27, 26, 31, 30],"sdaReg19":[0, 1],"sdaReg122":[32, 6, 7, 8, 9, 10, 11, 12, 15, 17, 16, 21, 20, 22, 25, 27, 26, 31, 30],"sdaReg121":[32, 6, 7, 8, 9, 10, 11, 12, 15, 17, 16, 21, 20, 22, 25, 27, 26, 31, 30],"sdaReg124":[32, 33, 6, 7, 8, 9, 10, 11, 12, 13, 15, 17, 16, 18, 21, 20, 23, 22, 25, 27, 26, 28, 31, 30],"sdaReg123":[32, 6, 7, 8, 9, 10, 11, 12, 15, 17, 16, 21, 20, 22, 25, 27, 26, 31, 30],"sdaReg116":[17, 16, 32, 21, 6, 22, 7, 27, 26, 11, 12, 31],"sdaReg117":[32, 6, 7, 8, 9, 10, 11, 12, 15, 17, 16, 21, 20, 22, 25, 27, 26, 31, 30],"sdaReg114":[17, 16, 32, 21, 6, 22, 7, 27, 26, 11, 12, 31],"sdaReg115":[17, 16, 32, 21, 6, 22, 7, 27, 26, 11, 12, 31],"sdaReg118":[32, 6, 7, 8, 9, 10, 11, 12, 15, 17, 16, 21, 20, 22, 25, 27, 26, 31, 30],"sdaReg119":[32, 6, 7, 8, 9, 10, 11, 12, 15, 17, 16, 21, 20, 22, 25, 27, 26, 31, 30],"sdaReg77":[17, 16, 32, 21, 6, 22, 7, 27, 26, 11, 12, 31],"sdaReg78":[17, 16, 32, 21, 6, 22, 7, 27, 26, 11, 12, 31],"sdaReg79":[17, 16, 32, 21, 6, 22, 7, 27, 26, 11, 12, 31],"sdaReg73":[17, 16, 32, 21, 6, 22, 7, 27, 26, 11, 12, 31],"sdaReg74":[17, 16, 32, 21, 6, 22, 7, 27, 26, 11, 12, 31],"sdaReg75":[17, 16, 32, 21, 6, 22, 7, 27, 26, 11, 12, 31],"sdaReg76":[17, 16, 32, 21, 6, 22, 7, 27, 26, 11, 12, 31],"sdaReg81":[17, 16, 32, 21, 6, 22, 7, 27, 26, 11, 12, 31],"sdaReg80":[17, 16, 32, 21, 6, 22, 7, 27, 26, 11, 12, 31],"sdaReg83":[17, 16, 32, 21, 6, 22, 7, 27, 26, 11, 12, 31],"sdaReg82":[17, 16, 32, 21, 6, 22, 7, 27, 26, 11, 12, 31],"1093944704.<android.location.Location: double mLongitude>":[0],"sdaReg113":[17, 16, 32, 21, 6, 22, 7, 27, 26, 11, 12, 31],"sdaReg112":[32, 6, 7, 8, 9, 10, 11, 12, 15, 17, 16, 21, 20, 22, 25, 27, 26, 31, 30],"sdaReg111":[32, 6, 7, 8, 9, 10, 11, 12, 15, 17, 16, 21, 20, 22, 25, 27, 26, 31, 30],"sdaReg110":[32, 6, 7, 8, 9, 10, 11, 12, 15, 17, 16, 21, 20, 22, 25, 27, 26, 31, 30],"sdaReg107":[32, 6, 7, 8, 9, 10, 11, 12, 15, 17, 16, 21, 20, 22, 25, 27, 26, 31, 30],"sdaReg108":[32, 6, 7, 8, 9, 10, 11, 12, 15, 17, 16, 21, 20, 22, 25, 27, 26, 31, 30],"sdaReg109":[32, 6, 7, 8, 9, 10, 11, 12, 15, 17, 16, 21, 20, 22, 25, 27, 26, 31, 30],"sdaReg103":[17, 32, 22, 27, 12],"sdaReg104":[17, 32, 22, 27, 12],"sdaReg105":[17, 32, 22, 27, 12],"sdaReg106":[32, 6, 7, 8, 9, 10, 11, 12, 15, 17, 16, 21, 20, 22, 25, 27, 26, 31, 30],"sdaReg86":[17, 16, 32, 21, 6, 22, 7, 27, 26, 11, 12, 31],"sdaReg87":[17, 16, 32, 21, 6, 22, 7, 27, 26, 11, 12, 31],"sdaReg84":[17, 16, 32, 21, 6, 22, 7, 27, 26, 11, 12, 31],"sdaReg85":[17, 16, 32, 21, 6, 22, 7, 27, 26, 11, 12, 31],"sdaReg89":[17, 16, 32, 21, 6, 22, 7, 27, 26, 11, 12, 31],"sdaReg90":[17, 16, 32, 21, 6, 22, 7, 27, 26, 11, 12, 31],"sdaReg94":[17, 16, 32, 21, 6, 22, 7, 27, 26, 11, 12, 31],"sdaReg93":[17, 16, 32, 21, 6, 22, 7, 27, 26, 11, 12, 31],"sdaReg92":[17, 16, 32, 21, 6, 22, 7, 27, 26, 11, 12, 31],"sdaReg91":[17, 16, 32, 21, 6, 22, 7, 27, 26, 11, 12, 31],"sdaReg100":[32, 6, 7, 8, 9, 10, 11, 12, 15, 17, 16, 21, 20, 22, 25, 27, 26, 31, 30],"1093944704.<android.location.Location: double mLatitude>":[0],"sdaReg102":[32, 6, 7, 8, 9, 10, 11, 12, 15, 17, 16, 21, 20, 22, 25, 27, 26, 31, 30],"sdaReg101":[17, 16, 32, 21, 6, 22, 7, 27, 26, 11, 12, 31],"sdaReg95":[32, 6, 7, 8, 9, 10, 11, 12, 15, 17, 16, 21, 20, 22, 25, 27, 26, 31, 30],"sdaReg96":[17, 16, 32, 21, 6, 22, 7, 27, 26, 11, 12, 31],"sdaReg97":[17, 16, 32, 21, 6, 22, 7, 27, 26, 11, 12, 31],"sdaReg98":[32, 6, 7, 8, 9, 10, 11, 12, 15, 17, 16, 21, 20, 22, 25, 27, 26, 31, 30],"sdaReg99":[32, 6, 7, 8, 9, 10, 11, 12, 15, 17, 16, 21, 20, 22, 25, 27, 26, 31, 30],"sdaReg60":[17, 32, 22, 27, 12],"sdaReg61":[16, 21, 6, 7, 26, 11, 31],"sdaReg161":[35],"sdaReg162":[35],"sdaReg163":[35],"sdaReg164":[35],"sdaReg59":[13],"sdaReg58":[20, 6, 7, 25, 8, 9, 10, 30, 15],"sdaReg57":[20, 6, 7, 25, 10, 30, 15],"sdaReg56":[12],"sdaReg55":[6, 7, 8, 9, 10, 11, 15, 16, 21, 20, 25, 26, 31, 30],"1093979728.<android.location.Location: double mLongitude>":[1],"sdaReg54":[20, 6, 7, 25, 8, 9, 10, 30, 15],"sdaReg53":[16, 21, 7, 26, 11, 31],"sdaReg52":[20, 6, 7, 25, 8, 9, 10, 30, 15],"sdaReg160":[35],"sdaReg51":[20, 7, 25, 8, 10, 30, 15],"sdaReg50":[7, 8],"sdaReg159":[6, 7, 8, 9, 30],"sdaReg158":[7, 8, 30],"sdaReg152":[32, 33, 6, 7, 8, 9, 10, 11, 12, 15, 17, 16, 21, 20, 22, 25, 27, 26, 31, 30],"sdaReg153":[32, 33, 6, 7, 8, 9, 10, 11, 12, 15, 17, 16, 21, 20, 22, 25, 27, 26, 31, 30],"sdaReg150":[17, 16, 32, 21, 6, 7, 22, 27, 11, 26, 12, 31],"sdaReg151":[32, 33, 6, 7, 8, 9, 10, 11, 12, 15, 17, 16, 21, 20, 22, 25, 27, 26, 31, 30],"sdaReg156":[6, 9],"sdaReg49":[6, 9],"sdaReg157":[7, 8],"sdaReg48":[16, 21, 7, 26, 11, 31],"sdaReg155":[7, 31],"sdaReg45":[0, 1, 6, 7, 8, 9, 10, 11, 12, 13, 15, 17, 16, 18, 21, 20, 23, 22, 25, 27, 26, 28],"sdaReg47":[11],"sdaReg46":[10],"sdaReg43":[0, 1, 6, 7, 8, 9, 10, 11, 12, 13, 15, 17, 16, 18, 21, 20, 23, 22, 25, 27, 26, 28, 31, 30, 32, 33],"1093944704.<android.location.Location: double mLon1>":[0],"1093944704":[0],"sdaReg148":[33],"sdaReg147":[32],"sdaReg149":[34],"sdaReg143":[28],"sdaReg144":[29],"sdaReg145":[30],"1093944704.<android.location.Location: float[] mResults>":[0],"sdaReg146":[31],"sdaReg140":[25],"sdaReg141":[26],"sdaReg142":[27],"sdaReg32":[9],"sdaReg31":[8],"sdaReg30":[7],"1093944704.<android.location.Location: double mLat1>":[0],"sdaReg36":[32, 6, 7, 8, 9, 10, 11, 12, 15, 17, 16, 21, 20, 22, 25, 27, 26, 31, 30],"sdaReg34":[8, 9],"sdaReg33":[6, 7],"sdaReg8":[0],"sdaReg9":[1],"sdaReg6":[0],"sdaReg7":[1],"sdaReg4":[0],"sdaReg139":[24],"sdaReg138":[23],"sdaReg137":[22],"sdaReg136":[21],"1093979728":[1],"sdaReg134":[19],"sdaReg27":[4],"sdaReg135":[20],"sdaReg26":[4],"sdaReg132":[17],"sdaReg29":[6],"sdaReg133":[18],"sdaReg28":[5],"sdaReg130":[15],"sdaReg131":[16],"sdaReg3":[0, 1],"sdaReg2":[0],"1093944704.<android.location.Location: double mLat2>":[0],"sdaReg1":[0],"sdaReg20":[17, 16, 32, 21, 6, 22, 7, 27, 26, 11, 12, 31],"sdaReg23":[2],"1093953112":[0],"sdaReg22":[2],"sdaReg24":[3]},"colorToColor":{"0":[0, 34, 2, 10, 11, 14, 15, 16, 19, 21, 20, 25, 24, 26, 29, 31, 30],"1":[0, 34, 4, 10, 11, 14, 15, 16, 19, 21, 20, 25, 24, 26, 29, 31, 30],"2":[3],"3":[6, 8],"4":[5],"5":[7, 9],"6":[0, 12, 13, 14, 15, 17, 16, 19, 18, 21, 20, 23, 22, 25, 24, 27, 26, 29, 28, 31, 30, 34, 35, 32, 33],"7":[0, 12, 13, 14, 15, 17, 16, 19, 18, 21, 20, 23, 22, 25, 24, 27, 26, 29, 28, 31, 30, 34, 35, 32, 33],"8":[0, 12, 13, 14, 15, 17, 16, 19, 18, 21, 20, 23, 22, 25, 24, 27, 26, 29, 28, 31, 30, 34, 35, 32, 33],"9":[0, 12, 13, 14, 15, 17, 16, 19, 18, 21, 20, 23, 22, 25, 24, 27, 26, 29, 28, 31, 30, 34, 35, 32, 33],"10":[0, 34, 32, 33, 12, 13, 14, 15, 17, 16, 19, 18, 21, 20, 23, 22, 25, 24, 27, 26, 29, 28, 31, 30],"11":[0, 34, 32, 12, 14, 15, 17, 16, 19, 21, 20, 22, 25, 24, 27, 26, 29, 31, 30],"12":[0, 34, 13, 14, 15, 16, 19, 21, 20, 25, 24, 26, 29, 31, 30],"13":[34, 14, 15, 16, 19, 21, 20, 25, 24, 26, 29, 31, 30],"15":[0, 34, 32, 33, 17, 19, 18, 21, 20, 23, 22, 25, 24, 27, 26, 29, 28, 31, 30],"17":[0, 34, 19, 18, 21, 20, 25, 24, 26, 29, 31, 30],"16":[0, 34, 32, 17, 19, 21, 20, 22, 25, 24, 27, 26, 29, 31, 30],"18":[34, 19, 21, 20, 25, 24, 26, 29, 31, 30],"21":[0, 34, 32, 22, 25, 24, 27, 26, 29, 31, 30],"20":[0, 34, 32, 33, 23, 22, 25, 24, 27, 26, 29, 28, 31, 30],"23":[34, 25, 24, 26, 29, 31, 30],"22":[0, 34, 23, 25, 24, 26, 29, 31, 30],"25":[0, 34, 32, 33, 27, 29, 28, 31, 30],"27":[0, 34, 29, 28, 31, 30],"26":[0, 34, 32, 27, 29, 31, 30],"28":[34, 29, 31, 30],"31":[0, 34, 35, 32],"30":[0, 34, 35, 32, 33],"35":[0],"32":[0, 34, 33],"33":[0, 34]},"colorToLabel":{"0":"this","1":"arg#1","36":"return"}}}

Generated Model
	arg#1->this

