Scanning method <java.util.HashSet: java.util.Iterator iterator()>

All seen event types: SimpleAssignmentRecord, MethodReturnRecord, MethodCallRecord, MethodStartRecord, LoadInstanceRecord, MethodEndRecord, IfRecord, StoreInstanceRecord, NewObjectRecord, 
Ignored event types: IfRecord, 

JSON Encoded Analysis Data (for visualization):{"heapEdges":[{"step":0,"from":"1093882080","to":"1094039048","type":"load","field":"<java.util.HashSet: java.util.HashMap backingMap>"},{"step":1,"from":"1094039048","to":"1093583976","type":"store","field":"<java.util.HashMap$KeySet: java.util.HashMap this$0>"},{"step":2,"from":"1094039048","to":"1093583976","type":"create","field":"<java.util.HashMap: java.util.Set keySet>"},{"step":3,"from":"1094039048","to":"1094203592","type":"store","field":"<java.util.HashMap$KeyIterator: java.util.HashMap this$0>"},{"step":4,"from":"1094039048","to":"1094203592","type":"store","field":"<java.util.HashMap$HashIterator: java.util.HashMap this$0>"},{"step":5,"from":"1094039048","to":"1094039104","type":"load","field":"<java.util.HashMap: java.util.HashMap$HashMapEntry entryForNullKey>"},{"step":6,"from":"1094039104","to":"1094203592","type":"store","field":"<java.util.HashMap$HashIterator: java.util.HashMap$HashMapEntry nextEntry>"},{"step":7,"from":"1094039048","to":"1094039048.<java.util.HashMap: int modCount>","type":"load","field":"<java.util.HashMap: int modCount>"},{"step":8,"from":"1094039048.<java.util.HashMap: int modCount>","to":"1094203592","type":"store","field":"<java.util.HashMap$HashIterator: int expectedModCount>"}],"parameters":[{"id":"1093882080","name":"this","klass":"java.util.HashSet"}],"returns":[{"id":"1094203592","name":"return","klass":"java.util.Iterator"}],"colors":{"heapLocToColor":{"sdaReg13":[1],"sdaReg14":[1],"sdaReg11":[1],"sdaReg12":[1],"1093882080":[0],"sdaReg10":[1],"1094203592":[2],"sdaReg19":[0],"sdaReg17":[0],"1094039048.<java.util.HashMap: int modCount>":[0],"sdaReg18":[2],"sdaReg15":[0],"sdaReg16":[2],"sdaReg8":[1],"sdaReg9":[1],"sdaReg6":[1],"sdaReg7":[1],"sdaReg4":[0],"sdaReg5":[1],"1093583976":[1],"1094039104":[0],"1094039048":[0],"sdaReg27":[2],"sdaReg26":[2],"sdaReg3":[1],"sdaReg2":[0],"sdaReg21":[0],"sdaReg1":[1],"sdaReg0":[0],"sdaReg20":[2],"sdaReg23":[2],"sdaReg22":[2],"sdaReg25":[2],"sdaReg24":[2]},"colorToColor":{"0":[1, 2],"1":[0],"2":[3]},"colorToLabel":{"0":"this","3":"return"}}}

Generated Model
	this->return

