Scanning method <java.nio.CharBuffer: java.nio.CharBuffer get(char[])>

All seen event types: BinaryOperationRecord, MethodReturnRecord, MethodCallRecord, LoadInstanceRecord, MethodStartRecord, ArrayLengthRecord, IfRecord, MethodEndRecord, StoreInstanceRecord, 
Ignored event types: IfRecord, 

JSON Encoded Analysis Data (for visualization):{"heapEdges":[{"step":0,"from":"1093516728","to":"1093516728.<java.nio.Buffer: int limit>","type":"load","field":"<java.nio.Buffer: int limit>"},{"step":1,"from":"1093516728","to":"1093516728.<java.nio.Buffer: int position>","type":"load","field":"<java.nio.Buffer: int position>"},{"step":2,"from":"1093516728","to":"1093516776","type":"load","field":"<java.nio.CharArrayBuffer: char[] backingArray>"},{"step":3,"from":"1093516728","to":"1093516728.<java.nio.CharArrayBuffer: int offset>","type":"load","field":"<java.nio.CharArrayBuffer: int offset>"},{"step":4,"from":"1093516728","to":"1093516728.<java.nio.Buffer: int position>","type":"load","field":"<java.nio.Buffer: int position>"},{"step":5,"from":"1093516776","to":"1093622088","type":"model"},{"step":6,"from":"1093516728","to":"1093516728.<java.nio.Buffer: int position>","type":"load","field":"<java.nio.Buffer: int position>"},{"step":7,"from":"sdaReg7","to":"1093516728","type":"store","field":"<java.nio.Buffer: int position>"}],"parameters":[{"id":"1093516728","name":"this","klass":"java.nio.CharBuffer"},{"id":"1093622088","name":"arg#1","klass":"char[]"}],"returns":[{"id":"1093516728","name":"return","klass":"java.nio.CharBuffer"}],"colors":{"heapLocToColor":{"1093516728.<java.nio.Buffer: int limit>":[0],"sdaReg8":[0],"sdaReg6":[0],"sdaReg7":[0],"sdaReg4":[0],"sdaReg5":[0],"1093516728.<java.nio.Buffer: int position>":[0],"1093516728":[0],"1093622088":[1],"sdaReg2":[1],"1093516728.<java.nio.CharArrayBuffer: int offset>":[0],"sdaReg1":[0],"1093516776":[0]},"colorToColor":{"0":[0, 1, 2]},"colorToLabel":{"0":"this","1":"arg#1","2":"return"}}}

Generated Model
	this->return
	this->arg#1

