Scanning method <java.io.BufferedWriter: void write(java.lang.String,int,int)>

All seen event types: BinaryOperationRecord, SimpleAssignmentRecord, ExitMonitorRecord, MethodReturnRecord, MethodCallRecord, EnterMonitorRecord, ArrayLengthRecord, MethodStartRecord, LoadInstanceRecord, MethodEndRecord, IfRecord, StoreInstanceRecord, 
Ignored event types: ExitMonitorRecord, EnterMonitorRecord, IfRecord, 

JSON Encoded Analysis Data (for visualization):{"heapEdges":[{"step":0,"from":"1093639256","to":"1093631952","type":"load","field":"<java.io.Writer: java.lang.Object lock>"},{"step":1,"from":"1093639256","to":"1093631952","type":"load","field":"<java.io.BufferedWriter: java.io.Writer out>"},{"step":2,"from":"1093639256","to":"1093639256.<java.io.BufferedWriter: int pos>","type":"load","field":"<java.io.BufferedWriter: int pos>"},{"step":3,"from":"1093639256","to":"1093639288","type":"load","field":"<java.io.BufferedWriter: char[] buf>"},{"step":4,"from":"1093639256","to":"1093639288","type":"load","field":"<java.io.BufferedWriter: char[] buf>"},{"step":5,"from":"1093639256","to":"1093639256.<java.io.BufferedWriter: int pos>","type":"load","field":"<java.io.BufferedWriter: int pos>"},{"step":6,"from":"1093639256","to":"1093639288","type":"load","field":"<java.io.BufferedWriter: char[] buf>"},{"step":7,"from":"1093639256","to":"1093639256.<java.io.BufferedWriter: int pos>","type":"load","field":"<java.io.BufferedWriter: int pos>"},{"step":8,"from":"sdaReg0","to":"1093639288","type":"model"},{"step":9,"from":"1093639256","to":"1093639256.<java.io.BufferedWriter: int pos>","type":"load","field":"<java.io.BufferedWriter: int pos>"},{"step":10,"from":"sdaReg13","to":"1093639256","type":"store","field":"<java.io.BufferedWriter: int pos>"},{"step":11,"from":"1093639256","to":"1093639288","type":"load","field":"<java.io.BufferedWriter: char[] buf>"}],"parameters":[{"id":"1093639256","name":"this","klass":"java.io.BufferedWriter"},{"id":"sdaReg0","name":"arg#1","klass":"string"},{"id":"sdaReg1","name":"arg#2","klass":"int"},{"id":"sdaReg2","name":"arg#3","klass":"int"}],"returns":[{"id":null,"name":"return","klass":null}],"colors":{"heapLocToColor":{"1093631952":[0],"sdaReg8":[3, 4],"1093639288":[0, 1],"sdaReg7":[4],"sdaReg4":[0],"sdaReg5":[0],"1093639256.<java.io.BufferedWriter: java.io.Writer out>":[0],"1093639256.<java.io.BufferedWriter: char[] buf>":[0, 1],"1093639256.<java.io.BufferedWriter: int pos>":[0],"sdaReg13":[0, 3],"sdaReg11":[0, 3],"sdaReg12":[0, 2, 3],"1093639256":[0],"sdaReg2":[3],"sdaReg1":[2],"sdaReg0":[1]},"colorToColor":{"0":[0],"3":[0]},"colorToLabel":{"0":"this","1":"arg#1","2":"arg#2","3":"arg#3","5":"return"}}}

Generated Model
	arg#3->this

