Scanning method <java.io.BufferedWriter: void write(java.lang.String,int,int)>

All seen event types: SimpleAssignmentRecord, ExitMonitorRecord, MethodReturnRecord, MethodCallRecord, EnterMonitorRecord, MethodStartRecord, LoadInstanceRecord, MethodEndRecord, IfRecord, 
Ignored event types: ExitMonitorRecord, EnterMonitorRecord, IfRecord, 

JSON Encoded Analysis Data (for visualization):{"heapEdges":[{"step":0,"from":"1093649360","to":"1093604872","type":"load","field":"<java.io.Writer: java.lang.Object lock>"},{"step":1,"from":"1093649360","to":"1093604872","type":"load","field":"<java.io.BufferedWriter: java.io.Writer out>"}],"parameters":[{"id":"1093649360","name":"this","klass":"java.io.BufferedWriter"},{"id":"sdaReg0","name":"arg#1","klass":"string"},{"id":"sdaReg1","name":"arg#2","klass":"int"},{"id":"sdaReg2","name":"arg#3","klass":"int"}],"returns":[{"id":null,"name":"return","klass":null}],"colors":{"heapLocToColor":{"1093649360.<java.io.BufferedWriter: java.io.Writer out>":[0],"sdaReg4":[0],"sdaReg5":[0],"sdaReg2":[3],"1093649360":[0],"1093604872":[0],"sdaReg1":[2],"sdaReg0":[1]},"colorToColor":{},"colorToLabel":{"0":"this","1":"arg#1","2":"arg#2","3":"arg#3","4":"return"}}}

Generated Model

