Scanning method <android.location.Address: java.lang.String getLocality()>

All seen event types: LoadInstanceRecord, 
Ignored event types: 

JSON Encoded Analysis Data (for visualization):{"heapEdges":[{"step":0,"from":"1093463488","to":"1093463488.<android.location.Address: java.lang.String mLocality>","type":"load","field":"<android.location.Address: java.lang.String mLocality>"}],"parameters":[{"id":"1093463488","name":"this","klass":"android.location.Address"}],"returns":[{"id":"1093463488.<android.location.Address: java.lang.String mLocality>","name":"return","klass":"string"}],"colors":{"heapLocToColor":{"1093463488":[0],"1093463488.<android.location.Address: java.lang.String mLocality>":[0]},"colorToColor":{"0":[1]},"colorToLabel":{"0":"this","1":"return"}}}

Generated Model
	this->return

