Scanning method <java.io.ObjectInputStream: void discardData()>

All seen event types: BinaryOperationRecord, MethodReturnRecord, MethodCallRecord, CastRecord, MethodStartRecord, LoadInstanceRecord, LoadArrayRecord, MethodEndRecord, IfRecord, StoreInstanceRecord, 
Ignored event types: IfRecord, 

JSON Encoded Analysis Data (for visualization):{"heapEdges":[{"step":0,"from":"1093240224","to":"1093388792","type":"load","field":"<java.io.ObjectInputStream: java.io.InputStream emptyStream>"},{"step":1,"from":"1093388792","to":"1093240224","type":"store","field":"<java.io.ObjectInputStream: java.io.InputStream primitiveData>"},{"step":2,"from":"1093240224","to":"1093240224.<java.io.ObjectInputStream: boolean mustResolve>","type":"load","field":"<java.io.ObjectInputStream: boolean mustResolve>"},{"step":3,"from":"1093240224","to":"sdaReg0","type":"create","field":"<java.io.ObjectInputStream: boolean mustResolve>"},{"step":4,"from":"1093240224","to":"1093240224.<java.io.ObjectInputStream: boolean hasPushbackTC>","type":"load","field":"<java.io.ObjectInputStream: boolean hasPushbackTC>"},{"step":5,"from":"1093240224","to":"1093292592","type":"load","field":"<java.io.ObjectInputStream: java.io.DataInputStream input>"},{"step":6,"from":"1093292592","to":"1093296112","type":"load","field":"<java.io.FilterInputStream: java.io.InputStream in>"},{"step":7,"from":"1093296112","to":"1093296112.<java.io.ByteArrayInputStream: int pos>","type":"load","field":"<java.io.ByteArrayInputStream: int pos>"},{"step":8,"from":"1093296112","to":"1093296112.<java.io.ByteArrayInputStream: int count>","type":"load","field":"<java.io.ByteArrayInputStream: int count>"},{"step":9,"from":"1093296112","to":"1093281776","type":"load","field":"<java.io.ByteArrayInputStream: byte[] buf>"},{"step":10,"from":"1093296112","to":"1093296112.<java.io.ByteArrayInputStream: int pos>","type":"load","field":"<java.io.ByteArrayInputStream: int pos>"},{"step":11,"from":"sdaReg4","to":"1093296112","type":"store","field":"<java.io.ByteArrayInputStream: int pos>"},{"step":12,"from":"1093281776","to":"1093281776.arrayIdx_int:82","type":"load","field":"arrayIdx_int:82"},{"step":13,"from":"sdaReg6","to":"1093240224","type":"store","field":"<java.io.ObjectInputStream: byte pushbackTC>"},{"step":14,"from":"1093240224.<java.io.ObjectInputStream: boolean mustResolve>","to":"1093240224","type":"store","field":"<java.io.ObjectInputStream: boolean mustResolve>"}],"parameters":[{"id":"1093240224","name":"this","klass":"java.io.ObjectInputStream"}],"returns":[{"id":null,"name":"return","klass":null}],"colors":{"heapLocToColor":{"1093296112":[0],"1093240224":[0],"sdaReg6":[0],"1093240224.<java.io.ObjectInputStream: boolean mustResolve>":[0],"sdaReg4":[0],"sdaReg5":[0],"1093296112.<java.io.ByteArrayInputStream: int count>":[0],"1093296112.<java.io.ByteArrayInputStream: int pos>":[0],"1093240224.<java.io.ObjectInputStream: boolean hasPushbackTC>":[0],"sdaReg3":[0],"sdaReg2":[0],"1093281776.arrayIdx_int:82":[0],"sdaReg1":[0],"1093281776":[0],"1093388792":[0],"1093292592":[0]},"colorToColor":{"0":[0]},"colorToLabel":{"0":"this","1":"return"}}}

Generated Model

