Scanning method <android.text.Html: void withinBlockquote(java.lang.StringBuilder,android.text.Spanned,int,int)>

All seen event types: LoadStaticRecord, BinaryOperationRecord, SimpleAssignmentRecord, MethodReturnRecord, MethodCallRecord, ArrayLengthRecord, CastRecord, LoadInstanceRecord, MethodStartRecord, LoadArrayRecord, MethodEndRecord, IfRecord, 
Ignored event types: IfRecord, 

JSON Encoded Analysis Data (for visualization):{"heapEdges":[{"step":0,"from":"1094086736","to":"1094086736.<android.text.SpannableStringInternal: int mSpanCount>","type":"load","field":"<android.text.SpannableStringInternal: int mSpanCount>"},{"step":1,"from":"1094086736","to":"1094211840","type":"load","field":"<android.text.SpannableStringInternal: java.lang.Object[] mSpans>"},{"step":2,"from":"1094086736","to":"1094211864","type":"load","field":"<android.text.SpannableStringInternal: int[] mSpanData>"},{"step":3,"from":"1094211864","to":"1094211864.arrayIdx_int:0","type":"load","field":"arrayIdx_int:0"},{"step":4,"from":"1094211864","to":"1094211864.arrayIdx_int:1","type":"load","field":"arrayIdx_int:1"},{"step":5,"from":"1094086736","to":"1094086736.<android.text.SpannableStringInternal: int mSpanCount>","type":"load","field":"<android.text.SpannableStringInternal: int mSpanCount>"},{"step":6,"from":"1094086736","to":"1094211840","type":"load","field":"<android.text.SpannableStringInternal: java.lang.Object[] mSpans>"},{"step":7,"from":"1094086736","to":"1094211864","type":"load","field":"<android.text.SpannableStringInternal: int[] mSpanData>"},{"step":8,"from":"1094211840","to":"1093730616","type":"load","field":"arrayIdx_int:0"},{"step":9,"from":"1084661656","to":"sdaReg31","type":"model"},{"step":10,"from":"static.<com.android.internal.util.ArrayUtils: java.lang.Object[] sCache>","to":"1084375760","type":"load","field":"<com.android.internal.util.ArrayUtils: java.lang.Object[] sCache>"},{"step":11,"from":"1084375760","to":"1093765448","type":"load","field":"arrayIdx_int:26"},{"step":12,"from":"1093765448","to":"1085374624","type":"model"},{"step":13,"from":"1085374624","to":"1084661656","type":"model"},{"step":14,"from":"1094086736","to":"1094086736.<android.text.SpannableStringInternal: java.lang.String mText>","type":"load","field":"<android.text.SpannableStringInternal: java.lang.String mText>"},{"step":15,"from":"1094086736.<android.text.SpannableStringInternal: java.lang.String mText>","to":"sdaReg50","type":"model"},{"step":16,"from":"sdaReg50","to":"1093946728","type":"model"},{"step":17,"from":"1094086736","to":"1094086736.<android.text.SpannableStringInternal: java.lang.String mText>","type":"load","field":"<android.text.SpannableStringInternal: java.lang.String mText>"},{"step":18,"from":"1094086736.<android.text.SpannableStringInternal: java.lang.String mText>","to":"sdaReg52","type":"model"},{"step":19,"from":"sdaReg52","to":"1093946728","type":"model"},{"step":20,"from":"1094086736","to":"1094086736.<android.text.SpannableStringInternal: java.lang.String mText>","type":"load","field":"<android.text.SpannableStringInternal: java.lang.String mText>"},{"step":21,"from":"1094086736.<android.text.SpannableStringInternal: java.lang.String mText>","to":"sdaReg54","type":"model"},{"step":22,"from":"sdaReg54","to":"1093946728","type":"model"},{"step":23,"from":"1094086736","to":"1094086736.<android.text.SpannableStringInternal: java.lang.String mText>","type":"load","field":"<android.text.SpannableStringInternal: java.lang.String mText>"},{"step":24,"from":"1094086736.<android.text.SpannableStringInternal: java.lang.String mText>","to":"sdaReg56","type":"model"},{"step":25,"from":"sdaReg56","to":"1093946728","type":"model"},{"step":26,"from":"1094086736","to":"1094086736.<android.text.SpannableStringInternal: java.lang.String mText>","type":"load","field":"<android.text.SpannableStringInternal: java.lang.String mText>"},{"step":27,"from":"1094086736.<android.text.SpannableStringInternal: java.lang.String mText>","to":"sdaReg58","type":"model"},{"step":28,"from":"sdaReg58","to":"1093946728","type":"model"},{"step":29,"from":"sdaReg62","to":"1093946728","type":"model"}],"parameters":[{"id":"1093946728","name":"arg#0","klass":"java.lang.StringBuilder"},{"id":"1094086736","name":"arg#1","klass":"android.text.Spanned"},{"id":"sdaReg0","name":"arg#2","klass":"int"},{"id":"sdaReg1","name":"arg#3","klass":"int"}],"returns":[{"id":null,"name":"return","klass":null}],"colors":{"heapLocToColor":{"1093730616":[1],"1094211864.arrayIdx_int:0":[1],"1094211864.arrayIdx_int:1":[1],"sdaReg14":[1],"sdaReg11":[2, 3, 4],"sdaReg12":[1],"sdaReg10":[1],"sdaReg58":[1, 14],"sdaReg57":[1],"sdaReg56":[1, 13],"sdaReg55":[1],"sdaReg54":[1, 12],"sdaReg53":[1],"1094211840":[1],"sdaReg52":[1, 11],"sdaReg51":[1],"sdaReg50":[1, 10],"1093765448":[7],"1084661656":[7, 8, 9],"sdaReg49":[1],"sdaReg48":[2],"sdaReg47":[1],"sdaReg46":[0],"sdaReg41":[7],"sdaReg40":[7],"sdaReg43":[7],"sdaReg42":[7],"static.<com.android.internal.util.ArrayUtils: java.lang.Object[] sCache>":[7],"1094086736":[1],"1085374624":[7, 8],"sdaReg39":[7],"1084375760":[7],"1094211864":[1],"sdaReg32":[6],"sdaReg31":[6],"1093946728":[0],"sdaReg36":[7, 8, 9],"sdaReg35":[7, 8],"sdaReg34":[6],"sdaReg33":[6],"sdaReg9":[0],"sdaReg6":[3, 4],"sdaReg5":[2],"1094086736.<android.text.SpannableStringInternal: int[] mSpanData>":[1],"sdaReg29":[5],"1094086736.<android.text.SpannableStringInternal: java.lang.Object[] mSpans>":[1],"sdaReg3":[3, 4],"sdaReg2":[2, 3, 4],"1094086736.<android.text.SpannableStringInternal: java.lang.String mText>":[1],"sdaReg21":[1],"sdaReg1":[3],"sdaReg0":[2],"sdaReg23":[1],"1094086736.<android.text.SpannableStringInternal: int mSpanCount>":[1]},"colorToColor":{"1":[0],"10":[0],"11":[0],"12":[0],"13":[0],"14":[0]},"colorToLabel":{"0":"arg#0","1":"arg#1","2":"arg#2","3":"arg#3","7":"<com.android.internal.util.ArrayUtils: java.lang.Object[] sCache>","15":"return"}}}

Generated Model
	arg#1->arg#0

