Scanning method <java.util.ArrayList: java.lang.Object clone()>

All seen event types: MethodReturnRecord, MethodCallRecord, LoadInstanceRecord, CastRecord, StoreInstanceRecord, 
Ignored event types: 

JSON Encoded Analysis Data (for visualization):{"heapEdges":[{"step":0,"from":"1093369392","to":"1093682704","type":"model"},{"step":1,"from":"1093369392","to":"1093622096","type":"load","field":"<java.util.ArrayList: java.lang.Object[] array>"},{"step":2,"from":"1093622096","to":"1093876104","type":"model"},{"step":3,"from":"1093682704","to":"1093876104","type":"create","field":"<java.util.ArrayList: java.lang.Object[] array>"}],"parameters":[{"id":"1093369392","name":"this","klass":"java.util.ArrayList"}],"returns":[{"id":"1093682704","name":"return","klass":"java.lang.Object"}],"colors":{"heapLocToColor":{"1093682704":[0, 1],"1093876104":[0, 2],"sdaReg3":[0, 2],"sdaReg2":[0, 2],"sdaReg1":[0, 1],"sdaReg0":[0, 1],"1093369392":[0],"1093622096":[0]},"colorToColor":{"0":[0, 1, 3],"1":[3],"2":[0, 1]},"colorToLabel":{"0":"this","3":"return"}}}

Generated Model
	this->return

