Scanning method <android.text.Html: void withinStyle(java.lang.StringBuilder,android.text.Spanned,int,int)>

All seen event types: BinaryOperationRecord, SimpleAssignmentRecord, MethodReturnRecord, MethodCallRecord, ArrayLengthRecord, LoadInstanceRecord, MethodStartRecord, LoadArrayRecord, MethodEndRecord, IfRecord, NewObjectRecord, 
Ignored event types: IfRecord, 

JSON Encoded Analysis Data (for visualization):{"heapEdges":[{"step":0,"from":"1093779488","to":"1094557064","type":"load","field":"<android.text.SpannableStringBuilder: char[] mText>"},{"step":1,"from":"1093779488","to":"1093779488.<android.text.SpannableStringBuilder: int mGapLength>","type":"load","field":"<android.text.SpannableStringBuilder: int mGapLength>"},{"step":2,"from":"1093779488","to":"1093779488.<android.text.SpannableStringBuilder: int mGapStart>","type":"load","field":"<android.text.SpannableStringBuilder: int mGapStart>"},{"step":3,"from":"1093779488","to":"1094557064","type":"load","field":"<android.text.SpannableStringBuilder: char[] mText>"},{"step":4,"from":"1094557064","to":"1094557064.arrayIdx_int:0","type":"load","field":"arrayIdx_int:0"},{"step":5,"from":"1094557064.arrayIdx_int:0","to":"1093741096","type":"model"},{"step":6,"from":"1094557064.arrayIdx_int:0","to":"1093741096","type":"model"},{"step":7,"from":"1093741096","to":"sdaReg11","type":"model"},{"step":8,"from":"sdaReg11","to":"1093607824","type":"model"},{"step":9,"from":"1093779488","to":"1094557064","type":"load","field":"<android.text.SpannableStringBuilder: char[] mText>"},{"step":10,"from":"1093779488","to":"1093779488.<android.text.SpannableStringBuilder: int mGapLength>","type":"load","field":"<android.text.SpannableStringBuilder: int mGapLength>"},{"step":11,"from":"1093779488","to":"1093779488.<android.text.SpannableStringBuilder: int mGapStart>","type":"load","field":"<android.text.SpannableStringBuilder: int mGapStart>"},{"step":12,"from":"1093779488","to":"1094557064","type":"load","field":"<android.text.SpannableStringBuilder: char[] mText>"},{"step":13,"from":"1094557064","to":"1094557064.arrayIdx_int:1","type":"load","field":"arrayIdx_int:1"},{"step":14,"from":"1094557064.arrayIdx_int:1","to":"1093607800","type":"model"},{"step":15,"from":"1094557064.arrayIdx_int:1","to":"1093607800","type":"model"},{"step":16,"from":"1093607800","to":"sdaReg20","type":"model"},{"step":17,"from":"sdaReg20","to":"1093607824","type":"model"},{"step":18,"from":"1093779488","to":"1094557064","type":"load","field":"<android.text.SpannableStringBuilder: char[] mText>"},{"step":19,"from":"1093779488","to":"1093779488.<android.text.SpannableStringBuilder: int mGapLength>","type":"load","field":"<android.text.SpannableStringBuilder: int mGapLength>"},{"step":20,"from":"1093779488","to":"1093779488.<android.text.SpannableStringBuilder: int mGapStart>","type":"load","field":"<android.text.SpannableStringBuilder: int mGapStart>"},{"step":21,"from":"1093779488","to":"1094557064","type":"load","field":"<android.text.SpannableStringBuilder: char[] mText>"},{"step":22,"from":"1094557064","to":"1094557064.arrayIdx_int:2","type":"load","field":"arrayIdx_int:2"},{"step":23,"from":"1094557064.arrayIdx_int:2","to":"1093581792","type":"model"},{"step":24,"from":"1094557064.arrayIdx_int:2","to":"1093581792","type":"model"},{"step":25,"from":"1093581792","to":"sdaReg29","type":"model"},{"step":26,"from":"sdaReg29","to":"1093607824","type":"model"},{"step":27,"from":"1093779488","to":"1094557064","type":"load","field":"<android.text.SpannableStringBuilder: char[] mText>"},{"step":28,"from":"1093779488","to":"1093779488.<android.text.SpannableStringBuilder: int mGapLength>","type":"load","field":"<android.text.SpannableStringBuilder: int mGapLength>"},{"step":29,"from":"1093779488","to":"1093779488.<android.text.SpannableStringBuilder: int mGapStart>","type":"load","field":"<android.text.SpannableStringBuilder: int mGapStart>"},{"step":30,"from":"1093779488","to":"1094557064","type":"load","field":"<android.text.SpannableStringBuilder: char[] mText>"},{"step":31,"from":"1094557064","to":"1094557064.arrayIdx_int:3","type":"load","field":"arrayIdx_int:3"},{"step":32,"from":"1094557064.arrayIdx_int:3","to":"1095034816","type":"model"},{"step":33,"from":"1094557064.arrayIdx_int:3","to":"1095034816","type":"model"},{"step":34,"from":"1095034816","to":"sdaReg38","type":"model"},{"step":35,"from":"sdaReg38","to":"1093607824","type":"model"},{"step":36,"from":"1093779488","to":"1094557064","type":"load","field":"<android.text.SpannableStringBuilder: char[] mText>"},{"step":37,"from":"1093779488","to":"1093779488.<android.text.SpannableStringBuilder: int mGapLength>","type":"load","field":"<android.text.SpannableStringBuilder: int mGapLength>"},{"step":38,"from":"1093779488","to":"1093779488.<android.text.SpannableStringBuilder: int mGapStart>","type":"load","field":"<android.text.SpannableStringBuilder: int mGapStart>"},{"step":39,"from":"1093779488","to":"1094557064","type":"load","field":"<android.text.SpannableStringBuilder: char[] mText>"},{"step":40,"from":"1094557064","to":"1094557064.arrayIdx_int:4","type":"load","field":"arrayIdx_int:4"},{"step":41,"from":"1094557064.arrayIdx_int:4","to":"1093607824","type":"model"},{"step":42,"from":"1093779488","to":"1094557064","type":"load","field":"<android.text.SpannableStringBuilder: char[] mText>"},{"step":43,"from":"1093779488","to":"1093779488.<android.text.SpannableStringBuilder: int mGapLength>","type":"load","field":"<android.text.SpannableStringBuilder: int mGapLength>"},{"step":44,"from":"1093779488","to":"1093779488.<android.text.SpannableStringBuilder: int mGapStart>","type":"load","field":"<android.text.SpannableStringBuilder: int mGapStart>"},{"step":45,"from":"1093779488","to":"1094557064","type":"load","field":"<android.text.SpannableStringBuilder: char[] mText>"},{"step":46,"from":"1094557064","to":"1094557064.arrayIdx_int:5","type":"load","field":"arrayIdx_int:5"},{"step":47,"from":"1094557064.arrayIdx_int:5","to":"1093607824","type":"model"},{"step":48,"from":"1093779488","to":"1094557064","type":"load","field":"<android.text.SpannableStringBuilder: char[] mText>"},{"step":49,"from":"1093779488","to":"1093779488.<android.text.SpannableStringBuilder: int mGapLength>","type":"load","field":"<android.text.SpannableStringBuilder: int mGapLength>"},{"step":50,"from":"1093779488","to":"1093779488.<android.text.SpannableStringBuilder: int mGapStart>","type":"load","field":"<android.text.SpannableStringBuilder: int mGapStart>"},{"step":51,"from":"1093779488","to":"1094557064","type":"load","field":"<android.text.SpannableStringBuilder: char[] mText>"},{"step":52,"from":"1094557064","to":"1094557064.arrayIdx_int:6","type":"load","field":"arrayIdx_int:6"},{"step":53,"from":"1093779488","to":"1094557064","type":"load","field":"<android.text.SpannableStringBuilder: char[] mText>"},{"step":54,"from":"1093779488","to":"1093779488.<android.text.SpannableStringBuilder: int mGapLength>","type":"load","field":"<android.text.SpannableStringBuilder: int mGapLength>"},{"step":55,"from":"1093779488","to":"1093779488.<android.text.SpannableStringBuilder: int mGapStart>","type":"load","field":"<android.text.SpannableStringBuilder: int mGapStart>"},{"step":56,"from":"1093779488","to":"1094557064","type":"load","field":"<android.text.SpannableStringBuilder: char[] mText>"},{"step":57,"from":"1094557064","to":"1094557064.arrayIdx_int:7","type":"load","field":"arrayIdx_int:7"},{"step":58,"from":"1093779488","to":"1094557064","type":"load","field":"<android.text.SpannableStringBuilder: char[] mText>"},{"step":59,"from":"1093779488","to":"1093779488.<android.text.SpannableStringBuilder: int mGapLength>","type":"load","field":"<android.text.SpannableStringBuilder: int mGapLength>"},{"step":60,"from":"1093779488","to":"1093779488.<android.text.SpannableStringBuilder: int mGapStart>","type":"load","field":"<android.text.SpannableStringBuilder: int mGapStart>"},{"step":61,"from":"1093779488","to":"1094557064","type":"load","field":"<android.text.SpannableStringBuilder: char[] mText>"},{"step":62,"from":"1094557064","to":"1094557064.arrayIdx_int:7","type":"load","field":"arrayIdx_int:7"},{"step":63,"from":"1094557064.arrayIdx_int:7","to":"1093607824","type":"model"},{"step":64,"from":"1093779488","to":"1094557064","type":"load","field":"<android.text.SpannableStringBuilder: char[] mText>"},{"step":65,"from":"1093779488","to":"1093779488.<android.text.SpannableStringBuilder: int mGapLength>","type":"load","field":"<android.text.SpannableStringBuilder: int mGapLength>"},{"step":66,"from":"1093779488","to":"1093779488.<android.text.SpannableStringBuilder: int mGapStart>","type":"load","field":"<android.text.SpannableStringBuilder: int mGapStart>"},{"step":67,"from":"1093779488","to":"1094557064","type":"load","field":"<android.text.SpannableStringBuilder: char[] mText>"},{"step":68,"from":"1094557064","to":"1094557064.arrayIdx_int:8","type":"load","field":"arrayIdx_int:8"},{"step":69,"from":"1094557064.arrayIdx_int:8","to":"1093607824","type":"model"},{"step":70,"from":"1093779488","to":"1094557064","type":"load","field":"<android.text.SpannableStringBuilder: char[] mText>"},{"step":71,"from":"1093779488","to":"1093779488.<android.text.SpannableStringBuilder: int mGapLength>","type":"load","field":"<android.text.SpannableStringBuilder: int mGapLength>"},{"step":72,"from":"1093779488","to":"1093779488.<android.text.SpannableStringBuilder: int mGapStart>","type":"load","field":"<android.text.SpannableStringBuilder: int mGapStart>"},{"step":73,"from":"1093779488","to":"1094557064","type":"load","field":"<android.text.SpannableStringBuilder: char[] mText>"},{"step":74,"from":"1094557064","to":"1094557064.arrayIdx_int:9","type":"load","field":"arrayIdx_int:9"},{"step":75,"from":"1094557064.arrayIdx_int:9","to":"1093607824","type":"model"},{"step":76,"from":"1093779488","to":"1094557064","type":"load","field":"<android.text.SpannableStringBuilder: char[] mText>"},{"step":77,"from":"1093779488","to":"1093779488.<android.text.SpannableStringBuilder: int mGapLength>","type":"load","field":"<android.text.SpannableStringBuilder: int mGapLength>"},{"step":78,"from":"1093779488","to":"1093779488.<android.text.SpannableStringBuilder: int mGapStart>","type":"load","field":"<android.text.SpannableStringBuilder: int mGapStart>"},{"step":79,"from":"1093779488","to":"1094557064","type":"load","field":"<android.text.SpannableStringBuilder: char[] mText>"},{"step":80,"from":"1094557064","to":"1094557064.arrayIdx_int:10","type":"load","field":"arrayIdx_int:10"},{"step":81,"from":"1094557064.arrayIdx_int:10","to":"1093607824","type":"model"},{"step":82,"from":"1093779488","to":"1094557064","type":"load","field":"<android.text.SpannableStringBuilder: char[] mText>"},{"step":83,"from":"1093779488","to":"1093779488.<android.text.SpannableStringBuilder: int mGapLength>","type":"load","field":"<android.text.SpannableStringBuilder: int mGapLength>"},{"step":84,"from":"1093779488","to":"1093779488.<android.text.SpannableStringBuilder: int mGapStart>","type":"load","field":"<android.text.SpannableStringBuilder: int mGapStart>"},{"step":85,"from":"1093779488","to":"1094557064","type":"load","field":"<android.text.SpannableStringBuilder: char[] mText>"},{"step":86,"from":"1094557064","to":"1094557064.arrayIdx_int:11","type":"load","field":"arrayIdx_int:11"},{"step":87,"from":"1094557064.arrayIdx_int:11","to":"1093607824","type":"model"},{"step":88,"from":"1093779488","to":"1094557064","type":"load","field":"<android.text.SpannableStringBuilder: char[] mText>"},{"step":89,"from":"1093779488","to":"1093779488.<android.text.SpannableStringBuilder: int mGapLength>","type":"load","field":"<android.text.SpannableStringBuilder: int mGapLength>"},{"step":90,"from":"1093779488","to":"1093779488.<android.text.SpannableStringBuilder: int mGapStart>","type":"load","field":"<android.text.SpannableStringBuilder: int mGapStart>"},{"step":91,"from":"1093779488","to":"1094557064","type":"load","field":"<android.text.SpannableStringBuilder: char[] mText>"},{"step":92,"from":"1094557064","to":"1094557064.arrayIdx_int:12","type":"load","field":"arrayIdx_int:12"},{"step":93,"from":"1094557064.arrayIdx_int:12","to":"1093607824","type":"model"}],"parameters":[{"id":"1093607824","name":"arg#0","klass":"java.lang.StringBuilder"},{"id":"1093779488","name":"arg#1","klass":"android.text.Spanned"},{"id":"sdaReg0","name":"arg#2","klass":"int"},{"id":"sdaReg1","name":"arg#3","klass":"int"}],"returns":[{"id":null,"name":"return","klass":null}],"colors":{"heapLocToColor":{"sdaReg60":[1],"sdaReg61":[1],"1094557064":[1],"1093779488.<android.text.SpannableStringBuilder: int mGapStart>":[1],"1095034816":[10],"sdaReg68":[1],"sdaReg69":[1],"sdaReg66":[1],"sdaReg64":[1],"1093581792":[8],"sdaReg65":[1],"sdaReg62":[1],"sdaReg72":[1],"sdaReg13":[1],"sdaReg70":[1],"sdaReg11":[4, 5],"sdaReg12":[1],"sdaReg10":[4],"sdaReg58":[1],"sdaReg57":[1],"sdaReg56":[1],"sdaReg19":[6],"sdaReg54":[1],"sdaReg17":[6],"sdaReg53":[1],"1093741096":[4],"sdaReg18":[6],"sdaReg52":[2],"sdaReg15":[1],"sdaReg51":[2],"sdaReg16":[6],"1093779488.<android.text.SpannableStringBuilder: int mGapLength>":[1],"sdaReg50":[1],"sdaReg77":[1],"sdaReg78":[1],"sdaReg73":[1],"sdaReg74":[1],"sdaReg76":[1],"sdaReg80":[1],"1093779488":[1],"sdaReg48":[1],"sdaReg44":[1],"sdaReg47":[1],"sdaReg46":[1],"1093607824":[0],"sdaReg40":[1],"sdaReg43":[1],"sdaReg42":[1],"1093779488.<android.text.SpannableStringBuilder: char[] mText>":[1],"sdaReg39":[1],"sdaReg38":[10, 11],"sdaReg37":[10],"sdaReg31":[1],"sdaReg30":[1],"sdaReg36":[10],"1094557064.arrayIdx_int:12":[1],"sdaReg35":[10],"1094557064.arrayIdx_int:11":[1],"sdaReg34":[10],"1094557064.arrayIdx_int:10":[1],"sdaReg33":[1],"1094557064.arrayIdx_int:5":[1],"1094557064.arrayIdx_int:6":[1],"1094557064.arrayIdx_int:7":[1],"sdaReg8":[4],"1094557064.arrayIdx_int:8":[1],"sdaReg9":[4],"1094557064.arrayIdx_int:1":[1],"sdaReg6":[1],"sdaReg7":[4],"1094557064.arrayIdx_int:2":[1],"sdaReg4":[1],"1094557064.arrayIdx_int:3":[1],"1094557064.arrayIdx_int:4":[1],"1094557064.arrayIdx_int:0":[1],"sdaReg27":[8],"sdaReg26":[8],"sdaReg29":[8, 9],"sdaReg28":[8],"sdaReg3":[1],"sdaReg2":[2],"1093607800":[6],"sdaReg1":[3],"sdaReg21":[1],"sdaReg0":[2],"sdaReg20":[6, 7],"1094557064.arrayIdx_int:9":[1],"sdaReg22":[1],"sdaReg25":[8],"sdaReg24":[1]},"colorToColor":{"1":[0, 4, 6, 8, 10],"4":[0],"5":[0],"6":[0],"7":[0],"8":[0],"9":[0],"10":[0],"11":[0]},"colorToLabel":{"0":"arg#0","1":"arg#1","2":"arg#2","3":"arg#3","12":"return"}}}

Generated Model
	arg#1->arg#0

