Scanning method <java.io.ObjectInputStream: void readObjectForClass(java.lang.Object,java.io.ObjectStreamClass)>

All seen event types: BinaryOperationRecord, SimpleAssignmentRecord, MethodReturnRecord, MethodCallRecord, ArrayLengthRecord, MethodStartRecord, LoadInstanceRecord, MethodEndRecord, IfRecord, StoreInstanceRecord, 
Ignored event types: IfRecord, 

JSON Encoded Analysis Data (for visualization):{"heapEdges":[{"step":0,"from":"1093377416","to":"1093381560","type":"store","field":"<java.io.ObjectInputStream: java.lang.Object currentObject>"},{"step":1,"from":"1093823240","to":"1093381560","type":"store","field":"<java.io.ObjectInputStream: java.io.ObjectStreamClass currentClass>"},{"step":2,"from":"1093823240","to":"sdaReg0","type":"model"},{"step":3,"from":"1093823240","to":"1093458440","type":"model"},{"step":4,"from":"1093381560","to":"1093381560.<java.io.ObjectInputStream: boolean mustResolve>","type":"load","field":"<java.io.ObjectInputStream: boolean mustResolve>"},{"step":5,"from":"1093823240","to":"0","type":"model"},{"step":6,"from":"1093823240","to":"1093346744","type":"model"},{"step":7,"from":"1093823240","to":"1093458440","type":"model"},{"step":8,"from":"1093381560","to":"sdaReg17","type":"create","field":"<java.io.ObjectInputStream: java.lang.Object currentObject>"},{"step":9,"from":"1093381560","to":"sdaReg18","type":"create","field":"<java.io.ObjectInputStream: java.io.ObjectStreamClass currentClass>"}],"parameters":[{"id":"1093381560","name":"this","klass":"java.io.ObjectInputStream"},{"id":"1093377416","name":"arg#1","klass":"java.lang.Object"},{"id":"1093823240","name":"arg#2","klass":"java.io.ObjectStreamClass"}],"returns":[{"id":null,"name":"return","klass":null}],"colors":{"heapLocToColor":{"1093381560.<java.io.ObjectInputStream: boolean mustResolve>":[0],"sdaReg8":[1],"sdaReg9":[2],"sdaReg6":[0],"1093823240":[2],"sdaReg7":[0],"1093458440":[2, 4],"sdaReg4":[2, 4],"sdaReg5":[2, 5],"sdaReg13":[2, 4],"sdaReg14":[2, 6],"sdaReg11":[2, 6],"sdaReg12":[2, 6],"0":[2, 5],"sdaReg10":[2, 6],"1093381560":[0],"1093346744":[2, 6],"sdaReg1":[2, 3],"sdaReg0":[2, 3],"1093377416":[1]},"colorToColor":{"1":[0],"2":[0]},"colorToLabel":{"0":"this","1":"arg#1","2":"arg#2","7":"return"}}}

Generated Model
	arg#2->this
	arg#1->this

