Scanning method <java.io.ObjectInputStream: void readObjectForClass(java.lang.Object,java.io.ObjectStreamClass)>

All seen event types: SimpleAssignmentRecord, LoadInstanceRecord, MethodStartRecord, IfRecord, StoreInstanceRecord, InstanceOfRecord, LoadStaticRecord, BinaryOperationRecord, MethodCallRecord, MethodReturnRecord, ArrayLengthRecord, CastRecord, LoadArrayRecord, MethodEndRecord, 
Ignored event types: IfRecord, 

JSON Encoded Analysis Data (for visualization):{"heapEdges":[{"step":0,"from":"1093281456","to":"1093293768","type":"store","field":"<java.io.ObjectInputStream: java.lang.Object currentObject>"},{"step":1,"from":"1093497664","to":"1093293768","type":"store","field":"<java.io.ObjectInputStream: java.io.ObjectStreamClass currentClass>"},{"step":2,"from":"1093497664","to":"sdaReg0","type":"model"},{"step":3,"from":"1093497664","to":"1083934568","type":"model"},{"step":4,"from":"1093293768","to":"1093293768.<java.io.ObjectInputStream: boolean mustResolve>","type":"load","field":"<java.io.ObjectInputStream: boolean mustResolve>"},{"step":5,"from":"1093497664","to":"0","type":"model"},{"step":6,"from":"1093497664","to":"1093702528","type":"model"},{"step":7,"from":"1093497664","to":"1083934568","type":"model"},{"step":8,"from":"1093702528","to":"1093280088","type":"load","field":"arrayIdx_int:0"},{"step":9,"from":"1093497664","to":"1093280088","type":"model"},{"step":10,"from":"1093497664","to":"1093388936","type":"model"},{"step":11,"from":"1093280088","to":"1093497664","type":"model"},{"step":12,"from":"1093280088","to":"1093388936","type":"model"},{"step":13,"from":"1093280088","to":"1083909616","type":"load","field":"<java.io.ObjectStreamField: java.lang.Object type>"},{"step":14,"from":"1093280088","to":"1083909616","type":"load","field":"<java.io.ObjectStreamField: java.lang.Object type>"},{"step":15,"from":"static.<java.lang.Byte: java.lang.Class TYPE>","to":"1083909112","type":"load","field":"<java.lang.Byte: java.lang.Class TYPE>"},{"step":16,"from":"static.<java.lang.Character: java.lang.Class TYPE>","to":"1083909448","type":"load","field":"<java.lang.Character: java.lang.Class TYPE>"},{"step":17,"from":"static.<java.lang.Double: java.lang.Class TYPE>","to":"1083910120","type":"load","field":"<java.lang.Double: java.lang.Class TYPE>"},{"step":18,"from":"static.<java.lang.Float: java.lang.Class TYPE>","to":"1083909952","type":"load","field":"<java.lang.Float: java.lang.Class TYPE>"},{"step":19,"from":"static.<java.lang.Integer: java.lang.Class TYPE>","to":"1083909616","type":"load","field":"<java.lang.Integer: java.lang.Class TYPE>"},{"step":20,"from":"1093293768","to":"1093386376","type":"load","field":"<java.io.ObjectInputStream: java.io.DataInputStream input>"},{"step":21,"from":"1093386376","to":"1093544616","type":"load","field":"<java.io.FilterInputStream: java.io.InputStream in>"},{"step":22,"from":"1093386376","to":"1093388312","type":"load","field":"<java.io.DataInputStream: byte[] scratch>"},{"step":23,"from":"1093544616","to":"1093388312","type":"model"},{"step":24,"from":"1093386376","to":"1093388312","type":"load","field":"<java.io.DataInputStream: byte[] scratch>"},{"step":25,"from":"static.<java.nio.ByteOrder: java.nio.ByteOrder BIG_ENDIAN>","to":"1084339448","type":"load","field":"<java.nio.ByteOrder: java.nio.ByteOrder BIG_ENDIAN>"},{"step":26,"from":"1093388312","to":"sdaReg23","type":"model"},{"step":27,"from":"1093388936","to":"1093281456","type":"model"},{"step":28,"from":"1093388936","to":"sdaReg23","type":"model"},{"step":29,"from":"1093281456","to":"1093388936","type":"model"},{"step":30,"from":"1093281456","to":"sdaReg23","type":"model"},{"step":31,"from":"sdaReg23","to":"1093388936","type":"model"},{"step":32,"from":"sdaReg23","to":"1093281456","type":"model"},{"step":33,"from":"1093293768","to":"sdaReg24","type":"create","field":"<java.io.ObjectInputStream: java.lang.Object currentObject>"},{"step":34,"from":"1093293768","to":"sdaReg25","type":"create","field":"<java.io.ObjectInputStream: java.io.ObjectStreamClass currentClass>"}],"parameters":[{"id":"1093293768","name":"this","klass":"java.io.ObjectInputStream"},{"id":"1093281456","name":"arg#1","klass":"java.lang.Object"},{"id":"1093497664","name":"arg#2","klass":"java.io.ObjectStreamClass"}],"returns":[{"id":null,"name":"return","klass":null}],"colors":{"heapLocToColor":{"static.<java.lang.Character: java.lang.Class TYPE>":[9],"1083934568":[2, 4],"static.<java.lang.Float: java.lang.Class TYPE>":[11],"1093281456":[1, 2, 7],"1093280088.<java.io.ObjectStreamField: java.lang.Object type>":[2, 6],"static.<java.lang.Byte: java.lang.Class TYPE>":[8],"sdaReg13":[2, 4],"1083909112":[8],"sdaReg14":[2, 6],"sdaReg11":[2, 6],"1083909952":[11],"sdaReg12":[2, 6],"1083909616":[2, 6, 12],"sdaReg10":[2, 6],"1093388312":[0],"1093293768.<java.io.ObjectInputStream: boolean mustResolve>":[0],"1093497664":[2],"1093293768":[0],"static.<java.nio.ByteOrder: java.nio.ByteOrder BIG_ENDIAN>":[13],"sdaReg17":[2, 7],"sdaReg18":[2, 6],"static.<java.lang.Double: java.lang.Class TYPE>":[10],"1093702528":[2, 6],"sdaReg8":[1],"sdaReg9":[2],"sdaReg6":[0],"sdaReg7":[0],"sdaReg4":[2, 4],"sdaReg5":[2, 5],"1093386376.<java.io.DataInputStream: byte[] scratch>":[0],"1093388936":[2, 7],"0":[2, 5],"1084339448":[13],"1093386376":[0],"static.<java.lang.Integer: java.lang.Class TYPE>":[2, 6, 12],"1093280088":[2, 6],"1083910120":[10],"sdaReg21":[2, 6],"sdaReg1":[2, 3],"sdaReg20":[2, 6],"sdaReg0":[2, 3],"sdaReg23":[2, 7, 14],"1093544616":[0],"sdaReg22":[0],"1083909448":[9]},"colorToColor":{"0":[0, 14],"1":[0, 2, 7, 14],"2":[0, 1, 2, 7, 14],"6":[2, 7],"7":[1, 2, 7, 14],"14":[1, 2, 7]},"colorToLabel":{"0":"this","1":"arg#1","2":"arg#2","8":"<java.lang.Byte: java.lang.Class TYPE>","9":"<java.lang.Character: java.lang.Class TYPE>","10":"<java.lang.Double: java.lang.Class TYPE>","11":"<java.lang.Float: java.lang.Class TYPE>","12":"<java.lang.Integer: java.lang.Class TYPE>","13":"<java.nio.ByteOrder: java.nio.ByteOrder BIG_ENDIAN>","15":"return"}}}

Generated Model
	this->arg#2
	this->arg#1
	arg#2->this
	arg#2->arg#1
	arg#1->this
	arg#1->arg#2

