Scanning method <android.os.Bundle: int getInt(java.lang.String)>

All seen event types: BinaryOperationRecord, MethodReturnRecord, MethodCallRecord, CastRecord, ArrayLengthRecord, LoadInstanceRecord, MethodStartRecord, LoadArrayRecord, MethodEndRecord, IfRecord, 
Ignored event types: IfRecord, 

JSON Encoded Analysis Data (for visualization):{"heapEdges":[{"step":0,"from":"1093496928","to":"1093863352","type":"load","field":"<android.os.Bundle: java.util.Map mMap>"},{"step":1,"from":"1093863352","to":"1094073800","type":"load","field":"<java.util.HashMap: java.util.HashMap$HashMapEntry[] table>"},{"step":2,"from":"1094073800","to":"1094073840","type":"load","field":"arrayIdx_int:2"},{"step":3,"from":"1094073840","to":"1093522432","type":"load","field":"<java.util.HashMap$HashMapEntry: java.lang.Object key>"},{"step":4,"from":"1094073840","to":"1093463864","type":"load","field":"<java.util.HashMap$HashMapEntry: java.lang.Object value>"},{"step":5,"from":"1093463864","to":"sdaReg20","type":"model"}],"parameters":[{"id":"1093496928","name":"this","klass":"android.os.Bundle"},{"id":"sdaReg0","name":"arg#1","klass":"string"}],"returns":[{"id":"sdaReg20","name":"return","klass":"int"}],"colors":{"heapLocToColor":{"sdaReg8":[2],"sdaReg9":[2],"sdaReg6":[2],"sdaReg7":[2],"sdaReg4":[0],"sdaReg5":[0],"1093496928":[0],"1093863352":[0],"1094073840":[0],"1094073800":[0],"1093463864":[0],"sdaReg13":[2],"sdaReg14":[2],"sdaReg11":[2],"sdaReg12":[2],"sdaReg10":[2],"1093522432":[0],"sdaReg2":[0],"sdaReg19":[0],"sdaReg1":[0],"sdaReg20":[0, 3],"sdaReg0":[1],"sdaReg17":[2],"sdaReg18":[0]},"colorToColor":{"0":[4],"3":[4]},"colorToLabel":{"0":"this","1":"arg#1","4":"return"}}}

Generated Model
	this->return

