Scanning method <android.os.Bundle: int getInt(java.lang.String)>

All seen event types: StoreArrayRecord, SimpleAssignmentRecord, ExitMonitorRecord, MethodStartRecord, LoadInstanceRecord, IfRecord, NewObjectRecord, StoreInstanceRecord, NewArrayRecord, LoadStaticRecord, BinaryOperationRecord, MethodCallRecord, MethodReturnRecord, SwitchRecord, EnterMonitorRecord, CastRecord, ArrayLengthRecord, LoadArrayRecord, MethodEndRecord, 
Ignored event types: ExitMonitorRecord, SwitchRecord, EnterMonitorRecord, IfRecord, 

JSON Encoded Analysis Data (for visualization):{"heapEdges":[{"step":0,"from":"1093893208","to":"1093459240","type":"load","field":"<android.os.Bundle: android.os.Parcel mParcelledData>"},{"step":1,"from":"1093893208","to":"1093459240","type":"load","field":"<android.os.Bundle: android.os.Parcel mParcelledData>"},{"step":2,"from":"1093459240","to":"sdaReg2","type":"model"},{"step":3,"from":"static.<java.util.HashMap: java.util.Map$Entry[] EMPTY_TABLE>","to":"1083997920","type":"load","field":"<java.util.HashMap: java.util.Map$Entry[] EMPTY_TABLE>"},{"step":4,"from":"1083997920","to":"1093872192","type":"store","field":"<java.util.HashMap: java.util.HashMap$HashMapEntry[] table>"},{"step":5,"from":"1093872192","to":"sdaReg9","type":"create","field":"<java.util.HashMap: int threshold>"},{"step":6,"from":"1093893208","to":"1093872192","type":"create","field":"<android.os.Bundle: java.util.Map mMap>"},{"step":7,"from":"1093893208","to":"1093459240","type":"load","field":"<android.os.Bundle: android.os.Parcel mParcelledData>"},{"step":8,"from":"1093459240","to":"sdaReg16","type":"model"},{"step":9,"from":"1093459240","to":"sdaReg17","type":"model"},{"step":10,"from":"1093459240","to":"sdaReg21","type":"model"},{"step":11,"from":"1093459240","to":"sdaReg22","type":"model"},{"step":12,"from":"sdaReg22","to":"1093530456","type":"model"},{"step":13,"from":"1093872192","to":"1093872192.<java.util.HashMap: int modCount>","type":"load","field":"<java.util.HashMap: int modCount>"},{"step":14,"from":"sdaReg40","to":"1093872192","type":"store","field":"<java.util.HashMap: int modCount>"},{"step":15,"from":"1093872192","to":"1093872192.<java.util.HashMap: int size>","type":"load","field":"<java.util.HashMap: int size>"},{"step":16,"from":"sdaReg41","to":"1093872192","type":"store","field":"<java.util.HashMap: int size>"},{"step":17,"from":"1093872192","to":"1093596856","type":"create","field":"<java.util.HashMap: java.util.HashMap$HashMapEntry[] table>"},{"step":18,"from":"sdaReg49","to":"1093872192","type":"store","field":"<java.util.HashMap: int threshold>"},{"step":19,"from":"1093568672","to":"1093596896","type":"store","field":"<java.util.HashMap$HashMapEntry: java.lang.Object key>"},{"step":20,"from":"1093596896","to":"1093530456","type":"create","field":"<java.util.HashMap$HashMapEntry: java.lang.Object value>"},{"step":21,"from":"sdaReg36","to":"1093596896","type":"store","field":"<java.util.HashMap$HashMapEntry: int hash>"},{"step":22,"from":"1093596856","to":"1093596896","type":"create","field":"arrayIdx_int:2"},{"step":23,"from":"1093893208","to":"1093459240","type":"load","field":"<android.os.Bundle: android.os.Parcel mParcelledData>"},{"step":24,"from":"1093459240","to":"1093459240.<android.os.Parcel: int mOwnObject>","type":"load","field":"<android.os.Parcel: int mOwnObject>"},{"step":25,"from":"static.<android.os.Parcel: android.os.Parcel[] sOwnedPool>","to":"1084044960","type":"load","field":"<android.os.Parcel: android.os.Parcel[] sOwnedPool>"},{"step":26,"from":"1093459240","to":"1084044960","type":"store","field":"arrayIdx_int:0"},{"step":27,"from":"1093893208","to":"sdaReg68","type":"create","field":"<android.os.Bundle: android.os.Parcel mParcelledData>"},{"step":28,"from":"1093530456","to":"sdaReg88","type":"model"}],"parameters":[{"id":"1093893208","name":"this","klass":"android.os.Bundle"},{"id":"sdaReg0","name":"arg#1","klass":"string"}],"returns":[{"id":"sdaReg88","name":"return","klass":"int"}],"colors":{"heapLocToColor":{"sdaReg60":[9],"1084044960":[13],"sdaReg69":[0],"sdaReg66":[13],"1093596896":[12],"1093893208.<android.os.Bundle: android.os.Parcel mParcelledData>":[0],"sdaReg64":[0],"sdaReg65":[13],"sdaReg62":[12],"sdaReg63":[12],"sdaReg72":[3],"sdaReg71":[0],"sdaReg14":[0],"sdaReg11":[0],"sdaReg12":[3],"sdaReg10":[3],"sdaReg58":[12],"sdaReg57":[9],"sdaReg19":[0],"1083997920":[4],"sdaReg55":[3],"sdaReg17":[0, 6],"sdaReg52":[11],"sdaReg16":[0, 5],"sdaReg50":[11],"sdaReg77":[14],"sdaReg78":[14],"sdaReg79":[14],"1093872192.<java.util.HashMap: int modCount>":[3],"sdaReg73":[14],"sdaReg74":[14],"sdaReg75":[14],"sdaReg76":[14],"sdaReg81":[14],"sdaReg80":[14],"sdaReg45":[3],"sdaReg41":[3],"sdaReg40":[3],"sdaReg42":[3],"static.<android.os.Parcel: android.os.Parcel[] sOwnedPool>":[13],"1093459240":[0],"sdaReg86":[9],"1093459240.<android.os.Parcel: int mOwnObject>":[0],"sdaReg87":[9],"sdaReg84":[14],"sdaReg85":[15],"sdaReg88":[16, 9],"1093893208":[0],"sdaReg39":[10],"sdaReg32":[10],"sdaReg31":[10],"static.<java.util.HashMap: java.util.Map$Entry[] EMPTY_TABLE>":[4],"sdaReg30":[10],"sdaReg36":[10],"sdaReg35":[10],"1093872192":[3],"sdaReg34":[10],"sdaReg33":[10],"sdaReg8":[4],"sdaReg6":[3],"1093530456":[9],"sdaReg7":[4],"sdaReg4":[3],"sdaReg5":[3],"1093872192.<java.util.HashMap: int size>":[3],"sdaReg27":[9],"sdaReg29":[10],"sdaReg28":[10],"sdaReg3":[3],"1093596856":[11],"sdaReg2":[0, 2],"sdaReg21":[0, 7],"sdaReg1":[0],"sdaReg0":[1],"sdaReg23":[9],"sdaReg22":[0, 8],"sdaReg25":[3],"sdaReg24":[9]},"colorToColor":{"0":[9, 13],"16":[17],"3":[0, 3],"4":[3],"8":[9],"9":[17, 12],"10":[12],"11":[3],"12":[11]},"colorToLabel":{"0":"this","1":"arg#1","4":"<java.util.HashMap: java.util.Map$Entry[] EMPTY_TABLE>","13":"<android.os.Parcel: android.os.Parcel[] sOwnedPool>","17":"return"}}}

Generated Model
	this->return
	this-><android.os.Parcel: android.os.Parcel[] sOwnedPool>

