Scanning method <java.util.Vector: java.lang.Object lastElement()>

All seen event types: BinaryOperationRecord, LoadInstanceRecord, LoadArrayRecord, 
Ignored event types: 

JSON Encoded Analysis Data (for visualization):{"heapEdges":[{"step":0,"from":"1093628144","to":"1093670688","type":"load","field":"<java.util.Vector: java.lang.Object[] elementData>"},{"step":1,"from":"1093628144","to":"1093628144.<java.util.Vector: int elementCount>","type":"load","field":"<java.util.Vector: int elementCount>"},{"step":2,"from":"1093670688","to":"1093591640","type":"load","field":"arrayIdx_int:99"}],"parameters":[{"id":"1093628144","name":"this","klass":"java.util.Vector"}],"returns":[{"id":"1093591640","name":"return","klass":"java.lang.Object"}],"colors":{"heapLocToColor":{"1093670688":[0],"1093628144.<java.util.Vector: int elementCount>":[0],"sdaReg0":[0],"1093591640":[0],"1093628144":[0]},"colorToColor":{"0":[1]},"colorToLabel":{"0":"this","1":"return"}}}

Generated Model
	this->return

