Scanning method <android.text.SpannableStringBuilder: void getChars(int,int,char[],int)>

All seen event types: BinaryOperationRecord, MethodReturnRecord, MethodCallRecord, ArrayLengthRecord, LoadInstanceRecord, MethodStartRecord, MethodEndRecord, IfRecord, 
Ignored event types: IfRecord, 

JSON Encoded Analysis Data (for visualization):{"heapEdges":[{"step":0,"from":"1093717408","to":"1093998208","type":"load","field":"<android.text.SpannableStringBuilder: char[] mText>"},{"step":1,"from":"1093717408","to":"1093717408.<android.text.SpannableStringBuilder: int mGapLength>","type":"load","field":"<android.text.SpannableStringBuilder: int mGapLength>"},{"step":2,"from":"1093717408","to":"1093717408.<android.text.SpannableStringBuilder: int mGapStart>","type":"load","field":"<android.text.SpannableStringBuilder: int mGapStart>"},{"step":3,"from":"1093717408","to":"1093998208","type":"load","field":"<android.text.SpannableStringBuilder: char[] mText>"},{"step":4,"from":"1093998208","to":"1094071136","type":"model"}],"parameters":[{"id":"1093717408","name":"this","klass":"android.text.SpannableStringBuilder"},{"id":"sdaReg0","name":"arg#1","klass":"int"},{"id":"sdaReg1","name":"arg#2","klass":"int"},{"id":"1094071136","name":"arg#3","klass":"char[]"},{"id":"sdaReg2","name":"arg#4","klass":"int"}],"returns":[{"id":null,"name":"return","klass":null}],"colors":{"heapLocToColor":{"sdaReg8":[1, 2],"1093998208":[0],"sdaReg7":[0],"sdaReg5":[0],"1093717408.<android.text.SpannableStringBuilder: char[] mText>":[0],"1094071136":[3],"1093717408.<android.text.SpannableStringBuilder: int mGapLength>":[0],"sdaReg3":[0],"sdaReg2":[4],"sdaReg1":[2],"sdaReg0":[1],"1093717408":[0],"1093717408.<android.text.SpannableStringBuilder: int mGapStart>":[0]},"colorToColor":{"0":[3]},"colorToLabel":{"0":"this","1":"arg#1","2":"arg#2","3":"arg#3","4":"arg#4","5":"return"}}}

Generated Model
	this->arg#3

