Scanning method <java.net.URLEncoder: java.lang.String encode(java.lang.String)>

All seen event types: LoadStaticRecord, BinaryOperationRecord, SimpleAssignmentRecord, MethodReturnRecord, MethodCallRecord, ArrayLengthRecord, MethodStartRecord, LoadArrayRecord, MethodEndRecord, IfRecord, NewObjectRecord, 
Ignored event types: IfRecord, 

JSON Encoded Analysis Data (for visualization):{"heapEdges":[{"step":0,"from":"static.<java.net.URLEncoder: libcore.net.UriCodec ENCODER>","to":"1085698888","type":"load","field":"<java.net.URLEncoder: libcore.net.UriCodec ENCODER>"},{"step":1,"from":"static.<java.nio.charset.Charsets: java.nio.charset.Charset UTF_8>","to":"1084325896","type":"load","field":"<java.nio.charset.Charsets: java.nio.charset.Charset UTF_8>"},{"step":2,"from":"sdaReg0","to":"sdaReg14","type":"model"},{"step":3,"from":"sdaReg14","to":"1093605240","type":"model"},{"step":4,"from":"sdaReg0","to":"sdaReg16","type":"model"},{"step":5,"from":"sdaReg16","to":"1093605240","type":"model"},{"step":6,"from":"sdaReg0","to":"sdaReg18","type":"model"},{"step":7,"from":"sdaReg18","to":"1093605240","type":"model"},{"step":8,"from":"sdaReg0","to":"sdaReg20","type":"model"},{"step":9,"from":"sdaReg20","to":"1093605240","type":"model"},{"step":10,"from":"sdaReg0","to":"sdaReg22","type":"model"},{"step":11,"from":"sdaReg22","to":"1093605240","type":"model"},{"step":12,"from":"sdaReg0","to":"sdaReg24","type":"model"},{"step":13,"from":"sdaReg24","to":"1093605240","type":"model"},{"step":14,"from":"sdaReg0","to":"sdaReg26","type":"model"},{"step":15,"from":"sdaReg28","to":"sdaReg26","type":"model"},{"step":16,"from":"sdaReg28","to":"sdaReg29","type":"model"},{"step":17,"from":"sdaReg26","to":"sdaReg28","type":"model"},{"step":18,"from":"sdaReg26","to":"sdaReg29","type":"model"},{"step":19,"from":"sdaReg0","to":"sdaReg32","type":"model"},{"step":20,"from":"sdaReg34","to":"sdaReg32","type":"model"},{"step":21,"from":"sdaReg34","to":"sdaReg35","type":"model"},{"step":22,"from":"sdaReg32","to":"sdaReg34","type":"model"},{"step":23,"from":"sdaReg32","to":"sdaReg35","type":"model"},{"step":24,"from":"sdaReg0","to":"sdaReg38","type":"model"},{"step":25,"from":"sdaReg40","to":"sdaReg38","type":"model"},{"step":26,"from":"sdaReg40","to":"sdaReg41","type":"model"},{"step":27,"from":"sdaReg38","to":"sdaReg40","type":"model"},{"step":28,"from":"sdaReg38","to":"sdaReg41","type":"model"},{"step":29,"from":"sdaReg0","to":"sdaReg44","type":"model"},{"step":30,"from":"sdaReg0","to":"sdaReg45","type":"model"},{"step":31,"from":"sdaReg45","to":"1084325896","type":"model"},{"step":32,"from":"sdaReg45","to":"1093287272","type":"model"},{"step":33,"from":"1084325896","to":"sdaReg45","type":"model"},{"step":34,"from":"1084325896","to":"1093287272","type":"model"},{"step":35,"from":"1093287272","to":"1093287272.arrayIdx_int:0","type":"load","field":"arrayIdx_int:0"},{"step":36,"from":"1093287272.arrayIdx_int:0","to":"sdaReg52","type":"model"},{"step":37,"from":"sdaReg52","to":"1093605240","type":"model"},{"step":38,"from":"1093287272","to":"1093287272.arrayIdx_int:1","type":"load","field":"arrayIdx_int:1"},{"step":39,"from":"1093287272.arrayIdx_int:1","to":"sdaReg54","type":"model"},{"step":40,"from":"sdaReg54","to":"1093605240","type":"model"},{"step":41,"from":"1093287272","to":"1093287272.arrayIdx_int:2","type":"load","field":"arrayIdx_int:2"},{"step":42,"from":"1093287272.arrayIdx_int:2","to":"sdaReg56","type":"model"},{"step":43,"from":"sdaReg56","to":"1093605240","type":"model"},{"step":44,"from":"sdaReg44","to":"1093605240","type":"model"},{"step":45,"from":"sdaReg0","to":"sdaReg58","type":"model"},{"step":46,"from":"sdaReg58","to":"1093605240","type":"model"},{"step":47,"from":"sdaReg0","to":"sdaReg60","type":"model"},{"step":48,"from":"sdaReg60","to":"1093605240","type":"model"},{"step":49,"from":"sdaReg0","to":"sdaReg62","type":"model"},{"step":50,"from":"sdaReg62","to":"1093605240","type":"model"},{"step":51,"from":"sdaReg0","to":"sdaReg64","type":"model"},{"step":52,"from":"sdaReg64","to":"1093605240","type":"model"},{"step":53,"from":"sdaReg0","to":"sdaReg66","type":"model"},{"step":54,"from":"sdaReg66","to":"1093605240","type":"model"},{"step":55,"from":"sdaReg0","to":"sdaReg68","type":"model"},{"step":56,"from":"sdaReg68","to":"1093605240","type":"model"},{"step":57,"from":"sdaReg0","to":"sdaReg70","type":"model"},{"step":58,"from":"sdaReg70","to":"1093605240","type":"model"},{"step":59,"from":"sdaReg0","to":"sdaReg72","type":"model"},{"step":60,"from":"sdaReg72","to":"1093605240","type":"model"},{"step":61,"from":"sdaReg0","to":"sdaReg74","type":"model"},{"step":62,"from":"sdaReg74","to":"1093605240","type":"model"},{"step":63,"from":"sdaReg0","to":"sdaReg76","type":"model"},{"step":64,"from":"sdaReg76","to":"1093605240","type":"model"},{"step":65,"from":"sdaReg0","to":"sdaReg78","type":"model"},{"step":66,"from":"sdaReg78","to":"1093605240","type":"model"},{"step":67,"from":"sdaReg0","to":"sdaReg80","type":"model"},{"step":68,"from":"sdaReg80","to":"1093605240","type":"model"},{"step":69,"from":"sdaReg0","to":"sdaReg82","type":"model"},{"step":70,"from":"sdaReg82","to":"1093605240","type":"model"},{"step":71,"from":"sdaReg0","to":"sdaReg84","type":"model"},{"step":72,"from":"sdaReg84","to":"1093605240","type":"model"},{"step":73,"from":"sdaReg0","to":"sdaReg86","type":"model"},{"step":74,"from":"sdaReg86","to":"1093605240","type":"model"},{"step":75,"from":"sdaReg0","to":"sdaReg88","type":"model"},{"step":76,"from":"sdaReg88","to":"1093605240","type":"model"},{"step":77,"from":"sdaReg0","to":"sdaReg90","type":"model"},{"step":78,"from":"sdaReg92","to":"sdaReg90","type":"model"},{"step":79,"from":"sdaReg92","to":"sdaReg93","type":"model"},{"step":80,"from":"sdaReg90","to":"sdaReg92","type":"model"},{"step":81,"from":"sdaReg90","to":"sdaReg93","type":"model"},{"step":82,"from":"sdaReg90","to":"1093605240","type":"model"},{"step":83,"from":"sdaReg0","to":"sdaReg96","type":"model"},{"step":84,"from":"sdaReg96","to":"1093605240","type":"model"},{"step":85,"from":"sdaReg0","to":"sdaReg98","type":"model"},{"step":86,"from":"sdaReg98","to":"1093605240","type":"model"},{"step":87,"from":"sdaReg0","to":"sdaReg100","type":"model"},{"step":88,"from":"sdaReg100","to":"1093605240","type":"model"},{"step":89,"from":"sdaReg0","to":"sdaReg102","type":"model"},{"step":90,"from":"sdaReg104","to":"sdaReg102","type":"model"},{"step":91,"from":"sdaReg104","to":"sdaReg105","type":"model"},{"step":92,"from":"sdaReg102","to":"sdaReg104","type":"model"},{"step":93,"from":"sdaReg102","to":"sdaReg105","type":"model"},{"step":94,"from":"sdaReg0","to":"sdaReg108","type":"model"},{"step":95,"from":"sdaReg0","to":"sdaReg109","type":"model"},{"step":96,"from":"sdaReg109","to":"1084325896","type":"model"},{"step":97,"from":"sdaReg109","to":"1093610272","type":"model"},{"step":98,"from":"1084325896","to":"sdaReg109","type":"model"},{"step":99,"from":"1084325896","to":"1093610272","type":"model"},{"step":100,"from":"1093610272","to":"1093610272.arrayIdx_int:0","type":"load","field":"arrayIdx_int:0"},{"step":101,"from":"1093610272.arrayIdx_int:0","to":"sdaReg116","type":"model"},{"step":102,"from":"sdaReg116","to":"1093605240","type":"model"},{"step":103,"from":"sdaReg108","to":"1093605240","type":"model"},{"step":104,"from":"sdaReg0","to":"sdaReg118","type":"model"},{"step":105,"from":"sdaReg118","to":"1093605240","type":"model"},{"step":106,"from":"sdaReg0","to":"sdaReg120","type":"model"},{"step":107,"from":"sdaReg120","to":"1093605240","type":"model"},{"step":108,"from":"1093605240","to":"sdaReg122","type":"model"}],"parameters":[{"id":"sdaReg0","name":"arg#0","klass":"string"}],"returns":[{"id":"sdaReg122","name":"return","klass":"string"}],"colors":{"heapLocToColor":{"sdaReg68":[0, 44],"sdaReg69":[45],"sdaReg66":[0, 42],"sdaReg67":[43],"sdaReg64":[0, 40],"sdaReg65":[41],"sdaReg62":[0, 38],"sdaReg63":[39],"sdaReg13":[5],"sdaReg72":[0, 48],"sdaReg14":[0, 6],"sdaReg71":[47],"sdaReg70":[0, 46],"1093610272.arrayIdx_int:0":[0, 80, 79],"sdaReg120":[0, 85],"sdaReg19":[11],"sdaReg122":[87, 3],"sdaReg17":[9],"sdaReg121":[86],"sdaReg18":[0, 10],"sdaReg15":[7],"sdaReg16":[0, 8],"sdaReg116":[81],"sdaReg117":[82],"sdaReg115":[3],"sdaReg118":[0, 83],"sdaReg119":[84],"sdaReg77":[53],"sdaReg78":[0, 54],"1085698888":[1],"sdaReg79":[55],"sdaReg73":[49],"sdaReg74":[0, 50],"sdaReg75":[51],"sdaReg76":[0, 52],"sdaReg81":[57],"sdaReg80":[0, 56],"sdaReg83":[59],"sdaReg82":[0, 58],"1093610272":[0, 80, 79],"sdaReg112":[0, 80, 79],"sdaReg111":[0, 2, 28],"sdaReg110":[3],"sdaReg107":[77],"sdaReg108":[0, 78],"sdaReg109":[0, 79],"sdaReg103":[1],"sdaReg105":[76],"sdaReg86":[0, 62],"sdaReg87":[63],"sdaReg84":[0, 60],"sdaReg85":[61],"sdaReg88":[0, 64],"sdaReg89":[65],"sdaReg90":[0, 66],"1093287272":[0, 29, 28],"sdaReg93":[67],"sdaReg91":[1],"sdaReg100":[0, 73],"sdaReg102":[0, 75],"sdaReg101":[74],"sdaReg95":[68],"sdaReg96":[0, 69],"sdaReg97":[70],"sdaReg98":[0, 71],"sdaReg99":[72],"static.<java.nio.charset.Charsets: java.nio.charset.Charset UTF_8>":[2],"sdaReg60":[0, 36],"1093287272.arrayIdx_int:0":[0, 29, 28],"sdaReg61":[37],"1093287272.arrayIdx_int:1":[0, 29, 28],"1093287272.arrayIdx_int:2":[0, 29, 28],"sdaReg59":[35],"sdaReg58":[0, 34],"sdaReg57":[33],"sdaReg56":[32],"sdaReg55":[3],"sdaReg54":[31],"sdaReg53":[3],"sdaReg52":[30],"sdaReg51":[3],"static.<java.net.URLEncoder: libcore.net.UriCodec ENCODER>":[1],"sdaReg48":[0, 29, 28],"sdaReg45":[0, 28],"sdaReg44":[0, 27],"sdaReg47":[2],"sdaReg46":[3],"sdaReg41":[25],"sdaReg43":[26],"sdaReg39":[1],"sdaReg38":[0, 24],"sdaReg37":[23],"sdaReg32":[0, 21],"sdaReg31":[20],"sdaReg35":[22],"sdaReg33":[1],"sdaReg8":[3],"sdaReg9":[2],"sdaReg6":[3],"sdaReg7":[1],"sdaReg4":[4],"sdaReg5":[3],"1084325896":[0, 2, 79, 28],"1093605240":[3],"sdaReg27":[1],"sdaReg26":[0, 18],"sdaReg29":[19],"sdaReg3":[4],"sdaReg2":[2],"sdaReg1":[1],"sdaReg21":[13],"sdaReg0":[0],"sdaReg20":[0, 12],"sdaReg23":[15],"sdaReg22":[0, 14],"sdaReg25":[17],"sdaReg24":[0, 16]},"colorToColor":{"0":[0, 32, 3, 67, 76, 79, 19, 81, 80, 22, 25, 29, 28, 31, 30],"69":[3],"2":[0, 80, 79, 29, 28],"3":[88],"71":[3],"64":[3],"66":[3, 67],"6":[3],"8":[3],"78":[3],"10":[3],"79":[0, 81, 80, 79],"12":[3],"73":[3],"14":[3],"75":[76],"85":[3],"16":[3],"87":[88],"18":[19],"81":[3],"21":[22],"80":[81],"83":[3],"24":[25],"27":[3],"29":[32, 31, 30],"28":[0, 32, 80, 79, 29, 28, 31, 30],"31":[3],"30":[3],"34":[3],"32":[3],"38":[3],"36":[3],"42":[3],"40":[3],"46":[3],"44":[3],"50":[3],"48":[3],"54":[3],"52":[3],"58":[3],"56":[3],"62":[3],"60":[3]},"colorToLabel":{"0":"arg#0","1":"<java.net.URLEncoder: libcore.net.UriCodec ENCODER>","2":"<java.nio.charset.Charsets: java.nio.charset.Charset UTF_8>","88":"return"}}}

Generated Model
	arg#0->return

