Scanning method <java.net.InetAddress: java.net.InetAddress parseNumericAddressNoThrow(java.lang.String)>

All seen event types: LoadStaticRecord, SimpleAssignmentRecord, MethodReturnRecord, MethodCallRecord, LoadArrayRecord, IfRecord, StoreInstanceRecord, NewObjectRecord, 
Ignored event types: IfRecord, 

JSON Encoded Analysis Data (for visualization):{"heapEdges":[{"step":0,"from":"static.<libcore.io.OsConstants: int AI_NUMERICHOST>","to":"static.<libcore.io.OsConstants: int AI_NUMERICHOST>","type":"load","field":"<libcore.io.OsConstants: int AI_NUMERICHOST>"},{"step":1,"from":"static.<libcore.io.OsConstants: int AI_NUMERICHOST>","to":"1093647792","type":"store","field":"<libcore.io.StructAddrinfo: int ai_flags>"},{"step":2,"from":"static.<libcore.io.Libcore: libcore.io.Os os>","to":"1083982784","type":"load","field":"<libcore.io.Libcore: libcore.io.Os os>"},{"step":3,"from":"1093647792","to":"1093648032","type":"model"},{"step":4,"from":"sdaReg0","to":"1093648032","type":"model"},{"step":5,"from":"1093648032","to":"1093648120","type":"load","field":"arrayIdx_int:0"}],"parameters":[{"id":"sdaReg0","name":"arg#0","klass":"string"}],"returns":[{"id":"1093648120","name":"return","klass":"java.net.InetAddress"}],"colors":{"heapLocToColor":{"1093647792":[2],"1093648032":[5],"1093648120":[5],"sdaReg5":[5],"sdaReg3":[2],"sdaReg2":[2],"1083982784":[4],"static.<libcore.io.OsConstants: int AI_NUMERICHOST>":[3],"sdaReg1":[1],"sdaReg0":[0],"static.<libcore.io.Libcore: libcore.io.Os os>":[4]},"colorToColor":{"0":[5],"2":[5],"3":[2],"5":[6]},"colorToLabel":{"0":"arg#0","3":"<libcore.io.OsConstants: int AI_NUMERICHOST>","4":"<libcore.io.Libcore: libcore.io.Os os>","6":"return"}}}

Generated Model
	arg#0->return

