Scanning method <java.io.OutputStreamWriter: void checkStatus()>

All seen event types: LoadInstanceRecord, IfRecord, 
Ignored event types: IfRecord, 

JSON Encoded Analysis Data (for visualization):{"heapEdges":[{"step":0,"from":"1093517424","to":"1093516184","type":"load","field":"<java.io.OutputStreamWriter: java.nio.charset.CharsetEncoder encoder>"}],"parameters":[{"id":"1093517424","name":"this","klass":"java.io.OutputStreamWriter"}],"returns":[{"id":null,"name":"return","klass":null}],"colors":{"heapLocToColor":{"1093516184":[0],"1093517424":[0]},"colorToColor":{},"colorToLabel":{"0":"this","1":"return"}}}

Generated Model

