Scanning method <java.util.LinkedList: void add(int,java.lang.Object)>

All seen event types: BinaryOperationRecord, SimpleAssignmentRecord, MethodReturnRecord, MethodCallRecord, MethodStartRecord, LoadInstanceRecord, MethodEndRecord, IfRecord, StoreInstanceRecord, NewObjectRecord, 
Ignored event types: IfRecord, 

JSON Encoded Analysis Data (for visualization):{"heapEdges":[{"step":0,"from":"1093411032","to":"1093411032.<java.util.LinkedList: int size>","type":"load","field":"<java.util.LinkedList: int size>"},{"step":1,"from":"1093411032","to":"1093410336","type":"load","field":"<java.util.LinkedList: java.util.LinkedList$Link voidLink>"},{"step":2,"from":"1093411032","to":"1093411032.<java.util.LinkedList: int size>","type":"load","field":"<java.util.LinkedList: int size>"},{"step":3,"from":"1093410336","to":"1093415016","type":"load","field":"<java.util.LinkedList$Link: java.util.LinkedList$Link next>"},{"step":4,"from":"1093415016","to":"1093416304","type":"load","field":"<java.util.LinkedList$Link: java.util.LinkedList$Link next>"},{"step":5,"from":"1093416304","to":"1093518736","type":"load","field":"<java.util.LinkedList$Link: java.util.LinkedList$Link next>"},{"step":6,"from":"1093518736","to":"1093521912","type":"load","field":"<java.util.LinkedList$Link: java.util.LinkedList$Link next>"},{"step":7,"from":"1093521912","to":"1093524696","type":"load","field":"<java.util.LinkedList$Link: java.util.LinkedList$Link next>"},{"step":8,"from":"1093524696","to":"1093526112","type":"load","field":"<java.util.LinkedList$Link: java.util.LinkedList$Link next>"},{"step":9,"from":"1093526112","to":"1093528728","type":"load","field":"<java.util.LinkedList$Link: java.util.LinkedList$Link next>"},{"step":10,"from":"1093528728","to":"1093529368","type":"load","field":"<java.util.LinkedList$Link: java.util.LinkedList$Link next>"},{"step":11,"from":"1093529368","to":"1093530024","type":"load","field":"<java.util.LinkedList$Link: java.util.LinkedList$Link next>"},{"step":12,"from":"1093530024","to":"1093535936","type":"load","field":"<java.util.LinkedList$Link: java.util.LinkedList$Link next>"},{"step":13,"from":"1093535936","to":"1093535616","type":"load","field":"<java.util.LinkedList$Link: java.util.LinkedList$Link next>"},{"step":14,"from":"1093535616","to":"1093537224","type":"load","field":"<java.util.LinkedList$Link: java.util.LinkedList$Link next>"},{"step":15,"from":"1093537224","to":"1093537888","type":"load","field":"<java.util.LinkedList$Link: java.util.LinkedList$Link next>"},{"step":16,"from":"1093537888","to":"1093538856","type":"load","field":"<java.util.LinkedList$Link: java.util.LinkedList$Link next>"},{"step":17,"from":"1093538856","to":"1093540904","type":"load","field":"<java.util.LinkedList$Link: java.util.LinkedList$Link next>"},{"step":18,"from":"1093540904","to":"1093539552","type":"load","field":"<java.util.LinkedList$Link: java.util.LinkedList$Link next>"},{"step":19,"from":"1093539552","to":"1093543216","type":"load","field":"<java.util.LinkedList$Link: java.util.LinkedList$Link next>"},{"step":20,"from":"1093543216","to":"1093543856","type":"load","field":"<java.util.LinkedList$Link: java.util.LinkedList$Link next>"},{"step":21,"from":"1093543856","to":"1093544496","type":"load","field":"<java.util.LinkedList$Link: java.util.LinkedList$Link next>"},{"step":22,"from":"1093544496","to":"1093545152","type":"load","field":"<java.util.LinkedList$Link: java.util.LinkedList$Link next>"},{"step":23,"from":"1093545152","to":"1093835368","type":"load","field":"<java.util.LinkedList$Link: java.util.LinkedList$Link next>"},{"step":24,"from":"1093835368","to":"1093546136","type":"load","field":"<java.util.LinkedList$Link: java.util.LinkedList$Link next>"},{"step":25,"from":"1093546136","to":"1093546792","type":"load","field":"<java.util.LinkedList$Link: java.util.LinkedList$Link next>"},{"step":26,"from":"1093546792","to":"1093546464","type":"load","field":"<java.util.LinkedList$Link: java.util.LinkedList$Link next>"},{"step":27,"from":"1093546464","to":"1093309456","type":"load","field":"<java.util.LinkedList$Link: java.util.LinkedList$Link next>"},{"step":28,"from":"1093309456","to":"1093546464","type":"load","field":"<java.util.LinkedList$Link: java.util.LinkedList$Link previous>"},{"step":29,"from":"1093546464","to":"1093835392","type":"store","field":"<java.util.LinkedList$Link: java.util.LinkedList$Link previous>"},{"step":30,"from":"1093309456","to":"1093835392","type":"store","field":"<java.util.LinkedList$Link: java.util.LinkedList$Link next>"},{"step":31,"from":"1093546464","to":"1093835392","type":"create","field":"<java.util.LinkedList$Link: java.util.LinkedList$Link next>"},{"step":32,"from":"1093835392","to":"1093309456","type":"store","field":"<java.util.LinkedList$Link: java.util.LinkedList$Link previous>"},{"step":33,"from":"1093411032","to":"1093411032.<java.util.LinkedList: int size>","type":"load","field":"<java.util.LinkedList: int size>"},{"step":34,"from":"sdaReg10","to":"1093411032","type":"store","field":"<java.util.LinkedList: int size>"},{"step":35,"from":"1093411032","to":"1093411032.<java.util.AbstractList: int modCount>","type":"load","field":"<java.util.AbstractList: int modCount>"},{"step":36,"from":"sdaReg11","to":"1093411032","type":"store","field":"<java.util.AbstractList: int modCount>"}],"parameters":[{"id":"1093411032","name":"this","klass":"java.util.LinkedList"},{"id":"sdaReg0","name":"arg#1","klass":"int"},{"id":"0","name":"arg#2","klass":"java.lang.Object"}],"returns":[{"id":null,"name":"return","klass":null}],"colors":{"heapLocToColor":{"1093835392":[3],"1093539552":[0],"1093411032.<java.util.AbstractList: int modCount>":[0],"1093309456":[0],"1093546136":[0],"1093411032":[0],"1093416304":[0],"1093410336":[0],"1093411032.<java.util.LinkedList: int size>":[0],"sdaReg11":[0],"1093537224":[0],"1093530024":[0],"sdaReg10":[0],"1093309456.<java.util.LinkedList$Link: java.util.LinkedList$Link previous>":[0],"1093526112":[0],"1093521912":[0],"1093540904":[0],"1093545152":[0],"1093524696":[0],"1093543856":[0],"1093543216":[0],"1093518736":[0],"1093535936":[0],"sdaReg8":[3],"sdaReg9":[3],"sdaReg6":[0],"1093546792":[0],"1093528728":[0],"sdaReg7":[3],"sdaReg4":[2],"1093546464":[0],"1093538856":[0],"sdaReg5":[0],"1093544496":[0],"0":[2],"1093529368":[0],"1093535616":[0],"1093537888":[0],"sdaReg3":[3],"1093835368":[0],"1093415016":[0],"sdaReg1":[0],"sdaReg0":[1]},"colorToColor":{"0":[0, 3],"3":[0]},"colorToLabel":{"0":"this","1":"arg#1","2":"arg#2","4":"return"}}}

Generated Model

