Scanning method <java.util.HashMap: java.util.HashMap$HashMapEntry[] makeTable(int)>

All seen event types: NewArrayRecord, BinaryOperationRecord, CastRecord, StoreInstanceRecord, 
Ignored event types: 

JSON Encoded Analysis Data (for visualization):{"heapEdges":[{"step":0,"from":"1093302184","to":"1093301888","type":"create","field":"<java.util.HashMap: java.util.HashMap$HashMapEntry[] table>"},{"step":1,"from":"sdaReg4","to":"1093302184","type":"store","field":"<java.util.HashMap: int threshold>"}],"parameters":[{"id":"1093302184","name":"this","klass":"java.util.HashMap"},{"id":"sdaReg0","name":"arg#1","klass":"int"}],"returns":[{"id":"1093301888","name":"return","klass":"java.util.HashMap$HashMapEntry[]"}],"colors":{"heapLocToColor":{"1093302184":[0],"sdaReg4":[1],"1093301888":[2],"sdaReg3":[1],"sdaReg2":[1],"sdaReg0":[1]},"colorToColor":{"1":[0],"2":[0, 3]},"colorToLabel":{"0":"this","1":"arg#1","3":"return"}}}

Generated Model
	arg#1->this

