Scanning method <java.util.HashMap: java.lang.Object put(java.lang.Object,java.lang.Object)>

All seen event types: BinaryOperationRecord, StoreArrayRecord, MethodReturnRecord, MethodCallRecord, ArrayLengthRecord, LoadInstanceRecord, MethodStartRecord, LoadArrayRecord, MethodEndRecord, IfRecord, NewObjectRecord, StoreInstanceRecord, 
Ignored event types: IfRecord, 

JSON Encoded Analysis Data (for visualization):{"heapEdges":[{"step":0,"from":"1093287792","to":"1093229224","type":"load","field":"<java.util.HashMap: java.util.HashMap$HashMapEntry[] table>"},{"step":1,"from":"1093287792","to":"1093287792.<java.util.HashMap: int modCount>","type":"load","field":"<java.util.HashMap: int modCount>"},{"step":2,"from":"sdaReg12","to":"1093287792","type":"store","field":"<java.util.HashMap: int modCount>"},{"step":3,"from":"1093287792","to":"1093287792.<java.util.HashMap: int size>","type":"load","field":"<java.util.HashMap: int size>"},{"step":4,"from":"sdaReg13","to":"1093287792","type":"store","field":"<java.util.HashMap: int size>"},{"step":5,"from":"1093287792","to":"1093287792.<java.util.HashMap: int threshold>","type":"load","field":"<java.util.HashMap: int threshold>"},{"step":6,"from":"1093287792","to":"1093229224","type":"load","field":"<java.util.HashMap: java.util.HashMap$HashMapEntry[] table>"},{"step":7,"from":"1093287792","to":"1093229224","type":"load","field":"<java.util.HashMap: java.util.HashMap$HashMapEntry[] table>"},{"step":8,"from":"1084469432","to":"1093593944","type":"store","field":"<java.util.HashMap$HashMapEntry: java.lang.Object key>"},{"step":9,"from":"1093593688","to":"1093593944","type":"store","field":"<java.util.HashMap$HashMapEntry: java.lang.Object value>"},{"step":10,"from":"sdaReg8","to":"1093593944","type":"store","field":"<java.util.HashMap$HashMapEntry: int hash>"},{"step":11,"from":"1093229224","to":"1093593944","type":"create","field":"arrayIdx_int:2"}],"parameters":[{"id":"1093287792","name":"this","klass":"java.util.HashMap"},{"id":"1084469432","name":"arg#1","klass":"java.lang.Object"},{"id":"1093593688","name":"arg#2","klass":"java.lang.Object"}],"returns":[{"id":"0","name":"return","klass":"java.lang.Object"}],"colors":{"heapLocToColor":{"1093287792.<java.util.HashMap: int modCount>":[0],"1093287792":[0],"1093287792.<java.util.HashMap: java.util.HashMap$HashMapEntry[] table>":[0],"sdaReg13":[0],"sdaReg14":[0],"1093229224":[0],"sdaReg11":[3],"sdaReg12":[0],"1084469432":[1],"sdaReg19":[2],"sdaReg17":[4],"sdaReg18":[1],"sdaReg15":[1],"sdaReg16":[2],"sdaReg8":[3],"1093287792.<java.util.HashMap: int size>":[0],"sdaReg6":[3],"sdaReg7":[3],"sdaReg4":[3],"sdaReg5":[3],"1093593688":[2],"1093287792.<java.util.HashMap: int threshold>":[0],"1093593944":[4],"sdaReg3":[3],"sdaReg2":[3],"sdaReg21":[4],"sdaReg1":[3],"sdaReg0":[3],"sdaReg22":[4]},"colorToColor":{"0":[0],"1":[4],"2":[4],"3":[4],"4":[0]},"colorToLabel":{"0":"this","1":"arg#1","2":"arg#2","5":"return"}}}

Generated Model
	arg#2->this
	arg#1->this

