Scanning method <java.util.HashMap: java.lang.Object put(java.lang.Object,java.lang.Object)>

All seen event types: StoreArrayRecord, SimpleAssignmentRecord, MethodStartRecord, LoadInstanceRecord, IfRecord, NewObjectRecord, StoreInstanceRecord, NewArrayRecord, BinaryOperationRecord, MethodCallRecord, MethodReturnRecord, ArrayLengthRecord, CastRecord, LoadArrayRecord, MethodEndRecord, 
Ignored event types: IfRecord, 

JSON Encoded Analysis Data (for visualization):{"heapEdges":[{"step":0,"from":"1093294040","to":"1093294096","type":"load","field":"<java.util.HashMap: java.util.HashMap$HashMapEntry[] table>"},{"step":1,"from":"1093294096","to":"1093294176","type":"load","field":"arrayIdx_int:0"},{"step":2,"from":"1093294176","to":"1093294176.<java.util.HashMap$HashMapEntry: int hash>","type":"load","field":"<java.util.HashMap$HashMapEntry: int hash>"},{"step":3,"from":"1093294040","to":"1093294040.<java.util.HashMap: int modCount>","type":"load","field":"<java.util.HashMap: int modCount>"},{"step":4,"from":"sdaReg12","to":"1093294040","type":"store","field":"<java.util.HashMap: int modCount>"},{"step":5,"from":"1093294040","to":"1093294040.<java.util.HashMap: int size>","type":"load","field":"<java.util.HashMap: int size>"},{"step":6,"from":"sdaReg13","to":"1093294040","type":"store","field":"<java.util.HashMap: int size>"},{"step":7,"from":"1093294040","to":"1093294040.<java.util.HashMap: int threshold>","type":"load","field":"<java.util.HashMap: int threshold>"},{"step":8,"from":"1093294040","to":"1093294096","type":"load","field":"<java.util.HashMap: java.util.HashMap$HashMapEntry[] table>"},{"step":9,"from":"1093294040","to":"1093296000","type":"create","field":"<java.util.HashMap: java.util.HashMap$HashMapEntry[] table>"},{"step":10,"from":"sdaReg21","to":"1093294040","type":"store","field":"<java.util.HashMap: int threshold>"},{"step":11,"from":"1093294096","to":"1093294176","type":"load","field":"arrayIdx_int:0"},{"step":12,"from":"1093294176","to":"1093294176.<java.util.HashMap$HashMapEntry: int hash>","type":"load","field":"<java.util.HashMap$HashMapEntry: int hash>"},{"step":13,"from":"1093294176","to":"1093296000","type":"store","field":"arrayIdx_int:0"},{"step":14,"from":"1093294096","to":"1093295968","type":"load","field":"arrayIdx_int:1"},{"step":15,"from":"1093295968","to":"1093295968.<java.util.HashMap$HashMapEntry: int hash>","type":"load","field":"<java.util.HashMap$HashMapEntry: int hash>"},{"step":16,"from":"1093295968","to":"1093296000","type":"store","field":"arrayIdx_int:5"},{"step":17,"from":"1093295968","to":"1093295936","type":"load","field":"<java.util.HashMap$HashMapEntry: java.util.HashMap$HashMapEntry next>"},{"step":18,"from":"1093295936","to":"1093295936.<java.util.HashMap$HashMapEntry: int hash>","type":"load","field":"<java.util.HashMap$HashMapEntry: int hash>"},{"step":19,"from":"1093295936","to":"1093296000","type":"store","field":"arrayIdx_int:1"},{"step":20,"from":"1093295968","to":"sdaReg29","type":"create","field":"<java.util.HashMap$HashMapEntry: java.util.HashMap$HashMapEntry next>"},{"step":21,"from":"1093294096","to":"1093295904","type":"load","field":"arrayIdx_int:3"},{"step":22,"from":"1093295904","to":"1093295904.<java.util.HashMap$HashMapEntry: int hash>","type":"load","field":"<java.util.HashMap$HashMapEntry: int hash>"},{"step":23,"from":"1093295904","to":"1093296000","type":"store","field":"arrayIdx_int:3"},{"step":24,"from":"1093577224","to":"1093296056","type":"store","field":"<java.util.HashMap$HashMapEntry: java.lang.Object key>"},{"step":25,"from":"1083976944","to":"1093296056","type":"store","field":"<java.util.HashMap$HashMapEntry: java.lang.Object value>"},{"step":26,"from":"sdaReg8","to":"1093296056","type":"store","field":"<java.util.HashMap$HashMapEntry: int hash>"},{"step":27,"from":"1093294176","to":"1093296056","type":"store","field":"<java.util.HashMap$HashMapEntry: java.util.HashMap$HashMapEntry next>"},{"step":28,"from":"1093296000","to":"1093296056","type":"create","field":"arrayIdx_int:0"}],"parameters":[{"id":"1093294040","name":"this","klass":"java.util.HashMap"},{"id":"1093577224","name":"arg#1","klass":"java.lang.Object"},{"id":"1083976944","name":"arg#2","klass":"java.lang.Object"}],"returns":[{"id":"0","name":"return","klass":"java.lang.Object"}],"colors":{"heapLocToColor":{"1093294096.arrayIdx_int:0":[0],"1093294176.<java.util.HashMap$HashMapEntry: int hash>":[0],"1093294176":[0],"1093295968":[0],"1093296000":[4],"1093295904":[0],"sdaReg13":[0],"sdaReg39":[0],"1083976944":[2],"sdaReg14":[0],"sdaReg38":[2],"sdaReg11":[3],"sdaReg37":[1],"sdaReg12":[0],"1093294040.<java.util.HashMap: java.util.HashMap$HashMapEntry[] table>":[0],"1093295936.<java.util.HashMap$HashMapEntry: int hash>":[0],"1093295968.<java.util.HashMap$HashMapEntry: int hash>":[0],"1093294040.<java.util.HashMap: int modCount>":[0],"sdaReg30":[4],"1093294040.<java.util.HashMap: int threshold>":[0],"sdaReg36":[5],"sdaReg17":[0],"1093296056":[5],"sdaReg35":[2],"sdaReg34":[1],"sdaReg33":[0],"1093294040":[0],"1093295904.<java.util.HashMap$HashMapEntry: int hash>":[0],"sdaReg8":[3],"sdaReg6":[3],"sdaReg7":[3],"sdaReg4":[3],"sdaReg5":[3],"1093295936":[0],"sdaReg27":[0],"sdaReg26":[0],"1093577224":[1],"sdaReg28":[0],"1093294040.<java.util.HashMap: int size>":[0],"sdaReg3":[3],"1093294096":[0],"sdaReg2":[3],"sdaReg1":[3],"sdaReg0":[3],"sdaReg41":[5],"sdaReg40":[5],"sdaReg22":[4],"sdaReg24":[0]},"colorToColor":{"0":[0, 4, 5],"1":[5],"2":[5],"3":[5],"4":[0],"5":[4]},"colorToLabel":{"0":"this","1":"arg#1","2":"arg#2","6":"return"}}}

Generated Model
	arg#2->this
	arg#1->this

