Scanning method <java.util.TreeMap$KeySet: java.util.Iterator iterator()>

All seen event types: SimpleAssignmentRecord, MethodReturnRecord, MethodCallRecord, MethodStartRecord, LoadInstanceRecord, MethodEndRecord, IfRecord, StoreInstanceRecord, NewObjectRecord, 
Ignored event types: IfRecord, 

JSON Encoded Analysis Data (for visualization):{"heapEdges":[{"step":0,"from":"1093493048","to":"1093233072","type":"load","field":"<java.util.TreeMap$KeySet: java.util.TreeMap this$0>"},{"step":1,"from":"1093233072","to":"1094259416","type":"load","field":"<java.util.TreeMap: java.util.TreeMap$Node root>"},{"step":2,"from":"1093493048","to":"1093233072","type":"load","field":"<java.util.TreeMap$KeySet: java.util.TreeMap this$0>"},{"step":3,"from":"1093233072","to":"1094259416","type":"load","field":"<java.util.TreeMap: java.util.TreeMap$Node root>"},{"step":4,"from":"1094259416","to":"1096265440","type":"load","field":"<java.util.TreeMap$Node: java.util.TreeMap$Node left>"},{"step":5,"from":"1096265440","to":"1093533024","type":"load","field":"<java.util.TreeMap$Node: java.util.TreeMap$Node left>"},{"step":6,"from":"1093533024","to":"1093447784","type":"load","field":"<java.util.TreeMap$Node: java.util.TreeMap$Node left>"},{"step":7,"from":"1093447784","to":"1094753864","type":"load","field":"<java.util.TreeMap$Node: java.util.TreeMap$Node left>"},{"step":8,"from":"1094753864","to":"1095430504","type":"load","field":"<java.util.TreeMap$Node: java.util.TreeMap$Node left>"},{"step":9,"from":"1095430504","to":"1093260488","type":"load","field":"<java.util.TreeMap$Node: java.util.TreeMap$Node left>"},{"step":10,"from":"1093493048","to":"1096199360","type":"store","field":"<java.util.TreeMap$KeySet$1: java.util.TreeMap$KeySet this$1>"},{"step":11,"from":"1093493048","to":"1093233072","type":"load","field":"<java.util.TreeMap$KeySet: java.util.TreeMap this$0>"},{"step":12,"from":"1093233072","to":"1096199360","type":"store","field":"<java.util.TreeMap$MapIterator: java.util.TreeMap this$0>"},{"step":13,"from":"1093233072","to":"1093233072.<java.util.TreeMap: int modCount>","type":"load","field":"<java.util.TreeMap: int modCount>"},{"step":14,"from":"1093233072.<java.util.TreeMap: int modCount>","to":"1096199360","type":"store","field":"<java.util.TreeMap$MapIterator: int expectedModCount>"},{"step":15,"from":"1093260488","to":"1096199360","type":"store","field":"<java.util.TreeMap$MapIterator: java.util.TreeMap$Node next>"}],"parameters":[{"id":"1093493048","name":"this","klass":"java.util.TreeMap$KeySet"}],"returns":[{"id":"1096199360","name":"return","klass":"java.util.Iterator"}],"colors":{"heapLocToColor":{"1093493048.<java.util.TreeMap$KeySet: java.util.TreeMap this$0>":[0],"1093233072.<java.util.TreeMap: java.util.TreeMap$Node root>":[0],"1093493048":[0],"1093447784":[0],"sdaReg11":[1],"sdaReg10":[1],"1094259416":[0],"1096265440":[0],"sdaReg8":[0],"sdaReg9":[1],"sdaReg6":[1],"sdaReg7":[0],"sdaReg4":[0],"sdaReg5":[0],"1096199360":[1],"1093233072":[0],"1093233072.<java.util.TreeMap: int modCount>":[0],"1095430504":[0],"sdaReg3":[1],"sdaReg2":[0],"1094753864":[0],"sdaReg1":[0],"1093533024":[0],"sdaReg0":[0],"1093260488":[0]},"colorToColor":{"0":[1],"1":[2]},"colorToLabel":{"0":"this","2":"return"}}}

Generated Model
	this->return

