Scanning method <java.util.TreeMap$KeySet: java.util.Iterator iterator()>

All seen event types: SimpleAssignmentRecord, MethodReturnRecord, MethodCallRecord, MethodStartRecord, LoadInstanceRecord, MethodEndRecord, IfRecord, StoreInstanceRecord, NewObjectRecord, 
Ignored event types: IfRecord, 

JSON Encoded Analysis Data (for visualization):{"heapEdges":[{"step":0,"from":"1093647056","to":"1093575304","type":"load","field":"<java.util.TreeMap$KeySet: java.util.TreeMap this$0>"},{"step":1,"from":"1093647056","to":"1093647072","type":"store","field":"<java.util.TreeMap$KeySet$1: java.util.TreeMap$KeySet this$1>"},{"step":2,"from":"1093647056","to":"1093575304","type":"load","field":"<java.util.TreeMap$KeySet: java.util.TreeMap this$0>"},{"step":3,"from":"1093575304","to":"1093647072","type":"store","field":"<java.util.TreeMap$MapIterator: java.util.TreeMap this$0>"},{"step":4,"from":"1093575304","to":"1093575304.<java.util.TreeMap: int modCount>","type":"load","field":"<java.util.TreeMap: int modCount>"},{"step":5,"from":"1093575304.<java.util.TreeMap: int modCount>","to":"1093647072","type":"store","field":"<java.util.TreeMap$MapIterator: int expectedModCount>"}],"parameters":[{"id":"1093647056","name":"this","klass":"java.util.TreeMap$KeySet"}],"returns":[{"id":"1093647072","name":"return","klass":"java.util.Iterator"}],"colors":{"heapLocToColor":{"sdaReg8":[1],"sdaReg9":[1],"1093647072":[1],"1093647056.<java.util.TreeMap$KeySet: java.util.TreeMap this$0>":[0],"sdaReg7":[1],"sdaReg4":[1],"sdaReg5":[0],"sdaReg2":[0],"1093575304":[0],"sdaReg1":[1],"1093647056":[0],"1093575304.<java.util.TreeMap: int modCount>":[0]},"colorToColor":{"0":[1],"1":[2]},"colorToLabel":{"0":"this","2":"return"}}}

Generated Model
	this->return

