Scanning method <java.util.TreeMap$KeySet: java.util.Iterator iterator()>

All seen event types: SimpleAssignmentRecord, MethodReturnRecord, MethodCallRecord, MethodStartRecord, LoadInstanceRecord, MethodEndRecord, IfRecord, StoreInstanceRecord, NewObjectRecord, 
Ignored event types: IfRecord, 

JSON Encoded Analysis Data (for visualization):{"heapEdges":[{"step":0,"from":"1093850104","to":"1099705064","type":"load","field":"<java.util.TreeMap$KeySet: java.util.TreeMap this$0>"},{"step":1,"from":"1099705064","to":"1099725312","type":"load","field":"<java.util.TreeMap: java.util.TreeMap$Node root>"},{"step":2,"from":"1093850104","to":"1099705064","type":"load","field":"<java.util.TreeMap$KeySet: java.util.TreeMap this$0>"},{"step":3,"from":"1099705064","to":"1099725312","type":"load","field":"<java.util.TreeMap: java.util.TreeMap$Node root>"},{"step":4,"from":"1099725312","to":"1099705112","type":"load","field":"<java.util.TreeMap$Node: java.util.TreeMap$Node left>"},{"step":5,"from":"1093850104","to":"1099516448","type":"store","field":"<java.util.TreeMap$KeySet$1: java.util.TreeMap$KeySet this$1>"},{"step":6,"from":"1093850104","to":"1099705064","type":"load","field":"<java.util.TreeMap$KeySet: java.util.TreeMap this$0>"},{"step":7,"from":"1099705064","to":"1099516448","type":"store","field":"<java.util.TreeMap$MapIterator: java.util.TreeMap this$0>"},{"step":8,"from":"1099705064","to":"1099705064.<java.util.TreeMap: int modCount>","type":"load","field":"<java.util.TreeMap: int modCount>"},{"step":9,"from":"1099705064.<java.util.TreeMap: int modCount>","to":"1099516448","type":"store","field":"<java.util.TreeMap$MapIterator: int expectedModCount>"},{"step":10,"from":"1099705112","to":"1099516448","type":"store","field":"<java.util.TreeMap$MapIterator: java.util.TreeMap$Node next>"}],"parameters":[{"id":"1093850104","name":"this","klass":"java.util.TreeMap$KeySet"}],"returns":[{"id":"1099516448","name":"return","klass":"java.util.Iterator"}],"colors":{"heapLocToColor":{"sdaReg8":[0],"sdaReg9":[1],"sdaReg6":[1],"sdaReg7":[0],"1099705064.<java.util.TreeMap: java.util.TreeMap$Node root>":[0],"sdaReg4":[0],"sdaReg5":[0],"1099516448":[1],"1099705064":[0],"1093850104.<java.util.TreeMap$KeySet: java.util.TreeMap this$0>":[0],"sdaReg11":[1],"1099705064.<java.util.TreeMap: int modCount>":[0],"1093850104":[0],"1099705112":[0],"sdaReg10":[1],"1099725312":[0],"sdaReg3":[1],"sdaReg2":[0],"sdaReg1":[0],"sdaReg0":[0]},"colorToColor":{"0":[1],"1":[2]},"colorToLabel":{"0":"this","2":"return"}}}

Generated Model
	this->return

