Scanning method <java.util.AbstractList$SubAbstractList: java.util.ListIterator listIterator(int)>

All seen event types: BinaryOperationRecord, MethodReturnRecord, MethodCallRecord, MethodStartRecord, LoadInstanceRecord, MethodEndRecord, IfRecord, StoreInstanceRecord, NewObjectRecord, 
Ignored event types: IfRecord, 

JSON Encoded Analysis Data (for visualization):{"heapEdges":[{"step":0,"from":"1093351928","to":"1093351928.<java.util.AbstractList: int modCount>","type":"load","field":"<java.util.AbstractList: int modCount>"},{"step":1,"from":"1093351928","to":"1093519824","type":"load","field":"<java.util.AbstractList$SubAbstractList: java.util.AbstractList fullList>"},{"step":2,"from":"1093519824","to":"1093519824.<java.util.AbstractList: int modCount>","type":"load","field":"<java.util.AbstractList: int modCount>"},{"step":3,"from":"1093351928","to":"1093351928.<java.util.AbstractList$SubAbstractList: int size>","type":"load","field":"<java.util.AbstractList$SubAbstractList: int size>"},{"step":4,"from":"1093351928","to":"1093519824","type":"load","field":"<java.util.AbstractList$SubAbstractList: java.util.AbstractList fullList>"},{"step":5,"from":"1093351928","to":"1093351928.<java.util.AbstractList$SubAbstractList: int offset>","type":"load","field":"<java.util.AbstractList$SubAbstractList: int offset>"},{"step":6,"from":"1093519824","to":"1093955536","type":"store","field":"<java.util.AbstractList$FullListIterator: java.util.AbstractList this$0>"},{"step":7,"from":"1093519824","to":"1093955536","type":"store","field":"<java.util.AbstractList$SimpleListIterator: java.util.AbstractList this$0>"},{"step":8,"from":"1093955536","to":"sdaReg8","type":"create","field":"<java.util.AbstractList$SimpleListIterator: int pos>"},{"step":9,"from":"1093955536","to":"sdaReg9","type":"create","field":"<java.util.AbstractList$SimpleListIterator: int lastPosition>"},{"step":10,"from":"1093519824","to":"1093519824.<java.util.AbstractList: int modCount>","type":"load","field":"<java.util.AbstractList: int modCount>"},{"step":11,"from":"1093519824.<java.util.AbstractList: int modCount>","to":"1093955536","type":"store","field":"<java.util.AbstractList$SimpleListIterator: int expectedModCount>"},{"step":12,"from":"1093519824","to":"1093519824.<java.util.ArrayList: int size>","type":"load","field":"<java.util.ArrayList: int size>"},{"step":13,"from":"sdaReg12","to":"1093955536","type":"store","field":"<java.util.AbstractList$SimpleListIterator: int pos>"},{"step":14,"from":"1093351928","to":"1093351928.<java.util.AbstractList$SubAbstractList: int offset>","type":"load","field":"<java.util.AbstractList$SubAbstractList: int offset>"},{"step":15,"from":"1093351928","to":"1093351928.<java.util.AbstractList$SubAbstractList: int size>","type":"load","field":"<java.util.AbstractList$SubAbstractList: int size>"},{"step":16,"from":"1093921040","to":"1093955536","type":"create","field":"<java.util.AbstractList$SubAbstractList$SubAbstractListIterator: java.util.ListIterator iterator>"},{"step":17,"from":"1093351928","to":"1093921040","type":"store","field":"<java.util.AbstractList$SubAbstractList$SubAbstractListIterator: java.util.AbstractList$SubAbstractList subList>"},{"step":18,"from":"1093351928.<java.util.AbstractList$SubAbstractList: int offset>","to":"1093921040","type":"store","field":"<java.util.AbstractList$SubAbstractList$SubAbstractListIterator: int start>"},{"step":19,"from":"sdaReg19","to":"1093921040","type":"store","field":"<java.util.AbstractList$SubAbstractList$SubAbstractListIterator: int end>"}],"parameters":[{"id":"1093351928","name":"this","klass":"java.util.AbstractList$SubAbstractList"},{"id":"sdaReg0","name":"arg#1","klass":"int"}],"returns":[{"id":"1093921040","name":"return","klass":"java.util.ListIterator"}],"colors":{"heapLocToColor":{"1093519824.<java.util.ArrayList: int size>":[0],"1093351928":[0],"1093921040":[2],"sdaReg13":[3],"sdaReg14":[3],"sdaReg11":[0],"1093351928.<java.util.AbstractList$SubAbstractList: int offset>":[0],"sdaReg12":[0, 1],"1093519824":[0],"sdaReg10":[3],"1093955536":[3],"1093351928.<java.util.AbstractList$SubAbstractList: java.util.AbstractList fullList>":[0],"sdaReg19":[0],"sdaReg17":[0],"sdaReg18":[2],"1093519824.<java.util.AbstractList: int modCount>":[0],"sdaReg15":[2],"sdaReg16":[3],"sdaReg6":[0],"sdaReg7":[3],"sdaReg4":[0],"sdaReg5":[3],"1093351928.<java.util.AbstractList: int modCount>":[0],"sdaReg3":[3],"sdaReg2":[0],"1093351928.<java.util.AbstractList$SubAbstractList: int size>":[0],"sdaReg1":[0, 1],"sdaReg20":[2],"sdaReg0":[1]},"colorToColor":{"0":[2, 3],"1":[3],"2":[4],"3":[2]},"colorToLabel":{"0":"this","1":"arg#1","4":"return"}}}

Generated Model
	this->return
	arg#1->return

