Scanning method <java.util.Formatter$FormatSpecifierParser: java.util.Formatter$FormatToken parseArgumentIndexAndFlags(java.util.Formatter$FormatToken)>

All seen event types: BinaryOperationRecord, SimpleAssignmentRecord, SwitchRecord, MethodReturnRecord, MethodCallRecord, MethodStartRecord, LoadInstanceRecord, MethodEndRecord, IfRecord, StoreInstanceRecord, 
Ignored event types: SwitchRecord, IfRecord, 

JSON Encoded Analysis Data (for visualization):{"heapEdges":[{"step":0,"from":"1093230184","to":"1093230184.<java.util.Formatter$FormatSpecifierParser: int i>","type":"load","field":"<java.util.Formatter$FormatSpecifierParser: int i>"},{"step":1,"from":"1093230184","to":"1093230184.<java.util.Formatter$FormatSpecifierParser: int i>","type":"load","field":"<java.util.Formatter$FormatSpecifierParser: int i>"},{"step":2,"from":"1093230184","to":"1093230184.<java.util.Formatter$FormatSpecifierParser: int length>","type":"load","field":"<java.util.Formatter$FormatSpecifierParser: int length>"},{"step":3,"from":"1093230184","to":"1093230184.<java.util.Formatter$FormatSpecifierParser: java.lang.String format>","type":"load","field":"<java.util.Formatter$FormatSpecifierParser: java.lang.String format>"},{"step":4,"from":"1093230184","to":"1093230184.<java.util.Formatter$FormatSpecifierParser: int i>","type":"load","field":"<java.util.Formatter$FormatSpecifierParser: int i>"},{"step":5,"from":"1093230184.<java.util.Formatter$FormatSpecifierParser: java.lang.String format>","to":"sdaReg1","type":"model"},{"step":6,"from":"1093230184","to":"1093230184.<java.util.Formatter$FormatSpecifierParser: int i>","type":"load","field":"<java.util.Formatter$FormatSpecifierParser: int i>"},{"step":7,"from":"1093230184","to":"1093230184.<java.util.Formatter$FormatSpecifierParser: int length>","type":"load","field":"<java.util.Formatter$FormatSpecifierParser: int length>"},{"step":8,"from":"1093230184","to":"1093230184.<java.util.Formatter$FormatSpecifierParser: java.lang.String format>","type":"load","field":"<java.util.Formatter$FormatSpecifierParser: java.lang.String format>"},{"step":9,"from":"1093230184","to":"1093230184.<java.util.Formatter$FormatSpecifierParser: int i>","type":"load","field":"<java.util.Formatter$FormatSpecifierParser: int i>"},{"step":10,"from":"1093230184.<java.util.Formatter$FormatSpecifierParser: java.lang.String format>","to":"sdaReg4","type":"model"},{"step":11,"from":"1093230184","to":"1093230184.<java.util.Formatter$FormatSpecifierParser: int i>","type":"load","field":"<java.util.Formatter$FormatSpecifierParser: int i>"},{"step":12,"from":"1093230184","to":"1093230184.<java.util.Formatter$FormatSpecifierParser: int length>","type":"load","field":"<java.util.Formatter$FormatSpecifierParser: int length>"},{"step":13,"from":"1093230184","to":"1093230184.<java.util.Formatter$FormatSpecifierParser: java.lang.String format>","type":"load","field":"<java.util.Formatter$FormatSpecifierParser: java.lang.String format>"},{"step":14,"from":"1093230184","to":"1093230184.<java.util.Formatter$FormatSpecifierParser: int i>","type":"load","field":"<java.util.Formatter$FormatSpecifierParser: int i>"},{"step":15,"from":"1093230184.<java.util.Formatter$FormatSpecifierParser: java.lang.String format>","to":"sdaReg9","type":"model"},{"step":16,"from":"1093230184","to":"1093230184.<java.util.Formatter$FormatSpecifierParser: int i>","type":"load","field":"<java.util.Formatter$FormatSpecifierParser: int i>"},{"step":17,"from":"1093230184","to":"1093230184.<java.util.Formatter$FormatSpecifierParser: int length>","type":"load","field":"<java.util.Formatter$FormatSpecifierParser: int length>"},{"step":18,"from":"1093230184","to":"1093230184.<java.util.Formatter$FormatSpecifierParser: java.lang.String format>","type":"load","field":"<java.util.Formatter$FormatSpecifierParser: java.lang.String format>"},{"step":19,"from":"1093230184","to":"1093230184.<java.util.Formatter$FormatSpecifierParser: int i>","type":"load","field":"<java.util.Formatter$FormatSpecifierParser: int i>"},{"step":20,"from":"sdaReg14","to":"1093230184","type":"store","field":"<java.util.Formatter$FormatSpecifierParser: int i>"},{"step":21,"from":"1093230184.<java.util.Formatter$FormatSpecifierParser: java.lang.String format>","to":"sdaReg15","type":"model"},{"step":22,"from":"sdaReg15","to":"1093230440","type":"store","field":"<java.util.Formatter$FormatToken: char conversionType>"}],"parameters":[{"id":"1093230184","name":"this","klass":"java.util.Formatter$FormatSpecifierParser"},{"id":"1093230440","name":"arg#1","klass":"java.util.Formatter$FormatToken"}],"returns":[{"id":"1093230440","name":"return","klass":"java.util.Formatter$FormatToken"}],"colors":{"heapLocToColor":{"1093230184":[0],"sdaReg8":[0],"sdaReg9":[0, 5],"1093230184.<java.util.Formatter$FormatSpecifierParser: int i>":[0],"sdaReg4":[0, 4],"sdaReg5":[1],"sdaReg13":[0],"sdaReg14":[0],"sdaReg11":[0],"sdaReg12":[1],"sdaReg10":[6],"1093230184.<java.util.Formatter$FormatSpecifierParser: int length>":[0],"1093230440":[1],"1093230184.<java.util.Formatter$FormatSpecifierParser: java.lang.String format>":[0],"sdaReg3":[0],"sdaReg2":[3],"sdaReg1":[0, 2],"sdaReg0":[0],"sdaReg17":[1],"sdaReg15":[0, 7],"sdaReg16":[1]},"colorToColor":{"0":[0, 1],"1":[8],"7":[1]},"colorToLabel":{"0":"this","1":"arg#1","8":"return"}}}

Generated Model
	this->return
	this->arg#1
	arg#1->return

