Scanning method <java.io.DataOutputStream: void write(byte[],int,int)>

All seen event types: NewArrayRecord, BinaryOperationRecord, MethodReturnRecord, MethodCallRecord, ArrayLengthRecord, MethodStartRecord, LoadInstanceRecord, MethodEndRecord, IfRecord, StoreInstanceRecord, 
Ignored event types: IfRecord, 

JSON Encoded Analysis Data (for visualization):{"heapEdges":[{"step":0,"from":"1093466536","to":"1093450920","type":"load","field":"<java.io.FilterOutputStream: java.io.OutputStream out>"},{"step":1,"from":"1093450920","to":"1093450920.<java.io.ByteArrayOutputStream: int count>","type":"load","field":"<java.io.ByteArrayOutputStream: int count>"},{"step":2,"from":"1093450920","to":"1093466480","type":"load","field":"<java.io.ByteArrayOutputStream: byte[] buf>"},{"step":3,"from":"1093450920","to":"1093450920.<java.io.ByteArrayOutputStream: int count>","type":"load","field":"<java.io.ByteArrayOutputStream: int count>"},{"step":4,"from":"1093450920","to":"1093466480","type":"load","field":"<java.io.ByteArrayOutputStream: byte[] buf>"},{"step":5,"from":"1093450920","to":"1093450920.<java.io.ByteArrayOutputStream: int count>","type":"load","field":"<java.io.ByteArrayOutputStream: int count>"},{"step":6,"from":"1093466480","to":"1093660016","type":"model"},{"step":7,"from":"1093450920","to":"1093660016","type":"create","field":"<java.io.ByteArrayOutputStream: byte[] buf>"},{"step":8,"from":"1093450920","to":"1093450920.<java.io.ByteArrayOutputStream: int count>","type":"load","field":"<java.io.ByteArrayOutputStream: int count>"},{"step":9,"from":"1093484480","to":"1093660016","type":"model"},{"step":10,"from":"1093450920","to":"1093450920.<java.io.ByteArrayOutputStream: int count>","type":"load","field":"<java.io.ByteArrayOutputStream: int count>"},{"step":11,"from":"sdaReg12","to":"1093450920","type":"store","field":"<java.io.ByteArrayOutputStream: int count>"},{"step":12,"from":"1093466536","to":"1093466536.<java.io.DataOutputStream: int written>","type":"load","field":"<java.io.DataOutputStream: int written>"},{"step":13,"from":"sdaReg13","to":"1093466536","type":"store","field":"<java.io.DataOutputStream: int written>"}],"parameters":[{"id":"1093466536","name":"this","klass":"java.io.DataOutputStream"},{"id":"1093484480","name":"arg#1","klass":"byte[]"},{"id":"sdaReg0","name":"arg#2","klass":"int"},{"id":"sdaReg1","name":"arg#3","klass":"int"}],"returns":[{"id":null,"name":"return","klass":null}],"colors":{"heapLocToColor":{"sdaReg8":[0, 3],"1093450920":[0],"sdaReg6":[2],"1093484480":[1],"sdaReg7":[0],"sdaReg5":[2, 3],"sdaReg13":[0, 3],"1093466536.<java.io.DataOutputStream: int written>":[0],"1093450920.<java.io.ByteArrayOutputStream: byte[] buf>":[0],"sdaReg11":[0, 3],"sdaReg12":[0, 3],"sdaReg10":[0, 3],"1093466536":[0],"sdaReg3":[1],"sdaReg2":[0],"1093660016":[4],"sdaReg1":[3],"1093466480":[0],"sdaReg0":[2],"1093450920.<java.io.ByteArrayOutputStream: int count>":[0]},"colorToColor":{"0":[0, 4],"1":[4],"3":[0],"4":[0]},"colorToLabel":{"0":"this","1":"arg#1","2":"arg#2","3":"arg#3","5":"return"}}}

Generated Model
	arg#3->this
	arg#1->this

