Scanning method <java.io.DataOutputStream: void write(byte[],int,int)>

All seen event types: BinaryOperationRecord, MethodReturnRecord, MethodCallRecord, MethodStartRecord, LoadInstanceRecord, MethodEndRecord, IfRecord, StoreInstanceRecord, 
Ignored event types: IfRecord, 

JSON Encoded Analysis Data (for visualization):{"heapEdges":[{"step":0,"from":"1093509648","to":"1093638520","type":"load","field":"<java.io.FilterOutputStream: java.io.OutputStream out>"},{"step":1,"from":"1093638520","to":"1093285208","type":"model"},{"step":2,"from":"1093638520","to":"sdaReg0","type":"model"},{"step":3,"from":"1093638520","to":"sdaReg1","type":"model"},{"step":4,"from":"1093285208","to":"1093638520","type":"model"},{"step":5,"from":"1093285208","to":"sdaReg0","type":"model"},{"step":6,"from":"1093285208","to":"sdaReg1","type":"model"},{"step":7,"from":"sdaReg0","to":"1093638520","type":"model"},{"step":8,"from":"sdaReg0","to":"1093285208","type":"model"},{"step":9,"from":"sdaReg0","to":"sdaReg1","type":"model"},{"step":10,"from":"sdaReg1","to":"1093638520","type":"model"},{"step":11,"from":"sdaReg1","to":"1093285208","type":"model"},{"step":12,"from":"sdaReg1","to":"sdaReg0","type":"model"},{"step":13,"from":"1093509648","to":"1093509648.<java.io.DataOutputStream: int written>","type":"load","field":"<java.io.DataOutputStream: int written>"},{"step":14,"from":"sdaReg4","to":"1093509648","type":"store","field":"<java.io.DataOutputStream: int written>"}],"parameters":[{"id":"1093509648","name":"this","klass":"java.io.DataOutputStream"},{"id":"1093285208","name":"arg#1","klass":"byte[]"},{"id":"sdaReg0","name":"arg#2","klass":"int"},{"id":"sdaReg1","name":"arg#3","klass":"int"}],"returns":[{"id":null,"name":"return","klass":null}],"colors":{"heapLocToColor":{"1093638520":[0],"1093509648.<java.io.DataOutputStream: int written>":[0],"sdaReg4":[0, 3],"sdaReg3":[1],"sdaReg2":[0],"sdaReg1":[0, 3],"1093285208":[0, 1],"sdaReg0":[0, 2],"1093509648":[0]},"colorToColor":{"0":[0, 1, 2, 3],"1":[0, 2, 3],"2":[0, 1, 3],"3":[0, 1, 2]},"colorToLabel":{"0":"this","1":"arg#1","2":"arg#2","3":"arg#3","4":"return"}}}

Generated Model
	this->arg#3
	this->arg#2
	this->arg#1
	arg#3->this
	arg#3->arg#2
	arg#3->arg#1
	arg#2->this
	arg#2->arg#3
	arg#2->arg#1
	arg#1->this
	arg#1->arg#3
	arg#1->arg#2

