Scanning method <java.util.Formatter$FormatToken: boolean requireArgument()>

All seen event types: SimpleAssignmentRecord, LoadInstanceRecord, IfRecord, 
Ignored event types: IfRecord, 

JSON Encoded Analysis Data (for visualization):{"heapEdges":[{"step":0,"from":"1093421864","to":"1093421864.<java.util.Formatter$FormatToken: char conversionType>","type":"load","field":"<java.util.Formatter$FormatToken: char conversionType>"},{"step":1,"from":"1093421864","to":"1093421864.<java.util.Formatter$FormatToken: char conversionType>","type":"load","field":"<java.util.Formatter$FormatToken: char conversionType>"}],"parameters":[{"id":"1093421864","name":"this","klass":"java.util.Formatter$FormatToken"}],"returns":[{"id":"sdaReg0","name":"return","klass":"boolean"}],"colors":{"heapLocToColor":{"1093421864.<java.util.Formatter$FormatToken: char conversionType>":[0],"1093421864":[0]},"colorToColor":{},"colorToLabel":{"0":"this","1":"return"}}}

Generated Model

