Scanning method <java.io.ObjectInputStream: float readFloat()>

All seen event types: LoadStaticRecord, MethodReturnRecord, MethodCallRecord, MethodStartRecord, LoadInstanceRecord, MethodEndRecord, 
Ignored event types: 

JSON Encoded Analysis Data (for visualization):{"heapEdges":[{"step":0,"from":"1093522368","to":"1093267032","type":"load","field":"<java.io.ObjectInputStream: java.io.DataInputStream primitiveTypes>"},{"step":1,"from":"1093267032","to":"1093522368","type":"load","field":"<java.io.FilterInputStream: java.io.InputStream in>"},{"step":2,"from":"1093267032","to":"1093292056","type":"load","field":"<java.io.DataInputStream: byte[] scratch>"},{"step":3,"from":"1093522368","to":"1093292056","type":"model"},{"step":4,"from":"1093267032","to":"1093292056","type":"load","field":"<java.io.DataInputStream: byte[] scratch>"},{"step":5,"from":"static.<java.nio.ByteOrder: java.nio.ByteOrder BIG_ENDIAN>","to":"1084339448","type":"load","field":"<java.nio.ByteOrder: java.nio.ByteOrder BIG_ENDIAN>"},{"step":6,"from":"1093292056","to":"sdaReg2","type":"model"},{"step":7,"from":"sdaReg2","to":"sdaReg3","type":"model"}],"parameters":[{"id":"1093522368","name":"this","klass":"java.io.ObjectInputStream"}],"returns":[{"id":"sdaReg3","name":"return","klass":"float"}],"colors":{"heapLocToColor":{"1093267032.<java.io.FilterInputStream: java.io.InputStream in>":[0],"1084339448":[1],"1093267032.<java.io.DataInputStream: byte[] scratch>":[0],"sdaReg3":[3],"sdaReg2":[2],"1093267032":[0],"sdaReg1":[0],"1093292056":[0],"sdaReg0":[0],"1093522368":[0],"static.<java.nio.ByteOrder: java.nio.ByteOrder BIG_ENDIAN>":[1]},"colorToColor":{"0":[0, 2],"2":[3],"3":[4]},"colorToLabel":{"0":"this","1":"<java.nio.ByteOrder: java.nio.ByteOrder BIG_ENDIAN>","4":"return"}}}

Generated Model
	this->return

