Scanning method <java.io.FilterInputStream: void <init>(java.io.InputStream)>

All seen event types: MethodReturnRecord, MethodCallRecord, MethodStartRecord, MethodEndRecord, StoreInstanceRecord, 
Ignored event types: 

JSON Encoded Analysis Data (for visualization):{"heapEdges":[{"step":0,"from":"1093667640","to":"1093359040","type":"store","field":"<java.io.FilterInputStream: java.io.InputStream in>"}],"parameters":[{"id":"1093359040","name":"this","klass":"java.io.FilterInputStream"},{"id":"1093667640","name":"arg#1","klass":"java.io.InputStream"}],"returns":[{"id":"1093359040","name":"return","klass":"java.io.FilterInputStream"}],"colors":{"heapLocToColor":{"sdaReg2":[0],"1093359040":[0],"sdaReg1":[0],"sdaReg0":[0],"1093667640":[1]},"colorToColor":{"0":[2],"1":[0]},"colorToLabel":{"0":"this","1":"arg#1","2":"return"}}}

Generated Model
	this->return
	arg#1->this
	arg#1->return

