Scanning method <java.io.FilterInputStream: void <init>(java.io.InputStream)>

All seen event types: MethodReturnRecord, MethodCallRecord, MethodStartRecord, MethodEndRecord, StoreInstanceRecord, 
Ignored event types: 

JSON Encoded Analysis Data (for visualization):{"heapEdges":[{"step":0,"from":"1093467432","to":"1093668696","type":"store","field":"<java.io.FilterInputStream: java.io.InputStream in>"}],"parameters":[{"id":"1093668696","name":"this","klass":"java.io.FilterInputStream"},{"id":"1093467432","name":"arg#1","klass":"java.io.InputStream"}],"returns":[{"id":"1093668696","name":"return","klass":"java.io.FilterInputStream"}],"colors":{"heapLocToColor":{"1093668696":[0],"sdaReg2":[0],"1093467432":[1],"sdaReg1":[0],"sdaReg0":[0]},"colorToColor":{"0":[2],"1":[0]},"colorToLabel":{"0":"this","1":"arg#1","2":"return"}}}

Generated Model
	this->return
	arg#1->this
	arg#1->return

