Scanning method <java.util.ArrayList: java.lang.Object set(int,java.lang.Object)>

All seen event types: StoreArrayRecord, LoadInstanceRecord, LoadArrayRecord, IfRecord, 
Ignored event types: IfRecord, 

JSON Encoded Analysis Data (for visualization):{"heapEdges":[{"step":0,"from":"1093505184","to":"1093240704","type":"load","field":"<java.util.ArrayList: java.lang.Object[] array>"},{"step":1,"from":"1093505184","to":"1093505184.<java.util.ArrayList: int size>","type":"load","field":"<java.util.ArrayList: int size>"},{"step":2,"from":"1093240704","to":"1093523760","type":"load","field":"arrayIdx_int:75"}],"parameters":[{"id":"1093505184","name":"this","klass":"java.util.ArrayList"},{"id":"sdaReg0","name":"arg#1","klass":"int"},{"id":"0","name":"arg#2","klass":"java.lang.Object"}],"returns":[{"id":"1093523760","name":"return","klass":"java.lang.Object"}],"colors":{"heapLocToColor":{"1093505184.<java.util.ArrayList: int size>":[0],"1093523760":[0],"0":[2],"sdaReg0":[1],"1093240704":[0],"1093505184":[0]},"colorToColor":{"0":[3]},"colorToLabel":{"0":"this","1":"arg#1","2":"arg#2","3":"return"}}}

Generated Model
	this->return

