Scanning method <java.io.ObjectInputStream: void readHierarchy(java.lang.Object,java.io.ObjectStreamClass)>

All seen event types: SimpleAssignmentRecord, LoadInstanceRecord, MethodStartRecord, IfRecord, InstanceOfRecord, NewObjectRecord, StoreInstanceRecord, LoadStaticRecord, BinaryOperationRecord, MethodCallRecord, MethodReturnRecord, ArrayLengthRecord, CastRecord, LoadArrayRecord, MethodEndRecord, 
Ignored event types: IfRecord, 

JSON Encoded Analysis Data (for visualization):{"heapEdges":[{"step":0,"from":"1093684944","to":"1093391992","type":"model"},{"step":1,"from":"1093240224","to":"1093388824","type":"load","field":"<java.io.ObjectInputStream: java.util.HashMap cachedSuperclasses>"},{"step":2,"from":"1093487144","to":"1093510072","type":"model"},{"step":3,"from":"1093388824","to":"1093510072","type":"model"},{"step":4,"from":"1093388824","to":"0","type":"model"},{"step":5,"from":"1093510072","to":"1093388824","type":"model"},{"step":6,"from":"1093510072","to":"0","type":"model"},{"step":7,"from":"1093487144","to":"1093510072","type":"model"},{"step":8,"from":"static.<libcore.util.EmptyArray: java.lang.Object[] OBJECT>","to":"1083994088","type":"load","field":"<libcore.util.EmptyArray: java.lang.Object[] OBJECT>"},{"step":9,"from":"1083994088","to":"1093332712","type":"store","field":"<java.util.ArrayList: java.lang.Object[] array>"},{"step":10,"from":"1093510072","to":"1083910288","type":"model"},{"step":11,"from":"1093332712","to":"1093510072","type":"model"},{"step":12,"from":"1093510072","to":"1093332712","type":"model"},{"step":13,"from":"1083910288","to":"0","type":"model"},{"step":14,"from":"1093240224","to":"1093388824","type":"load","field":"<java.io.ObjectInputStream: java.util.HashMap cachedSuperclasses>"},{"step":15,"from":"1093388824","to":"1093510072","type":"model"},{"step":16,"from":"1093388824","to":"1093332712","type":"model"},{"step":17,"from":"1093510072","to":"1093388824","type":"model"},{"step":18,"from":"1093510072","to":"1093332712","type":"model"},{"step":19,"from":"1093332712","to":"1093388824","type":"model"},{"step":20,"from":"1093332712","to":"1093510072","type":"model"},{"step":21,"from":"1093332712","to":"1093332712.<java.util.ArrayList: int size>","type":"load","field":"<java.util.ArrayList: int size>"},{"step":22,"from":"1093332712","to":"1093332712.<java.util.ArrayList: int size>","type":"load","field":"<java.util.ArrayList: int size>"},{"step":23,"from":"1093308224","to":"1093510072","type":"load","field":"arrayIdx_int:0"},{"step":24,"from":"1093391992","to":"1093391992.<java.util.ArrayList: int size>","type":"load","field":"<java.util.ArrayList: int size>"},{"step":25,"from":"1093391992","to":"1093391992.<java.util.ArrayList: int size>","type":"load","field":"<java.util.ArrayList: int size>"},{"step":26,"from":"1093391992","to":"1093392016","type":"load","field":"<java.util.ArrayList: java.lang.Object[] array>"},{"step":27,"from":"1093392016","to":"1093684944","type":"load","field":"arrayIdx_int:0"},{"step":28,"from":"1093684944","to":"1093510072","type":"model"},{"step":29,"from":"1093510072","to":"sdaReg34","type":"model"},{"step":30,"from":"1093684944","to":"sdaReg35","type":"model"},{"step":31,"from":"1093510072","to":"sdaReg37","type":"model"},{"step":32,"from":"1093391992","to":"1093391992.<java.util.ArrayList: int size>","type":"load","field":"<java.util.ArrayList: int size>"},{"step":33,"from":"1093391992","to":"1093392016","type":"load","field":"<java.util.ArrayList: java.lang.Object[] array>"},{"step":34,"from":"1093392016","to":"1093684944","type":"load","field":"arrayIdx_int:0"},{"step":35,"from":"1093487144","to":"1093240224","type":"store","field":"<java.io.ObjectInputStream: java.lang.Object currentObject>"},{"step":36,"from":"1093684944","to":"1093240224","type":"store","field":"<java.io.ObjectInputStream: java.io.ObjectStreamClass currentClass>"},{"step":37,"from":"1093684944","to":"sdaReg46","type":"model"},{"step":38,"from":"1093684944","to":"1093510072","type":"model"},{"step":39,"from":"1093240224","to":"1093240224.<java.io.ObjectInputStream: boolean mustResolve>","type":"load","field":"<java.io.ObjectInputStream: boolean mustResolve>"},{"step":40,"from":"1093684944","to":"0","type":"model"},{"step":41,"from":"1093684944","to":"1093420056","type":"model"},{"step":42,"from":"1093684944","to":"1093510072","type":"model"},{"step":43,"from":"1093420056","to":"1093508504","type":"load","field":"arrayIdx_int:0"},{"step":44,"from":"1093684944","to":"1093508504","type":"model"},{"step":45,"from":"1093684944","to":"1093279200","type":"model"},{"step":46,"from":"1093508504","to":"1093684944","type":"model"},{"step":47,"from":"1093508504","to":"1093279200","type":"model"},{"step":48,"from":"1093508504","to":"1083909616","type":"load","field":"<java.io.ObjectStreamField: java.lang.Object type>"},{"step":49,"from":"1093508504","to":"1083909616","type":"load","field":"<java.io.ObjectStreamField: java.lang.Object type>"},{"step":50,"from":"static.<java.lang.Byte: java.lang.Class TYPE>","to":"1083909112","type":"load","field":"<java.lang.Byte: java.lang.Class TYPE>"},{"step":51,"from":"static.<java.lang.Character: java.lang.Class TYPE>","to":"1083909448","type":"load","field":"<java.lang.Character: java.lang.Class TYPE>"},{"step":52,"from":"static.<java.lang.Double: java.lang.Class TYPE>","to":"1083910120","type":"load","field":"<java.lang.Double: java.lang.Class TYPE>"},{"step":53,"from":"static.<java.lang.Float: java.lang.Class TYPE>","to":"1083909952","type":"load","field":"<java.lang.Float: java.lang.Class TYPE>"},{"step":54,"from":"static.<java.lang.Integer: java.lang.Class TYPE>","to":"1083909616","type":"load","field":"<java.lang.Integer: java.lang.Class TYPE>"},{"step":55,"from":"1093240224","to":"1093292592","type":"load","field":"<java.io.ObjectInputStream: java.io.DataInputStream input>"},{"step":56,"from":"1093292592","to":"1093296112","type":"load","field":"<java.io.FilterInputStream: java.io.InputStream in>"},{"step":57,"from":"1093292592","to":"1093388880","type":"load","field":"<java.io.DataInputStream: byte[] scratch>"},{"step":58,"from":"1093296112","to":"1093388880","type":"model"},{"step":59,"from":"1093292592","to":"1093388880","type":"load","field":"<java.io.DataInputStream: byte[] scratch>"},{"step":60,"from":"static.<java.nio.ByteOrder: java.nio.ByteOrder BIG_ENDIAN>","to":"1084339448","type":"load","field":"<java.nio.ByteOrder: java.nio.ByteOrder BIG_ENDIAN>"},{"step":61,"from":"1093388880","to":"sdaReg69","type":"model"},{"step":62,"from":"1093279200","to":"1093487144","type":"model"},{"step":63,"from":"1093279200","to":"sdaReg69","type":"model"},{"step":64,"from":"1093487144","to":"1093279200","type":"model"},{"step":65,"from":"1093487144","to":"sdaReg69","type":"model"},{"step":66,"from":"sdaReg69","to":"1093279200","type":"model"},{"step":67,"from":"sdaReg69","to":"1093487144","type":"model"},{"step":68,"from":"1093240224","to":"sdaReg70","type":"create","field":"<java.io.ObjectInputStream: java.lang.Object currentObject>"},{"step":69,"from":"1093240224","to":"sdaReg71","type":"create","field":"<java.io.ObjectInputStream: java.io.ObjectStreamClass currentClass>"}],"parameters":[{"id":"1093240224","name":"this","klass":"java.io.ObjectInputStream"},{"id":"1093487144","name":"arg#1","klass":"java.lang.Object"},{"id":"1093684944","name":"arg#2","klass":"java.io.ObjectStreamClass"}],"returns":[{"id":null,"name":"return","klass":null}],"colors":{"heapLocToColor":{"1093420056":[16, 2, 3],"1093510072":[0, 1, 2, 3, 4, 6, 9],"sdaReg68":[0],"sdaReg69":[17, 2, 3, 24],"1093240224.<java.io.ObjectInputStream: java.util.HashMap cachedSuperclasses>":[0],"sdaReg66":[16, 2, 3],"sdaReg67":[16, 2, 3],"sdaReg64":[16, 2, 3],"sdaReg63":[17, 2, 3],"sdaReg13":[6],"1093308224":[9],"sdaReg14":[6],"sdaReg11":[6],"sdaReg12":[6],"sdaReg10":[6],"1093388880":[0],"1093388824":[0],"sdaReg17":[0, 1, 4, 5, 8],"sdaReg18":[0, 6],"sdaReg15":[0, 1, 4, 5, 8],"sdaReg16":[0, 1, 4, 8],"0":[0, 1, 2, 3, 4, 5, 8],"1083994088":[7],"static.<java.lang.Character: java.lang.Class TYPE>":[19],"1093392016.arrayIdx_int:0":[2, 3],"1083909616":[16, 2, 3, 22],"1093292592.<java.io.DataInputStream: byte[] scratch>":[0],"1093292592":[0],"1093391992":[2, 3],"1093296112":[0],"1093279200":[17, 2, 3],"1093487144":[17, 1, 2, 3],"1093332712.<java.util.ArrayList: int size>":[0, 6],"1083910288":[0, 1, 4, 8],"1084339448":[23],"1093508504.<java.io.ObjectStreamField: java.lang.Object type>":[16, 2, 3],"1093308224.arrayIdx_int:0":[0, 1, 4, 6],"1093391992.<java.util.ArrayList: java.lang.Object[] array>":[2, 3],"1093508504":[16, 2, 3],"sdaReg60":[16, 2, 3],"1093392016":[2, 3],"1093240224":[0],"1093684944":[2, 3],"static.<libcore.util.EmptyArray: java.lang.Object[] OBJECT>":[7],"static.<java.lang.Float: java.lang.Class TYPE>":[21],"static.<java.lang.Byte: java.lang.Class TYPE>":[18],"1083909112":[18],"sdaReg59":[0, 1, 2, 3, 4, 6, 9],"sdaReg58":[16, 2, 3],"sdaReg57":[16, 2, 3],"sdaReg56":[16, 2, 3],"sdaReg55":[2, 3],"static.<java.nio.ByteOrder: java.nio.ByteOrder BIG_ENDIAN>":[23],"sdaReg54":[1],"sdaReg53":[0],"sdaReg52":[0],"sdaReg51":[0, 1, 2, 3, 4, 5, 8],"static.<java.lang.Double: java.lang.Class TYPE>":[20],"sdaReg50":[0, 1, 2, 3, 4, 6, 9],"1093391992.<java.util.ArrayList: int size>":[2, 3],"sdaReg45":[2, 3],"sdaReg44":[1],"sdaReg47":[2, 3, 15],"1083910120":[20],"sdaReg46":[2, 3, 15],"sdaReg41":[2, 3],"sdaReg40":[2, 3],"1083909448":[19],"sdaReg43":[0],"sdaReg42":[2, 3],"sdaReg38":[14],"sdaReg37":[0, 1, 2, 3, 4, 6, 9, 13],"1083909952":[21],"sdaReg32":[2, 3],"sdaReg31":[2, 3],"sdaReg30":[2, 3],"sdaReg36":[12],"sdaReg35":[2, 3, 11],"sdaReg34":[0, 1, 2, 3, 4, 6, 9, 10],"sdaReg33":[0, 1, 2, 3, 4, 6, 9],"1093332712":[0, 6],"sdaReg8":[6],"sdaReg9":[6],"sdaReg6":[0, 1, 4],"sdaReg7":[6],"sdaReg4":[0, 1, 4],"1093240224.<java.io.ObjectInputStream: boolean mustResolve>":[0],"sdaReg5":[0],"sdaReg27":[2, 3],"sdaReg26":[0, 1, 4, 6, 9],"sdaReg29":[2, 3],"sdaReg3":[0, 5],"static.<java.lang.Integer: java.lang.Class TYPE>":[16, 2, 3, 22],"sdaReg2":[0, 5],"sdaReg21":[0, 6],"sdaReg1":[1, 4],"sdaReg0":[2, 3],"sdaReg23":[0, 1, 4, 6, 9],"sdaReg22":[0, 6],"sdaReg25":[0],"sdaReg24":[0, 1, 4, 6, 9]},"colorToColor":{"17":[17, 1, 2, 3, 24],"0":[0, 1, 4, 5, 6, 24],"16":[17, 2, 3],"1":[17, 0, 2, 3, 5, 6, 24],"2":[17, 0, 1, 2, 3, 24],"3":[17, 0, 1, 2, 3, 24],"4":[0, 5, 6],"6":[0, 1, 4, 6],"7":[6],"24":[17, 1, 2, 3]},"colorToLabel":{"0":"this","1":"arg#1","2":"arg#2","7":"<libcore.util.EmptyArray: java.lang.Object[] OBJECT>","18":"<java.lang.Byte: java.lang.Class TYPE>","19":"<java.lang.Character: java.lang.Class TYPE>","20":"<java.lang.Double: java.lang.Class TYPE>","21":"<java.lang.Float: java.lang.Class TYPE>","22":"<java.lang.Integer: java.lang.Class TYPE>","23":"<java.nio.ByteOrder: java.nio.ByteOrder BIG_ENDIAN>","25":"return"}}}

Generated Model
	this->arg#2
	this->arg#1
	arg#2->this
	arg#2->arg#1
	arg#1->this
	arg#1->arg#2

