Scanning method <java.util.HashMap: java.util.Iterator newKeyIterator()>

All seen event types: MethodReturnRecord, MethodCallRecord, LoadInstanceRecord, MethodStartRecord, MethodEndRecord, IfRecord, StoreInstanceRecord, NewObjectRecord, 
Ignored event types: IfRecord, 

JSON Encoded Analysis Data (for visualization):{"heapEdges":[{"step":0,"from":"1094039048","to":"1094205360","type":"store","field":"<java.util.HashMap$KeyIterator: java.util.HashMap this$0>"},{"step":1,"from":"1094039048","to":"1094205360","type":"store","field":"<java.util.HashMap$HashIterator: java.util.HashMap this$0>"},{"step":2,"from":"1094039048","to":"1094039104","type":"load","field":"<java.util.HashMap: java.util.HashMap$HashMapEntry entryForNullKey>"},{"step":3,"from":"1094039104","to":"1094205360","type":"store","field":"<java.util.HashMap$HashIterator: java.util.HashMap$HashMapEntry nextEntry>"},{"step":4,"from":"1094039048","to":"1094039048.<java.util.HashMap: int modCount>","type":"load","field":"<java.util.HashMap: int modCount>"},{"step":5,"from":"1094039048.<java.util.HashMap: int modCount>","to":"1094205360","type":"store","field":"<java.util.HashMap$HashIterator: int expectedModCount>"}],"parameters":[{"id":"1094039048","name":"this","klass":"java.util.HashMap"}],"returns":[{"id":"1094205360","name":"return","klass":"java.util.Iterator"}],"colors":{"heapLocToColor":{"sdaReg8":[1],"sdaReg9":[1],"sdaReg6":[1],"sdaReg7":[1],"sdaReg4":[1],"sdaReg5":[0],"1094039104":[0],"1094039048":[0],"1094205360":[1],"sdaReg3":[0],"sdaReg2":[1],"sdaReg1":[0],"sdaReg0":[1],"1094039048.<java.util.HashMap: int modCount>":[0]},"colorToColor":{"0":[1],"1":[2]},"colorToLabel":{"0":"this","2":"return"}}}

Generated Model
	this->return

