Scanning method <java.io.ObjectInputStream: java.io.ObjectStreamClass readClassDescriptor()>

All seen event types: StoreArrayRecord, SimpleAssignmentRecord, LoadInstanceRecord, MethodStartRecord, IfRecord, StoreInstanceRecord, NewObjectRecord, LoadStaticRecord, NewArrayRecord, BinaryOperationRecord, SwitchRecord, MethodCallRecord, MethodReturnRecord, ArrayLengthRecord, CastRecord, LoadArrayRecord, MethodEndRecord, 
Ignored event types: SwitchRecord, IfRecord, 

JSON Encoded Analysis Data (for visualization):{"heapEdges":[{"step":0,"from":"1093293768","to":"1093386376","type":"load","field":"<java.io.ObjectInputStream: java.io.DataInputStream input>"},{"step":1,"from":"1093386376","to":"1093544616","type":"load","field":"<java.io.FilterInputStream: java.io.InputStream in>"},{"step":2,"from":"1093386376","to":"1093388312","type":"load","field":"<java.io.DataInputStream: byte[] scratch>"},{"step":3,"from":"1093544616","to":"1093388312","type":"model"},{"step":4,"from":"1093386376","to":"1093388312","type":"load","field":"<java.io.DataInputStream: byte[] scratch>"},{"step":5,"from":"static.<java.nio.ByteOrder: java.nio.ByteOrder BIG_ENDIAN>","to":"1084339448","type":"load","field":"<java.nio.ByteOrder: java.nio.ByteOrder BIG_ENDIAN>"},{"step":6,"from":"1093388312","to":"sdaReg5","type":"model"},{"step":7,"from":"1093386376","to":"1093544616","type":"load","field":"<java.io.FilterInputStream: java.io.InputStream in>"},{"step":8,"from":"1093544616","to":"1093497832","type":"model"},{"step":9,"from":"1093497832","to":"1093497832.arrayIdx_int:0","type":"load","field":"arrayIdx_int:0"},{"step":10,"from":"sdaReg19","to":"1093499800","type":"store","field":"arrayIdx_int:0"},{"step":11,"from":"1093497832","to":"1093497832.arrayIdx_int:1","type":"load","field":"arrayIdx_int:1"},{"step":12,"from":"sdaReg19","to":"1093499800","type":"store","field":"arrayIdx_int:1"},{"step":13,"from":"1093497832","to":"1093497832.arrayIdx_int:2","type":"load","field":"arrayIdx_int:2"},{"step":14,"from":"sdaReg19","to":"1093499800","type":"store","field":"arrayIdx_int:2"},{"step":15,"from":"1093497832","to":"1093497832.arrayIdx_int:3","type":"load","field":"arrayIdx_int:3"},{"step":16,"from":"sdaReg19","to":"1093499800","type":"store","field":"arrayIdx_int:3"},{"step":17,"from":"1093497832","to":"1093497832.arrayIdx_int:4","type":"load","field":"arrayIdx_int:4"},{"step":18,"from":"sdaReg19","to":"1093499800","type":"store","field":"arrayIdx_int:4"},{"step":19,"from":"1093497832","to":"1093497832.arrayIdx_int:5","type":"load","field":"arrayIdx_int:5"},{"step":20,"from":"sdaReg19","to":"1093499800","type":"store","field":"arrayIdx_int:5"},{"step":21,"from":"1093497832","to":"1093497832.arrayIdx_int:6","type":"load","field":"arrayIdx_int:6"},{"step":22,"from":"sdaReg19","to":"1093499800","type":"store","field":"arrayIdx_int:6"},{"step":23,"from":"1093497832","to":"1093497832.arrayIdx_int:7","type":"load","field":"arrayIdx_int:7"},{"step":24,"from":"sdaReg19","to":"1093499800","type":"store","field":"arrayIdx_int:7"},{"step":25,"from":"1093497832","to":"1093497832.arrayIdx_int:8","type":"load","field":"arrayIdx_int:8"},{"step":26,"from":"sdaReg19","to":"1093499800","type":"store","field":"arrayIdx_int:8"},{"step":27,"from":"1093497832","to":"1093497832.arrayIdx_int:9","type":"load","field":"arrayIdx_int:9"},{"step":28,"from":"sdaReg19","to":"1093499800","type":"store","field":"arrayIdx_int:9"},{"step":29,"from":"1093497832","to":"1093497832.arrayIdx_int:10","type":"load","field":"arrayIdx_int:10"},{"step":30,"from":"sdaReg19","to":"1093499800","type":"store","field":"arrayIdx_int:10"},{"step":31,"from":"1093497832","to":"1093497832.arrayIdx_int:11","type":"load","field":"arrayIdx_int:11"},{"step":32,"from":"sdaReg19","to":"1093499800","type":"store","field":"arrayIdx_int:11"},{"step":33,"from":"1093497832","to":"1093497832.arrayIdx_int:12","type":"load","field":"arrayIdx_int:12"},{"step":34,"from":"sdaReg19","to":"1093499800","type":"store","field":"arrayIdx_int:12"},{"step":35,"from":"1093497832","to":"1093497832.arrayIdx_int:13","type":"load","field":"arrayIdx_int:13"},{"step":36,"from":"sdaReg19","to":"1093499800","type":"store","field":"arrayIdx_int:13"},{"step":37,"from":"1093497832","to":"1093497832.arrayIdx_int:14","type":"load","field":"arrayIdx_int:14"},{"step":38,"from":"sdaReg19","to":"1093499800","type":"store","field":"arrayIdx_int:14"},{"step":39,"from":"1093497832","to":"1093497832.arrayIdx_int:15","type":"load","field":"arrayIdx_int:15"},{"step":40,"from":"sdaReg19","to":"1093499800","type":"store","field":"arrayIdx_int:15"},{"step":41,"from":"1093497832","to":"1093497832.arrayIdx_int:16","type":"load","field":"arrayIdx_int:16"},{"step":42,"from":"sdaReg19","to":"1093499800","type":"store","field":"arrayIdx_int:16"},{"step":43,"from":"1093499800","to":"sdaReg20","type":"model"},{"step":44,"from":"1093497664","to":"sdaReg20","type":"model"},{"step":45,"from":"sdaReg20","to":"1093497664","type":"model"},{"step":46,"from":"1093293768","to":"1093386376","type":"load","field":"<java.io.ObjectInputStream: java.io.DataInputStream input>"},{"step":47,"from":"1093386376","to":"1093544616","type":"load","field":"<java.io.FilterInputStream: java.io.InputStream in>"},{"step":48,"from":"1093386376","to":"1093388312","type":"load","field":"<java.io.DataInputStream: byte[] scratch>"},{"step":49,"from":"1093544616","to":"1093388312","type":"model"},{"step":50,"from":"1093386376","to":"1093388312","type":"load","field":"<java.io.DataInputStream: byte[] scratch>"},{"step":51,"from":"static.<java.nio.ByteOrder: java.nio.ByteOrder BIG_ENDIAN>","to":"1084339448","type":"load","field":"<java.nio.ByteOrder: java.nio.ByteOrder BIG_ENDIAN>"},{"step":52,"from":"1093388312","to":"sdaReg23","type":"model"},{"step":53,"from":"1093497664","to":"sdaReg23","type":"model"},{"step":54,"from":"sdaReg23","to":"1093497664","type":"model"},{"step":55,"from":"1093293768","to":"1093386376","type":"load","field":"<java.io.ObjectInputStream: java.io.DataInputStream input>"},{"step":56,"from":"1093386376","to":"1093544616","type":"load","field":"<java.io.FilterInputStream: java.io.InputStream in>"},{"step":57,"from":"1093544616","to":"1093544616.<java.io.ByteArrayInputStream: int pos>","type":"load","field":"<java.io.ByteArrayInputStream: int pos>"},{"step":58,"from":"1093544616","to":"1093544616.<java.io.ByteArrayInputStream: int count>","type":"load","field":"<java.io.ByteArrayInputStream: int count>"},{"step":59,"from":"1093544616","to":"1093544400","type":"load","field":"<java.io.ByteArrayInputStream: byte[] buf>"},{"step":60,"from":"1093544616","to":"1093544616.<java.io.ByteArrayInputStream: int pos>","type":"load","field":"<java.io.ByteArrayInputStream: int pos>"},{"step":61,"from":"sdaReg26","to":"1093544616","type":"store","field":"<java.io.ByteArrayInputStream: int pos>"},{"step":62,"from":"1093544400","to":"1093544400.arrayIdx_int:33","type":"load","field":"arrayIdx_int:33"},{"step":63,"from":"1093497664","to":"sdaReg28","type":"model"},{"step":64,"from":"sdaReg28","to":"1093497664","type":"model"},{"step":65,"from":"1093293768","to":"1093293768.<java.io.ObjectInputStream: int descriptorHandle>","type":"load","field":"<java.io.ObjectInputStream: int descriptorHandle>"},{"step":66,"from":"1093293768","to":"1093293768.<java.io.ObjectInputStream: int descriptorHandle>","type":"load","field":"<java.io.ObjectInputStream: int descriptorHandle>"},{"step":67,"from":"1093293768","to":"1093388400","type":"load","field":"<java.io.ObjectInputStream: java.util.ArrayList objectsRead>"},{"step":68,"from":"1093388400","to":"1093388400.<java.util.ArrayList: int size>","type":"load","field":"<java.util.ArrayList: int size>"},{"step":69,"from":"1093293768","to":"1093388400","type":"load","field":"<java.io.ObjectInputStream: java.util.ArrayList objectsRead>"},{"step":70,"from":"1093388400","to":"1083994088","type":"load","field":"<java.util.ArrayList: java.lang.Object[] array>"},{"step":71,"from":"1093388400","to":"1093388400.<java.util.ArrayList: int size>","type":"load","field":"<java.util.ArrayList: int size>"},{"step":72,"from":"1083994088","to":"1093453440","type":"model"},{"step":73,"from":"1093388400","to":"1093453440","type":"create","field":"<java.util.ArrayList: java.lang.Object[] array>"},{"step":74,"from":"1093453440","to":"1093497664","type":"create","field":"arrayIdx_int:0"},{"step":75,"from":"sdaReg39","to":"1093388400","type":"store","field":"<java.util.ArrayList: int size>"},{"step":76,"from":"1093388400","to":"1093388400.<java.util.AbstractList: int modCount>","type":"load","field":"<java.util.AbstractList: int modCount>"},{"step":77,"from":"sdaReg40","to":"1093388400","type":"store","field":"<java.util.AbstractList: int modCount>"},{"step":78,"from":"1093293768","to":"1093386376","type":"load","field":"<java.io.ObjectInputStream: java.io.DataInputStream input>"},{"step":79,"from":"1093386376","to":"1093544616","type":"load","field":"<java.io.FilterInputStream: java.io.InputStream in>"},{"step":80,"from":"1093386376","to":"1093388312","type":"load","field":"<java.io.DataInputStream: byte[] scratch>"},{"step":81,"from":"1093544616","to":"1093388312","type":"model"},{"step":82,"from":"1093386376","to":"1093388312","type":"load","field":"<java.io.DataInputStream: byte[] scratch>"},{"step":83,"from":"static.<java.nio.ByteOrder: java.nio.ByteOrder BIG_ENDIAN>","to":"1084339448","type":"load","field":"<java.nio.ByteOrder: java.nio.ByteOrder BIG_ENDIAN>"},{"step":84,"from":"1093388312","to":"sdaReg45","type":"model"},{"step":85,"from":"1093497664","to":"1093702528","type":"model"},{"step":86,"from":"1093702528","to":"1093497664","type":"model"},{"step":87,"from":"1093293768","to":"1093386376","type":"load","field":"<java.io.ObjectInputStream: java.io.DataInputStream input>"},{"step":88,"from":"1093386376","to":"1093544616","type":"load","field":"<java.io.FilterInputStream: java.io.InputStream in>"},{"step":89,"from":"1093544616","to":"1093544616.<java.io.ByteArrayInputStream: int count>","type":"load","field":"<java.io.ByteArrayInputStream: int count>"},{"step":90,"from":"1093544616","to":"1093544400","type":"load","field":"<java.io.ByteArrayInputStream: byte[] buf>"},{"step":91,"from":"sdaReg49","to":"1093544616","type":"store","field":"<java.io.ByteArrayInputStream: int pos>"},{"step":92,"from":"1093544400","to":"1093544400.arrayIdx_int:36","type":"load","field":"arrayIdx_int:36"},{"step":93,"from":"1093293768","to":"1093386376","type":"load","field":"<java.io.ObjectInputStream: java.io.DataInputStream input>"},{"step":94,"from":"1093386376","to":"1093544616","type":"load","field":"<java.io.FilterInputStream: java.io.InputStream in>"},{"step":95,"from":"1093386376","to":"1093388312","type":"load","field":"<java.io.DataInputStream: byte[] scratch>"},{"step":96,"from":"1093544616","to":"1093388312","type":"model"},{"step":97,"from":"1093386376","to":"1093388312","type":"load","field":"<java.io.DataInputStream: byte[] scratch>"},{"step":98,"from":"static.<java.nio.ByteOrder: java.nio.ByteOrder BIG_ENDIAN>","to":"1084339448","type":"load","field":"<java.nio.ByteOrder: java.nio.ByteOrder BIG_ENDIAN>"},{"step":99,"from":"1093388312","to":"sdaReg56","type":"model"},{"step":100,"from":"1093386376","to":"1093544616","type":"load","field":"<java.io.FilterInputStream: java.io.InputStream in>"},{"step":101,"from":"1093544616","to":"1093325200","type":"model"},{"step":102,"from":"1093325200","to":"1093325200.arrayIdx_int:0","type":"load","field":"arrayIdx_int:0"},{"step":103,"from":"sdaReg70","to":"1093319920","type":"store","field":"arrayIdx_int:0"},{"step":104,"from":"1093325200","to":"1093325200.arrayIdx_int:1","type":"load","field":"arrayIdx_int:1"},{"step":105,"from":"sdaReg70","to":"1093319920","type":"store","field":"arrayIdx_int:1"},{"step":106,"from":"1093325200","to":"1093325200.arrayIdx_int:2","type":"load","field":"arrayIdx_int:2"},{"step":107,"from":"sdaReg70","to":"1093319920","type":"store","field":"arrayIdx_int:2"},{"step":108,"from":"1093325200","to":"1093325200.arrayIdx_int:3","type":"load","field":"arrayIdx_int:3"},{"step":109,"from":"sdaReg70","to":"1093319920","type":"store","field":"arrayIdx_int:3"},{"step":110,"from":"1093325200","to":"1093325200.arrayIdx_int:4","type":"load","field":"arrayIdx_int:4"},{"step":111,"from":"sdaReg70","to":"1093319920","type":"store","field":"arrayIdx_int:4"},{"step":112,"from":"1093319920","to":"sdaReg71","type":"model"},{"step":113,"from":"sdaReg52","to":"sdaReg72","type":"model"},{"step":114,"from":"sdaReg52","to":"sdaReg73","type":"model"},{"step":115,"from":"sdaReg73","to":"sdaReg74","type":"model"},{"step":116,"from":"sdaReg73","to":"sdaReg76","type":"model"},{"step":117,"from":"sdaReg74","to":"sdaReg73","type":"model"},{"step":118,"from":"sdaReg74","to":"sdaReg76","type":"model"},{"step":119,"from":"sdaReg71","to":"1093280088","type":"store","field":"<java.io.ObjectStreamField: java.lang.String name>"},{"step":120,"from":"sdaReg73","to":"sdaReg79","type":"model"},{"step":121,"from":"sdaReg79","to":"sdaReg80","type":"model"},{"step":122,"from":"sdaReg80","to":"1093280088","type":"store","field":"<java.io.ObjectStreamField: java.lang.String typeString>"},{"step":123,"from":"static.<java.lang.Integer: java.lang.Class TYPE>","to":"1083909616","type":"load","field":"<java.lang.Integer: java.lang.Class TYPE>"},{"step":124,"from":"1083909616","to":"1093280088","type":"store","field":"<java.io.ObjectStreamField: java.lang.Object type>"},{"step":125,"from":"1093280088","to":"sdaReg84","type":"create","field":"<java.io.ObjectStreamField: boolean isDeserialized>"},{"step":126,"from":"1093702528","to":"1093280088","type":"create","field":"arrayIdx_int:0"}],"parameters":[{"id":"1093293768","name":"this","klass":"java.io.ObjectInputStream"}],"returns":[{"id":"1093497664","name":"return","klass":"java.io.ObjectStreamClass"}],"colors":{"heapLocToColor":{"1093497832":[4],"1093453440":[9],"sdaReg64":[14],"sdaReg63":[13],"sdaReg72":[16],"sdaReg13":[5],"sdaReg71":[15],"sdaReg70":[13],"sdaReg12":[4],"sdaReg10":[4],"1093388312":[0],"sdaReg19":[4],"1093319920":[14],"sdaReg77":[20],"sdaReg78":[20],"1093544400.arrayIdx_int:36":[0],"sdaReg79":[17, 21],"1093544400.arrayIdx_int:33":[0],"sdaReg73":[17],"sdaReg74":[17],"sdaReg75":[18],"sdaReg76":[17, 19],"sdaReg81":[20],"sdaReg80":[17, 21, 22],"sdaReg82":[23],"1083994088":[0],"1093497832.arrayIdx_int:13":[4],"1093497832.arrayIdx_int:14":[4],"1093497832.arrayIdx_int:15":[4],"1093497832.arrayIdx_int:16":[4],"1093388400":[0],"1093497832.arrayIdx_int:10":[4],"1093497832.arrayIdx_int:11":[4],"1093497832.arrayIdx_int:12":[4],"sdaReg86":[20],"sdaReg85":[20],"1093386376.<java.io.FilterInputStream: java.io.InputStream in>":[0],"1083909616":[24],"1093293768.<java.io.ObjectInputStream: java.io.DataInputStream input>":[0],"1093497664":[1],"1093386376.<java.io.DataInputStream: byte[] scratch>":[0],"1084339448":[2],"sdaReg60":[0],"sdaReg61":[13],"1093544616.<java.io.ByteArrayInputStream: int count>":[0],"sdaReg59":[0],"sdaReg58":[0],"sdaReg57":[12],"1093293768":[0],"sdaReg56":[12],"sdaReg55":[0],"static.<java.nio.ByteOrder: java.nio.ByteOrder BIG_ENDIAN>":[2],"sdaReg54":[0],"1093544616.<java.io.ByteArrayInputStream: int pos>":[0],"sdaReg53":[0],"sdaReg52":[0],"sdaReg51":[0],"sdaReg50":[0],"1093325200":[13],"1093497832.arrayIdx_int:0":[4],"1093497832.arrayIdx_int:1":[4],"1093497832.arrayIdx_int:2":[4],"1093497832.arrayIdx_int:3":[4],"sdaReg48":[0],"1093497832.arrayIdx_int:4":[4],"1093497832.arrayIdx_int:5":[4],"sdaReg45":[10],"sdaReg44":[0],"sdaReg47":[0],"1093388400.<java.util.ArrayList: int size>":[0],"sdaReg40":[0],"sdaReg43":[1],"sdaReg42":[0],"1093499800":[5],"1093544616.<java.io.ByteArrayInputStream: byte[] buf>":[0],"1093497832.arrayIdx_int:9":[4],"1093497832.arrayIdx_int:8":[4],"1093497832.arrayIdx_int:7":[4],"1093497832.arrayIdx_int:6":[4],"1093293768.<java.io.ObjectInputStream: java.util.ArrayList objectsRead>":[0],"sdaReg39":[0],"sdaReg38":[0],"1093544400":[0],"sdaReg32":[0],"sdaReg30":[1],"sdaReg35":[1],"sdaReg34":[0],"sdaReg33":[0],"1093702528":[1, 11],"sdaReg8":[0],"sdaReg9":[0],"sdaReg6":[3],"sdaReg7":[0],"sdaReg4":[0],"sdaReg5":[3],"sdaReg27":[0],"sdaReg26":[0],"sdaReg29":[0],"1093325200.arrayIdx_int:0":[13],"sdaReg28":[0, 1],"1093325200.arrayIdx_int:1":[13],"1093325200.arrayIdx_int:2":[13],"1093325200.arrayIdx_int:3":[13],"1093325200.arrayIdx_int:4":[13],"1093386376":[0],"static.<java.lang.Integer: java.lang.Class TYPE>":[24],"sdaReg3":[0],"1093280088":[20],"sdaReg2":[0],"sdaReg21":[7],"sdaReg1":[1],"sdaReg20":[1, 6],"sdaReg0":[1],"sdaReg23":[1, 8],"1093544616":[0],"sdaReg22":[0],"1093293768.<java.io.ObjectInputStream: int descriptorHandle>":[0],"sdaReg25":[0],"sdaReg24":[0],"1093388400.<java.util.AbstractList: int modCount>":[0]},"colorToColor":{"0":[17, 0, 16, 1, 3, 4, 8, 9, 10, 12, 13],"1":[1, 25, 9],"4":[5],"5":[6],"6":[1],"8":[1],"9":[0],"11":[1],"13":[14],"14":[15],"15":[20],"17":[17, 19, 20],"21":[20],"20":[1, 11],"22":[20],"24":[20]},"colorToLabel":{"0":"this","2":"<java.nio.ByteOrder: java.nio.ByteOrder BIG_ENDIAN>","24":"<java.lang.Integer: java.lang.Class TYPE>","25":"return"}}}

Generated Model
	this->return

