Scanning method <android.location.Location: android.os.Bundle getExtras()>

All seen event types: LoadInstanceRecord, 
Ignored event types: 

JSON Encoded Analysis Data (for visualization):{"heapEdges":[{"step":0,"from":"1094087408","to":"1093799032","type":"load","field":"<android.location.Location: android.os.Bundle mExtras>"}],"parameters":[{"id":"1094087408","name":"this","klass":"android.location.Location"}],"returns":[{"id":"1093799032","name":"return","klass":"android.os.Bundle"}],"colors":{"heapLocToColor":{"1093799032":[0],"1094087408":[0]},"colorToColor":{"0":[1]},"colorToLabel":{"0":"this","1":"return"}}}

Generated Model
	this->return

