Scanning method <java.io.PrintWriter: void close()>

All seen event types: SimpleAssignmentRecord, ExitMonitorRecord, MethodReturnRecord, MethodCallRecord, EnterMonitorRecord, LoadInstanceRecord, IfRecord, StoreInstanceRecord, 
Ignored event types: ExitMonitorRecord, EnterMonitorRecord, IfRecord, 

JSON Encoded Analysis Data (for visualization):{"heapEdges":[{"step":0,"from":"1093658288","to":"1093659224","type":"load","field":"<java.io.Writer: java.lang.Object lock>"},{"step":1,"from":"1093658288","to":"1093659224","type":"load","field":"<java.io.PrintWriter: java.io.Writer out>"},{"step":2,"from":"1093658288","to":"1093659224","type":"load","field":"<java.io.PrintWriter: java.io.Writer out>"},{"step":3,"from":"1093658288","to":"sdaReg1","type":"create","field":"<java.io.PrintWriter: java.io.Writer out>"}],"parameters":[{"id":"1093658288","name":"this","klass":"java.io.PrintWriter"}],"returns":[{"id":null,"name":"return","klass":null}],"colors":{"heapLocToColor":{"1093658288.<java.io.PrintWriter: java.io.Writer out>":[0],"1093658288":[0],"1093659224":[0]},"colorToColor":{},"colorToLabel":{"0":"this","1":"return"}}}

Generated Model

