Scanning method <java.util.HashSet: boolean add(java.lang.Object)>

All seen event types: StoreArrayRecord, SimpleAssignmentRecord, LoadInstanceRecord, MethodStartRecord, IfRecord, StoreInstanceRecord, NewObjectRecord, BinaryOperationRecord, MethodCallRecord, MethodReturnRecord, ArrayLengthRecord, LoadArrayRecord, MethodEndRecord, 
Ignored event types: IfRecord, 

JSON Encoded Analysis Data (for visualization):{"heapEdges":[{"step":0,"from":"1093566560","to":"1093566576","type":"load","field":"<java.util.HashSet: java.util.HashMap backingMap>"},{"step":1,"from":"1093566576","to":"1093573768","type":"load","field":"<java.util.HashMap: java.util.HashMap$HashMapEntry[] table>"},{"step":2,"from":"1093566576","to":"1093566576.<java.util.HashMap: int modCount>","type":"load","field":"<java.util.HashMap: int modCount>"},{"step":3,"from":"sdaReg15","to":"1093566576","type":"store","field":"<java.util.HashMap: int modCount>"},{"step":4,"from":"1093566576","to":"1093566576.<java.util.HashMap: int size>","type":"load","field":"<java.util.HashMap: int size>"},{"step":5,"from":"sdaReg16","to":"1093566576","type":"store","field":"<java.util.HashMap: int size>"},{"step":6,"from":"1093566576","to":"1093566576.<java.util.HashMap: int threshold>","type":"load","field":"<java.util.HashMap: int threshold>"},{"step":7,"from":"1093566576","to":"1093573768","type":"load","field":"<java.util.HashMap: java.util.HashMap$HashMapEntry[] table>"},{"step":8,"from":"1093566576","to":"1093573768","type":"load","field":"<java.util.HashMap: java.util.HashMap$HashMapEntry[] table>"},{"step":9,"from":"1093626664","to":"1093626784","type":"store","field":"<java.util.HashMap$HashMapEntry: java.lang.Object key>"},{"step":10,"from":"1093566560","to":"1093626784","type":"store","field":"<java.util.HashMap$HashMapEntry: java.lang.Object value>"},{"step":11,"from":"sdaReg11","to":"1093626784","type":"store","field":"<java.util.HashMap$HashMapEntry: int hash>"},{"step":12,"from":"1093573768","to":"1093626784","type":"create","field":"arrayIdx_int:3"}],"parameters":[{"id":"1093566560","name":"this","klass":"java.util.HashSet"},{"id":"1093626664","name":"arg#1","klass":"java.lang.Object"}],"returns":[{"id":"sdaReg27","name":"return","klass":"boolean"}],"colors":{"heapLocToColor":{"1093566576.<java.util.HashMap: int size>":[0],"1093566576":[0],"sdaReg14":[2],"1093566576.<java.util.HashMap: int modCount>":[0],"sdaReg11":[2],"sdaReg10":[2],"sdaReg19":[0],"sdaReg17":[0],"sdaReg18":[1],"sdaReg15":[0],"sdaReg16":[0],"1093626784":[3],"1093566560":[0],"sdaReg8":[2],"sdaReg9":[2],"sdaReg6":[2],"sdaReg7":[2],"sdaReg4":[2],"sdaReg5":[2],"1093626664":[1],"1093566576.<java.util.HashMap: int threshold>":[0],"sdaReg3":[2],"sdaReg2":[0],"sdaReg21":[1],"sdaReg1":[1],"1093573768":[0],"sdaReg20":[3],"sdaReg0":[0],"sdaReg22":[0],"sdaReg25":[3],"1093566576.<java.util.HashMap: java.util.HashMap$HashMapEntry[] table>":[0],"sdaReg24":[3]},"colorToColor":{"0":[0, 3],"1":[3],"2":[3],"3":[0]},"colorToLabel":{"0":"this","1":"arg#1","4":"return"}}}

Generated Model
	arg#1->this

