Scanning method <java.net.URLConnection: java.net.FileNameMap getFileNameMap()>

All seen event types: LoadStaticRecord, SimpleAssignmentRecord, ExitMonitorRecord, EnterMonitorRecord, IfRecord, 
Ignored event types: ExitMonitorRecord, EnterMonitorRecord, IfRecord, 

JSON Encoded Analysis Data (for visualization):{"heapEdges":[{"step":0,"from":"static.<java.net.URLConnection: java.net.FileNameMap fileNameMap>","to":"1093688592","type":"load","field":"<java.net.URLConnection: java.net.FileNameMap fileNameMap>"},{"step":1,"from":"static.<java.net.URLConnection: java.net.FileNameMap fileNameMap>","to":"1093688592","type":"load","field":"<java.net.URLConnection: java.net.FileNameMap fileNameMap>"}],"parameters":[],"returns":[{"id":"1093688592","name":"return","klass":"java.net.FileNameMap"}],"colors":{"heapLocToColor":{"1093688592":[0],"static.<java.net.URLConnection: java.net.FileNameMap fileNameMap>":[0]},"colorToColor":{"0":[1]},"colorToLabel":{"0":"<java.net.URLConnection: java.net.FileNameMap fileNameMap>","1":"return"}}}

Generated Model

