Scanning method <android.os.Message: android.os.Bundle getData()>

All seen event types: LoadInstanceRecord, IfRecord, 
Ignored event types: IfRecord, 

JSON Encoded Analysis Data (for visualization):{"heapEdges":[{"step":0,"from":"1093471392","to":"1093501384","type":"load","field":"<android.os.Message: android.os.Bundle data>"},{"step":1,"from":"1093471392","to":"1093501384","type":"load","field":"<android.os.Message: android.os.Bundle data>"}],"parameters":[{"id":"1093471392","name":"this","klass":"android.os.Message"}],"returns":[{"id":"1093501384","name":"return","klass":"android.os.Bundle"}],"colors":{"heapLocToColor":{"1093471392":[0],"1093501384":[0],"1093471392.<android.os.Message: android.os.Bundle data>":[0]},"colorToColor":{"0":[1]},"colorToLabel":{"0":"this","1":"return"}}}

Generated Model
	this->return

