Scanning method <android.os.Message: void <init>()>

All seen event types: MethodReturnRecord, MethodCallRecord, 
Ignored event types: 

JSON Encoded Analysis Data (for visualization):{"heapEdges":[],"parameters":[{"id":"1094163536","name":"this","klass":"android.os.Message"}],"returns":[{"id":"1094163536","name":"return","klass":"android.os.Message"}],"colors":{"heapLocToColor":{"1094163536":[0],"sdaReg0":[0]},"colorToColor":{"0":[1]},"colorToLabel":{"0":"this","1":"return"}}}

Generated Model
	this->return

