Scanning method <java.net.URL: void <init>(java.lang.String,java.lang.String,java.lang.String)>

All seen event types: SimpleAssignmentRecord, MethodStartRecord, LoadInstanceRecord, IfRecord, StoreInstanceRecord, LoadStaticRecord, BinaryOperationRecord, MethodCallRecord, MethodReturnRecord, ArrayLengthRecord, CastRecord, LoadArrayRecord, MethodEndRecord, 
Ignored event types: IfRecord, 

JSON Encoded Analysis Data (for visualization):{"heapEdges":[{"step":0,"from":"1093307872","to":"sdaReg6","type":"create","field":"<java.net.URL: int port>"},{"step":1,"from":"sdaReg1","to":"sdaReg7","type":"model"},{"step":2,"from":"sdaReg0","to":"1093307872","type":"store","field":"<java.net.URL: java.lang.String protocol>"},{"step":3,"from":"sdaReg1","to":"1093307872","type":"store","field":"<java.net.URL: java.lang.String host>"},{"step":4,"from":"1093307872","to":"sdaReg4","type":"create","field":"<java.net.URL: int port>"},{"step":5,"from":"sdaReg1","to":"sdaReg8","type":"model"},{"step":6,"from":"sdaReg2","to":"sdaReg9","type":"model"},{"step":7,"from":"sdaReg2","to":"sdaReg10","type":"model"},{"step":8,"from":"sdaReg2","to":"1093307872","type":"store","field":"<java.net.URL: java.lang.String file>"},{"step":9,"from":"sdaReg15","to":"1093307872","type":"store","field":"<java.net.URL: java.lang.String authority>"},{"step":10,"from":"1093307872","to":"sdaReg18","type":"create","field":"<java.net.URL: java.lang.String query>"},{"step":11,"from":"sdaReg19","to":"1093307872","type":"store","field":"<java.net.URL: java.lang.String path>"},{"step":12,"from":"static.<java.net.URL: java.util.Hashtable streamHandlers>","to":"1084315112","type":"load","field":"<java.net.URL: java.util.Hashtable streamHandlers>"},{"step":13,"from":"1084315112","to":"1084321912","type":"load","field":"<java.util.Hashtable: java.util.Hashtable$HashtableEntry[] table>"},{"step":14,"from":"1084321912","to":"1093664112","type":"load","field":"arrayIdx_int:1"},{"step":15,"from":"1093664112","to":"1093652696","type":"load","field":"<java.util.Hashtable$HashtableEntry: java.lang.Object key>"},{"step":16,"from":"1093664112","to":"1093664112.<java.util.Hashtable$HashtableEntry: int hash>","type":"load","field":"<java.util.Hashtable$HashtableEntry: int hash>"},{"step":17,"from":"1093664112","to":"1093664032","type":"load","field":"<java.util.Hashtable$HashtableEntry: java.lang.Object value>"},{"step":18,"from":"1093664032","to":"1093307872","type":"store","field":"<java.net.URL: java.net.URLStreamHandler streamHandler>"}],"parameters":[{"id":"1093307872","name":"this","klass":"java.net.URL"},{"id":"sdaReg0","name":"arg#1","klass":"string"},{"id":"sdaReg1","name":"arg#2","klass":"string"},{"id":"sdaReg2","name":"arg#3","klass":"string"}],"returns":[{"id":"1093307872","name":"return","klass":"java.net.URL"}],"colors":{"heapLocToColor":{"static.<java.net.URL: java.util.Hashtable streamHandlers>":[11],"sdaReg14":[9],"sdaReg38":[0],"sdaReg11":[8],"sdaReg37":[11],"sdaReg12":[0],"sdaReg10":[3, 7],"sdaReg31":[12],"sdaReg30":[12],"sdaReg36":[11],"sdaReg17":[10],"sdaReg35":[13],"sdaReg34":[12],"sdaReg16":[10],"sdaReg8":[2, 5],"sdaReg9":[3, 6],"sdaReg7":[2, 4],"sdaReg5":[0],"sdaReg27":[12],"1084321912":[11],"sdaReg26":[12],"1093664112.<java.util.Hashtable$HashtableEntry: int hash>":[11],"1093652696":[11],"sdaReg29":[12],"sdaReg28":[12],"1093307872":[0],"1093664032":[11],"1093664112":[11],"sdaReg3":[0],"sdaReg2":[3],"sdaReg1":[2],"sdaReg21":[11],"sdaReg0":[1],"sdaReg20":[0],"sdaReg23":[12],"1084315112":[11],"sdaReg25":[12],"sdaReg24":[12]},"colorToColor":{"0":[14],"1":[0],"2":[0],"3":[0],"11":[0]},"colorToLabel":{"0":"this","1":"arg#1","2":"arg#2","3":"arg#3","11":"<java.net.URL: java.util.Hashtable streamHandlers>","14":"return"}}}

Generated Model
	this->return
	arg#3->this
	arg#3->return
	arg#2->this
	arg#2->return
	arg#1->this
	arg#1->return

