Scanning method <java.util.TreeSet: void <init>()>

All seen event types: LoadStaticRecord, MethodReturnRecord, MethodCallRecord, MethodStartRecord, MethodEndRecord, StoreInstanceRecord, NewObjectRecord, 
Ignored event types: 

JSON Encoded Analysis Data (for visualization):{"heapEdges":[{"step":0,"from":"1093233072","to":"sdaReg9","type":"create","field":"<java.util.TreeMap: int size>"},{"step":1,"from":"1093233072","to":"sdaReg10","type":"create","field":"<java.util.TreeMap: int modCount>"},{"step":2,"from":"static.<java.util.TreeMap: java.util.Comparator NATURAL_ORDER>","to":"1083970648","type":"load","field":"<java.util.TreeMap: java.util.Comparator NATURAL_ORDER>"},{"step":3,"from":"1083970648","to":"1093233072","type":"store","field":"<java.util.TreeMap: java.util.Comparator comparator>"},{"step":4,"from":"1094676392","to":"1093233072","type":"create","field":"<java.util.TreeSet: java.util.NavigableMap backingMap>"}],"parameters":[{"id":"1094676392","name":"this","klass":"java.util.TreeSet"}],"returns":[{"id":"1094676392","name":"return","klass":"java.util.TreeSet"}],"colors":{"heapLocToColor":{"sdaReg8":[1],"sdaReg6":[1],"sdaReg7":[1],"sdaReg4":[0],"sdaReg5":[1],"static.<java.util.TreeMap: java.util.Comparator NATURAL_ORDER>":[2],"1093233072":[1],"1094676392":[0],"sdaReg11":[1],"sdaReg3":[0],"sdaReg2":[0],"sdaReg1":[0],"sdaReg0":[0],"1083970648":[2]},"colorToColor":{"0":[3],"1":[0],"2":[1]},"colorToLabel":{"0":"this","2":"<java.util.TreeMap: java.util.Comparator NATURAL_ORDER>","3":"return"}}}

Generated Model
	this->return

