Scanning method <java.io.ObjectInputStream: void readFieldDescriptors(java.io.ObjectStreamClass)>

All seen event types: NewArrayRecord, LoadStaticRecord, SimpleAssignmentRecord, MethodReturnRecord, MethodCallRecord, MethodStartRecord, LoadInstanceRecord, IfRecord, MethodEndRecord, 
Ignored event types: IfRecord, 

JSON Encoded Analysis Data (for visualization):{"heapEdges":[{"step":0,"from":"1093381560","to":"1093340944","type":"load","field":"<java.io.ObjectInputStream: java.io.DataInputStream input>"},{"step":1,"from":"1093340944","to":"1093381648","type":"load","field":"<java.io.FilterInputStream: java.io.InputStream in>"},{"step":2,"from":"1093340944","to":"1093340968","type":"load","field":"<java.io.DataInputStream: byte[] scratch>"},{"step":3,"from":"1093381648","to":"1093340968","type":"model"},{"step":4,"from":"1093340944","to":"1093340968","type":"load","field":"<java.io.DataInputStream: byte[] scratch>"},{"step":5,"from":"static.<java.nio.ByteOrder: java.nio.ByteOrder BIG_ENDIAN>","to":"1084339448","type":"load","field":"<java.nio.ByteOrder: java.nio.ByteOrder BIG_ENDIAN>"},{"step":6,"from":"1093340968","to":"sdaReg1","type":"model"},{"step":7,"from":"1093823240","to":"1093346744","type":"model"},{"step":8,"from":"1093346744","to":"1093823240","type":"model"}],"parameters":[{"id":"1093381560","name":"this","klass":"java.io.ObjectInputStream"},{"id":"1093823240","name":"arg#1","klass":"java.io.ObjectStreamClass"}],"returns":[{"id":null,"name":"return","klass":null}],"colors":{"heapLocToColor":{"1093381648":[0],"1093340944":[0],"1084339448":[2],"1093823240":[1],"1093381560":[0],"1093346744":[1, 4],"sdaReg1":[3],"1093340944.<java.io.DataInputStream: byte[] scratch>":[0],"sdaReg0":[0],"static.<java.nio.ByteOrder: java.nio.ByteOrder BIG_ENDIAN>":[2],"1093340968":[0]},"colorToColor":{"0":[0, 3],"1":[1],"4":[1]},"colorToLabel":{"0":"this","1":"arg#1","2":"<java.nio.ByteOrder: java.nio.ByteOrder BIG_ENDIAN>","5":"return"}}}

Generated Model

