Scanning method <java.io.ObjectInputStream: void readFieldDescriptors(java.io.ObjectStreamClass)>

All seen event types: NewArrayRecord, LoadStaticRecord, SimpleAssignmentRecord, MethodReturnRecord, MethodCallRecord, MethodStartRecord, LoadInstanceRecord, IfRecord, MethodEndRecord, 
Ignored event types: IfRecord, 

JSON Encoded Analysis Data (for visualization):{"heapEdges":[{"step":0,"from":"1093293768","to":"1093386376","type":"load","field":"<java.io.ObjectInputStream: java.io.DataInputStream input>"},{"step":1,"from":"1093386376","to":"1093544616","type":"load","field":"<java.io.FilterInputStream: java.io.InputStream in>"},{"step":2,"from":"1093386376","to":"1093388312","type":"load","field":"<java.io.DataInputStream: byte[] scratch>"},{"step":3,"from":"1093544616","to":"1093388312","type":"model"},{"step":4,"from":"1093386376","to":"1093388312","type":"load","field":"<java.io.DataInputStream: byte[] scratch>"},{"step":5,"from":"static.<java.nio.ByteOrder: java.nio.ByteOrder BIG_ENDIAN>","to":"1084339448","type":"load","field":"<java.nio.ByteOrder: java.nio.ByteOrder BIG_ENDIAN>"},{"step":6,"from":"1093388312","to":"sdaReg1","type":"model"},{"step":7,"from":"1093286304","to":"1093481392","type":"model"},{"step":8,"from":"1093481392","to":"1093286304","type":"model"}],"parameters":[{"id":"1093293768","name":"this","klass":"java.io.ObjectInputStream"},{"id":"1093286304","name":"arg#1","klass":"java.io.ObjectStreamClass"}],"returns":[{"id":null,"name":"return","klass":null}],"colors":{"heapLocToColor":{"1084339448":[2],"1093388312":[0],"1093386376":[0],"1093286304":[1],"1093481392":[1, 4],"sdaReg1":[3],"1093386376.<java.io.DataInputStream: byte[] scratch>":[0],"1093293768":[0],"sdaReg0":[0],"static.<java.nio.ByteOrder: java.nio.ByteOrder BIG_ENDIAN>":[2],"1093544616":[0]},"colorToColor":{"0":[0, 3],"1":[1],"4":[1]},"colorToLabel":{"0":"this","1":"arg#1","2":"<java.nio.ByteOrder: java.nio.ByteOrder BIG_ENDIAN>","5":"return"}}}

Generated Model

