Scanning method <android.os.Bundle: float[] getFloatArray(java.lang.String)>

All seen event types: BinaryOperationRecord, MethodReturnRecord, MethodCallRecord, CastRecord, ArrayLengthRecord, LoadInstanceRecord, MethodStartRecord, LoadArrayRecord, MethodEndRecord, IfRecord, 
Ignored event types: IfRecord, 

JSON Encoded Analysis Data (for visualization):{"heapEdges":[{"step":0,"from":"1093497256","to":"1093748088","type":"load","field":"<android.os.Bundle: java.util.Map mMap>"},{"step":1,"from":"1093748088","to":"1093993832","type":"load","field":"<java.util.HashMap: java.util.HashMap$HashMapEntry[] table>"},{"step":2,"from":"1093993832","to":"1093993872","type":"load","field":"arrayIdx_int:2"},{"step":3,"from":"1093993872","to":"1093509248","type":"load","field":"<java.util.HashMap$HashMapEntry: java.lang.Object key>"},{"step":4,"from":"1093993872","to":"1093976760","type":"load","field":"<java.util.HashMap$HashMapEntry: java.lang.Object value>"}],"parameters":[{"id":"1093497256","name":"this","klass":"android.os.Bundle"},{"id":"sdaReg0","name":"arg#1","klass":"string"}],"returns":[{"id":"1093976760","name":"return","klass":"float[]"}],"colors":{"heapLocToColor":{"sdaReg8":[2],"sdaReg9":[2],"sdaReg6":[2],"1093748088":[0],"sdaReg7":[2],"sdaReg4":[2],"1093497256":[0],"sdaReg5":[2],"1093976760":[0],"sdaReg14":[2],"1093993832":[0],"sdaReg11":[2],"sdaReg10":[2],"sdaReg3":[2],"sdaReg2":[0],"sdaReg1":[0],"sdaReg0":[1],"sdaReg17":[0],"1093509248":[0],"sdaReg15":[0],"sdaReg16":[0],"1093993872":[0]},"colorToColor":{"0":[3]},"colorToLabel":{"0":"this","1":"arg#1","3":"return"}}}

Generated Model
	this->return

