Scanning method <java.io.DataOutputStream: void writeDouble(double)>

All seen event types: LoadStaticRecord, BinaryOperationRecord, MethodReturnRecord, MethodCallRecord, ArrayLengthRecord, LoadInstanceRecord, MethodStartRecord, MethodEndRecord, IfRecord, StoreInstanceRecord, 
Ignored event types: IfRecord, 

JSON Encoded Analysis Data (for visualization):{"heapEdges":[{"step":0,"from":"sdaReg0","to":"sdaReg1","type":"model"},{"step":1,"from":"1093490736","to":"1093282776","type":"load","field":"<java.io.DataOutputStream: byte[] scratch>"},{"step":2,"from":"static.<java.nio.ByteOrder: java.nio.ByteOrder BIG_ENDIAN>","to":"1084339448","type":"load","field":"<java.nio.ByteOrder: java.nio.ByteOrder BIG_ENDIAN>"},{"step":3,"from":"1093282776","to":"sdaReg1","type":"model"},{"step":4,"from":"1093282776","to":"1084339448","type":"model"},{"step":5,"from":"sdaReg1","to":"1093282776","type":"model"},{"step":6,"from":"sdaReg1","to":"1084339448","type":"model"},{"step":7,"from":"1084339448","to":"1093282776","type":"model"},{"step":8,"from":"1084339448","to":"sdaReg1","type":"model"},{"step":9,"from":"1093490736","to":"1093530944","type":"load","field":"<java.io.FilterOutputStream: java.io.OutputStream out>"},{"step":10,"from":"1093490736","to":"1093282776","type":"load","field":"<java.io.DataOutputStream: byte[] scratch>"},{"step":11,"from":"1093530944","to":"1093530944.<java.io.ByteArrayOutputStream: int count>","type":"load","field":"<java.io.ByteArrayOutputStream: int count>"},{"step":12,"from":"1093530944","to":"1093282624","type":"load","field":"<java.io.ByteArrayOutputStream: byte[] buf>"},{"step":13,"from":"1093530944","to":"1093282624","type":"load","field":"<java.io.ByteArrayOutputStream: byte[] buf>"},{"step":14,"from":"1093530944","to":"1093530944.<java.io.ByteArrayOutputStream: int count>","type":"load","field":"<java.io.ByteArrayOutputStream: int count>"},{"step":15,"from":"1093282776","to":"1093282624","type":"model"},{"step":16,"from":"1093530944","to":"1093530944.<java.io.ByteArrayOutputStream: int count>","type":"load","field":"<java.io.ByteArrayOutputStream: int count>"},{"step":17,"from":"sdaReg13","to":"1093530944","type":"store","field":"<java.io.ByteArrayOutputStream: int count>"},{"step":18,"from":"1093490736","to":"1093490736.<java.io.DataOutputStream: int written>","type":"load","field":"<java.io.DataOutputStream: int written>"},{"step":19,"from":"sdaReg14","to":"1093490736","type":"store","field":"<java.io.DataOutputStream: int written>"}],"parameters":[{"id":"1093490736","name":"this","klass":"java.io.DataOutputStream"},{"id":"sdaReg0","name":"arg#1","klass":"double"}],"returns":[{"id":null,"name":"return","klass":null}],"colors":{"heapLocToColor":{"1093490736.<java.io.DataOutputStream: int written>":[0],"1093282624":[0],"sdaReg4":[0],"1093282776":[0],"1093530944.<java.io.ByteArrayOutputStream: byte[] buf>":[0],"1093490736":[0],"1093490736.<java.io.DataOutputStream: byte[] scratch>":[0],"sdaReg13":[0],"sdaReg14":[0],"sdaReg11":[0],"1084339448":[3],"sdaReg10":[0],"1093530944":[0],"sdaReg3":[0],"sdaReg2":[0],"sdaReg1":[2],"sdaReg0":[1],"static.<java.nio.ByteOrder: java.nio.ByteOrder BIG_ENDIAN>":[3],"1093530944.<java.io.ByteArrayOutputStream: int count>":[0]},"colorToColor":{"0":[0, 2, 3],"1":[2],"2":[0, 3],"3":[0, 2]},"colorToLabel":{"0":"this","1":"arg#1","3":"<java.nio.ByteOrder: java.nio.ByteOrder BIG_ENDIAN>","4":"return"}}}

Generated Model
	this-><java.nio.ByteOrder: java.nio.ByteOrder BIG_ENDIAN>
	arg#1->this
	arg#1-><java.nio.ByteOrder: java.nio.ByteOrder BIG_ENDIAN>

