Scanning method <java.io.SequenceInputStream: void <init>(java.io.InputStream,java.io.InputStream)>

All seen event types: StoreArrayRecord, SimpleAssignmentRecord, MethodStartRecord, LoadInstanceRecord, IfRecord, NewObjectRecord, StoreInstanceRecord, NewArrayRecord, BinaryOperationRecord, MethodCallRecord, MethodReturnRecord, CastRecord, ArrayLengthRecord, MethodEndRecord, 
Ignored event types: IfRecord, 

JSON Encoded Analysis Data (for visualization):{"heapEdges":[{"step":0,"from":"1093719752","to":"1093719584","type":"create","field":"<java.util.Vector: java.lang.Object[] elementData>"},{"step":1,"from":"1093719752","to":"sdaReg15","type":"create","field":"<java.util.Vector: int elementCount>"},{"step":2,"from":"1093719752","to":"sdaReg6","type":"create","field":"<java.util.Vector: int capacityIncrement>"},{"step":3,"from":"sdaReg22","to":"1093719752","type":"store","field":"<java.util.Vector: int elementCount>"},{"step":4,"from":"1093709256","to":"1093719584","type":"store","field":"arrayIdx_int:0"},{"step":5,"from":"1093719752","to":"1093719752.<java.util.AbstractList: int modCount>","type":"load","field":"<java.util.AbstractList: int modCount>"},{"step":6,"from":"sdaReg23","to":"1093719752","type":"store","field":"<java.util.AbstractList: int modCount>"},{"step":7,"from":"1093609464","to":"1093719752","type":"create","field":"<java.util.Vector$1: java.util.Vector this$0>"},{"step":8,"from":"1093609464","to":"sdaReg28","type":"create","field":"<java.util.Vector$1: int pos>"},{"step":9,"from":"1093708704","to":"1093609464","type":"create","field":"<java.io.SequenceInputStream: java.util.Enumeration e>"},{"step":10,"from":"1093708840","to":"1093708704","type":"store","field":"<java.io.SequenceInputStream: java.io.InputStream in>"}],"parameters":[{"id":"1093708704","name":"this","klass":"java.io.SequenceInputStream"},{"id":"1093708840","name":"arg#1","klass":"java.io.InputStream"},{"id":"1093709256","name":"arg#2","klass":"java.io.InputStream"}],"returns":[{"id":"1093708704","name":"return","klass":"java.io.SequenceInputStream"}],"colors":{"heapLocToColor":{"1093719752.<java.util.AbstractList: int modCount>":[3],"1093709256":[2],"1093708704":[0],"1093719752":[3],"sdaReg14":[4],"sdaReg11":[3],"sdaReg12":[3],"sdaReg10":[3],"sdaReg30":[5],"sdaReg19":[3],"sdaReg17":[3],"sdaReg18":[3],"sdaReg16":[3],"sdaReg8":[3],"sdaReg9":[3],"sdaReg7":[3],"sdaReg5":[3],"1093708840":[1],"1093719584":[4],"1093609464":[5],"sdaReg27":[5],"sdaReg26":[3],"sdaReg29":[5],"sdaReg3":[3],"sdaReg2":[0],"sdaReg1":[0],"sdaReg0":[0],"sdaReg20":[2],"sdaReg23":[3],"sdaReg25":[5],"sdaReg24":[3]},"colorToColor":{"0":[6],"1":[0],"2":[4],"3":[3, 5],"4":[3],"5":[0]},"colorToLabel":{"0":"this","1":"arg#1","2":"arg#2","6":"return"}}}

Generated Model
	this->return
	arg#2->this
	arg#2->return
	arg#1->this
	arg#1->return

