Scanning method <java.io.BufferedReader: boolean isClosed()>

All seen event types: SimpleAssignmentRecord, LoadInstanceRecord, IfRecord, 
Ignored event types: IfRecord, 

JSON Encoded Analysis Data (for visualization):{"heapEdges":[{"step":0,"from":"1093689800","to":"1093231152","type":"load","field":"<java.io.BufferedReader: char[] buf>"}],"parameters":[{"id":"1093689800","name":"this","klass":"java.io.BufferedReader"}],"returns":[{"id":"sdaReg0","name":"return","klass":"boolean"}],"colors":{"heapLocToColor":{"1093231152":[0],"1093689800":[0]},"colorToColor":{},"colorToLabel":{"0":"this","1":"return"}}}

Generated Model

