Scanning method <java.io.BufferedReader: boolean isClosed()>

All seen event types: SimpleAssignmentRecord, LoadInstanceRecord, IfRecord, 
Ignored event types: IfRecord, 

JSON Encoded Analysis Data (for visualization):{"heapEdges":[{"step":0,"from":"1093609032","to":"1093619760","type":"load","field":"<java.io.BufferedReader: char[] buf>"}],"parameters":[{"id":"1093609032","name":"this","klass":"java.io.BufferedReader"}],"returns":[{"id":"sdaReg0","name":"return","klass":"boolean"}],"colors":{"heapLocToColor":{"1093619760":[0],"1093609032":[0]},"colorToColor":{},"colorToLabel":{"0":"this","1":"return"}}}

Generated Model

