Scanning method <java.io.InputStreamReader: int read(char[],int,int)>

All seen event types: StoreArrayRecord, SimpleAssignmentRecord, ExitMonitorRecord, LoadInstanceRecord, MethodStartRecord, IfRecord, NewObjectRecord, StoreInstanceRecord, LoadStaticRecord, BinaryOperationRecord, MethodCallRecord, MethodReturnRecord, EnterMonitorRecord, ArrayLengthRecord, LoadArrayRecord, MethodEndRecord, 
Ignored event types: ExitMonitorRecord, EnterMonitorRecord, IfRecord, 

JSON Encoded Analysis Data (for visualization):{"heapEdges":[{"step":0,"from":"1093652160","to":"1093651256","type":"load","field":"<java.io.Reader: java.lang.Object lock>"},{"step":1,"from":"1093652160","to":"1093651256","type":"load","field":"<java.io.InputStreamReader: java.io.InputStream in>"},{"step":2,"from":"1093321656","to":"sdaReg24","type":"create","field":"<java.nio.Buffer: int mark>"},{"step":3,"from":"1093321656","to":"sdaReg25","type":"create","field":"<java.nio.Buffer: int position>"},{"step":4,"from":"1093321656","to":"sdaReg22","type":"create","field":"<java.nio.Buffer: int _elementSizeShift>"},{"step":5,"from":"sdaReg16","to":"1093321656","type":"store","field":"<java.nio.Buffer: int limit>"},{"step":6,"from":"sdaReg16","to":"1093321656","type":"store","field":"<java.nio.Buffer: int capacity>"},{"step":7,"from":"1093321632","to":"1093321656","type":"store","field":"<java.nio.CharArrayBuffer: char[] backingArray>"},{"step":8,"from":"1093321656","to":"sdaReg19","type":"create","field":"<java.nio.CharArrayBuffer: int offset>"},{"step":9,"from":"sdaReg0","to":"1093321656","type":"store","field":"<java.nio.Buffer: int position>"},{"step":10,"from":"sdaReg32","to":"1093321656","type":"store","field":"<java.nio.Buffer: int limit>"},{"step":11,"from":"static.<java.nio.charset.CoderResult: java.nio.charset.CoderResult UNDERFLOW>","to":"1084215096","type":"load","field":"<java.nio.charset.CoderResult: java.nio.charset.CoderResult UNDERFLOW>"},{"step":12,"from":"1093652160","to":"1093652256","type":"load","field":"<java.io.InputStreamReader: java.nio.ByteBuffer bytes>"},{"step":13,"from":"1093652256","to":"1093652256.<java.nio.Buffer: int position>","type":"load","field":"<java.nio.Buffer: int position>"},{"step":14,"from":"1093652256","to":"1093652256.<java.nio.Buffer: int limit>","type":"load","field":"<java.nio.Buffer: int limit>"},{"step":15,"from":"1093652160","to":"1093651256","type":"load","field":"<java.io.InputStreamReader: java.io.InputStream in>"},{"step":16,"from":"1093651256","to":"1093651256.<java.io.ByteArrayInputStream: int count>","type":"load","field":"<java.io.ByteArrayInputStream: int count>"},{"step":17,"from":"1093651256","to":"1093651256.<java.io.ByteArrayInputStream: int pos>","type":"load","field":"<java.io.ByteArrayInputStream: int pos>"},{"step":18,"from":"1093652160","to":"1093652256","type":"load","field":"<java.io.InputStreamReader: java.nio.ByteBuffer bytes>"},{"step":19,"from":"1093652256","to":"1093652256.<java.nio.Buffer: int capacity>","type":"load","field":"<java.nio.Buffer: int capacity>"},{"step":20,"from":"1093652160","to":"1093652256","type":"load","field":"<java.io.InputStreamReader: java.nio.ByteBuffer bytes>"},{"step":21,"from":"1093652256","to":"1093652256.<java.nio.Buffer: int limit>","type":"load","field":"<java.nio.Buffer: int limit>"},{"step":22,"from":"1093652160","to":"1093652256","type":"load","field":"<java.io.InputStreamReader: java.nio.ByteBuffer bytes>"},{"step":23,"from":"1093652256","to":"1093652256.<java.nio.HeapByteBuffer: int offset>","type":"load","field":"<java.nio.HeapByteBuffer: int offset>"},{"step":24,"from":"1093652160","to":"1093652256","type":"load","field":"<java.io.InputStreamReader: java.nio.ByteBuffer bytes>"},{"step":25,"from":"1093652256","to":"1093652256.<java.nio.Buffer: int limit>","type":"load","field":"<java.nio.Buffer: int limit>"},{"step":26,"from":"1093652160","to":"1093651256","type":"load","field":"<java.io.InputStreamReader: java.io.InputStream in>"},{"step":27,"from":"1093652160","to":"1093652256","type":"load","field":"<java.io.InputStreamReader: java.nio.ByteBuffer bytes>"},{"step":28,"from":"1093652256","to":"1093652312","type":"load","field":"<java.nio.HeapByteBuffer: byte[] backingArray>"},{"step":29,"from":"1093651256","to":"1093651256.<java.io.ByteArrayInputStream: int pos>","type":"load","field":"<java.io.ByteArrayInputStream: int pos>"},{"step":30,"from":"1093651256","to":"1093651256.<java.io.ByteArrayInputStream: int count>","type":"load","field":"<java.io.ByteArrayInputStream: int count>"},{"step":31,"from":"1093651256","to":"1093651256.<java.io.ByteArrayInputStream: int count>","type":"load","field":"<java.io.ByteArrayInputStream: int count>"},{"step":32,"from":"1093651256","to":"1093651256.<java.io.ByteArrayInputStream: int pos>","type":"load","field":"<java.io.ByteArrayInputStream: int pos>"},{"step":33,"from":"1093651256","to":"1093651256.<java.io.ByteArrayInputStream: int count>","type":"load","field":"<java.io.ByteArrayInputStream: int count>"},{"step":34,"from":"1093651256","to":"1093651256.<java.io.ByteArrayInputStream: int pos>","type":"load","field":"<java.io.ByteArrayInputStream: int pos>"},{"step":35,"from":"1093651256","to":"1093651952","type":"load","field":"<java.io.ByteArrayInputStream: byte[] buf>"},{"step":36,"from":"1093651256","to":"1093651256.<java.io.ByteArrayInputStream: int pos>","type":"load","field":"<java.io.ByteArrayInputStream: int pos>"},{"step":37,"from":"1093651952","to":"1093652312","type":"model"},{"step":38,"from":"1093651256","to":"1093651256.<java.io.ByteArrayInputStream: int pos>","type":"load","field":"<java.io.ByteArrayInputStream: int pos>"},{"step":39,"from":"sdaReg61","to":"1093651256","type":"store","field":"<java.io.ByteArrayInputStream: int pos>"},{"step":40,"from":"1093652160","to":"1093652256","type":"load","field":"<java.io.InputStreamReader: java.nio.ByteBuffer bytes>"},{"step":41,"from":"1093652160","to":"1093652256","type":"load","field":"<java.io.InputStreamReader: java.nio.ByteBuffer bytes>"},{"step":42,"from":"1093652256","to":"1093652256.<java.nio.Buffer: int limit>","type":"load","field":"<java.nio.Buffer: int limit>"},{"step":43,"from":"1093652256","to":"1093652256.<java.nio.Buffer: int capacity>","type":"load","field":"<java.nio.Buffer: int capacity>"},{"step":44,"from":"sdaReg63","to":"1093652256","type":"store","field":"<java.nio.Buffer: int limit>"},{"step":45,"from":"1093652256","to":"1093652256.<java.nio.Buffer: int position>","type":"load","field":"<java.nio.Buffer: int position>"},{"step":46,"from":"1093652256","to":"1093652256.<java.nio.Buffer: int mark>","type":"load","field":"<java.nio.Buffer: int mark>"},{"step":47,"from":"1093652160","to":"1093670896","type":"load","field":"<java.io.InputStreamReader: java.nio.charset.CharsetDecoder decoder>"},{"step":48,"from":"1093652160","to":"1093652256","type":"load","field":"<java.io.InputStreamReader: java.nio.ByteBuffer bytes>"},{"step":49,"from":"1093670896","to":"1093670896.<java.nio.charset.CharsetDecoder: int status>","type":"load","field":"<java.nio.charset.CharsetDecoder: int status>"},{"step":50,"from":"1093670896","to":"1093670896.<java.nio.charset.CharsetDecoder: int status>","type":"load","field":"<java.nio.charset.CharsetDecoder: int status>"},{"step":51,"from":"1093652256","to":"1093652256.<java.nio.Buffer: int position>","type":"load","field":"<java.nio.Buffer: int position>"},{"step":52,"from":"1093670896","to":"1093671048","type":"load","field":"<java.nio.charset.CharsetDecoderICU: int[] data>"},{"step":53,"from":"1093652256","to":"1093652312","type":"load","field":"<java.nio.HeapByteBuffer: byte[] backingArray>"},{"step":54,"from":"1093652312","to":"1093670896","type":"store","field":"<java.nio.charset.CharsetDecoderICU: byte[] input>"},{"step":55,"from":"1093652256","to":"1093652256.<java.nio.HeapByteBuffer: int offset>","type":"load","field":"<java.nio.HeapByteBuffer: int offset>"},{"step":56,"from":"sdaReg91","to":"1093670896","type":"store","field":"<java.nio.charset.CharsetDecoderICU: int inEnd>"},{"step":57,"from":"1093652256","to":"1093652256.<java.nio.HeapByteBuffer: int offset>","type":"load","field":"<java.nio.HeapByteBuffer: int offset>"},{"step":58,"from":"1093652256","to":"1093652256.<java.nio.Buffer: int position>","type":"load","field":"<java.nio.Buffer: int position>"},{"step":59,"from":"sdaReg95","to":"1093671048","type":"store","field":"arrayIdx_int:0"},{"step":60,"from":"1093670896","to":"1093671048","type":"load","field":"<java.nio.charset.CharsetDecoderICU: int[] data>"},{"step":61,"from":"1093321632","to":"1093670896","type":"store","field":"<java.nio.charset.CharsetDecoderICU: char[] output>"},{"step":62,"from":"sdaReg110","to":"1093670896","type":"store","field":"<java.nio.charset.CharsetDecoderICU: int outEnd>"},{"step":63,"from":"sdaReg116","to":"1093671048","type":"store","field":"arrayIdx_int:1"},{"step":64,"from":"1093670896","to":"1093670896.<java.nio.charset.CharsetDecoderICU: long converterHandle>","type":"load","field":"<java.nio.charset.CharsetDecoderICU: long converterHandle>"},{"step":65,"from":"1093670896","to":"1093671048","type":"load","field":"<java.nio.charset.CharsetDecoderICU: int[] data>"},{"step":66,"from":"1093652312","to":"1093321632","type":"model"},{"step":67,"from":"sdaReg117","to":"1093670896","type":"store","field":"<java.nio.charset.CharsetDecoderICU: int ec>"},{"step":68,"from":"static.<java.nio.charset.CoderResult: java.nio.charset.CoderResult OVERFLOW>","to":"1084347232","type":"load","field":"<java.nio.charset.CoderResult: java.nio.charset.CoderResult OVERFLOW>"},{"step":69,"from":"1093652256","to":"1093652256.<java.nio.Buffer: int position>","type":"load","field":"<java.nio.Buffer: int position>"},{"step":70,"from":"1093670896","to":"1093671048","type":"load","field":"<java.nio.charset.CharsetDecoderICU: int[] data>"},{"step":71,"from":"sdaReg121","to":"1093652256","type":"store","field":"<java.nio.Buffer: int position>"},{"step":72,"from":"1093652256","to":"1093652256.<java.nio.Buffer: int mark>","type":"load","field":"<java.nio.Buffer: int mark>"},{"step":73,"from":"1093670896","to":"sdaReg124","type":"create","field":"<java.nio.charset.CharsetDecoderICU: byte[] input>"},{"step":74,"from":"1093670896","to":"1093671048","type":"load","field":"<java.nio.charset.CharsetDecoderICU: int[] data>"},{"step":75,"from":"sdaReg136","to":"1093321656","type":"store","field":"<java.nio.Buffer: int position>"},{"step":76,"from":"1093670896","to":"sdaReg139","type":"create","field":"<java.nio.charset.CharsetDecoderICU: char[] output>"},{"step":77,"from":"1084347232","to":"1084347232.<java.nio.charset.CoderResult: int type>","type":"load","field":"<java.nio.charset.CoderResult: int type>"},{"step":78,"from":"1084347232","to":"1084347232.<java.nio.charset.CoderResult: int type>","type":"load","field":"<java.nio.charset.CoderResult: int type>"},{"step":79,"from":"1084347232","to":"1084347232.<java.nio.charset.CoderResult: int type>","type":"load","field":"<java.nio.charset.CoderResult: int type>"},{"step":80,"from":"static.<java.nio.charset.CoderResult: java.nio.charset.CoderResult UNDERFLOW>","to":"1084215096","type":"load","field":"<java.nio.charset.CoderResult: java.nio.charset.CoderResult UNDERFLOW>"},{"step":81,"from":"1084347232","to":"1084347232.<java.nio.charset.CoderResult: int type>","type":"load","field":"<java.nio.charset.CoderResult: int type>"},{"step":82,"from":"1084347232","to":"1084347232.<java.nio.charset.CoderResult: int type>","type":"load","field":"<java.nio.charset.CoderResult: int type>"}],"parameters":[{"id":"1093652160","name":"this","klass":"java.io.InputStreamReader"},{"id":"1093321632","name":"arg#1","klass":"char[]"},{"id":"sdaReg0","name":"arg#2","klass":"int"},{"id":"sdaReg1","name":"arg#3","klass":"int"}],"returns":[{"id":"sdaReg157","name":"return","klass":"int"}],"colors":{"heapLocToColor":{"sdaReg125":[0],"sdaReg126":[4],"sdaReg127":[4],"sdaReg128":[4],"sdaReg68":[0],"sdaReg69":[4],"sdaReg67":[0],"sdaReg64":[0],"sdaReg65":[0],"sdaReg62":[0],"sdaReg63":[0],"sdaReg13":[1],"sdaReg14":[4],"sdaReg11":[2],"sdaReg12":[4],"sdaReg10":[2, 3],"sdaReg120":[0],"sdaReg122":[0],"sdaReg17":[4],"sdaReg121":[0],"sdaReg18":[1],"sdaReg15":[1],"sdaReg123":[0],"sdaReg117":[6],"1093652256.<java.nio.Buffer: int limit>":[0],"sdaReg114":[4],"sdaReg118":[0],"sdaReg119":[0],"static.<java.nio.charset.CoderResult: java.nio.charset.CoderResult OVERFLOW>":[7],"sdaReg78":[0],"sdaReg79":[0],"1084347232.<java.nio.charset.CoderResult: int type>":[7],"sdaReg73":[0],"sdaReg74":[0],"sdaReg75":[4],"sdaReg76":[0],"sdaReg81":[0],"sdaReg80":[0],"sdaReg83":[0],"1093670896.<java.nio.charset.CharsetDecoderICU: int[] data>":[0],"1084215096":[5],"sdaReg112":[4],"sdaReg111":[4],"sdaReg108":[4],"sdaReg103":[1],"sdaReg104":[1],"sdaReg105":[4],"sdaReg106":[4],"sdaReg86":[0],"sdaReg87":[0],"sdaReg84":[0],"sdaReg85":[0],"sdaReg88":[0],"sdaReg89":[0],"1093652256.<java.nio.Buffer: int position>":[0],"sdaReg94":[0],"sdaReg93":[0],"1093671048":[0],"sdaReg92":[0],"1093321632":[1],"sdaReg91":[0],"sdaReg102":[4],"1093652256":[0],"sdaReg101":[4],"1093670896.<java.nio.charset.CharsetDecoder: int status>":[0],"sdaReg95":[0],"sdaReg96":[0],"sdaReg97":[4],"sdaReg98":[4],"sdaReg99":[4],"1093652312":[0],"1093652160.<java.io.InputStreamReader: java.nio.ByteBuffer bytes>":[0],"1093652256.<java.nio.HeapByteBuffer: int offset>":[0],"sdaReg60":[0],"sdaReg61":[0],"1084347232":[7],"1093321656":[4],"1093670896.<java.nio.charset.CharsetDecoderICU: long converterHandle>":[0],"1093651952":[0],"1093651256.<java.io.ByteArrayInputStream: int pos>":[0],"sdaReg59":[0],"sdaReg58":[0],"sdaReg57":[0],"sdaReg56":[0],"sdaReg54":[0],"sdaReg53":[0],"sdaReg52":[0],"sdaReg51":[0],"sdaReg50":[0],"sdaReg152":[4],"1093652160.<java.io.InputStreamReader: java.io.InputStream in>":[0],"sdaReg150":[7],"sdaReg49":[0],"sdaReg157":[2],"sdaReg48":[0],"sdaReg154":[2],"sdaReg155":[4],"sdaReg45":[0],"sdaReg44":[0],"sdaReg47":[0],"sdaReg46":[0],"sdaReg41":[0],"sdaReg40":[0],"sdaReg43":[0],"sdaReg42":[0],"sdaReg148":[7],"static.<java.nio.charset.CoderResult: java.nio.charset.CoderResult UNDERFLOW>":[5],"sdaReg143":[7],"sdaReg145":[7],"sdaReg38":[4],"sdaReg146":[7],"sdaReg140":[7],"sdaReg141":[7],"1093651256.<java.io.ByteArrayInputStream: int count>":[0],"sdaReg32":[2, 3],"sdaReg31":[4],"sdaReg30":[4],"sdaReg34":[0],"sdaReg33":[4],"sdaReg8":[1],"sdaReg6":[2, 3],"1093651256":[0],"sdaReg7":[2],"1093652160":[0],"1093670896":[0],"1093652256.<java.nio.Buffer: int capacity>":[0],"sdaReg138":[4],"sdaReg137":[4],"sdaReg134":[4],"sdaReg27":[4],"1093652256.<java.nio.Buffer: int mark>":[0],"sdaReg26":[4],"sdaReg29":[4],"sdaReg133":[4],"sdaReg28":[4],"sdaReg130":[4],"sdaReg3":[0],"sdaReg1":[3],"sdaReg21":[4],"sdaReg0":[2],"sdaReg20":[4],"sdaReg23":[4],"1093652256.<java.nio.HeapByteBuffer: byte[] backingArray>":[0]},"colorToColor":{"0":[0, 1],"1":[0, 4],"2":[4, 8],"3":[4],"6":[0]},"colorToLabel":{"0":"this","1":"arg#1","2":"arg#2","3":"arg#3","5":"<java.nio.charset.CoderResult: java.nio.charset.CoderResult UNDERFLOW>","7":"<java.nio.charset.CoderResult: java.nio.charset.CoderResult OVERFLOW>","8":"return"}}}

Generated Model
	this->arg#1
	arg#2->return
	arg#1->this

