Scanning method <java.io.FileOutputStream: void close()>

All seen event types: SimpleAssignmentRecord, ExitMonitorRecord, MethodReturnRecord, MethodCallRecord, EnterMonitorRecord, CastRecord, MethodStartRecord, LoadInstanceRecord, MethodEndRecord, IfRecord, InstanceOfRecord, StoreInstanceRecord, 
Ignored event types: ExitMonitorRecord, EnterMonitorRecord, IfRecord, 

JSON Encoded Analysis Data (for visualization):{"heapEdges":[{"step":0,"from":"1093666872","to":"1083966016","type":"load","field":"<java.io.FileOutputStream: dalvik.system.CloseGuard guard>"},{"step":1,"from":"1093666872","to":"1093677368","type":"load","field":"<java.io.FileOutputStream: java.nio.channels.FileChannel channel>"},{"step":2,"from":"1093666872","to":"1093677368","type":"load","field":"<java.io.FileOutputStream: java.nio.channels.FileChannel channel>"},{"step":3,"from":"1093677368","to":"1093677368.<java.nio.channels.spi.AbstractInterruptibleChannel: boolean closed>","type":"load","field":"<java.nio.channels.spi.AbstractInterruptibleChannel: boolean closed>"},{"step":4,"from":"1093677368","to":"1093677368.<java.nio.channels.spi.AbstractInterruptibleChannel: boolean closed>","type":"load","field":"<java.nio.channels.spi.AbstractInterruptibleChannel: boolean closed>"},{"step":5,"from":"1093677368","to":"sdaReg3","type":"create","field":"<java.nio.channels.spi.AbstractInterruptibleChannel: boolean closed>"},{"step":6,"from":"1093677368","to":"1093666872","type":"load","field":"<java.nio.FileChannelImpl: java.lang.Object stream>"},{"step":7,"from":"1093677368","to":"1093666872","type":"load","field":"<java.nio.FileChannelImpl: java.lang.Object stream>"},{"step":8,"from":"1093666872","to":"1083966016","type":"load","field":"<java.io.FileOutputStream: dalvik.system.CloseGuard guard>"},{"step":9,"from":"1093666872","to":"1093677368","type":"load","field":"<java.io.FileOutputStream: java.nio.channels.FileChannel channel>"},{"step":10,"from":"1093666872","to":"1093677368","type":"load","field":"<java.io.FileOutputStream: java.nio.channels.FileChannel channel>"},{"step":11,"from":"1093666872","to":"1093666872.<java.io.FileOutputStream: boolean shouldClose>","type":"load","field":"<java.io.FileOutputStream: boolean shouldClose>"},{"step":12,"from":"1093666872","to":"1093677216","type":"load","field":"<java.io.FileOutputStream: java.io.FileDescriptor fd>"},{"step":13,"from":"1093666872","to":"1093666872.<java.io.FileOutputStream: boolean shouldClose>","type":"load","field":"<java.io.FileOutputStream: boolean shouldClose>"},{"step":14,"from":"1093666872","to":"1093677216","type":"load","field":"<java.io.FileOutputStream: java.io.FileDescriptor fd>"}],"parameters":[{"id":"1093666872","name":"this","klass":"java.io.FileOutputStream"}],"returns":[{"id":null,"name":"return","klass":null}],"colors":{"heapLocToColor":{"1093666872":[0],"1093666872.<java.io.FileOutputStream: java.nio.channels.FileChannel channel>":[0],"sdaReg8":[0],"sdaReg9":[0],"1093666872.<java.io.FileOutputStream: java.io.FileDescriptor fd>":[0],"sdaReg6":[0],"sdaReg7":[0],"sdaReg4":[0],"1093666872.<java.io.FileOutputStream: boolean shouldClose>":[0],"1093677368.<java.nio.FileChannelImpl: java.lang.Object stream>":[0],"1093666872.<java.io.FileOutputStream: dalvik.system.CloseGuard guard>":[0],"1093677216":[0],"1093677368.<java.nio.channels.spi.AbstractInterruptibleChannel: boolean closed>":[0],"1093677368":[0],"sdaReg2":[0],"sdaReg1":[0],"1083966016":[0]},"colorToColor":{},"colorToLabel":{"0":"this","1":"return"}}}

Generated Model

