Scanning method <java.io.FileOutputStream: void close()>

All seen event types: SimpleAssignmentRecord, ExitMonitorRecord, MethodReturnRecord, MethodCallRecord, EnterMonitorRecord, LoadInstanceRecord, IfRecord, StoreInstanceRecord, NewObjectRecord, 
Ignored event types: ExitMonitorRecord, EnterMonitorRecord, IfRecord, 

JSON Encoded Analysis Data (for visualization):{"heapEdges":[{"step":0,"from":"1093656120","to":"1083966016","type":"load","field":"<java.io.FileOutputStream: dalvik.system.CloseGuard guard>"},{"step":1,"from":"1093656120","to":"1093656120.<java.io.FileOutputStream: boolean shouldClose>","type":"load","field":"<java.io.FileOutputStream: boolean shouldClose>"},{"step":2,"from":"1093656120","to":"1093328600","type":"create","field":"<java.io.FileOutputStream: java.io.FileDescriptor fd>"}],"parameters":[{"id":"1093656120","name":"this","klass":"java.io.FileOutputStream"}],"returns":[{"id":null,"name":"return","klass":null}],"colors":{"heapLocToColor":{"1093656120.<java.io.FileOutputStream: boolean shouldClose>":[0],"sdaReg1":[1],"1083966016":[0],"1093328600":[1],"1093656120":[0]},"colorToColor":{"1":[0]},"colorToLabel":{"0":"this","2":"return"}}}

Generated Model

