Scanning method <java.util.ArrayList: void trimToSize()>

All seen event types: NewArrayRecord, BinaryOperationRecord, MethodReturnRecord, MethodCallRecord, ArrayLengthRecord, LoadInstanceRecord, IfRecord, StoreInstanceRecord, 
Ignored event types: IfRecord, 

JSON Encoded Analysis Data (for visualization):{"heapEdges":[{"step":0,"from":"1093544360","to":"1093544360.<java.util.ArrayList: int size>","type":"load","field":"<java.util.ArrayList: int size>"},{"step":1,"from":"1093544360","to":"1093731464","type":"load","field":"<java.util.ArrayList: java.lang.Object[] array>"},{"step":2,"from":"1093544360","to":"1093731464","type":"load","field":"<java.util.ArrayList: java.lang.Object[] array>"},{"step":3,"from":"1093731464","to":"1093741448","type":"model"},{"step":4,"from":"1093544360","to":"1093741448","type":"create","field":"<java.util.ArrayList: java.lang.Object[] array>"},{"step":5,"from":"1093544360","to":"1093544360.<java.util.AbstractList: int modCount>","type":"load","field":"<java.util.AbstractList: int modCount>"},{"step":6,"from":"sdaReg1","to":"1093544360","type":"store","field":"<java.util.AbstractList: int modCount>"}],"parameters":[{"id":"1093544360","name":"this","klass":"java.util.ArrayList"}],"returns":[{"id":null,"name":"return","klass":null}],"colors":{"heapLocToColor":{"1093731464":[0],"1093544360.<java.util.ArrayList: int size>":[0],"1093544360":[0],"1093544360.<java.util.AbstractList: int modCount>":[0],"1093544360.<java.util.ArrayList: java.lang.Object[] array>":[0],"sdaReg1":[0],"1093741448":[1]},"colorToColor":{"0":[0, 1],"1":[0]},"colorToLabel":{"0":"this","2":"return"}}}

Generated Model

