Scanning method <java.io.OutputStreamWriter: void close()>

All seen event types: StoreArrayRecord, SimpleAssignmentRecord, ExitMonitorRecord, LoadInstanceRecord, MethodStartRecord, IfRecord, NewObjectRecord, StoreInstanceRecord, NewArrayRecord, LoadStaticRecord, BinaryOperationRecord, MethodCallRecord, MethodReturnRecord, EnterMonitorRecord, LoadArrayRecord, MethodEndRecord, 
Ignored event types: ExitMonitorRecord, EnterMonitorRecord, IfRecord, 

JSON Encoded Analysis Data (for visualization):{"heapEdges":[{"step":0,"from":"1093517424","to":"1093593536","type":"load","field":"<java.io.Writer: java.lang.Object lock>"},{"step":1,"from":"1093517424","to":"1093516184","type":"load","field":"<java.io.OutputStreamWriter: java.nio.charset.CharsetEncoder encoder>"},{"step":2,"from":"1095264352","to":"sdaReg12","type":"create","field":"<java.nio.Buffer: int mark>"},{"step":3,"from":"1095264352","to":"sdaReg13","type":"create","field":"<java.nio.Buffer: int position>"},{"step":4,"from":"1095264352","to":"sdaReg10","type":"create","field":"<java.nio.Buffer: int _elementSizeShift>"},{"step":5,"from":"1095264352","to":"sdaReg2","type":"create","field":"<java.nio.Buffer: int limit>"},{"step":6,"from":"sdaReg2","to":"1095264352","type":"store","field":"<java.nio.Buffer: int capacity>"},{"step":7,"from":"1095264352","to":"1095264400","type":"create","field":"<java.nio.CharArrayBuffer: char[] backingArray>"},{"step":8,"from":"1095264352","to":"sdaReg7","type":"create","field":"<java.nio.CharArrayBuffer: int offset>"},{"step":9,"from":"1093517424","to":"1093516184","type":"load","field":"<java.io.OutputStreamWriter: java.nio.charset.CharsetEncoder encoder>"},{"step":10,"from":"1093517424","to":"1093517456","type":"load","field":"<java.io.OutputStreamWriter: java.nio.ByteBuffer bytes>"},{"step":11,"from":"1093516184","to":"1093516184.<java.nio.charset.CharsetEncoder: int status>","type":"load","field":"<java.nio.charset.CharsetEncoder: int status>"},{"step":12,"from":"1093516184","to":"1093516184.<java.nio.charset.CharsetEncoder: int status>","type":"load","field":"<java.nio.charset.CharsetEncoder: int status>"},{"step":13,"from":"static.<java.nio.charset.CoderResult: java.nio.charset.CoderResult UNDERFLOW>","to":"1084215096","type":"load","field":"<java.nio.charset.CoderResult: java.nio.charset.CoderResult UNDERFLOW>"},{"step":14,"from":"static.<java.nio.charset.CoderResult: java.nio.charset.CoderResult UNDERFLOW>","to":"1084215096","type":"load","field":"<java.nio.charset.CoderResult: java.nio.charset.CoderResult UNDERFLOW>"},{"step":15,"from":"sdaReg30","to":"1093516184","type":"store","field":"<java.nio.charset.CharsetEncoder: int status>"},{"step":16,"from":"1084215096","to":"1084215096.<java.nio.charset.CoderResult: int type>","type":"load","field":"<java.nio.charset.CoderResult: int type>"},{"step":17,"from":"1084215096","to":"1084215096.<java.nio.charset.CoderResult: int type>","type":"load","field":"<java.nio.charset.CoderResult: int type>"},{"step":18,"from":"1084215096","to":"1084215096.<java.nio.charset.CoderResult: int type>","type":"load","field":"<java.nio.charset.CoderResult: int type>"},{"step":19,"from":"1093517424","to":"1093516184","type":"load","field":"<java.io.OutputStreamWriter: java.nio.charset.CharsetEncoder encoder>"},{"step":20,"from":"1093517424","to":"1093517456","type":"load","field":"<java.io.OutputStreamWriter: java.nio.ByteBuffer bytes>"},{"step":21,"from":"static.<libcore.util.EmptyArray: char[] CHAR>","to":"1083993992","type":"load","field":"<libcore.util.EmptyArray: char[] CHAR>"},{"step":22,"from":"1083993992","to":"1093516184","type":"store","field":"<java.nio.charset.CharsetEncoderICU: char[] input>"},{"step":23,"from":"1093516184","to":"sdaReg42","type":"create","field":"<java.nio.charset.CharsetEncoderICU: int inEnd>"},{"step":24,"from":"1093516184","to":"1093516312","type":"load","field":"<java.nio.charset.CharsetEncoderICU: int[] data>"},{"step":25,"from":"1093516312","to":"sdaReg43","type":"create","field":"arrayIdx_int:0"},{"step":26,"from":"1093516184","to":"1093516312","type":"load","field":"<java.nio.charset.CharsetEncoderICU: int[] data>"},{"step":27,"from":"1093517456","to":"1093896280","type":"load","field":"<java.nio.HeapByteBuffer: byte[] backingArray>"},{"step":28,"from":"1093896280","to":"1093516184","type":"store","field":"<java.nio.charset.CharsetEncoderICU: byte[] output>"},{"step":29,"from":"1093517456","to":"1093517456.<java.nio.HeapByteBuffer: int offset>","type":"load","field":"<java.nio.HeapByteBuffer: int offset>"},{"step":30,"from":"1093517456","to":"1093517456.<java.nio.Buffer: int limit>","type":"load","field":"<java.nio.Buffer: int limit>"},{"step":31,"from":"sdaReg56","to":"1093516184","type":"store","field":"<java.nio.charset.CharsetEncoderICU: int outEnd>"},{"step":32,"from":"1093517456","to":"1093517456.<java.nio.HeapByteBuffer: int offset>","type":"load","field":"<java.nio.HeapByteBuffer: int offset>"},{"step":33,"from":"1093517456","to":"1093517456.<java.nio.Buffer: int position>","type":"load","field":"<java.nio.Buffer: int position>"},{"step":34,"from":"sdaReg60","to":"1093516312","type":"store","field":"arrayIdx_int:1"},{"step":35,"from":"1093516184","to":"1093516312","type":"load","field":"<java.nio.charset.CharsetEncoderICU: int[] data>"},{"step":36,"from":"1093516312","to":"sdaReg61","type":"create","field":"arrayIdx_int:2"},{"step":37,"from":"1093516184","to":"1093516184.<java.nio.charset.CharsetEncoderICU: long converterHandle>","type":"load","field":"<java.nio.charset.CharsetEncoderICU: long converterHandle>"},{"step":38,"from":"1093516184","to":"1093516312","type":"load","field":"<java.nio.charset.CharsetEncoderICU: int[] data>"},{"step":39,"from":"1093516184.<java.nio.charset.CharsetEncoderICU: long converterHandle>","to":"1083993992","type":"model"},{"step":40,"from":"1093516184.<java.nio.charset.CharsetEncoderICU: long converterHandle>","to":"1093896280","type":"model"},{"step":41,"from":"1093516184.<java.nio.charset.CharsetEncoderICU: long converterHandle>","to":"1093516312","type":"model"},{"step":42,"from":"1093516184.<java.nio.charset.CharsetEncoderICU: long converterHandle>","to":"sdaReg62","type":"model"},{"step":43,"from":"1083993992","to":"1093516184.<java.nio.charset.CharsetEncoderICU: long converterHandle>","type":"model"},{"step":44,"from":"1083993992","to":"1093896280","type":"model"},{"step":45,"from":"1083993992","to":"1093516312","type":"model"},{"step":46,"from":"1083993992","to":"sdaReg62","type":"model"},{"step":47,"from":"1093896280","to":"1093516184.<java.nio.charset.CharsetEncoderICU: long converterHandle>","type":"model"},{"step":48,"from":"1093896280","to":"1083993992","type":"model"},{"step":49,"from":"1093896280","to":"1093516312","type":"model"},{"step":50,"from":"1093896280","to":"sdaReg62","type":"model"},{"step":51,"from":"1093516312","to":"1093516184.<java.nio.charset.CharsetEncoderICU: long converterHandle>","type":"model"},{"step":52,"from":"1093516312","to":"1083993992","type":"model"},{"step":53,"from":"1093516312","to":"1093896280","type":"model"},{"step":54,"from":"1093516312","to":"sdaReg62","type":"model"},{"step":55,"from":"sdaReg62","to":"1093516184","type":"store","field":"<java.nio.charset.CharsetEncoderICU: int ec>"},{"step":56,"from":"static.<java.nio.charset.CoderResult: java.nio.charset.CoderResult UNDERFLOW>","to":"1084215096","type":"load","field":"<java.nio.charset.CoderResult: java.nio.charset.CoderResult UNDERFLOW>"},{"step":57,"from":"1093517456","to":"1093517456.<java.nio.Buffer: int position>","type":"load","field":"<java.nio.Buffer: int position>"},{"step":58,"from":"1093516184","to":"1093516312","type":"load","field":"<java.nio.charset.CharsetEncoderICU: int[] data>"},{"step":59,"from":"1093517456","to":"1093517456.<java.nio.HeapByteBuffer: int offset>","type":"load","field":"<java.nio.HeapByteBuffer: int offset>"},{"step":60,"from":"1093517456","to":"1093517456.<java.nio.Buffer: int limit>","type":"load","field":"<java.nio.Buffer: int limit>"},{"step":61,"from":"sdaReg74","to":"1093517456","type":"store","field":"<java.nio.Buffer: int position>"},{"step":62,"from":"1093517456","to":"1093517456.<java.nio.Buffer: int mark>","type":"load","field":"<java.nio.Buffer: int mark>"},{"step":63,"from":"1093516184","to":"sdaReg77","type":"create","field":"<java.nio.charset.CharsetEncoderICU: byte[] output>"},{"step":64,"from":"1093516184","to":"1093516184.<java.nio.charset.CharsetEncoderICU: long converterHandle>","type":"load","field":"<java.nio.charset.CharsetEncoderICU: long converterHandle>"},{"step":65,"from":"1093516184","to":"1093516312","type":"load","field":"<java.nio.charset.CharsetEncoderICU: int[] data>"},{"step":66,"from":"1093516312","to":"sdaReg79","type":"create","field":"arrayIdx_int:0"},{"step":67,"from":"1093516184","to":"1093516312","type":"load","field":"<java.nio.charset.CharsetEncoderICU: int[] data>"},{"step":68,"from":"1093516312","to":"sdaReg80","type":"create","field":"arrayIdx_int:1"},{"step":69,"from":"1093516184","to":"1093516312","type":"load","field":"<java.nio.charset.CharsetEncoderICU: int[] data>"},{"step":70,"from":"1093516312","to":"sdaReg81","type":"create","field":"arrayIdx_int:2"},{"step":71,"from":"1093516184","to":"sdaReg82","type":"create","field":"<java.nio.charset.CharsetEncoderICU: byte[] output>"},{"step":72,"from":"1093516184","to":"sdaReg83","type":"create","field":"<java.nio.charset.CharsetEncoderICU: char[] input>"},{"step":73,"from":"1093516184","to":"sdaReg84","type":"create","field":"<java.nio.charset.CharsetEncoderICU: char[] allocatedInput>"},{"step":74,"from":"1093516184","to":"sdaReg85","type":"create","field":"<java.nio.charset.CharsetEncoderICU: byte[] allocatedOutput>"},{"step":75,"from":"1093516184","to":"sdaReg86","type":"create","field":"<java.nio.charset.CharsetEncoderICU: int ec>"},{"step":76,"from":"1093516184","to":"sdaReg87","type":"create","field":"<java.nio.charset.CharsetEncoderICU: int inEnd>"},{"step":77,"from":"1093516184","to":"sdaReg88","type":"create","field":"<java.nio.charset.CharsetEncoderICU: int outEnd>"},{"step":78,"from":"static.<java.nio.charset.CoderResult: java.nio.charset.CoderResult UNDERFLOW>","to":"1084215096","type":"load","field":"<java.nio.charset.CoderResult: java.nio.charset.CoderResult UNDERFLOW>"},{"step":79,"from":"1093516184","to":"sdaReg90","type":"create","field":"<java.nio.charset.CharsetEncoder: int status>"},{"step":80,"from":"1084215096","to":"1084215096.<java.nio.charset.CoderResult: int type>","type":"load","field":"<java.nio.charset.CoderResult: int type>"},{"step":81,"from":"1093517424","to":"1093593536","type":"load","field":"<java.io.Writer: java.lang.Object lock>"},{"step":82,"from":"1093517424","to":"1093516184","type":"load","field":"<java.io.OutputStreamWriter: java.nio.charset.CharsetEncoder encoder>"},{"step":83,"from":"1093517424","to":"1093517456","type":"load","field":"<java.io.OutputStreamWriter: java.nio.ByteBuffer bytes>"},{"step":84,"from":"1093517424","to":"1093593536","type":"load","field":"<java.io.OutputStreamWriter: java.io.OutputStream out>"},{"step":85,"from":"1093517424","to":"sdaReg101","type":"create","field":"<java.io.OutputStreamWriter: java.nio.charset.CharsetEncoder encoder>"},{"step":86,"from":"1093517424","to":"sdaReg102","type":"create","field":"<java.io.OutputStreamWriter: java.nio.ByteBuffer bytes>"}],"parameters":[{"id":"1093517424","name":"this","klass":"java.io.OutputStreamWriter"}],"returns":[{"id":null,"name":"return","klass":null}],"colors":{"heapLocToColor":{"sdaReg60":[0],"1093517456.<java.nio.Buffer: int limit>":[0],"sdaReg68":[0],"1093517424":[0],"1095264352":[1],"sdaReg66":[0],"sdaReg67":[0],"1093516184.<java.nio.charset.CharsetEncoderICU: long converterHandle>":[0],"sdaReg65":[0],"sdaReg62":[5],"1093516184.<java.nio.charset.CharsetEncoderICU: int[] data>":[0],"sdaReg72":[0],"sdaReg71":[0],"sdaReg14":[1],"sdaReg70":[0],"sdaReg11":[1],"sdaReg59":[0],"sdaReg58":[0],"sdaReg57":[0],"sdaReg56":[0],"sdaReg19":[1],"sdaReg55":[0],"sdaReg54":[0],"sdaReg17":[1],"sdaReg53":[0],"sdaReg18":[1],"sdaReg52":[0],"sdaReg15":[1],"sdaReg51":[0],"sdaReg16":[1],"sdaReg50":[0],"1093517456.<java.nio.HeapByteBuffer: int offset>":[0],"1093593536":[0],"1093517456":[0],"sdaReg78":[0],"sdaReg73":[0],"sdaReg74":[0],"sdaReg75":[0],"sdaReg76":[0],"1093896280":[0],"1093517424.<java.io.OutputStreamWriter: java.nio.charset.CharsetEncoder encoder>":[0],"sdaReg49":[0],"1084215096":[3],"1093517424.<java.io.Writer: java.lang.Object lock>":[0],"sdaReg45":[0],"sdaReg44":[0],"sdaReg47":[0],"1093517424.<java.io.OutputStreamWriter: java.io.OutputStream out>":[0],"sdaReg46":[0],"sdaReg41":[0],"sdaReg40":[0],"1095264400":[2],"1093516184.<java.nio.charset.CharsetEncoder: int status>":[0],"static.<java.nio.charset.CoderResult: java.nio.charset.CoderResult UNDERFLOW>":[3],"sdaReg89":[3],"sdaReg39":[0],"sdaReg38":[0],"sdaReg94":[0],"sdaReg92":[3],"sdaReg91":[3],"sdaReg100":[0],"1093516312":[0],"1093516184":[0],"sdaReg31":[1],"1084215096.<java.nio.charset.CoderResult: int type>":[3],"sdaReg36":[3],"sdaReg34":[3],"1093517424.<java.io.OutputStreamWriter: java.nio.ByteBuffer bytes>":[0],"sdaReg33":[3],"sdaReg8":[1],"sdaReg9":[1],"sdaReg6":[2],"1083993992":[4],"sdaReg4":[1],"sdaReg5":[1],"sdaReg96":[0],"sdaReg97":[0],"static.<libcore.util.EmptyArray: char[] CHAR>":[4],"sdaReg98":[0],"sdaReg27":[1],"sdaReg26":[0],"sdaReg29":[3],"sdaReg3":[1],"sdaReg21":[1],"sdaReg1":[0],"sdaReg20":[0],"sdaReg22":[0],"sdaReg25":[1],"1093517456.<java.nio.Buffer: int mark>":[0],"1093517456.<java.nio.Buffer: int position>":[0],"sdaReg24":[0]},"colorToColor":{"0":[0, 4, 5],"2":[1],"4":[0, 5],"5":[0]},"colorToLabel":{"0":"this","3":"<java.nio.charset.CoderResult: java.nio.charset.CoderResult UNDERFLOW>","4":"<libcore.util.EmptyArray: char[] CHAR>","6":"return"}}}

Generated Model
	this-><libcore.util.EmptyArray: char[] CHAR>

