Scanning method <java.util.AbstractList$SubAbstractList$SubAbstractListIterator: int previousIndex()>

All seen event types: MethodReturnRecord, MethodCallRecord, MethodStartRecord, LoadInstanceRecord, IfRecord, MethodEndRecord, 
Ignored event types: IfRecord, 

JSON Encoded Analysis Data (for visualization):{"heapEdges":[{"step":0,"from":"1093246504","to":"1093246536","type":"load","field":"<java.util.AbstractList$SubAbstractList$SubAbstractListIterator: java.util.ListIterator iterator>"},{"step":1,"from":"1093246536","to":"1093246536.<java.util.AbstractList$SimpleListIterator: int pos>","type":"load","field":"<java.util.AbstractList$SimpleListIterator: int pos>"},{"step":2,"from":"1093246504","to":"1093246504.<java.util.AbstractList$SubAbstractList$SubAbstractListIterator: int start>","type":"load","field":"<java.util.AbstractList$SubAbstractList$SubAbstractListIterator: int start>"}],"parameters":[{"id":"1093246504","name":"this","klass":"java.util.AbstractList$SubAbstractList$SubAbstractListIterator"}],"returns":[{"id":null,"name":"return","klass":"int"}],"colors":{"heapLocToColor":{"1093246504":[0],"1093246504.<java.util.AbstractList$SubAbstractList$SubAbstractListIterator: int start>":[0],"1093246536":[0],"sdaReg0":[0],"1093246536.<java.util.AbstractList$SimpleListIterator: int pos>":[0]},"colorToColor":{},"colorToLabel":{"0":"this","1":"return"}}}

Generated Model

