Scanning method <java.net.URL: void <init>(java.net.URL,java.lang.String)>

All seen event types: BinaryOperationRecord, SimpleAssignmentRecord, SwitchRecord, MethodReturnRecord, MethodCallRecord, LoadInstanceRecord, MethodStartRecord, MethodEndRecord, IfRecord, NewObjectRecord, StoreInstanceRecord, 
Ignored event types: SwitchRecord, IfRecord, 

JSON Encoded Analysis Data (for visualization):{"heapEdges":[{"step":0,"from":"1093577208","to":"sdaReg4","type":"create","field":"<java.net.URL: int port>"},{"step":1,"from":"sdaReg0","to":"sdaReg5","type":"model"},{"step":2,"from":"sdaReg5","to":"sdaReg6","type":"model"},{"step":3,"from":"1093577208","to":"sdaReg7","type":"create","field":"<java.net.URL: java.lang.String protocol>"},{"step":4,"from":"1093669400","to":"1093669400.<java.net.URL: java.lang.String protocol>","type":"load","field":"<java.net.URL: java.lang.String protocol>"},{"step":5,"from":"1093669400","to":"1093669400.<java.net.URL: java.lang.String host>","type":"load","field":"<java.net.URL: java.lang.String host>"},{"step":6,"from":"1093669400","to":"1093669400.<java.net.URL: int port>","type":"load","field":"<java.net.URL: int port>"},{"step":7,"from":"1093669400","to":"1093669400.<java.net.URL: java.lang.String authority>","type":"load","field":"<java.net.URL: java.lang.String authority>"},{"step":8,"from":"1093669400","to":"1093669400.<java.net.URL: java.lang.String userInfo>","type":"load","field":"<java.net.URL: java.lang.String userInfo>"},{"step":9,"from":"1093669400","to":"1093669400.<java.net.URL: java.lang.String path>","type":"load","field":"<java.net.URL: java.lang.String path>"},{"step":10,"from":"1093669400","to":"1093669400.<java.net.URL: java.lang.String query>","type":"load","field":"<java.net.URL: java.lang.String query>"},{"step":11,"from":"1093669400","to":"1093669400.<java.net.URL: java.lang.String ref>","type":"load","field":"<java.net.URL: java.lang.String ref>"},{"step":12,"from":"1093669400.<java.net.URL: java.lang.String protocol>","to":"1093577208","type":"store","field":"<java.net.URL: java.lang.String protocol>"},{"step":13,"from":"1093669400.<java.net.URL: java.lang.String host>","to":"1093577208","type":"store","field":"<java.net.URL: java.lang.String host>"},{"step":14,"from":"sdaReg18","to":"1093577208","type":"store","field":"<java.net.URL: java.lang.String file>"},{"step":15,"from":"1093669400.<java.net.URL: int port>","to":"1093577208","type":"store","field":"<java.net.URL: int port>"},{"step":16,"from":"1093669400.<java.net.URL: java.lang.String ref>","to":"1093577208","type":"store","field":"<java.net.URL: java.lang.String ref>"},{"step":17,"from":"1093577208","to":"sdaReg20","type":"create","field":"<java.net.URL: int hashCode>"},{"step":18,"from":"sdaReg24","to":"1093577208","type":"store","field":"<java.net.URL: java.lang.String authority>"},{"step":19,"from":"1093577208","to":"sdaReg27","type":"create","field":"<java.net.URL: java.lang.String userInfo>"},{"step":20,"from":"1093577208","to":"sdaReg30","type":"create","field":"<java.net.URL: java.lang.String query>"},{"step":21,"from":"sdaReg31","to":"1093577208","type":"store","field":"<java.net.URL: java.lang.String path>"},{"step":22,"from":"1093669400.<java.net.URL: java.lang.String authority>","to":"1093577208","type":"store","field":"<java.net.URL: java.lang.String authority>"},{"step":23,"from":"1093669400.<java.net.URL: java.lang.String userInfo>","to":"1093577208","type":"store","field":"<java.net.URL: java.lang.String userInfo>"},{"step":24,"from":"1093669400.<java.net.URL: java.lang.String path>","to":"1093577208","type":"store","field":"<java.net.URL: java.lang.String path>"},{"step":25,"from":"1093669400.<java.net.URL: java.lang.String query>","to":"1093577208","type":"store","field":"<java.net.URL: java.lang.String query>"},{"step":26,"from":"1093669400","to":"1093308848","type":"load","field":"<java.net.URL: java.net.URLStreamHandler streamHandler>"},{"step":27,"from":"1093308848","to":"1093577208","type":"store","field":"<java.net.URL: java.net.URLStreamHandler streamHandler>"},{"step":28,"from":"sdaReg5","to":"sdaReg9","type":"model"},{"step":29,"from":"sdaReg5","to":"sdaReg36","type":"model"},{"step":30,"from":"sdaReg9","to":"sdaReg5","type":"model"},{"step":31,"from":"sdaReg9","to":"sdaReg36","type":"model"},{"step":32,"from":"sdaReg5","to":"sdaReg53","type":"model"},{"step":33,"from":"sdaReg5","to":"sdaReg56","type":"model"},{"step":34,"from":"sdaReg54","to":"sdaReg56","type":"model"},{"step":35,"from":"sdaReg54","to":"sdaReg57","type":"model"},{"step":36,"from":"sdaReg56","to":"sdaReg54","type":"model"},{"step":37,"from":"sdaReg56","to":"sdaReg57","type":"model"},{"step":38,"from":"sdaReg5","to":"sdaReg58","type":"model"},{"step":39,"from":"sdaReg54","to":"sdaReg58","type":"model"},{"step":40,"from":"sdaReg54","to":"sdaReg59","type":"model"},{"step":41,"from":"sdaReg58","to":"sdaReg54","type":"model"},{"step":42,"from":"sdaReg58","to":"sdaReg59","type":"model"},{"step":43,"from":"sdaReg5","to":"sdaReg60","type":"model"},{"step":44,"from":"sdaReg54","to":"sdaReg60","type":"model"},{"step":45,"from":"sdaReg54","to":"sdaReg61","type":"model"},{"step":46,"from":"sdaReg60","to":"sdaReg54","type":"model"},{"step":47,"from":"sdaReg60","to":"sdaReg61","type":"model"},{"step":48,"from":"sdaReg5","to":"sdaReg62","type":"model"},{"step":49,"from":"sdaReg62","to":"sdaReg63","type":"model"},{"step":50,"from":"sdaReg47","to":"sdaReg65","type":"model"},{"step":51,"from":"sdaReg47","to":"sdaReg67","type":"model"},{"step":52,"from":"sdaReg67","to":"1093329968","type":"model"},{"step":53,"from":"sdaReg67","to":"1093329968","type":"model"},{"step":54,"from":"sdaReg62","to":"1093329968","type":"model"},{"step":55,"from":"sdaReg62","to":"1093329968","type":"model"},{"step":56,"from":"1093329968","to":"sdaReg70","type":"model"},{"step":57,"from":"sdaReg70","to":"sdaReg77","type":"model"},{"step":58,"from":"sdaReg70","to":"sdaReg83","type":"model"},{"step":59,"from":"sdaReg70","to":"sdaReg86","type":"model"},{"step":60,"from":"sdaReg70","to":"sdaReg72","type":"model"},{"step":61,"from":"sdaReg70","to":"sdaReg87","type":"model"},{"step":62,"from":"sdaReg72","to":"sdaReg70","type":"model"},{"step":63,"from":"sdaReg72","to":"sdaReg87","type":"model"},{"step":64,"from":"sdaReg70","to":"sdaReg90","type":"model"},{"step":65,"from":"sdaReg70","to":"sdaReg93","type":"model"},{"step":66,"from":"sdaReg70","to":"sdaReg72","type":"model"},{"step":67,"from":"sdaReg70","to":"sdaReg94","type":"model"},{"step":68,"from":"sdaReg72","to":"sdaReg70","type":"model"},{"step":69,"from":"sdaReg72","to":"sdaReg94","type":"model"},{"step":70,"from":"sdaReg70","to":"sdaReg97","type":"model"},{"step":71,"from":"sdaReg70","to":"sdaReg100","type":"model"},{"step":72,"from":"sdaReg70","to":"sdaReg72","type":"model"},{"step":73,"from":"sdaReg70","to":"sdaReg101","type":"model"},{"step":74,"from":"sdaReg72","to":"sdaReg70","type":"model"},{"step":75,"from":"sdaReg72","to":"sdaReg101","type":"model"},{"step":76,"from":"sdaReg70","to":"sdaReg104","type":"model"},{"step":77,"from":"sdaReg70","to":"sdaReg72","type":"model"},{"step":78,"from":"sdaReg70","to":"sdaReg107","type":"model"},{"step":79,"from":"sdaReg72","to":"sdaReg70","type":"model"},{"step":80,"from":"sdaReg72","to":"sdaReg107","type":"model"},{"step":81,"from":"sdaReg39","to":"sdaReg109","type":"model"},{"step":82,"from":"sdaReg70","to":"sdaReg110","type":"model"},{"step":83,"from":"sdaReg70","to":"sdaReg111","type":"model"},{"step":84,"from":"sdaReg43","to":"1093577208","type":"store","field":"<java.net.URL: java.lang.String host>"},{"step":85,"from":"sdaReg117","to":"1093577208","type":"store","field":"<java.net.URL: java.lang.String file>"},{"step":86,"from":"sdaReg45","to":"1093577208","type":"store","field":"<java.net.URL: int port>"},{"step":87,"from":"sdaReg51","to":"1093577208","type":"store","field":"<java.net.URL: java.lang.String ref>"},{"step":88,"from":"1093577208","to":"sdaReg119","type":"create","field":"<java.net.URL: int hashCode>"},{"step":89,"from":"sdaReg123","to":"1093577208","type":"store","field":"<java.net.URL: java.lang.String authority>"},{"step":90,"from":"1093577208","to":"sdaReg126","type":"create","field":"<java.net.URL: java.lang.String userInfo>"},{"step":91,"from":"1093577208","to":"sdaReg129","type":"create","field":"<java.net.URL: java.lang.String query>"},{"step":92,"from":"sdaReg130","to":"1093577208","type":"store","field":"<java.net.URL: java.lang.String path>"},{"step":93,"from":"sdaReg39","to":"1093577208","type":"store","field":"<java.net.URL: java.lang.String authority>"},{"step":94,"from":"sdaReg41","to":"1093577208","type":"store","field":"<java.net.URL: java.lang.String userInfo>"},{"step":95,"from":"sdaReg70","to":"1093577208","type":"store","field":"<java.net.URL: java.lang.String path>"},{"step":96,"from":"sdaReg49","to":"1093577208","type":"store","field":"<java.net.URL: java.lang.String query>"}],"parameters":[{"id":"1093577208","name":"this","klass":"java.net.URL"},{"id":"1093669400","name":"arg#1","klass":"java.net.URL"},{"id":"sdaReg0","name":"arg#2","klass":"string"}],"returns":[{"id":"1093577208","name":"return","klass":"java.net.URL"}],"colors":{"heapLocToColor":{"sdaReg125":[58],"sdaReg127":[59],"1093669400.<java.net.URL: java.lang.String query>":[1],"sdaReg128":[59],"sdaReg68":[19],"sdaReg69":[19],"sdaReg66":[20],"sdaReg67":[21],"sdaReg64":[19],"sdaReg65":[20],"sdaReg62":[17, 2, 3],"sdaReg63":[17, 2, 3, 18],"sdaReg13":[1],"sdaReg72":[19, 22],"sdaReg14":[1],"sdaReg11":[1],"sdaReg70":[19, 22],"sdaReg12":[1],"sdaReg10":[1],"sdaReg120":[0],"sdaReg19":[0],"sdaReg122":[57],"sdaReg17":[0],"sdaReg18":[1],"sdaReg124":[58],"sdaReg15":[1],"sdaReg16":[1],"sdaReg116":[0],"sdaReg117":[19, 22],"sdaReg114":[1],"sdaReg115":[0],"sdaReg118":[0],"sdaReg77":[19, 22, 25],"sdaReg79":[19, 22],"sdaReg75":[23],"sdaReg76":[24],"sdaReg81":[26],"sdaReg80":[19, 22],"sdaReg83":[19, 22, 28],"sdaReg82":[27],"1093577208":[0],"sdaReg112":[0],"sdaReg111":[19, 22, 56],"sdaReg110":[19, 55, 22],"sdaReg107":[19, 22, 52],"sdaReg108":[53],"sdaReg109":[54],"sdaReg103":[48],"sdaReg104":[19, 49, 22],"sdaReg105":[50],"sdaReg106":[51],"1093669400.<java.net.URL: int port>":[1],"sdaReg86":[19, 22, 31],"sdaReg87":[19, 32, 22],"sdaReg84":[29],"sdaReg85":[30],"sdaReg88":[33],"sdaReg89":[34],"sdaReg90":[35, 19, 22],"sdaReg94":[19, 39, 22],"sdaReg93":[19, 38, 22],"sdaReg92":[37],"sdaReg91":[36],"sdaReg100":[19, 22, 45],"sdaReg102":[47],"sdaReg101":[19, 22, 46],"sdaReg95":[40],"sdaReg96":[41],"sdaReg97":[19, 22, 42],"sdaReg98":[43],"sdaReg99":[44],"1093669400.<java.net.URL: java.lang.String path>":[1],"sdaReg60":[2, 3, 15],"1093669400.<java.net.URL: java.lang.String ref>":[1],"sdaReg61":[16],"sdaReg59":[14],"sdaReg58":[2, 3, 13],"sdaReg57":[12],"sdaReg56":[2, 3, 11],"sdaReg55":[2, 3],"sdaReg53":[2, 3, 10],"1093308848":[1],"sdaReg52":[2, 3, 8],"1093669400":[1],"sdaReg50":[0],"1093669400.<java.net.URL: java.lang.String host>":[1],"1093669400.<java.net.URL: java.lang.String protocol>":[1],"sdaReg48":[0],"sdaReg44":[0],"sdaReg46":[0],"sdaReg40":[0],"sdaReg42":[0],"1093669400.<java.net.URL: java.lang.String authority>":[1],"1093669400.<java.net.URL: java.lang.String userInfo>":[1],"sdaReg38":[0],"sdaReg37":[2, 3],"sdaReg32":[8],"sdaReg36":[2, 3, 9],"sdaReg34":[0],"sdaReg33":[1],"sdaReg9":[2, 3],"sdaReg6":[2, 3, 4],"sdaReg5":[2, 3],"1093329968":[19],"sdaReg26":[6],"sdaReg29":[7],"sdaReg28":[7],"sdaReg131":[0],"sdaReg3":[0],"sdaReg2":[1],"sdaReg21":[0],"sdaReg1":[0],"sdaReg0":[2],"sdaReg23":[5],"sdaReg25":[6]},"colorToColor":{"0":[60],"17":[19],"1":[0],"19":[0, 32, 19, 39, 52, 22, 46],"2":[16, 19, 2, 3, 9, 12, 14],"3":[16, 19, 2, 3, 9, 12, 14],"21":[19],"22":[0, 32, 19, 39, 52, 22, 46],"11":[12],"13":[14],"15":[16]},"colorToLabel":{"0":"this","1":"arg#1","2":"arg#2","60":"return"}}}

Generated Model
	this->return
	arg#2->this
	arg#2->return
	arg#1->this
	arg#1->return

