Scanning method <java.net.URL: void <init>(java.net.URL,java.lang.String)>

All seen event types: BinaryOperationRecord, SimpleAssignmentRecord, SwitchRecord, MethodReturnRecord, MethodCallRecord, LoadInstanceRecord, MethodStartRecord, MethodEndRecord, IfRecord, NewObjectRecord, StoreInstanceRecord, 
Ignored event types: SwitchRecord, IfRecord, 

JSON Encoded Analysis Data (for visualization):{"heapEdges":[{"step":0,"from":"1093583016","to":"sdaReg4","type":"create","field":"<java.net.URL: int port>"},{"step":1,"from":"sdaReg0","to":"sdaReg5","type":"model"},{"step":2,"from":"sdaReg5","to":"sdaReg6","type":"model"},{"step":3,"from":"1093583016","to":"sdaReg7","type":"create","field":"<java.net.URL: java.lang.String protocol>"},{"step":4,"from":"1093685824","to":"1093685824.<java.net.URL: java.lang.String protocol>","type":"load","field":"<java.net.URL: java.lang.String protocol>"},{"step":5,"from":"1093685824","to":"1093685824.<java.net.URL: java.lang.String host>","type":"load","field":"<java.net.URL: java.lang.String host>"},{"step":6,"from":"1093685824","to":"1093685824.<java.net.URL: int port>","type":"load","field":"<java.net.URL: int port>"},{"step":7,"from":"1093685824","to":"1093685824.<java.net.URL: java.lang.String authority>","type":"load","field":"<java.net.URL: java.lang.String authority>"},{"step":8,"from":"1093685824","to":"1093685824.<java.net.URL: java.lang.String userInfo>","type":"load","field":"<java.net.URL: java.lang.String userInfo>"},{"step":9,"from":"1093685824","to":"1093685824.<java.net.URL: java.lang.String path>","type":"load","field":"<java.net.URL: java.lang.String path>"},{"step":10,"from":"1093685824","to":"1093685824.<java.net.URL: java.lang.String query>","type":"load","field":"<java.net.URL: java.lang.String query>"},{"step":11,"from":"1093685824","to":"1093685824.<java.net.URL: java.lang.String ref>","type":"load","field":"<java.net.URL: java.lang.String ref>"},{"step":12,"from":"1093685824.<java.net.URL: java.lang.String query>","to":"sdaReg19","type":"model"},{"step":13,"from":"sdaReg18","to":"1093624992","type":"model"},{"step":14,"from":"sdaReg18","to":"1093624992","type":"model"},{"step":15,"from":"1093685824.<java.net.URL: java.lang.String query>","to":"1093624992","type":"model"},{"step":16,"from":"1093685824.<java.net.URL: java.lang.String query>","to":"1093624992","type":"model"},{"step":17,"from":"1093624992","to":"sdaReg24","type":"model"},{"step":18,"from":"1093685824.<java.net.URL: java.lang.String protocol>","to":"1093583016","type":"store","field":"<java.net.URL: java.lang.String protocol>"},{"step":19,"from":"1093685824.<java.net.URL: java.lang.String host>","to":"1093583016","type":"store","field":"<java.net.URL: java.lang.String host>"},{"step":20,"from":"sdaReg24","to":"1093583016","type":"store","field":"<java.net.URL: java.lang.String file>"},{"step":21,"from":"1093685824.<java.net.URL: int port>","to":"1093583016","type":"store","field":"<java.net.URL: int port>"},{"step":22,"from":"1093685824.<java.net.URL: java.lang.String ref>","to":"1093583016","type":"store","field":"<java.net.URL: java.lang.String ref>"},{"step":23,"from":"1093583016","to":"sdaReg26","type":"create","field":"<java.net.URL: int hashCode>"},{"step":24,"from":"sdaReg30","to":"1093583016","type":"store","field":"<java.net.URL: java.lang.String authority>"},{"step":25,"from":"1093583016","to":"sdaReg33","type":"create","field":"<java.net.URL: java.lang.String userInfo>"},{"step":26,"from":"sdaReg36","to":"sdaReg37","type":"model"},{"step":27,"from":"sdaReg37","to":"1093583016","type":"store","field":"<java.net.URL: java.lang.String query>"},{"step":28,"from":"sdaReg38","to":"1093583016","type":"store","field":"<java.net.URL: java.lang.String path>"},{"step":29,"from":"1093685824.<java.net.URL: java.lang.String authority>","to":"1093583016","type":"store","field":"<java.net.URL: java.lang.String authority>"},{"step":30,"from":"1093685824.<java.net.URL: java.lang.String userInfo>","to":"1093583016","type":"store","field":"<java.net.URL: java.lang.String userInfo>"},{"step":31,"from":"1093685824.<java.net.URL: java.lang.String path>","to":"1093583016","type":"store","field":"<java.net.URL: java.lang.String path>"},{"step":32,"from":"1093685824.<java.net.URL: java.lang.String query>","to":"1093583016","type":"store","field":"<java.net.URL: java.lang.String query>"},{"step":33,"from":"1093685824","to":"1093348736","type":"load","field":"<java.net.URL: java.net.URLStreamHandler streamHandler>"},{"step":34,"from":"1093348736","to":"1093583016","type":"store","field":"<java.net.URL: java.net.URLStreamHandler streamHandler>"},{"step":35,"from":"sdaReg5","to":"sdaReg9","type":"model"},{"step":36,"from":"sdaReg5","to":"sdaReg43","type":"model"},{"step":37,"from":"sdaReg9","to":"sdaReg5","type":"model"},{"step":38,"from":"sdaReg9","to":"sdaReg43","type":"model"},{"step":39,"from":"sdaReg5","to":"sdaReg60","type":"model"},{"step":40,"from":"sdaReg5","to":"sdaReg63","type":"model"},{"step":41,"from":"sdaReg61","to":"sdaReg63","type":"model"},{"step":42,"from":"sdaReg61","to":"sdaReg64","type":"model"},{"step":43,"from":"sdaReg63","to":"sdaReg61","type":"model"},{"step":44,"from":"sdaReg63","to":"sdaReg64","type":"model"},{"step":45,"from":"sdaReg5","to":"sdaReg65","type":"model"},{"step":46,"from":"sdaReg61","to":"sdaReg65","type":"model"},{"step":47,"from":"sdaReg61","to":"sdaReg66","type":"model"},{"step":48,"from":"sdaReg65","to":"sdaReg61","type":"model"},{"step":49,"from":"sdaReg65","to":"sdaReg66","type":"model"},{"step":50,"from":"sdaReg5","to":"sdaReg67","type":"model"},{"step":51,"from":"sdaReg61","to":"sdaReg67","type":"model"},{"step":52,"from":"sdaReg61","to":"sdaReg68","type":"model"},{"step":53,"from":"sdaReg67","to":"sdaReg61","type":"model"},{"step":54,"from":"sdaReg67","to":"sdaReg68","type":"model"},{"step":55,"from":"sdaReg5","to":"sdaReg69","type":"model"},{"step":56,"from":"sdaReg61","to":"sdaReg69","type":"model"},{"step":57,"from":"sdaReg61","to":"sdaReg70","type":"model"},{"step":58,"from":"sdaReg69","to":"sdaReg61","type":"model"},{"step":59,"from":"sdaReg69","to":"sdaReg70","type":"model"},{"step":60,"from":"sdaReg5","to":"sdaReg71","type":"model"},{"step":61,"from":"sdaReg61","to":"sdaReg71","type":"model"},{"step":62,"from":"sdaReg61","to":"sdaReg72","type":"model"},{"step":63,"from":"sdaReg71","to":"sdaReg61","type":"model"},{"step":64,"from":"sdaReg71","to":"sdaReg72","type":"model"},{"step":65,"from":"sdaReg5","to":"sdaReg73","type":"model"},{"step":66,"from":"sdaReg61","to":"sdaReg73","type":"model"},{"step":67,"from":"sdaReg61","to":"sdaReg74","type":"model"},{"step":68,"from":"sdaReg73","to":"sdaReg61","type":"model"},{"step":69,"from":"sdaReg73","to":"sdaReg74","type":"model"},{"step":70,"from":"sdaReg5","to":"sdaReg75","type":"model"},{"step":71,"from":"sdaReg61","to":"sdaReg75","type":"model"},{"step":72,"from":"sdaReg61","to":"sdaReg76","type":"model"},{"step":73,"from":"sdaReg75","to":"sdaReg61","type":"model"},{"step":74,"from":"sdaReg75","to":"sdaReg76","type":"model"},{"step":75,"from":"sdaReg5","to":"sdaReg77","type":"model"},{"step":76,"from":"sdaReg77","to":"sdaReg78","type":"model"},{"step":77,"from":"sdaReg54","to":"sdaReg80","type":"model"},{"step":78,"from":"sdaReg54","to":"sdaReg82","type":"model"},{"step":79,"from":"sdaReg82","to":"1093316176","type":"model"},{"step":80,"from":"sdaReg82","to":"1093316176","type":"model"},{"step":81,"from":"sdaReg77","to":"1093316176","type":"model"},{"step":82,"from":"sdaReg77","to":"1093316176","type":"model"},{"step":83,"from":"1093316176","to":"sdaReg85","type":"model"},{"step":84,"from":"sdaReg85","to":"sdaReg92","type":"model"},{"step":85,"from":"sdaReg85","to":"sdaReg98","type":"model"},{"step":86,"from":"sdaReg85","to":"sdaReg101","type":"model"},{"step":87,"from":"sdaReg85","to":"sdaReg104","type":"model"},{"step":88,"from":"sdaReg85","to":"sdaReg107","type":"model"},{"step":89,"from":"sdaReg85","to":"sdaReg110","type":"model"},{"step":90,"from":"sdaReg85","to":"sdaReg113","type":"model"},{"step":91,"from":"sdaReg85","to":"sdaReg116","type":"model"},{"step":92,"from":"sdaReg46","to":"sdaReg120","type":"model"},{"step":93,"from":"sdaReg85","to":"sdaReg121","type":"model"},{"step":94,"from":"sdaReg85","to":"sdaReg122","type":"model"},{"step":95,"from":"sdaReg50","to":"1093583016","type":"store","field":"<java.net.URL: java.lang.String host>"},{"step":96,"from":"sdaReg128","to":"1093583016","type":"store","field":"<java.net.URL: java.lang.String file>"},{"step":97,"from":"sdaReg52","to":"1093583016","type":"store","field":"<java.net.URL: int port>"},{"step":98,"from":"sdaReg58","to":"1093583016","type":"store","field":"<java.net.URL: java.lang.String ref>"},{"step":99,"from":"1093583016","to":"sdaReg130","type":"create","field":"<java.net.URL: int hashCode>"},{"step":100,"from":"sdaReg134","to":"1093583016","type":"store","field":"<java.net.URL: java.lang.String authority>"},{"step":101,"from":"1093583016","to":"sdaReg137","type":"create","field":"<java.net.URL: java.lang.String userInfo>"},{"step":102,"from":"1093583016","to":"sdaReg140","type":"create","field":"<java.net.URL: java.lang.String query>"},{"step":103,"from":"sdaReg141","to":"1093583016","type":"store","field":"<java.net.URL: java.lang.String path>"},{"step":104,"from":"sdaReg46","to":"1093583016","type":"store","field":"<java.net.URL: java.lang.String authority>"},{"step":105,"from":"sdaReg48","to":"1093583016","type":"store","field":"<java.net.URL: java.lang.String userInfo>"},{"step":106,"from":"sdaReg85","to":"1093583016","type":"store","field":"<java.net.URL: java.lang.String path>"},{"step":107,"from":"sdaReg56","to":"1093583016","type":"store","field":"<java.net.URL: java.lang.String query>"}],"parameters":[{"id":"1093583016","name":"this","klass":"java.net.URL"},{"id":"1093685824","name":"arg#1","klass":"java.net.URL"},{"id":"sdaReg0","name":"arg#2","klass":"string"}],"returns":[{"id":"1093583016","name":"return","klass":"java.net.URL"}],"colors":{"heapLocToColor":{"sdaReg125":[1],"sdaReg126":[0],"sdaReg127":[0],"sdaReg128":[35, 32],"sdaReg129":[0],"sdaReg68":[21],"sdaReg69":[2, 3, 22],"sdaReg66":[19],"sdaReg67":[2, 3, 20],"sdaReg64":[17],"sdaReg65":[2, 3, 18],"sdaReg62":[2, 3],"sdaReg63":[16, 2, 3],"sdaReg13":[1],"sdaReg72":[25],"sdaReg14":[1],"sdaReg71":[2, 3, 24],"sdaReg11":[1],"sdaReg70":[23],"sdaReg12":[1],"1093685824.<java.net.URL: java.lang.String query>":[1],"sdaReg10":[1],"sdaReg120":[63],"sdaReg19":[1, 5],"sdaReg122":[35, 32, 65],"sdaReg17":[0],"sdaReg121":[35, 32, 64],"sdaReg18":[1],"sdaReg15":[1],"sdaReg123":[0],"sdaReg16":[1],"sdaReg116":[35, 32, 59],"sdaReg117":[60],"sdaReg114":[57],"sdaReg115":[58],"sdaReg118":[61],"sdaReg119":[62],"sdaReg77":[2, 3, 30],"sdaReg78":[2, 3, 31, 30],"sdaReg79":[32],"sdaReg73":[2, 3, 26],"sdaReg74":[27],"sdaReg75":[2, 3, 28],"sdaReg76":[29],"sdaReg81":[33],"sdaReg80":[33],"sdaReg83":[32],"sdaReg82":[34],"sdaReg113":[35, 32, 56],"sdaReg112":[55],"sdaReg111":[54],"sdaReg110":[35, 32, 53],"sdaReg107":[35, 50, 32],"sdaReg108":[51],"sdaReg109":[52],"sdaReg103":[46],"sdaReg104":[35, 32, 47],"sdaReg105":[48],"sdaReg106":[49],"sdaReg84":[32],"sdaReg85":[35, 32],"sdaReg90":[36],"sdaReg92":[35, 32, 38],"sdaReg91":[37],"sdaReg100":[43],"sdaReg102":[45],"sdaReg101":[35, 32, 44],"sdaReg96":[39],"sdaReg97":[40],"sdaReg98":[35, 32, 41],"sdaReg99":[42],"1093348736":[1],"1093685824.<java.net.URL: java.lang.String authority>":[1],"1093583016":[0],"1093685824.<java.net.URL: java.lang.String ref>":[1],"sdaReg60":[2, 3, 15],"sdaReg59":[2, 3, 13],"sdaReg57":[0],"sdaReg55":[0],"sdaReg53":[0],"sdaReg51":[0],"1093624992":[6],"sdaReg49":[0],"sdaReg45":[0],"sdaReg44":[2, 3],"sdaReg47":[0],"sdaReg41":[0],"sdaReg40":[1],"1093685824":[1],"sdaReg43":[2, 3, 14],"1093685824.<java.net.URL: java.lang.String host>":[1],"1093685824.<java.net.URL: java.lang.String protocol>":[1],"sdaReg39":[13],"sdaReg38":[12],"sdaReg37":[11],"sdaReg142":[0],"sdaReg32":[9],"sdaReg31":[9],"sdaReg36":[10],"sdaReg35":[10],"sdaReg34":[10],"1093316176":[32],"1093685824.<java.net.URL: java.lang.String path>":[1],"sdaReg9":[2, 3],"sdaReg6":[2, 3, 4],"sdaReg5":[2, 3],"sdaReg139":[68],"sdaReg138":[68],"sdaReg136":[67],"sdaReg27":[0],"sdaReg135":[67],"sdaReg29":[8],"sdaReg133":[66],"sdaReg131":[0],"1093685824.<java.net.URL: int port>":[1],"sdaReg3":[0],"sdaReg2":[1],"1093685824.<java.net.URL: java.lang.String userInfo>":[1],"sdaReg21":[6],"sdaReg1":[0],"sdaReg20":[6],"sdaReg0":[2],"sdaReg23":[6],"sdaReg22":[6],"sdaReg25":[0],"sdaReg24":[6, 7]},"colorToColor":{"0":[69],"34":[32],"35":[0],"1":[0, 6],"32":[0],"2":[17, 32, 19, 2, 3, 21, 23, 25, 27, 29, 14],"3":[17, 32, 19, 2, 3, 21, 23, 25, 27, 29, 14],"6":[0],"7":[0],"10":[11],"11":[0],"12":[0],"16":[17],"18":[19],"20":[21],"22":[23],"24":[25],"26":[27],"28":[29],"30":[32]},"colorToLabel":{"0":"this","1":"arg#1","2":"arg#2","69":"return"}}}

Generated Model
	this->return
	arg#2->this
	arg#2->return
	arg#1->this
	arg#1->return

