Scanning method <java.net.URL: void <init>(java.net.URL,java.lang.String)>

All seen event types: LoadStaticRecord, BinaryOperationRecord, SimpleAssignmentRecord, MethodReturnRecord, MethodCallRecord, LoadInstanceRecord, MethodStartRecord, MethodEndRecord, IfRecord, StoreInstanceRecord, 
Ignored event types: IfRecord, 

JSON Encoded Analysis Data (for visualization):{"heapEdges":[{"step":0,"from":"1093323984","to":"sdaReg4","type":"create","field":"<java.net.URL: int port>"},{"step":1,"from":"sdaReg0","to":"sdaReg5","type":"model"},{"step":2,"from":"sdaReg5","to":"sdaReg6","type":"model"},{"step":3,"from":"sdaReg5","to":"sdaReg8","type":"model"},{"step":4,"from":"sdaReg5","to":"sdaReg10","type":"model"},{"step":5,"from":"sdaReg5","to":"sdaReg12","type":"model"},{"step":6,"from":"sdaReg5","to":"sdaReg14","type":"model"},{"step":7,"from":"sdaReg5","to":"sdaReg16","type":"model"},{"step":8,"from":"static.<java.util.Locale: java.util.Locale US>","to":"1084317688","type":"load","field":"<java.util.Locale: java.util.Locale US>"},{"step":9,"from":"sdaReg16","to":"1084317688","type":"model"},{"step":10,"from":"sdaReg16","to":"sdaReg17","type":"model"},{"step":11,"from":"1084317688","to":"sdaReg16","type":"model"},{"step":12,"from":"1084317688","to":"sdaReg17","type":"model"},{"step":13,"from":"sdaReg17","to":"1093323984","type":"store","field":"<java.net.URL: java.lang.String protocol>"},{"step":14,"from":"1093590288","to":"1093590288.<java.net.URL: java.lang.String protocol>","type":"load","field":"<java.net.URL: java.lang.String protocol>"},{"step":15,"from":"1093590288","to":"1093590288.<java.net.URL: java.lang.String protocol>","type":"load","field":"<java.net.URL: java.lang.String protocol>"},{"step":16,"from":"1093590288","to":"1093590288.<java.net.URL: java.lang.String host>","type":"load","field":"<java.net.URL: java.lang.String host>"},{"step":17,"from":"1093590288","to":"1093590288.<java.net.URL: int port>","type":"load","field":"<java.net.URL: int port>"},{"step":18,"from":"1093590288","to":"1093590288.<java.net.URL: java.lang.String authority>","type":"load","field":"<java.net.URL: java.lang.String authority>"},{"step":19,"from":"1093590288","to":"1093590288.<java.net.URL: java.lang.String userInfo>","type":"load","field":"<java.net.URL: java.lang.String userInfo>"},{"step":20,"from":"1093590288","to":"1093590288.<java.net.URL: java.lang.String path>","type":"load","field":"<java.net.URL: java.lang.String path>"},{"step":21,"from":"1093590288","to":"1093590288.<java.net.URL: java.lang.String query>","type":"load","field":"<java.net.URL: java.lang.String query>"},{"step":22,"from":"1093590288","to":"1093590288.<java.net.URL: java.lang.String ref>","type":"load","field":"<java.net.URL: java.lang.String ref>"},{"step":23,"from":"1093590288.<java.net.URL: java.lang.String host>","to":"1093323984","type":"store","field":"<java.net.URL: java.lang.String host>"},{"step":24,"from":"sdaReg30","to":"1093323984","type":"store","field":"<java.net.URL: java.lang.String file>"},{"step":25,"from":"1093590288.<java.net.URL: int port>","to":"1093323984","type":"store","field":"<java.net.URL: int port>"},{"step":26,"from":"1093590288.<java.net.URL: java.lang.String ref>","to":"1093323984","type":"store","field":"<java.net.URL: java.lang.String ref>"},{"step":27,"from":"1093323984","to":"sdaReg32","type":"create","field":"<java.net.URL: int hashCode>"},{"step":28,"from":"sdaReg36","to":"1093323984","type":"store","field":"<java.net.URL: java.lang.String authority>"},{"step":29,"from":"1093323984","to":"sdaReg39","type":"create","field":"<java.net.URL: java.lang.String userInfo>"},{"step":30,"from":"1093323984","to":"sdaReg42","type":"create","field":"<java.net.URL: java.lang.String query>"},{"step":31,"from":"sdaReg43","to":"1093323984","type":"store","field":"<java.net.URL: java.lang.String path>"},{"step":32,"from":"1093590288.<java.net.URL: java.lang.String authority>","to":"1093323984","type":"store","field":"<java.net.URL: java.lang.String authority>"},{"step":33,"from":"1093590288.<java.net.URL: java.lang.String userInfo>","to":"1093323984","type":"store","field":"<java.net.URL: java.lang.String userInfo>"},{"step":34,"from":"1093590288.<java.net.URL: java.lang.String path>","to":"1093323984","type":"store","field":"<java.net.URL: java.lang.String path>"},{"step":35,"from":"1093590288.<java.net.URL: java.lang.String query>","to":"1093323984","type":"store","field":"<java.net.URL: java.lang.String query>"},{"step":36,"from":"1093590288","to":"1093315472","type":"load","field":"<java.net.URL: java.net.URLStreamHandler streamHandler>"},{"step":37,"from":"1093315472","to":"1093323984","type":"store","field":"<java.net.URL: java.net.URLStreamHandler streamHandler>"},{"step":38,"from":"sdaReg5","to":"sdaReg20","type":"model"},{"step":39,"from":"sdaReg5","to":"sdaReg48","type":"model"},{"step":40,"from":"sdaReg20","to":"sdaReg5","type":"model"},{"step":41,"from":"sdaReg20","to":"sdaReg48","type":"model"},{"step":42,"from":"sdaReg51","to":"sdaReg65","type":"model"},{"step":43,"from":"sdaReg59","to":"sdaReg66","type":"model"},{"step":44,"from":"sdaReg59","to":"sdaReg67","type":"model"},{"step":45,"from":"sdaReg55","to":"1093323984","type":"store","field":"<java.net.URL: java.lang.String host>"},{"step":46,"from":"sdaReg73","to":"1093323984","type":"store","field":"<java.net.URL: java.lang.String file>"},{"step":47,"from":"sdaReg57","to":"1093323984","type":"store","field":"<java.net.URL: int port>"},{"step":48,"from":"sdaReg63","to":"1093323984","type":"store","field":"<java.net.URL: java.lang.String ref>"},{"step":49,"from":"1093323984","to":"sdaReg75","type":"create","field":"<java.net.URL: int hashCode>"},{"step":50,"from":"sdaReg79","to":"1093323984","type":"store","field":"<java.net.URL: java.lang.String authority>"},{"step":51,"from":"1093323984","to":"sdaReg82","type":"create","field":"<java.net.URL: java.lang.String userInfo>"},{"step":52,"from":"1093323984","to":"sdaReg85","type":"create","field":"<java.net.URL: java.lang.String query>"},{"step":53,"from":"sdaReg86","to":"1093323984","type":"store","field":"<java.net.URL: java.lang.String path>"},{"step":54,"from":"sdaReg51","to":"1093323984","type":"store","field":"<java.net.URL: java.lang.String authority>"},{"step":55,"from":"sdaReg53","to":"1093323984","type":"store","field":"<java.net.URL: java.lang.String userInfo>"},{"step":56,"from":"sdaReg59","to":"1093323984","type":"store","field":"<java.net.URL: java.lang.String path>"},{"step":57,"from":"sdaReg61","to":"1093323984","type":"store","field":"<java.net.URL: java.lang.String query>"}],"parameters":[{"id":"1093323984","name":"this","klass":"java.net.URL"},{"id":"1093590288","name":"arg#1","klass":"java.net.URL"},{"id":"sdaReg0","name":"arg#2","klass":"string"}],"returns":[{"id":"1093323984","name":"return","klass":"java.net.URL"}],"colors":{"heapLocToColor":{"sdaReg60":[0],"1093590288.<java.net.URL: java.lang.String protocol>":[1],"sdaReg68":[0],"sdaReg66":[20],"sdaReg67":[21],"sdaReg64":[2, 3, 12],"sdaReg65":[19],"sdaReg62":[0],"1093590288.<java.net.URL: java.lang.String userInfo>":[1],"sdaReg72":[0],"sdaReg71":[0],"sdaReg14":[2, 3, 8],"sdaReg70":[1],"1093590288.<java.net.URL: java.lang.String authority>":[1],"sdaReg12":[2, 3, 7],"sdaReg10":[2, 3, 6],"sdaReg58":[0],"sdaReg56":[0],"sdaReg19":[12],"sdaReg54":[0],"sdaReg17":[2, 3, 9, 11],"sdaReg18":[12],"sdaReg52":[0],"sdaReg16":[2, 3, 9],"sdaReg50":[0],"1093590288.<java.net.URL: java.lang.String ref>":[1],"1084317688":[2, 3, 9, 10],"sdaReg78":[22],"1093590288.<java.net.URL: java.lang.String query>":[1],"sdaReg74":[0],"sdaReg76":[0],"sdaReg81":[23],"sdaReg80":[23],"sdaReg83":[24],"sdaReg49":[2, 3, 12],"sdaReg48":[2, 3, 18],"sdaReg45":[1],"sdaReg44":[17],"sdaReg46":[0],"sdaReg41":[16],"sdaReg40":[16],"sdaReg87":[0],"sdaReg84":[24],"sdaReg38":[15],"sdaReg37":[15],"1093590288":[1],"sdaReg31":[0],"sdaReg30":[1],"sdaReg35":[14],"sdaReg33":[0],"sdaReg8":[2, 3, 5],"sdaReg6":[2, 3, 4],"sdaReg5":[2, 3],"1093590288.<java.net.URL: java.lang.String host>":[1],"1093315472":[1],"sdaReg27":[1],"sdaReg26":[1],"sdaReg29":[0],"static.<java.util.Locale: java.util.Locale US>":[10],"sdaReg28":[1],"1093323984":[0],"sdaReg3":[0],"sdaReg2":[1],"sdaReg21":[13],"sdaReg1":[0],"sdaReg20":[2, 3, 12],"sdaReg0":[2],"sdaReg23":[1],"1093590288.<java.net.URL: int port>":[1],"sdaReg22":[1],"sdaReg25":[1],"sdaReg24":[1],"1093590288.<java.net.URL: java.lang.String path>":[1]},"colorToColor":{"0":[25],"1":[0],"2":[0, 2, 18, 3, 9, 11],"3":[0, 2, 18, 3, 9, 11],"9":[0, 2, 3, 9, 11],"10":[2, 3, 9, 11],"11":[0],"12":[2, 18, 3]},"colorToLabel":{"0":"this","1":"arg#1","2":"arg#2","10":"<java.util.Locale: java.util.Locale US>","25":"return"}}}

Generated Model
	this->return
	arg#2->this
	arg#2->return
	arg#1->this
	arg#1->return

