Scanning method <java.net.URL: void <init>(java.net.URL,java.lang.String)>

All seen event types: BinaryOperationRecord, SimpleAssignmentRecord, SwitchRecord, MethodReturnRecord, MethodCallRecord, LoadInstanceRecord, MethodStartRecord, MethodEndRecord, IfRecord, NewObjectRecord, StoreInstanceRecord, 
Ignored event types: SwitchRecord, IfRecord, 

JSON Encoded Analysis Data (for visualization):{"heapEdges":[{"step":0,"from":"1093311112","to":"sdaReg4","type":"create","field":"<java.net.URL: int port>"},{"step":1,"from":"sdaReg0","to":"sdaReg5","type":"model"},{"step":2,"from":"sdaReg5","to":"sdaReg6","type":"model"},{"step":3,"from":"1093311112","to":"sdaReg7","type":"create","field":"<java.net.URL: java.lang.String protocol>"},{"step":4,"from":"1093255352","to":"1093255352.<java.net.URL: java.lang.String protocol>","type":"load","field":"<java.net.URL: java.lang.String protocol>"},{"step":5,"from":"1093255352","to":"1093255352.<java.net.URL: java.lang.String host>","type":"load","field":"<java.net.URL: java.lang.String host>"},{"step":6,"from":"1093255352","to":"1093255352.<java.net.URL: int port>","type":"load","field":"<java.net.URL: int port>"},{"step":7,"from":"1093255352","to":"1093255352.<java.net.URL: java.lang.String authority>","type":"load","field":"<java.net.URL: java.lang.String authority>"},{"step":8,"from":"1093255352","to":"1093255352.<java.net.URL: java.lang.String userInfo>","type":"load","field":"<java.net.URL: java.lang.String userInfo>"},{"step":9,"from":"1093255352","to":"1093255352.<java.net.URL: java.lang.String path>","type":"load","field":"<java.net.URL: java.lang.String path>"},{"step":10,"from":"1093255352","to":"1093255352.<java.net.URL: java.lang.String query>","type":"load","field":"<java.net.URL: java.lang.String query>"},{"step":11,"from":"1093255352","to":"1093255352.<java.net.URL: java.lang.String ref>","type":"load","field":"<java.net.URL: java.lang.String ref>"},{"step":12,"from":"1093255352.<java.net.URL: java.lang.String query>","to":"sdaReg19","type":"model"},{"step":13,"from":"sdaReg18","to":"1093301144","type":"model"},{"step":14,"from":"sdaReg18","to":"1093301144","type":"model"},{"step":15,"from":"1093255352.<java.net.URL: java.lang.String query>","to":"1093301144","type":"model"},{"step":16,"from":"1093255352.<java.net.URL: java.lang.String query>","to":"1093301144","type":"model"},{"step":17,"from":"1093301144","to":"sdaReg24","type":"model"},{"step":18,"from":"1093255352.<java.net.URL: java.lang.String protocol>","to":"1093311112","type":"store","field":"<java.net.URL: java.lang.String protocol>"},{"step":19,"from":"1093255352.<java.net.URL: java.lang.String host>","to":"1093311112","type":"store","field":"<java.net.URL: java.lang.String host>"},{"step":20,"from":"sdaReg24","to":"1093311112","type":"store","field":"<java.net.URL: java.lang.String file>"},{"step":21,"from":"1093255352.<java.net.URL: int port>","to":"1093311112","type":"store","field":"<java.net.URL: int port>"},{"step":22,"from":"1093255352.<java.net.URL: java.lang.String ref>","to":"1093311112","type":"store","field":"<java.net.URL: java.lang.String ref>"},{"step":23,"from":"1093311112","to":"sdaReg26","type":"create","field":"<java.net.URL: int hashCode>"},{"step":24,"from":"sdaReg30","to":"1093311112","type":"store","field":"<java.net.URL: java.lang.String authority>"},{"step":25,"from":"1093311112","to":"sdaReg33","type":"create","field":"<java.net.URL: java.lang.String userInfo>"},{"step":26,"from":"sdaReg36","to":"sdaReg37","type":"model"},{"step":27,"from":"sdaReg37","to":"1093311112","type":"store","field":"<java.net.URL: java.lang.String query>"},{"step":28,"from":"sdaReg38","to":"1093311112","type":"store","field":"<java.net.URL: java.lang.String path>"},{"step":29,"from":"1093255352.<java.net.URL: java.lang.String authority>","to":"1093311112","type":"store","field":"<java.net.URL: java.lang.String authority>"},{"step":30,"from":"1093255352.<java.net.URL: java.lang.String userInfo>","to":"1093311112","type":"store","field":"<java.net.URL: java.lang.String userInfo>"},{"step":31,"from":"1093255352.<java.net.URL: java.lang.String path>","to":"1093311112","type":"store","field":"<java.net.URL: java.lang.String path>"},{"step":32,"from":"1093255352.<java.net.URL: java.lang.String query>","to":"1093311112","type":"store","field":"<java.net.URL: java.lang.String query>"},{"step":33,"from":"1093255352","to":"1093268672","type":"load","field":"<java.net.URL: java.net.URLStreamHandler streamHandler>"},{"step":34,"from":"1093268672","to":"1093311112","type":"store","field":"<java.net.URL: java.net.URLStreamHandler streamHandler>"},{"step":35,"from":"sdaReg5","to":"sdaReg9","type":"model"},{"step":36,"from":"sdaReg5","to":"sdaReg43","type":"model"},{"step":37,"from":"sdaReg9","to":"sdaReg5","type":"model"},{"step":38,"from":"sdaReg9","to":"sdaReg43","type":"model"},{"step":39,"from":"sdaReg5","to":"sdaReg60","type":"model"},{"step":40,"from":"sdaReg5","to":"sdaReg63","type":"model"},{"step":41,"from":"sdaReg61","to":"sdaReg63","type":"model"},{"step":42,"from":"sdaReg61","to":"sdaReg64","type":"model"},{"step":43,"from":"sdaReg63","to":"sdaReg61","type":"model"},{"step":44,"from":"sdaReg63","to":"sdaReg64","type":"model"},{"step":45,"from":"sdaReg5","to":"sdaReg65","type":"model"},{"step":46,"from":"sdaReg61","to":"sdaReg65","type":"model"},{"step":47,"from":"sdaReg61","to":"sdaReg66","type":"model"},{"step":48,"from":"sdaReg65","to":"sdaReg61","type":"model"},{"step":49,"from":"sdaReg65","to":"sdaReg66","type":"model"},{"step":50,"from":"sdaReg5","to":"sdaReg67","type":"model"},{"step":51,"from":"sdaReg61","to":"sdaReg67","type":"model"},{"step":52,"from":"sdaReg61","to":"sdaReg68","type":"model"},{"step":53,"from":"sdaReg67","to":"sdaReg61","type":"model"},{"step":54,"from":"sdaReg67","to":"sdaReg68","type":"model"},{"step":55,"from":"sdaReg5","to":"sdaReg69","type":"model"},{"step":56,"from":"sdaReg61","to":"sdaReg69","type":"model"},{"step":57,"from":"sdaReg61","to":"sdaReg70","type":"model"},{"step":58,"from":"sdaReg69","to":"sdaReg61","type":"model"},{"step":59,"from":"sdaReg69","to":"sdaReg70","type":"model"},{"step":60,"from":"sdaReg5","to":"sdaReg71","type":"model"},{"step":61,"from":"sdaReg61","to":"sdaReg71","type":"model"},{"step":62,"from":"sdaReg61","to":"sdaReg72","type":"model"},{"step":63,"from":"sdaReg71","to":"sdaReg61","type":"model"},{"step":64,"from":"sdaReg71","to":"sdaReg72","type":"model"},{"step":65,"from":"sdaReg5","to":"sdaReg73","type":"model"},{"step":66,"from":"sdaReg61","to":"sdaReg73","type":"model"},{"step":67,"from":"sdaReg61","to":"sdaReg74","type":"model"},{"step":68,"from":"sdaReg73","to":"sdaReg61","type":"model"},{"step":69,"from":"sdaReg73","to":"sdaReg74","type":"model"},{"step":70,"from":"sdaReg5","to":"sdaReg75","type":"model"},{"step":71,"from":"sdaReg61","to":"sdaReg75","type":"model"},{"step":72,"from":"sdaReg61","to":"sdaReg76","type":"model"},{"step":73,"from":"sdaReg75","to":"sdaReg61","type":"model"},{"step":74,"from":"sdaReg75","to":"sdaReg76","type":"model"},{"step":75,"from":"sdaReg5","to":"sdaReg77","type":"model"},{"step":76,"from":"sdaReg61","to":"sdaReg77","type":"model"},{"step":77,"from":"sdaReg61","to":"sdaReg78","type":"model"},{"step":78,"from":"sdaReg77","to":"sdaReg61","type":"model"},{"step":79,"from":"sdaReg77","to":"sdaReg78","type":"model"},{"step":80,"from":"sdaReg5","to":"sdaReg79","type":"model"},{"step":81,"from":"sdaReg61","to":"sdaReg79","type":"model"},{"step":82,"from":"sdaReg61","to":"sdaReg80","type":"model"},{"step":83,"from":"sdaReg79","to":"sdaReg61","type":"model"},{"step":84,"from":"sdaReg79","to":"sdaReg80","type":"model"},{"step":85,"from":"sdaReg5","to":"sdaReg81","type":"model"},{"step":86,"from":"sdaReg61","to":"sdaReg81","type":"model"},{"step":87,"from":"sdaReg61","to":"sdaReg82","type":"model"},{"step":88,"from":"sdaReg81","to":"sdaReg61","type":"model"},{"step":89,"from":"sdaReg81","to":"sdaReg82","type":"model"},{"step":90,"from":"sdaReg5","to":"sdaReg83","type":"model"},{"step":91,"from":"sdaReg83","to":"sdaReg84","type":"model"},{"step":92,"from":"sdaReg54","to":"sdaReg86","type":"model"},{"step":93,"from":"sdaReg54","to":"sdaReg88","type":"model"},{"step":94,"from":"sdaReg88","to":"1093407240","type":"model"},{"step":95,"from":"sdaReg88","to":"1093407240","type":"model"},{"step":96,"from":"sdaReg83","to":"1093407240","type":"model"},{"step":97,"from":"sdaReg83","to":"1093407240","type":"model"},{"step":98,"from":"1093407240","to":"sdaReg91","type":"model"},{"step":99,"from":"sdaReg91","to":"sdaReg98","type":"model"},{"step":100,"from":"sdaReg91","to":"sdaReg104","type":"model"},{"step":101,"from":"sdaReg91","to":"sdaReg107","type":"model"},{"step":102,"from":"sdaReg91","to":"sdaReg93","type":"model"},{"step":103,"from":"sdaReg91","to":"sdaReg108","type":"model"},{"step":104,"from":"sdaReg93","to":"sdaReg91","type":"model"},{"step":105,"from":"sdaReg93","to":"sdaReg108","type":"model"},{"step":106,"from":"sdaReg91","to":"sdaReg111","type":"model"},{"step":107,"from":"sdaReg91","to":"sdaReg114","type":"model"},{"step":108,"from":"sdaReg91","to":"sdaReg93","type":"model"},{"step":109,"from":"sdaReg91","to":"sdaReg115","type":"model"},{"step":110,"from":"sdaReg93","to":"sdaReg91","type":"model"},{"step":111,"from":"sdaReg93","to":"sdaReg115","type":"model"},{"step":112,"from":"sdaReg91","to":"sdaReg118","type":"model"},{"step":113,"from":"sdaReg91","to":"sdaReg121","type":"model"},{"step":114,"from":"sdaReg91","to":"sdaReg124","type":"model"},{"step":115,"from":"sdaReg91","to":"sdaReg93","type":"model"},{"step":116,"from":"sdaReg91","to":"sdaReg125","type":"model"},{"step":117,"from":"sdaReg93","to":"sdaReg91","type":"model"},{"step":118,"from":"sdaReg93","to":"sdaReg125","type":"model"},{"step":119,"from":"sdaReg91","to":"sdaReg126","type":"model"},{"step":120,"from":"sdaReg91","to":"sdaReg127","type":"model"},{"step":121,"from":"sdaReg126","to":"sdaReg91","type":"model"},{"step":122,"from":"sdaReg126","to":"sdaReg127","type":"model"},{"step":123,"from":"sdaReg91","to":"sdaReg130","type":"model"},{"step":124,"from":"sdaReg130","to":"1093230488","type":"model"},{"step":125,"from":"sdaReg130","to":"1093230488","type":"model"},{"step":126,"from":"sdaReg91","to":"sdaReg99","type":"model"},{"step":127,"from":"sdaReg91","to":"sdaReg132","type":"model"},{"step":128,"from":"sdaReg99","to":"sdaReg91","type":"model"},{"step":129,"from":"sdaReg99","to":"sdaReg132","type":"model"},{"step":130,"from":"sdaReg132","to":"1093230488","type":"model"},{"step":131,"from":"sdaReg132","to":"1093230488","type":"model"},{"step":132,"from":"1093230488","to":"sdaReg134","type":"model"},{"step":133,"from":"sdaReg134","to":"sdaReg137","type":"model"},{"step":134,"from":"sdaReg134","to":"sdaReg140","type":"model"},{"step":135,"from":"sdaReg134","to":"sdaReg143","type":"model"},{"step":136,"from":"sdaReg134","to":"sdaReg93","type":"model"},{"step":137,"from":"sdaReg134","to":"sdaReg144","type":"model"},{"step":138,"from":"sdaReg93","to":"sdaReg134","type":"model"},{"step":139,"from":"sdaReg93","to":"sdaReg144","type":"model"},{"step":140,"from":"sdaReg134","to":"sdaReg126","type":"model"},{"step":141,"from":"sdaReg134","to":"sdaReg145","type":"model"},{"step":142,"from":"sdaReg126","to":"sdaReg134","type":"model"},{"step":143,"from":"sdaReg126","to":"sdaReg145","type":"model"},{"step":144,"from":"sdaReg134","to":"sdaReg147","type":"model"},{"step":145,"from":"sdaReg147","to":"1093316048","type":"model"},{"step":146,"from":"sdaReg147","to":"1093316048","type":"model"},{"step":147,"from":"sdaReg134","to":"sdaReg99","type":"model"},{"step":148,"from":"sdaReg134","to":"sdaReg149","type":"model"},{"step":149,"from":"sdaReg99","to":"sdaReg134","type":"model"},{"step":150,"from":"sdaReg99","to":"sdaReg149","type":"model"},{"step":151,"from":"sdaReg149","to":"1093316048","type":"model"},{"step":152,"from":"sdaReg149","to":"1093316048","type":"model"},{"step":153,"from":"1093316048","to":"sdaReg151","type":"model"},{"step":154,"from":"sdaReg151","to":"sdaReg154","type":"model"},{"step":155,"from":"sdaReg151","to":"sdaReg157","type":"model"},{"step":156,"from":"sdaReg151","to":"sdaReg160","type":"model"},{"step":157,"from":"sdaReg151","to":"sdaReg93","type":"model"},{"step":158,"from":"sdaReg151","to":"sdaReg161","type":"model"},{"step":159,"from":"sdaReg93","to":"sdaReg151","type":"model"},{"step":160,"from":"sdaReg93","to":"sdaReg161","type":"model"},{"step":161,"from":"sdaReg151","to":"sdaReg126","type":"model"},{"step":162,"from":"sdaReg151","to":"sdaReg162","type":"model"},{"step":163,"from":"sdaReg126","to":"sdaReg151","type":"model"},{"step":164,"from":"sdaReg126","to":"sdaReg162","type":"model"},{"step":165,"from":"sdaReg151","to":"sdaReg164","type":"model"},{"step":166,"from":"sdaReg164","to":"1093466832","type":"model"},{"step":167,"from":"sdaReg164","to":"1093466832","type":"model"},{"step":168,"from":"sdaReg151","to":"sdaReg99","type":"model"},{"step":169,"from":"sdaReg151","to":"sdaReg166","type":"model"},{"step":170,"from":"sdaReg99","to":"sdaReg151","type":"model"},{"step":171,"from":"sdaReg99","to":"sdaReg166","type":"model"},{"step":172,"from":"sdaReg166","to":"1093466832","type":"model"},{"step":173,"from":"sdaReg166","to":"1093466832","type":"model"},{"step":174,"from":"1093466832","to":"sdaReg168","type":"model"},{"step":175,"from":"sdaReg168","to":"sdaReg171","type":"model"},{"step":176,"from":"sdaReg168","to":"sdaReg93","type":"model"},{"step":177,"from":"sdaReg168","to":"sdaReg174","type":"model"},{"step":178,"from":"sdaReg93","to":"sdaReg168","type":"model"},{"step":179,"from":"sdaReg93","to":"sdaReg174","type":"model"},{"step":180,"from":"sdaReg46","to":"sdaReg176","type":"model"},{"step":181,"from":"sdaReg168","to":"sdaReg177","type":"model"},{"step":182,"from":"sdaReg168","to":"sdaReg178","type":"model"},{"step":183,"from":"sdaReg168","to":"1093469944","type":"model"},{"step":184,"from":"sdaReg168","to":"1093469944","type":"model"},{"step":185,"from":"1093469944","to":"sdaReg182","type":"model"},{"step":186,"from":"sdaReg50","to":"1093311112","type":"store","field":"<java.net.URL: java.lang.String host>"},{"step":187,"from":"sdaReg188","to":"1093311112","type":"store","field":"<java.net.URL: java.lang.String file>"},{"step":188,"from":"sdaReg52","to":"1093311112","type":"store","field":"<java.net.URL: int port>"},{"step":189,"from":"sdaReg58","to":"1093311112","type":"store","field":"<java.net.URL: java.lang.String ref>"},{"step":190,"from":"1093311112","to":"sdaReg190","type":"create","field":"<java.net.URL: int hashCode>"},{"step":191,"from":"sdaReg194","to":"1093311112","type":"store","field":"<java.net.URL: java.lang.String authority>"},{"step":192,"from":"1093311112","to":"sdaReg197","type":"create","field":"<java.net.URL: java.lang.String userInfo>"},{"step":193,"from":"1093311112","to":"sdaReg200","type":"create","field":"<java.net.URL: java.lang.String query>"},{"step":194,"from":"sdaReg201","to":"1093311112","type":"store","field":"<java.net.URL: java.lang.String path>"},{"step":195,"from":"sdaReg46","to":"1093311112","type":"store","field":"<java.net.URL: java.lang.String authority>"},{"step":196,"from":"sdaReg48","to":"1093311112","type":"store","field":"<java.net.URL: java.lang.String userInfo>"},{"step":197,"from":"sdaReg182","to":"1093311112","type":"store","field":"<java.net.URL: java.lang.String path>"},{"step":198,"from":"sdaReg56","to":"1093311112","type":"store","field":"<java.net.URL: java.lang.String query>"}],"parameters":[{"id":"1093311112","name":"this","klass":"java.net.URL"},{"id":"1093255352","name":"arg#1","klass":"java.net.URL"},{"id":"sdaReg0","name":"arg#2","klass":"string"}],"returns":[{"id":"1093311112","name":"return","klass":"java.net.URL"}],"colors":{"heapLocToColor":{"sdaReg191":[0],"sdaReg193":[116],"sdaReg199":[118],"sdaReg198":[118],"1093407240":[38],"sdaReg195":[117],"sdaReg196":[117],"sdaReg13":[1],"sdaReg14":[1],"sdaReg11":[1],"sdaReg12":[1],"sdaReg10":[1],"sdaReg19":[1, 5],"1093469944":[114],"sdaReg17":[0],"sdaReg18":[1],"sdaReg15":[1],"sdaReg16":[1],"1093230488":[70],"sdaReg171":[103, 100, 106],"sdaReg170":[105],"sdaReg173":[108],"sdaReg172":[107],"1093255352.<java.net.URL: int port>":[1],"sdaReg175":[110],"sdaReg174":[103, 100, 109],"sdaReg177":[103, 100, 112],"sdaReg176":[111],"sdaReg179":[114],"sdaReg178":[103, 100, 113],"1093311112":[0],"sdaReg182":[115, 114],"sdaReg181":[114],"sdaReg180":[114],"sdaReg186":[0],"sdaReg185":[1],"sdaReg183":[0],"sdaReg189":[0],"sdaReg188":[115, 114],"sdaReg187":[0],"sdaReg60":[2, 3, 15],"sdaReg59":[2, 3, 13],"sdaReg57":[0],"sdaReg55":[0],"sdaReg53":[0],"sdaReg51":[0],"1093316048":[85],"sdaReg49":[0],"sdaReg45":[0],"sdaReg44":[2, 3],"sdaReg47":[0],"sdaReg41":[0],"sdaReg40":[1],"sdaReg43":[2, 3, 14],"sdaReg39":[13],"sdaReg38":[12],"sdaReg202":[0],"sdaReg37":[11],"sdaReg32":[9],"sdaReg31":[9],"sdaReg36":[10],"sdaReg35":[10],"sdaReg34":[10],"sdaReg9":[2, 3],"sdaReg6":[2, 3, 4],"sdaReg5":[2, 3],"1093255352.<java.net.URL: java.lang.String ref>":[1],"1093255352.<java.net.URL: java.lang.String host>":[1],"sdaReg27":[0],"sdaReg29":[8],"sdaReg3":[0],"sdaReg2":[1],"sdaReg1":[0],"sdaReg21":[6],"sdaReg0":[2],"sdaReg20":[6],"sdaReg23":[6],"sdaReg22":[6],"sdaReg25":[0],"sdaReg24":[6, 7],"sdaReg125":[68, 38, 41],"sdaReg126":[85, 84, 69, 70, 38, 41, 88, 73],"sdaReg127":[69, 38, 41],"sdaReg128":[85, 84, 69, 70, 38, 99, 41, 88, 73],"1093255352":[1],"sdaReg129":[70],"sdaReg68":[21],"sdaReg69":[2, 3, 22],"sdaReg66":[19],"sdaReg67":[2, 3, 20],"sdaReg64":[17],"sdaReg65":[2, 3, 18],"sdaReg62":[2, 3],"sdaReg63":[16, 2, 3],"sdaReg72":[25],"sdaReg71":[2, 3, 24],"sdaReg70":[23],"sdaReg120":[63],"sdaReg122":[65],"sdaReg121":[38, 64, 41],"sdaReg124":[38, 67, 41],"sdaReg123":[66],"sdaReg116":[59],"1093268672":[1],"sdaReg117":[60],"sdaReg114":[38, 57, 41],"sdaReg115":[38, 58, 41],"sdaReg118":[38, 41, 61],"sdaReg119":[62],"sdaReg77":[2, 3, 30],"sdaReg78":[31],"sdaReg79":[2, 32, 3],"sdaReg73":[2, 3, 26],"sdaReg74":[27],"sdaReg75":[2, 3, 28],"sdaReg76":[29],"sdaReg81":[34, 2, 3],"sdaReg80":[33],"sdaReg83":[2, 3, 36],"sdaReg82":[35],"sdaReg113":[56],"sdaReg112":[55],"sdaReg111":[38, 54, 41],"sdaReg110":[53],"sdaReg107":[50, 38, 41],"sdaReg108":[51, 38, 41],"sdaReg109":[52],"sdaReg103":[46],"sdaReg104":[38, 41, 47],"sdaReg105":[48],"sdaReg106":[49],"sdaReg86":[39],"sdaReg87":[39],"sdaReg84":[2, 3, 36, 37],"sdaReg85":[38],"sdaReg88":[40],"sdaReg89":[38],"sdaReg90":[38],"sdaReg93":[85, 103, 84, 69, 100, 70, 38, 99, 41, 88, 73],"sdaReg91":[38, 41],"sdaReg100":[85, 84, 69, 70, 38, 99, 41, 88, 73],"sdaReg102":[45],"sdaReg101":[85, 103, 84, 69, 100, 70, 38, 99, 41, 88, 73],"sdaReg95":[85, 84, 69, 70, 38, 99, 41, 88, 73],"sdaReg96":[42],"sdaReg97":[43],"sdaReg98":[38, 41, 44],"sdaReg99":[85, 84, 69, 70, 38, 99, 41, 88, 73],"sdaReg169":[104],"sdaReg161":[85, 98, 88],"sdaReg162":[85, 99, 88],"sdaReg163":[100],"sdaReg164":[85, 101, 88],"sdaReg165":[100],"sdaReg166":[85, 102, 88],"sdaReg167":[100],"sdaReg168":[103, 100],"sdaReg160":[85, 97, 88],"sdaReg159":[96],"sdaReg158":[95],"sdaReg152":[89],"sdaReg153":[90],"sdaReg150":[85],"sdaReg151":[85, 88],"sdaReg156":[93],"sdaReg157":[85, 94, 88],"sdaReg154":[85, 88, 91],"sdaReg155":[92],"1093255352.<java.net.URL: java.lang.String authority>":[1],"sdaReg148":[85],"sdaReg147":[70, 86, 73],"sdaReg149":[70, 87, 73],"sdaReg143":[70, 82, 73],"sdaReg144":[70, 83, 73],"sdaReg145":[84, 70, 73],"sdaReg146":[85],"1093255352.<java.net.URL: java.lang.String protocol>":[1],"sdaReg140":[70, 79, 73],"sdaReg141":[80],"sdaReg142":[81],"1093466832":[100],"1093255352.<java.net.URL: java.lang.String path>":[1],"1093255352.<java.net.URL: java.lang.String query>":[1],"1093255352.<java.net.URL: java.lang.String userInfo>":[1],"sdaReg139":[78],"sdaReg138":[77],"sdaReg137":[70, 76, 73],"1093301144":[6],"sdaReg136":[75],"sdaReg134":[70, 73],"sdaReg135":[74],"sdaReg132":[38, 41, 72],"sdaReg133":[70],"sdaReg130":[71, 38, 41],"sdaReg131":[70]},"colorToColor":{"0":[119],"1":[0, 6],"69":[102, 103, 70, 100, 98, 99, 109, 73, 85, 84, 87, 83, 88],"70":[102, 103, 70, 100, 98, 99, 109, 73, 85, 84, 87, 83, 88],"2":[35, 2, 3, 33, 38, 14, 17, 19, 21, 23, 25, 27, 29, 31],"3":[35, 2, 3, 33, 38, 14, 17, 19, 21, 23, 25, 27, 29, 31],"71":[70],"6":[0],"7":[0],"10":[11],"11":[0],"12":[0],"72":[70],"73":[102, 103, 70, 100, 98, 99, 109, 73, 85, 84, 87, 83, 88],"85":[102, 85, 103, 100, 98, 99, 109, 88],"84":[102, 85, 103, 100, 98, 99, 109, 88],"16":[17],"87":[85],"86":[85],"18":[19],"20":[21],"22":[23],"24":[25],"26":[27],"88":[102, 85, 103, 100, 98, 99, 109, 88],"28":[29],"30":[31],"102":[100],"34":[35],"103":[103, 100, 114, 109],"100":[103, 100, 114, 109],"32":[33],"101":[100],"38":[102, 68, 103, 69, 100, 70, 98, 38, 99, 109, 41, 72, 73, 51, 85, 84, 87, 83, 58, 88],"99":[103, 100, 109],"36":[38],"40":[38],"41":[102, 68, 103, 69, 100, 70, 98, 38, 99, 109, 41, 72, 73, 51, 85, 84, 87, 83, 58, 88],"115":[0],"114":[0]},"colorToLabel":{"0":"this","1":"arg#1","2":"arg#2","119":"return"}}}

Generated Model
	this->return
	arg#2->this
	arg#2->return
	arg#1->this
	arg#1->return

