Scanning method <java.net.URL: void <init>(java.net.URL,java.lang.String)>

All seen event types: BinaryOperationRecord, SimpleAssignmentRecord, SwitchRecord, MethodReturnRecord, MethodCallRecord, LoadInstanceRecord, MethodStartRecord, MethodEndRecord, IfRecord, NewObjectRecord, StoreInstanceRecord, 
Ignored event types: SwitchRecord, IfRecord, 

JSON Encoded Analysis Data (for visualization):{"heapEdges":[{"step":0,"from":"1093591776","to":"sdaReg4","type":"create","field":"<java.net.URL: int port>"},{"step":1,"from":"sdaReg0","to":"sdaReg5","type":"model"},{"step":2,"from":"sdaReg5","to":"sdaReg6","type":"model"},{"step":3,"from":"1093591776","to":"sdaReg7","type":"create","field":"<java.net.URL: java.lang.String protocol>"},{"step":4,"from":"1093672168","to":"1093672168.<java.net.URL: java.lang.String protocol>","type":"load","field":"<java.net.URL: java.lang.String protocol>"},{"step":5,"from":"1093672168","to":"1093672168.<java.net.URL: java.lang.String host>","type":"load","field":"<java.net.URL: java.lang.String host>"},{"step":6,"from":"1093672168","to":"1093672168.<java.net.URL: int port>","type":"load","field":"<java.net.URL: int port>"},{"step":7,"from":"1093672168","to":"1093672168.<java.net.URL: java.lang.String authority>","type":"load","field":"<java.net.URL: java.lang.String authority>"},{"step":8,"from":"1093672168","to":"1093672168.<java.net.URL: java.lang.String userInfo>","type":"load","field":"<java.net.URL: java.lang.String userInfo>"},{"step":9,"from":"1093672168","to":"1093672168.<java.net.URL: java.lang.String path>","type":"load","field":"<java.net.URL: java.lang.String path>"},{"step":10,"from":"1093672168","to":"1093672168.<java.net.URL: java.lang.String query>","type":"load","field":"<java.net.URL: java.lang.String query>"},{"step":11,"from":"1093672168","to":"1093672168.<java.net.URL: java.lang.String ref>","type":"load","field":"<java.net.URL: java.lang.String ref>"},{"step":12,"from":"1093672168.<java.net.URL: java.lang.String protocol>","to":"1093591776","type":"store","field":"<java.net.URL: java.lang.String protocol>"},{"step":13,"from":"1093672168.<java.net.URL: java.lang.String host>","to":"1093591776","type":"store","field":"<java.net.URL: java.lang.String host>"},{"step":14,"from":"sdaReg18","to":"1093591776","type":"store","field":"<java.net.URL: java.lang.String file>"},{"step":15,"from":"1093672168.<java.net.URL: int port>","to":"1093591776","type":"store","field":"<java.net.URL: int port>"},{"step":16,"from":"1093672168.<java.net.URL: java.lang.String ref>","to":"1093591776","type":"store","field":"<java.net.URL: java.lang.String ref>"},{"step":17,"from":"1093591776","to":"sdaReg20","type":"create","field":"<java.net.URL: int hashCode>"},{"step":18,"from":"1093591776","to":"sdaReg26","type":"create","field":"<java.net.URL: java.lang.String userInfo>"},{"step":19,"from":"1093591776","to":"sdaReg29","type":"create","field":"<java.net.URL: java.lang.String query>"},{"step":20,"from":"sdaReg30","to":"1093591776","type":"store","field":"<java.net.URL: java.lang.String path>"},{"step":21,"from":"1093672168.<java.net.URL: java.lang.String authority>","to":"1093591776","type":"store","field":"<java.net.URL: java.lang.String authority>"},{"step":22,"from":"1093672168.<java.net.URL: java.lang.String userInfo>","to":"1093591776","type":"store","field":"<java.net.URL: java.lang.String userInfo>"},{"step":23,"from":"1093672168.<java.net.URL: java.lang.String path>","to":"1093591776","type":"store","field":"<java.net.URL: java.lang.String path>"},{"step":24,"from":"1093672168.<java.net.URL: java.lang.String query>","to":"1093591776","type":"store","field":"<java.net.URL: java.lang.String query>"},{"step":25,"from":"1093672168","to":"1084322328","type":"load","field":"<java.net.URL: java.net.URLStreamHandler streamHandler>"},{"step":26,"from":"1084322328","to":"1093591776","type":"store","field":"<java.net.URL: java.net.URLStreamHandler streamHandler>"},{"step":27,"from":"sdaReg5","to":"sdaReg35","type":"model"},{"step":28,"from":"sdaReg35","to":"sdaReg36","type":"model"},{"step":29,"from":"sdaReg36","to":"sdaReg40","type":"model"},{"step":30,"from":"sdaReg36","to":"sdaReg42","type":"model"},{"step":31,"from":"sdaReg40","to":"sdaReg36","type":"model"},{"step":32,"from":"sdaReg40","to":"sdaReg42","type":"model"},{"step":33,"from":"sdaReg36","to":"sdaReg59","type":"model"},{"step":34,"from":"sdaReg36","to":"sdaReg62","type":"model"},{"step":35,"from":"sdaReg60","to":"sdaReg62","type":"model"},{"step":36,"from":"sdaReg60","to":"sdaReg63","type":"model"},{"step":37,"from":"sdaReg62","to":"sdaReg60","type":"model"},{"step":38,"from":"sdaReg62","to":"sdaReg63","type":"model"},{"step":39,"from":"sdaReg36","to":"sdaReg64","type":"model"},{"step":40,"from":"sdaReg64","to":"sdaReg65","type":"model"},{"step":41,"from":"sdaReg53","to":"sdaReg67","type":"model"},{"step":42,"from":"sdaReg53","to":"sdaReg69","type":"model"},{"step":43,"from":"sdaReg69","to":"1093673016","type":"model"},{"step":44,"from":"sdaReg69","to":"1093673016","type":"model"},{"step":45,"from":"sdaReg64","to":"1093673016","type":"model"},{"step":46,"from":"sdaReg64","to":"1093673016","type":"model"},{"step":47,"from":"1093673016","to":"sdaReg72","type":"model"},{"step":48,"from":"sdaReg72","to":"sdaReg79","type":"model"},{"step":49,"from":"sdaReg72","to":"sdaReg82","type":"model"},{"step":50,"from":"sdaReg72","to":"sdaReg74","type":"model"},{"step":51,"from":"sdaReg72","to":"sdaReg85","type":"model"},{"step":52,"from":"sdaReg74","to":"sdaReg72","type":"model"},{"step":53,"from":"sdaReg74","to":"sdaReg85","type":"model"},{"step":54,"from":"sdaReg72","to":"sdaReg89","type":"model"},{"step":55,"from":"sdaReg72","to":"sdaReg92","type":"model"},{"step":56,"from":"sdaReg72","to":"sdaReg74","type":"model"},{"step":57,"from":"sdaReg72","to":"sdaReg93","type":"model"},{"step":58,"from":"sdaReg74","to":"sdaReg72","type":"model"},{"step":59,"from":"sdaReg74","to":"sdaReg93","type":"model"},{"step":60,"from":"sdaReg72","to":"sdaReg96","type":"model"},{"step":61,"from":"sdaReg72","to":"sdaReg74","type":"model"},{"step":62,"from":"sdaReg72","to":"sdaReg99","type":"model"},{"step":63,"from":"sdaReg74","to":"sdaReg72","type":"model"},{"step":64,"from":"sdaReg74","to":"sdaReg99","type":"model"},{"step":65,"from":"sdaReg49","to":"1093591776","type":"store","field":"<java.net.URL: java.lang.String host>"},{"step":66,"from":"sdaReg106","to":"1093591776","type":"store","field":"<java.net.URL: java.lang.String file>"},{"step":67,"from":"sdaReg51","to":"1093591776","type":"store","field":"<java.net.URL: int port>"},{"step":68,"from":"sdaReg57","to":"1093591776","type":"store","field":"<java.net.URL: java.lang.String ref>"},{"step":69,"from":"1093591776","to":"sdaReg108","type":"create","field":"<java.net.URL: int hashCode>"},{"step":70,"from":"1093591776","to":"sdaReg114","type":"create","field":"<java.net.URL: java.lang.String userInfo>"},{"step":71,"from":"1093591776","to":"sdaReg117","type":"create","field":"<java.net.URL: java.lang.String query>"},{"step":72,"from":"sdaReg118","to":"1093591776","type":"store","field":"<java.net.URL: java.lang.String path>"},{"step":73,"from":"sdaReg45","to":"1093591776","type":"store","field":"<java.net.URL: java.lang.String authority>"},{"step":74,"from":"sdaReg47","to":"1093591776","type":"store","field":"<java.net.URL: java.lang.String userInfo>"},{"step":75,"from":"sdaReg72","to":"1093591776","type":"store","field":"<java.net.URL: java.lang.String path>"},{"step":76,"from":"sdaReg55","to":"1093591776","type":"store","field":"<java.net.URL: java.lang.String query>"}],"parameters":[{"id":"1093591776","name":"this","klass":"java.net.URL"},{"id":"1093672168","name":"arg#1","klass":"java.net.URL"},{"id":"sdaReg0","name":"arg#2","klass":"string"}],"returns":[{"id":"1093591776","name":"return","klass":"java.net.URL"}],"colors":{"heapLocToColor":{"sdaReg68":[19],"sdaReg69":[20],"sdaReg66":[18],"sdaReg67":[19],"sdaReg64":[16, 2, 3, 9, 10],"sdaReg65":[17, 16, 2, 3, 9, 10],"sdaReg62":[2, 3, 9, 10, 14],"sdaReg63":[15],"sdaReg13":[1],"sdaReg72":[18, 21],"sdaReg14":[1],"sdaReg71":[18],"sdaReg11":[1],"sdaReg70":[18],"sdaReg12":[1],"sdaReg10":[1],"sdaReg19":[0],"sdaReg17":[0],"sdaReg18":[1],"sdaReg15":[1],"sdaReg16":[1],"sdaReg116":[45],"sdaReg115":[45],"sdaReg119":[0],"sdaReg77":[22],"sdaReg78":[23],"sdaReg79":[18, 21, 24],"sdaReg74":[18, 21],"sdaReg81":[26],"sdaReg80":[25],"1093672168.<java.net.URL: java.lang.String path>":[1],"sdaReg82":[18, 21, 27],"1093672168.<java.net.URL: java.lang.String ref>":[1],"sdaReg113":[44],"sdaReg112":[44],"sdaReg111":[43],"sdaReg107":[0],"sdaReg109":[0],"1093672168.<java.net.URL: java.lang.String query>":[1],"sdaReg103":[1],"sdaReg104":[0],"sdaReg105":[0],"sdaReg106":[18, 21],"sdaReg86":[18, 21],"sdaReg87":[29],"sdaReg84":[18, 21],"sdaReg85":[18, 21, 28],"sdaReg88":[30],"sdaReg89":[18, 21, 31],"sdaReg90":[32],"1093672168.<java.net.URL: java.lang.String authority>":[1],"sdaReg94":[36],"sdaReg93":[35, 18, 21],"sdaReg92":[34, 18, 21],"sdaReg91":[33],"sdaReg100":[42],"sdaReg101":[0],"1084322328":[1],"1093591776":[0],"sdaReg95":[37],"sdaReg96":[18, 21, 38],"sdaReg97":[39],"sdaReg98":[40],"sdaReg99":[18, 21, 41],"1093672168.<java.net.URL: java.lang.String host>":[1],"sdaReg61":[2, 3, 9, 10],"1093672168.<java.net.URL: int port>":[1],"sdaReg59":[2, 3, 9, 10, 13],"sdaReg58":[2, 3, 9, 10, 11],"sdaReg56":[0],"sdaReg54":[0],"sdaReg52":[0],"sdaReg50":[0],"sdaReg48":[0],"sdaReg44":[0],"sdaReg46":[0],"sdaReg40":[2, 3, 9, 10],"sdaReg43":[2, 3, 9, 10],"sdaReg42":[2, 3, 9, 10, 12],"1093672168.<java.net.URL: java.lang.String userInfo>":[1],"1093673016":[18],"sdaReg39":[0],"sdaReg38":[1],"sdaReg37":[11],"sdaReg32":[1],"sdaReg31":[8],"sdaReg36":[2, 3, 9, 10],"sdaReg35":[2, 3, 9],"sdaReg33":[0],"sdaReg6":[2, 3, 4],"sdaReg5":[2, 3],"sdaReg27":[7],"sdaReg28":[7],"1093672168.<java.net.URL: java.lang.String protocol>":[1],"sdaReg3":[0],"sdaReg2":[1],"sdaReg21":[0],"sdaReg1":[0],"sdaReg0":[2],"sdaReg23":[5],"sdaReg25":[6],"1093672168":[1],"sdaReg24":[6]},"colorToColor":{"0":[46],"16":[18],"1":[0],"2":[2, 18, 3, 9, 10, 12, 15],"18":[0, 35, 18, 21, 41, 28],"3":[2, 18, 3, 9, 10, 12, 15],"21":[0, 35, 18, 21, 41, 28],"20":[18],"9":[2, 18, 3, 9, 10, 12, 15],"10":[2, 18, 3, 9, 10, 12, 15],"14":[15]},"colorToLabel":{"0":"this","1":"arg#1","2":"arg#2","46":"return"}}}

Generated Model
	this->return
	arg#2->this
	arg#2->return
	arg#1->this
	arg#1->return

