Scanning method <java.net.URL: void <init>(java.net.URL,java.lang.String)>

All seen event types: BinaryOperationRecord, SimpleAssignmentRecord, SwitchRecord, MethodReturnRecord, MethodCallRecord, LoadInstanceRecord, MethodStartRecord, MethodEndRecord, IfRecord, NewObjectRecord, StoreInstanceRecord, 
Ignored event types: SwitchRecord, IfRecord, 

JSON Encoded Analysis Data (for visualization):{"heapEdges":[{"step":0,"from":"1093519344","to":"sdaReg4","type":"create","field":"<java.net.URL: int port>"},{"step":1,"from":"sdaReg0","to":"sdaReg5","type":"model"},{"step":2,"from":"sdaReg5","to":"sdaReg6","type":"model"},{"step":3,"from":"1093519344","to":"sdaReg7","type":"create","field":"<java.net.URL: java.lang.String protocol>"},{"step":4,"from":"1093672544","to":"1093672544.<java.net.URL: java.lang.String protocol>","type":"load","field":"<java.net.URL: java.lang.String protocol>"},{"step":5,"from":"1093672544","to":"1093672544.<java.net.URL: java.lang.String host>","type":"load","field":"<java.net.URL: java.lang.String host>"},{"step":6,"from":"1093672544","to":"1093672544.<java.net.URL: int port>","type":"load","field":"<java.net.URL: int port>"},{"step":7,"from":"1093672544","to":"1093672544.<java.net.URL: java.lang.String authority>","type":"load","field":"<java.net.URL: java.lang.String authority>"},{"step":8,"from":"1093672544","to":"1093672544.<java.net.URL: java.lang.String userInfo>","type":"load","field":"<java.net.URL: java.lang.String userInfo>"},{"step":9,"from":"1093672544","to":"1093672544.<java.net.URL: java.lang.String path>","type":"load","field":"<java.net.URL: java.lang.String path>"},{"step":10,"from":"1093672544","to":"1093672544.<java.net.URL: java.lang.String query>","type":"load","field":"<java.net.URL: java.lang.String query>"},{"step":11,"from":"1093672544","to":"1093672544.<java.net.URL: java.lang.String ref>","type":"load","field":"<java.net.URL: java.lang.String ref>"},{"step":12,"from":"1093672544.<java.net.URL: java.lang.String protocol>","to":"1093519344","type":"store","field":"<java.net.URL: java.lang.String protocol>"},{"step":13,"from":"1093672544.<java.net.URL: java.lang.String host>","to":"1093519344","type":"store","field":"<java.net.URL: java.lang.String host>"},{"step":14,"from":"sdaReg18","to":"1093519344","type":"store","field":"<java.net.URL: java.lang.String file>"},{"step":15,"from":"1093672544.<java.net.URL: int port>","to":"1093519344","type":"store","field":"<java.net.URL: int port>"},{"step":16,"from":"1093672544.<java.net.URL: java.lang.String ref>","to":"1093519344","type":"store","field":"<java.net.URL: java.lang.String ref>"},{"step":17,"from":"1093519344","to":"sdaReg20","type":"create","field":"<java.net.URL: int hashCode>"},{"step":18,"from":"sdaReg24","to":"1093519344","type":"store","field":"<java.net.URL: java.lang.String authority>"},{"step":19,"from":"1093519344","to":"sdaReg27","type":"create","field":"<java.net.URL: java.lang.String userInfo>"},{"step":20,"from":"1093519344","to":"sdaReg30","type":"create","field":"<java.net.URL: java.lang.String query>"},{"step":21,"from":"sdaReg31","to":"1093519344","type":"store","field":"<java.net.URL: java.lang.String path>"},{"step":22,"from":"1093672544.<java.net.URL: java.lang.String authority>","to":"1093519344","type":"store","field":"<java.net.URL: java.lang.String authority>"},{"step":23,"from":"1093672544.<java.net.URL: java.lang.String userInfo>","to":"1093519344","type":"store","field":"<java.net.URL: java.lang.String userInfo>"},{"step":24,"from":"1093672544.<java.net.URL: java.lang.String path>","to":"1093519344","type":"store","field":"<java.net.URL: java.lang.String path>"},{"step":25,"from":"1093672544.<java.net.URL: java.lang.String query>","to":"1093519344","type":"store","field":"<java.net.URL: java.lang.String query>"},{"step":26,"from":"1093672544","to":"1093298400","type":"load","field":"<java.net.URL: java.net.URLStreamHandler streamHandler>"},{"step":27,"from":"1093298400","to":"1093519344","type":"store","field":"<java.net.URL: java.net.URLStreamHandler streamHandler>"},{"step":28,"from":"sdaReg5","to":"sdaReg9","type":"model"},{"step":29,"from":"sdaReg5","to":"sdaReg36","type":"model"},{"step":30,"from":"sdaReg9","to":"sdaReg5","type":"model"},{"step":31,"from":"sdaReg9","to":"sdaReg36","type":"model"},{"step":32,"from":"sdaReg5","to":"sdaReg53","type":"model"},{"step":33,"from":"sdaReg5","to":"sdaReg56","type":"model"},{"step":34,"from":"sdaReg54","to":"sdaReg56","type":"model"},{"step":35,"from":"sdaReg54","to":"sdaReg57","type":"model"},{"step":36,"from":"sdaReg56","to":"sdaReg54","type":"model"},{"step":37,"from":"sdaReg56","to":"sdaReg57","type":"model"},{"step":38,"from":"sdaReg5","to":"sdaReg58","type":"model"},{"step":39,"from":"sdaReg54","to":"sdaReg58","type":"model"},{"step":40,"from":"sdaReg54","to":"sdaReg59","type":"model"},{"step":41,"from":"sdaReg58","to":"sdaReg54","type":"model"},{"step":42,"from":"sdaReg58","to":"sdaReg59","type":"model"},{"step":43,"from":"sdaReg5","to":"sdaReg60","type":"model"},{"step":44,"from":"sdaReg54","to":"sdaReg60","type":"model"},{"step":45,"from":"sdaReg54","to":"sdaReg61","type":"model"},{"step":46,"from":"sdaReg60","to":"sdaReg54","type":"model"},{"step":47,"from":"sdaReg60","to":"sdaReg61","type":"model"},{"step":48,"from":"sdaReg5","to":"sdaReg62","type":"model"},{"step":49,"from":"sdaReg54","to":"sdaReg62","type":"model"},{"step":50,"from":"sdaReg54","to":"sdaReg63","type":"model"},{"step":51,"from":"sdaReg62","to":"sdaReg54","type":"model"},{"step":52,"from":"sdaReg62","to":"sdaReg63","type":"model"},{"step":53,"from":"sdaReg5","to":"sdaReg64","type":"model"},{"step":54,"from":"sdaReg54","to":"sdaReg64","type":"model"},{"step":55,"from":"sdaReg54","to":"sdaReg65","type":"model"},{"step":56,"from":"sdaReg64","to":"sdaReg54","type":"model"},{"step":57,"from":"sdaReg64","to":"sdaReg65","type":"model"},{"step":58,"from":"sdaReg5","to":"sdaReg66","type":"model"},{"step":59,"from":"sdaReg54","to":"sdaReg66","type":"model"},{"step":60,"from":"sdaReg54","to":"sdaReg67","type":"model"},{"step":61,"from":"sdaReg66","to":"sdaReg54","type":"model"},{"step":62,"from":"sdaReg66","to":"sdaReg67","type":"model"},{"step":63,"from":"sdaReg5","to":"sdaReg68","type":"model"},{"step":64,"from":"sdaReg54","to":"sdaReg68","type":"model"},{"step":65,"from":"sdaReg54","to":"sdaReg69","type":"model"},{"step":66,"from":"sdaReg68","to":"sdaReg54","type":"model"},{"step":67,"from":"sdaReg68","to":"sdaReg69","type":"model"},{"step":68,"from":"sdaReg5","to":"sdaReg70","type":"model"},{"step":69,"from":"sdaReg54","to":"sdaReg70","type":"model"},{"step":70,"from":"sdaReg54","to":"sdaReg71","type":"model"},{"step":71,"from":"sdaReg70","to":"sdaReg54","type":"model"},{"step":72,"from":"sdaReg70","to":"sdaReg71","type":"model"},{"step":73,"from":"sdaReg5","to":"sdaReg72","type":"model"},{"step":74,"from":"sdaReg72","to":"sdaReg73","type":"model"},{"step":75,"from":"sdaReg47","to":"sdaReg75","type":"model"},{"step":76,"from":"sdaReg47","to":"sdaReg77","type":"model"},{"step":77,"from":"sdaReg77","to":"1093450800","type":"model"},{"step":78,"from":"sdaReg77","to":"1093450800","type":"model"},{"step":79,"from":"sdaReg72","to":"1093450800","type":"model"},{"step":80,"from":"sdaReg72","to":"1093450800","type":"model"},{"step":81,"from":"1093450800","to":"sdaReg80","type":"model"},{"step":82,"from":"sdaReg80","to":"sdaReg87","type":"model"},{"step":83,"from":"sdaReg80","to":"sdaReg93","type":"model"},{"step":84,"from":"sdaReg80","to":"sdaReg96","type":"model"},{"step":85,"from":"sdaReg80","to":"sdaReg99","type":"model"},{"step":86,"from":"sdaReg80","to":"sdaReg102","type":"model"},{"step":87,"from":"sdaReg80","to":"sdaReg105","type":"model"},{"step":88,"from":"sdaReg80","to":"sdaReg108","type":"model"},{"step":89,"from":"sdaReg80","to":"sdaReg111","type":"model"},{"step":90,"from":"sdaReg5","to":"sdaReg115","type":"model"},{"step":91,"from":"sdaReg5","to":"sdaReg117","type":"model"},{"step":92,"from":"sdaReg39","to":"sdaReg118","type":"model"},{"step":93,"from":"sdaReg80","to":"sdaReg119","type":"model"},{"step":94,"from":"sdaReg80","to":"sdaReg120","type":"model"},{"step":95,"from":"sdaReg43","to":"1093519344","type":"store","field":"<java.net.URL: java.lang.String host>"},{"step":96,"from":"sdaReg126","to":"1093519344","type":"store","field":"<java.net.URL: java.lang.String file>"},{"step":97,"from":"sdaReg45","to":"1093519344","type":"store","field":"<java.net.URL: int port>"},{"step":98,"from":"sdaReg117","to":"1093519344","type":"store","field":"<java.net.URL: java.lang.String ref>"},{"step":99,"from":"1093519344","to":"sdaReg128","type":"create","field":"<java.net.URL: int hashCode>"},{"step":100,"from":"sdaReg132","to":"1093519344","type":"store","field":"<java.net.URL: java.lang.String authority>"},{"step":101,"from":"1093519344","to":"sdaReg135","type":"create","field":"<java.net.URL: java.lang.String userInfo>"},{"step":102,"from":"1093519344","to":"sdaReg138","type":"create","field":"<java.net.URL: java.lang.String query>"},{"step":103,"from":"sdaReg139","to":"1093519344","type":"store","field":"<java.net.URL: java.lang.String path>"},{"step":104,"from":"sdaReg39","to":"1093519344","type":"store","field":"<java.net.URL: java.lang.String authority>"},{"step":105,"from":"sdaReg41","to":"1093519344","type":"store","field":"<java.net.URL: java.lang.String userInfo>"},{"step":106,"from":"sdaReg80","to":"1093519344","type":"store","field":"<java.net.URL: java.lang.String path>"},{"step":107,"from":"sdaReg49","to":"1093519344","type":"store","field":"<java.net.URL: java.lang.String query>"}],"parameters":[{"id":"1093519344","name":"this","klass":"java.net.URL"},{"id":"1093672544","name":"arg#1","klass":"java.net.URL"},{"id":"sdaReg0","name":"arg#2","klass":"string"}],"returns":[{"id":"1093519344","name":"return","klass":"java.net.URL"}],"colors":{"heapLocToColor":{"sdaReg125":[0],"1093298400":[1],"sdaReg126":[32, 29],"sdaReg127":[0],"sdaReg129":[0],"sdaReg68":[2, 3, 23],"sdaReg69":[24],"sdaReg66":[2, 3, 21],"sdaReg67":[22],"sdaReg64":[2, 19, 3],"sdaReg65":[20],"sdaReg62":[17, 2, 3],"sdaReg63":[18],"sdaReg13":[1],"sdaReg72":[2, 3, 27],"sdaReg14":[1],"sdaReg71":[26],"sdaReg11":[1],"sdaReg70":[2, 3, 25],"sdaReg12":[1],"sdaReg10":[1],"sdaReg120":[32, 64, 29],"sdaReg19":[0],"1093672544.<java.net.URL: java.lang.String query>":[1],"sdaReg17":[0],"sdaReg121":[0],"sdaReg18":[1],"sdaReg124":[0],"sdaReg15":[1],"sdaReg123":[1],"sdaReg16":[1],"sdaReg116":[2, 3],"sdaReg117":[2, 3, 61],"sdaReg114":[59],"sdaReg115":[2, 3, 60],"sdaReg118":[62],"sdaReg119":[32, 29, 63],"sdaReg77":[31],"sdaReg78":[29],"sdaReg79":[29],"sdaReg73":[2, 3, 27, 28],"sdaReg74":[29],"sdaReg75":[30],"1093450800":[29],"sdaReg76":[30],"sdaReg80":[32, 29],"sdaReg113":[58],"sdaReg112":[57],"sdaReg111":[32, 56, 29],"sdaReg110":[55],"sdaReg107":[52],"sdaReg108":[32, 53, 29],"sdaReg109":[54],"sdaReg103":[48],"sdaReg104":[49],"sdaReg105":[50, 32, 29],"sdaReg106":[51],"1093519344":[0],"sdaReg86":[34],"sdaReg87":[35, 32, 29],"sdaReg85":[33],"sdaReg94":[39],"sdaReg93":[32, 38, 29],"sdaReg92":[37],"sdaReg91":[36],"sdaReg100":[45],"sdaReg102":[32, 29, 47],"sdaReg101":[46],"sdaReg95":[40],"sdaReg96":[32, 41, 29],"sdaReg97":[42],"sdaReg98":[43],"sdaReg99":[32, 29, 44],"sdaReg60":[2, 3, 15],"sdaReg61":[16],"1093672544.<java.net.URL: java.lang.String host>":[1],"sdaReg59":[14],"sdaReg58":[2, 3, 13],"sdaReg57":[12],"sdaReg56":[2, 3, 11],"sdaReg55":[2, 3, 8],"sdaReg53":[2, 3, 10],"sdaReg52":[2, 3, 8],"sdaReg50":[0],"1093672544.<java.net.URL: java.lang.String ref>":[1],"sdaReg48":[0],"sdaReg44":[0],"sdaReg46":[0],"sdaReg40":[0],"sdaReg42":[0],"1093672544.<java.net.URL: int port>":[1],"sdaReg38":[0],"sdaReg37":[2, 3],"sdaReg140":[0],"sdaReg32":[8],"1093672544.<java.net.URL: java.lang.String protocol>":[1],"sdaReg36":[2, 3, 9],"sdaReg34":[0],"1093672544.<java.net.URL: java.lang.String path>":[1],"sdaReg33":[1],"1093672544.<java.net.URL: java.lang.String authority>":[1],"1093672544.<java.net.URL: java.lang.String userInfo>":[1],"sdaReg9":[2, 3],"sdaReg6":[2, 3, 4],"sdaReg5":[2, 3],"sdaReg137":[67],"sdaReg136":[67],"sdaReg134":[66],"sdaReg26":[6],"sdaReg29":[7],"sdaReg133":[66],"sdaReg28":[7],"sdaReg131":[65],"sdaReg3":[0],"sdaReg2":[1],"sdaReg21":[0],"sdaReg1":[0],"sdaReg0":[2],"sdaReg23":[5],"sdaReg25":[6],"1093672544":[1]},"colorToColor":{"0":[68],"1":[0],"32":[0],"2":[0, 2, 3, 9, 12, 14, 16, 18, 20, 22, 24, 26, 29],"3":[0, 2, 3, 9, 12, 14, 16, 18, 20, 22, 24, 26, 29],"11":[12],"13":[14],"15":[16],"17":[18],"19":[20],"21":[22],"23":[24],"25":[26],"27":[29],"29":[0],"61":[0],"31":[29]},"colorToLabel":{"0":"this","1":"arg#1","2":"arg#2","68":"return"}}}

Generated Model
	this->return
	arg#2->this
	arg#2->return
	arg#1->this
	arg#1->return

