Scanning method <java.net.URL: void <init>(java.net.URL,java.lang.String)>

All seen event types: BinaryOperationRecord, SimpleAssignmentRecord, SwitchRecord, MethodReturnRecord, MethodCallRecord, LoadInstanceRecord, MethodStartRecord, MethodEndRecord, IfRecord, StoreInstanceRecord, 
Ignored event types: SwitchRecord, IfRecord, 

JSON Encoded Analysis Data (for visualization):{"heapEdges":[{"step":0,"from":"1093298008","to":"sdaReg4","type":"create","field":"<java.net.URL: int port>"},{"step":1,"from":"sdaReg0","to":"sdaReg5","type":"model"},{"step":2,"from":"sdaReg5","to":"sdaReg6","type":"model"},{"step":3,"from":"1093298008","to":"sdaReg7","type":"create","field":"<java.net.URL: java.lang.String protocol>"},{"step":4,"from":"1093648608","to":"1093648608.<java.net.URL: java.lang.String protocol>","type":"load","field":"<java.net.URL: java.lang.String protocol>"},{"step":5,"from":"1093648608","to":"1093648608.<java.net.URL: java.lang.String host>","type":"load","field":"<java.net.URL: java.lang.String host>"},{"step":6,"from":"1093648608","to":"1093648608.<java.net.URL: int port>","type":"load","field":"<java.net.URL: int port>"},{"step":7,"from":"1093648608","to":"1093648608.<java.net.URL: java.lang.String authority>","type":"load","field":"<java.net.URL: java.lang.String authority>"},{"step":8,"from":"1093648608","to":"1093648608.<java.net.URL: java.lang.String userInfo>","type":"load","field":"<java.net.URL: java.lang.String userInfo>"},{"step":9,"from":"1093648608","to":"1093648608.<java.net.URL: java.lang.String path>","type":"load","field":"<java.net.URL: java.lang.String path>"},{"step":10,"from":"1093648608","to":"1093648608.<java.net.URL: java.lang.String query>","type":"load","field":"<java.net.URL: java.lang.String query>"},{"step":11,"from":"1093648608","to":"1093648608.<java.net.URL: java.lang.String ref>","type":"load","field":"<java.net.URL: java.lang.String ref>"},{"step":12,"from":"1093648608.<java.net.URL: java.lang.String protocol>","to":"1093298008","type":"store","field":"<java.net.URL: java.lang.String protocol>"},{"step":13,"from":"1093648608.<java.net.URL: java.lang.String host>","to":"1093298008","type":"store","field":"<java.net.URL: java.lang.String host>"},{"step":14,"from":"sdaReg18","to":"1093298008","type":"store","field":"<java.net.URL: java.lang.String file>"},{"step":15,"from":"1093648608.<java.net.URL: int port>","to":"1093298008","type":"store","field":"<java.net.URL: int port>"},{"step":16,"from":"1093648608.<java.net.URL: java.lang.String ref>","to":"1093298008","type":"store","field":"<java.net.URL: java.lang.String ref>"},{"step":17,"from":"1093298008","to":"sdaReg20","type":"create","field":"<java.net.URL: int hashCode>"},{"step":18,"from":"sdaReg24","to":"1093298008","type":"store","field":"<java.net.URL: java.lang.String authority>"},{"step":19,"from":"1093298008","to":"sdaReg27","type":"create","field":"<java.net.URL: java.lang.String userInfo>"},{"step":20,"from":"1093298008","to":"sdaReg30","type":"create","field":"<java.net.URL: java.lang.String query>"},{"step":21,"from":"sdaReg31","to":"1093298008","type":"store","field":"<java.net.URL: java.lang.String path>"},{"step":22,"from":"1093648608.<java.net.URL: java.lang.String authority>","to":"1093298008","type":"store","field":"<java.net.URL: java.lang.String authority>"},{"step":23,"from":"1093648608.<java.net.URL: java.lang.String userInfo>","to":"1093298008","type":"store","field":"<java.net.URL: java.lang.String userInfo>"},{"step":24,"from":"1093648608.<java.net.URL: java.lang.String path>","to":"1093298008","type":"store","field":"<java.net.URL: java.lang.String path>"},{"step":25,"from":"1093648608.<java.net.URL: java.lang.String query>","to":"1093298008","type":"store","field":"<java.net.URL: java.lang.String query>"},{"step":26,"from":"1093648608","to":"1093660648","type":"load","field":"<java.net.URL: java.net.URLStreamHandler streamHandler>"},{"step":27,"from":"1093660648","to":"1093298008","type":"store","field":"<java.net.URL: java.net.URLStreamHandler streamHandler>"},{"step":28,"from":"sdaReg5","to":"sdaReg9","type":"model"},{"step":29,"from":"sdaReg5","to":"sdaReg36","type":"model"},{"step":30,"from":"sdaReg9","to":"sdaReg5","type":"model"},{"step":31,"from":"sdaReg9","to":"sdaReg36","type":"model"},{"step":32,"from":"sdaReg5","to":"sdaReg53","type":"model"},{"step":33,"from":"sdaReg5","to":"sdaReg56","type":"model"},{"step":34,"from":"sdaReg54","to":"sdaReg56","type":"model"},{"step":35,"from":"sdaReg54","to":"sdaReg57","type":"model"},{"step":36,"from":"sdaReg56","to":"sdaReg54","type":"model"},{"step":37,"from":"sdaReg56","to":"sdaReg57","type":"model"},{"step":38,"from":"sdaReg5","to":"sdaReg58","type":"model"},{"step":39,"from":"sdaReg54","to":"sdaReg58","type":"model"},{"step":40,"from":"sdaReg54","to":"sdaReg59","type":"model"},{"step":41,"from":"sdaReg58","to":"sdaReg54","type":"model"},{"step":42,"from":"sdaReg58","to":"sdaReg59","type":"model"},{"step":43,"from":"sdaReg5","to":"sdaReg60","type":"model"},{"step":44,"from":"sdaReg60","to":"sdaReg61","type":"model"},{"step":45,"from":"sdaReg60","to":"sdaReg68","type":"model"},{"step":46,"from":"sdaReg60","to":"sdaReg74","type":"model"},{"step":47,"from":"sdaReg60","to":"sdaReg63","type":"model"},{"step":48,"from":"sdaReg60","to":"sdaReg77","type":"model"},{"step":49,"from":"sdaReg63","to":"sdaReg60","type":"model"},{"step":50,"from":"sdaReg63","to":"sdaReg77","type":"model"},{"step":51,"from":"sdaReg39","to":"sdaReg79","type":"model"},{"step":52,"from":"sdaReg60","to":"sdaReg80","type":"model"},{"step":53,"from":"sdaReg60","to":"sdaReg81","type":"model"},{"step":54,"from":"sdaReg43","to":"1093298008","type":"store","field":"<java.net.URL: java.lang.String host>"},{"step":55,"from":"sdaReg87","to":"1093298008","type":"store","field":"<java.net.URL: java.lang.String file>"},{"step":56,"from":"sdaReg45","to":"1093298008","type":"store","field":"<java.net.URL: int port>"},{"step":57,"from":"sdaReg51","to":"1093298008","type":"store","field":"<java.net.URL: java.lang.String ref>"},{"step":58,"from":"1093298008","to":"sdaReg89","type":"create","field":"<java.net.URL: int hashCode>"},{"step":59,"from":"sdaReg93","to":"1093298008","type":"store","field":"<java.net.URL: java.lang.String authority>"},{"step":60,"from":"1093298008","to":"sdaReg96","type":"create","field":"<java.net.URL: java.lang.String userInfo>"},{"step":61,"from":"1093298008","to":"sdaReg99","type":"create","field":"<java.net.URL: java.lang.String query>"},{"step":62,"from":"sdaReg100","to":"1093298008","type":"store","field":"<java.net.URL: java.lang.String path>"},{"step":63,"from":"sdaReg39","to":"1093298008","type":"store","field":"<java.net.URL: java.lang.String authority>"},{"step":64,"from":"sdaReg41","to":"1093298008","type":"store","field":"<java.net.URL: java.lang.String userInfo>"},{"step":65,"from":"sdaReg60","to":"1093298008","type":"store","field":"<java.net.URL: java.lang.String path>"},{"step":66,"from":"sdaReg49","to":"1093298008","type":"store","field":"<java.net.URL: java.lang.String query>"}],"parameters":[{"id":"1093298008","name":"this","klass":"java.net.URL"},{"id":"1093648608","name":"arg#1","klass":"java.net.URL"},{"id":"sdaReg0","name":"arg#2","klass":"string"}],"returns":[{"id":"1093298008","name":"return","klass":"java.net.URL"}],"colors":{"heapLocToColor":{"sdaReg60":[2, 3, 15],"sdaReg61":[16, 2, 3, 15],"sdaReg68":[2, 19, 3, 15],"sdaReg66":[17],"sdaReg67":[18],"sdaReg63":[2, 3, 15],"sdaReg72":[20],"sdaReg13":[1],"sdaReg71":[2, 3, 15],"sdaReg14":[1],"sdaReg11":[1],"sdaReg12":[1],"1093298008":[0],"sdaReg10":[1],"sdaReg59":[14],"sdaReg58":[2, 3, 13],"sdaReg57":[12],"sdaReg56":[2, 3, 11],"sdaReg19":[0],"sdaReg55":[2, 3],"sdaReg17":[0],"sdaReg18":[1],"sdaReg53":[2, 3, 10],"sdaReg15":[1],"sdaReg52":[2, 3, 8],"sdaReg16":[1],"1093648608.<java.net.URL: java.lang.String path>":[1],"sdaReg50":[0],"sdaReg77":[2, 3, 25, 15],"sdaReg78":[26],"sdaReg79":[27],"sdaReg73":[21],"sdaReg74":[2, 3, 22, 15],"1093648608.<java.net.URL: java.lang.String host>":[1],"sdaReg75":[23],"sdaReg76":[24],"sdaReg81":[2, 3, 29, 15],"sdaReg80":[2, 3, 28, 15],"1093648608.<java.net.URL: java.lang.String query>":[1],"sdaReg82":[0],"sdaReg48":[0],"sdaReg44":[0],"sdaReg46":[0],"sdaReg40":[0],"1093648608.<java.net.URL: java.lang.String protocol>":[1],"sdaReg42":[0],"sdaReg86":[0],"1093648608":[1],"sdaReg87":[2, 3, 15],"sdaReg84":[1],"sdaReg85":[0],"1093648608.<java.net.URL: java.lang.String authority>":[1],"1093648608.<java.net.URL: int port>":[1],"sdaReg88":[0],"sdaReg90":[0],"1093648608.<java.net.URL: java.lang.String ref>":[1],"sdaReg38":[0],"sdaReg37":[2, 3],"sdaReg94":[31],"sdaReg92":[30],"sdaReg32":[8],"sdaReg101":[0],"sdaReg36":[2, 3, 9],"sdaReg34":[0],"sdaReg33":[1],"sdaReg9":[2, 3],"sdaReg6":[2, 3, 4],"sdaReg5":[2, 3],"sdaReg95":[31],"sdaReg97":[32],"sdaReg98":[32],"1093660648":[1],"sdaReg26":[6],"sdaReg29":[7],"sdaReg28":[7],"1093648608.<java.net.URL: java.lang.String userInfo>":[1],"sdaReg3":[0],"sdaReg2":[1],"sdaReg1":[0],"sdaReg21":[0],"sdaReg0":[2],"sdaReg23":[5],"sdaReg25":[6]},"colorToColor":{"0":[33],"1":[0],"2":[0, 2, 3, 25, 9, 12, 14, 15],"3":[0, 2, 3, 25, 9, 12, 14, 15],"11":[12],"13":[14],"15":[0, 2, 3, 25, 15]},"colorToLabel":{"0":"this","1":"arg#1","2":"arg#2","33":"return"}}}

Generated Model
	this->return
	arg#2->this
	arg#2->return
	arg#1->this
	arg#1->return

