Scanning method <java.util.HashMap: java.util.Set keySet()>

All seen event types: SimpleAssignmentRecord, LoadInstanceRecord, IfRecord, 
Ignored event types: IfRecord, 

JSON Encoded Analysis Data (for visualization):{"heapEdges":[{"step":0,"from":"1093524728","to":"1093412848","type":"load","field":"<java.util.HashMap: java.util.Set keySet>"}],"parameters":[{"id":"1093524728","name":"this","klass":"java.util.HashMap"}],"returns":[{"id":"1093412848","name":"return","klass":"java.util.Set"}],"colors":{"heapLocToColor":{"1093524728":[0],"1093412848":[0]},"colorToColor":{"0":[1]},"colorToLabel":{"0":"this","1":"return"}}}

Generated Model
	this->return

