Scanning method <java.util.HashMap: java.util.Set keySet()>

All seen event types: SimpleAssignmentRecord, MethodReturnRecord, MethodCallRecord, MethodStartRecord, LoadInstanceRecord, MethodEndRecord, IfRecord, StoreInstanceRecord, NewObjectRecord, 
Ignored event types: IfRecord, 

JSON Encoded Analysis Data (for visualization):{"heapEdges":[{"step":0,"from":"1093569584","to":"1093648448","type":"store","field":"<java.util.HashMap$KeySet: java.util.HashMap this$0>"},{"step":1,"from":"1093569584","to":"1093648448","type":"create","field":"<java.util.HashMap: java.util.Set keySet>"}],"parameters":[{"id":"1093569584","name":"this","klass":"java.util.HashMap"}],"returns":[{"id":"1093648448","name":"return","klass":"java.util.Set"}],"colors":{"heapLocToColor":{"sdaReg8":[1],"sdaReg9":[1],"sdaReg6":[1],"sdaReg7":[1],"sdaReg4":[1],"sdaReg5":[1],"sdaReg11":[1],"sdaReg10":[1],"1093569584":[0],"sdaReg3":[0],"sdaReg2":[1],"sdaReg1":[0],"sdaReg0":[1],"1093648448":[1]},"colorToColor":{"0":[1],"1":[0, 2]},"colorToLabel":{"0":"this","2":"return"}}}

Generated Model
	this->return

