Scanning method <java.io.CharArrayWriter: java.io.CharArrayWriter append(char)>

All seen event types: MethodReturnRecord, MethodCallRecord, 
Ignored event types: 

JSON Encoded Analysis Data (for visualization):{"heapEdges":[{"step":0,"from":"1093645984","to":"sdaReg0","type":"model"},{"step":1,"from":"sdaReg0","to":"1093645984","type":"model"}],"parameters":[{"id":"1093645984","name":"this","klass":"java.io.CharArrayWriter"},{"id":"sdaReg0","name":"arg#1","klass":"char"}],"returns":[{"id":"1093645984","name":"return","klass":"java.io.CharArrayWriter"}],"colors":{"heapLocToColor":{"1093645984":[0],"sdaReg0":[0, 1]},"colorToColor":{"0":[0, 2],"1":[0]},"colorToLabel":{"0":"this","1":"arg#1","2":"return"}}}

Generated Model
	this->return
	arg#1->this
	arg#1->return

