Scanning method <java.net.URL: void <init>(java.lang.String,java.lang.String,int,java.lang.String)>

All seen event types: SimpleAssignmentRecord, MethodStartRecord, LoadInstanceRecord, IfRecord, StoreInstanceRecord, LoadStaticRecord, BinaryOperationRecord, MethodCallRecord, MethodReturnRecord, ArrayLengthRecord, CastRecord, LoadArrayRecord, MethodEndRecord, 
Ignored event types: IfRecord, 

JSON Encoded Analysis Data (for visualization):{"heapEdges":[{"step":0,"from":"1093688312","to":"sdaReg6","type":"create","field":"<java.net.URL: int port>"},{"step":1,"from":"sdaReg0","to":"1093688312","type":"store","field":"<java.net.URL: java.lang.String protocol>"},{"step":2,"from":"sdaReg1","to":"1093688312","type":"store","field":"<java.net.URL: java.lang.String host>"},{"step":3,"from":"sdaReg2","to":"1093688312","type":"store","field":"<java.net.URL: int port>"},{"step":4,"from":"sdaReg3","to":"1093688312","type":"store","field":"<java.net.URL: java.lang.String file>"},{"step":5,"from":"1093688312","to":"sdaReg12","type":"create","field":"<java.net.URL: java.lang.String query>"},{"step":6,"from":"sdaReg13","to":"1093688312","type":"store","field":"<java.net.URL: java.lang.String path>"},{"step":7,"from":"static.<java.net.URL: java.util.Hashtable streamHandlers>","to":"1084315112","type":"load","field":"<java.net.URL: java.util.Hashtable streamHandlers>"},{"step":8,"from":"1084315112","to":"1084321912","type":"load","field":"<java.util.Hashtable: java.util.Hashtable$HashtableEntry[] table>"},{"step":9,"from":"1084321912","to":"1084322344","type":"load","field":"arrayIdx_int:2"},{"step":10,"from":"1084322344","to":"1084322128","type":"load","field":"<java.util.Hashtable$HashtableEntry: java.lang.Object key>"},{"step":11,"from":"1084322344","to":"1084322344.<java.util.Hashtable$HashtableEntry: int hash>","type":"load","field":"<java.util.Hashtable$HashtableEntry: int hash>"},{"step":12,"from":"1084322344","to":"1084322328","type":"load","field":"<java.util.Hashtable$HashtableEntry: java.lang.Object value>"},{"step":13,"from":"1084322328","to":"1093688312","type":"store","field":"<java.net.URL: java.net.URLStreamHandler streamHandler>"}],"parameters":[{"id":"1093688312","name":"this","klass":"java.net.URL"},{"id":"sdaReg0","name":"arg#1","klass":"string"},{"id":"sdaReg1","name":"arg#2","klass":"string"},{"id":"sdaReg2","name":"arg#3","klass":"int"},{"id":"sdaReg3","name":"arg#4","klass":"string"}],"returns":[{"id":"1093688312","name":"return","klass":"java.net.URL"}],"colors":{"heapLocToColor":{"static.<java.net.URL: java.util.Hashtable streamHandlers>":[7],"1093688312":[0],"sdaReg14":[0],"sdaReg11":[6],"sdaReg10":[6],"sdaReg32":[0],"sdaReg31":[7],"sdaReg30":[7],"sdaReg19":[8],"1084322128":[7],"sdaReg17":[8],"1084322328":[7],"sdaReg18":[8],"sdaReg15":[7],"sdaReg8":[0],"1084322344":[7],"sdaReg7":[5],"sdaReg4":[0],"sdaReg5":[0],"1084321912":[7],"sdaReg29":[9],"sdaReg28":[8],"sdaReg3":[4],"sdaReg2":[3],"1084322344.<java.util.Hashtable$HashtableEntry: int hash>":[7],"sdaReg1":[2],"sdaReg21":[8],"sdaReg0":[1],"sdaReg20":[8],"sdaReg23":[8],"sdaReg22":[8],"1084315112":[7],"sdaReg25":[8],"sdaReg24":[8]},"colorToColor":{"0":[10],"1":[0],"2":[0],"3":[0],"4":[0],"7":[0]},"colorToLabel":{"0":"this","1":"arg#1","2":"arg#2","3":"arg#3","4":"arg#4","7":"<java.net.URL: java.util.Hashtable streamHandlers>","10":"return"}}}

Generated Model
	this->return
	arg#4->this
	arg#4->return
	arg#3->this
	arg#3->return
	arg#2->this
	arg#2->return
	arg#1->this
	arg#1->return

