Scanning method <java.net.URL: void <init>(java.lang.String,java.lang.String,int,java.lang.String)>

All seen event types: StoreArrayRecord, SimpleAssignmentRecord, MethodStartRecord, LoadInstanceRecord, IfRecord, StoreInstanceRecord, NewObjectRecord, LoadStaticRecord, BinaryOperationRecord, MethodCallRecord, MethodReturnRecord, CastRecord, ArrayLengthRecord, LoadArrayRecord, MethodEndRecord, 
Ignored event types: IfRecord, 

JSON Encoded Analysis Data (for visualization):{"heapEdges":[{"step":0,"from":"1093614496","to":"sdaReg6","type":"create","field":"<java.net.URL: int port>"},{"step":1,"from":"sdaReg1","to":"sdaReg7","type":"model"},{"step":2,"from":"sdaReg0","to":"1093614496","type":"store","field":"<java.net.URL: java.lang.String protocol>"},{"step":3,"from":"sdaReg1","to":"1093614496","type":"store","field":"<java.net.URL: java.lang.String host>"},{"step":4,"from":"sdaReg2","to":"1093614496","type":"store","field":"<java.net.URL: int port>"},{"step":5,"from":"sdaReg1","to":"sdaReg8","type":"model"},{"step":6,"from":"sdaReg3","to":"sdaReg9","type":"model"},{"step":7,"from":"sdaReg3","to":"sdaReg10","type":"model"},{"step":8,"from":"sdaReg3","to":"sdaReg12","type":"model"},{"step":9,"from":"sdaReg12","to":"1093614496","type":"store","field":"<java.net.URL: java.lang.String file>"},{"step":10,"from":"sdaReg3","to":"sdaReg13","type":"model"},{"step":11,"from":"sdaReg3","to":"sdaReg14","type":"model"},{"step":12,"from":"sdaReg13","to":"sdaReg3","type":"model"},{"step":13,"from":"sdaReg13","to":"sdaReg14","type":"model"},{"step":14,"from":"sdaReg14","to":"1093614496","type":"store","field":"<java.net.URL: java.lang.String ref>"},{"step":15,"from":"sdaReg18","to":"1093614496","type":"store","field":"<java.net.URL: java.lang.String authority>"},{"step":16,"from":"1093626632","to":"sdaReg23","type":"model"},{"step":17,"from":"sdaReg23","to":"1093614496","type":"store","field":"<java.net.URL: java.lang.String authority>"},{"step":18,"from":"sdaReg26","to":"sdaReg27","type":"model"},{"step":19,"from":"sdaReg27","to":"1093614496","type":"store","field":"<java.net.URL: java.lang.String query>"},{"step":20,"from":"sdaReg28","to":"1093614496","type":"store","field":"<java.net.URL: java.lang.String path>"},{"step":21,"from":"static.<java.net.URL: java.util.Hashtable streamHandlers>","to":"1084315112","type":"load","field":"<java.net.URL: java.util.Hashtable streamHandlers>"},{"step":22,"from":"1084315112","to":"1084321912","type":"load","field":"<java.util.Hashtable: java.util.Hashtable$HashtableEntry[] table>"},{"step":23,"from":"1093444480","to":"1093270728","type":"model"},{"step":24,"from":"1093614496","to":"1093638416","type":"create","field":"<java.net.URL: java.net.URLStreamHandler streamHandler>"},{"step":25,"from":"static.<java.net.URL: java.util.Hashtable streamHandlers>","to":"1084315112","type":"load","field":"<java.net.URL: java.util.Hashtable streamHandlers>"},{"step":26,"from":"1084315112","to":"1084321912","type":"load","field":"<java.util.Hashtable: java.util.Hashtable$HashtableEntry[] table>"},{"step":27,"from":"1084315112","to":"1084315112.<java.util.Hashtable: int modCount>","type":"load","field":"<java.util.Hashtable: int modCount>"},{"step":28,"from":"sdaReg73","to":"1084315112","type":"store","field":"<java.util.Hashtable: int modCount>"},{"step":29,"from":"1084315112","to":"1084315112.<java.util.Hashtable: int size>","type":"load","field":"<java.util.Hashtable: int size>"},{"step":30,"from":"sdaReg74","to":"1084315112","type":"store","field":"<java.util.Hashtable: int size>"},{"step":31,"from":"1084315112","to":"1084315112.<java.util.Hashtable: int threshold>","type":"load","field":"<java.util.Hashtable: int threshold>"},{"step":32,"from":"1084321368","to":"1093638496","type":"store","field":"<java.util.Hashtable$HashtableEntry: java.lang.Object key>"},{"step":33,"from":"1093638416","to":"1093638496","type":"store","field":"<java.util.Hashtable$HashtableEntry: java.lang.Object value>"},{"step":34,"from":"sdaReg68","to":"1093638496","type":"store","field":"<java.util.Hashtable$HashtableEntry: int hash>"},{"step":35,"from":"1084321912","to":"1093638496","type":"create","field":"arrayIdx_int:1"}],"parameters":[{"id":"1093614496","name":"this","klass":"java.net.URL"},{"id":"sdaReg0","name":"arg#1","klass":"string"},{"id":"sdaReg1","name":"arg#2","klass":"string"},{"id":"sdaReg2","name":"arg#3","klass":"int"},{"id":"sdaReg3","name":"arg#4","klass":"string"}],"returns":[{"id":"1093614496","name":"return","klass":"java.net.URL"}],"colors":{"heapLocToColor":{"sdaReg60":[28],"1084315112.<java.util.Hashtable: int modCount>":[18],"sdaReg61":[28],"1093638416":[27],"1084315112.<java.util.Hashtable: int threshold>":[18],"sdaReg68":[28],"1093626632":[13],"sdaReg66":[28],"sdaReg67":[28],"sdaReg64":[28],"sdaReg65":[28],"sdaReg62":[28],"sdaReg63":[28],"sdaReg13":[4, 9],"sdaReg71":[28],"sdaReg14":[4, 11],"sdaReg11":[9],"sdaReg12":[4, 10],"sdaReg10":[4, 8],"sdaReg59":[27],"sdaReg57":[18],"1093444480":[22],"sdaReg56":[27],"sdaReg19":[13],"sdaReg55":[27],"sdaReg54":[27],"sdaReg17":[12],"sdaReg53":[27],"sdaReg52":[27],"sdaReg15":[0],"sdaReg51":[26],"sdaReg50":[25],"sdaReg77":[27],"1084315112.<java.util.Hashtable: int size>":[18],"sdaReg79":[29],"sdaReg73":[18],"1093638496":[29],"sdaReg74":[18],"sdaReg75":[29],"1093270728":[23, 22],"sdaReg81":[0],"sdaReg80":[29],"1084321912":[18],"sdaReg49":[24],"sdaReg48":[23, 22],"sdaReg47":[22],"sdaReg46":[21],"sdaReg40":[19],"1084315112":[18],"sdaReg43":[19],"static.<java.net.URL: java.util.Hashtable streamHandlers>":[18],"1093614496":[0],"sdaReg39":[19],"1084315112.<java.util.Hashtable: java.util.Hashtable$HashtableEntry[] table>":[18],"sdaReg38":[19],"sdaReg37":[19],"sdaReg32":[19],"sdaReg30":[18],"sdaReg36":[19],"sdaReg35":[19],"sdaReg34":[19],"sdaReg33":[19],"sdaReg8":[2, 6],"sdaReg9":[4, 7],"sdaReg7":[2, 5],"sdaReg4":[0],"sdaReg5":[0],"sdaReg27":[16],"sdaReg26":[15],"sdaReg29":[0],"sdaReg28":[17],"sdaReg3":[4],"sdaReg2":[3],"sdaReg21":[13],"sdaReg1":[2],"sdaReg20":[13],"sdaReg0":[1],"sdaReg23":[13, 14],"static.<java.net.URL: java.net.URLStreamHandlerFactory streamHandlerFactory>":[20],"sdaReg22":[13],"sdaReg25":[15],"sdaReg24":[15]},"colorToColor":{"0":[30],"1":[0],"2":[0],"3":[0],"4":[0, 4, 11],"9":[4, 11],"10":[0],"11":[0],"13":[0],"14":[0],"15":[16],"17":[0],"16":[0],"18":[18],"27":[0, 29],"29":[18],"28":[29]},"colorToLabel":{"0":"this","1":"arg#1","2":"arg#2","3":"arg#3","4":"arg#4","18":"<java.net.URL: java.util.Hashtable streamHandlers>","20":"<java.net.URL: java.net.URLStreamHandlerFactory streamHandlerFactory>","30":"return"}}}

Generated Model
	this->return
	arg#4->this
	arg#4->return
	arg#3->this
	arg#3->return
	arg#2->this
	arg#2->return
	arg#1->this
	arg#1->return

