Scanning method <android.os.Message: android.os.Message obtain(android.os.Handler,java.lang.Runnable)>

All seen event types: SimpleAssignmentRecord, ExitMonitorRecord, MethodStartRecord, LoadInstanceRecord, IfRecord, StoreInstanceRecord, LoadStaticRecord, BinaryOperationRecord, StoreStaticRecord, MethodCallRecord, MethodReturnRecord, EnterMonitorRecord, MethodEndRecord, 
Ignored event types: ExitMonitorRecord, EnterMonitorRecord, IfRecord, 

JSON Encoded Analysis Data (for visualization):{"heapEdges":[{"step":0,"from":"static.<android.os.Message: java.lang.Object sPoolSync>","to":"1085010160","type":"load","field":"<android.os.Message: java.lang.Object sPoolSync>"},{"step":1,"from":"static.<android.os.Message: android.os.Message sPool>","to":"1093454480","type":"load","field":"<android.os.Message: android.os.Message sPool>"},{"step":2,"from":"static.<android.os.Message: android.os.Message sPool>","to":"1093454480","type":"load","field":"<android.os.Message: android.os.Message sPool>"},{"step":3,"from":"1093454480","to":"sdaReg1","type":"create","field":"<android.os.Message: android.os.Message next>"},{"step":4,"from":"static.<android.os.Message: int sPoolSize>","to":"static.<android.os.Message: int sPoolSize>","type":"load","field":"<android.os.Message: int sPoolSize>"},{"step":5,"from":"sdaReg2","to":"static.<android.os.Message: int sPoolSize>","type":"store","field":"<android.os.Message: int sPoolSize>"},{"step":6,"from":"1093553488","to":"1093454480","type":"store","field":"<android.os.Message: android.os.Handler target>"},{"step":7,"from":"1093581312","to":"1093454480","type":"store","field":"<android.os.Message: java.lang.Runnable callback>"}],"parameters":[{"id":"1093553488","name":"arg#0","klass":"android.os.Handler"},{"id":"1093581312","name":"arg#1","klass":"java.lang.Runnable"}],"returns":[{"id":"1093454480","name":"return","klass":"android.os.Message"}],"colors":{"heapLocToColor":{"1085010160":[2],"sdaReg3":[3],"sdaReg2":[4],"static.<android.os.Message: java.lang.Object sPoolSync>":[2],"1093581312":[1],"static.<android.os.Message: int sPoolSize>":[4],"static.<android.os.Message: android.os.Message sPool>":[3],"sdaReg0":[2],"1093553488":[0],"1093454480":[3]},"colorToColor":{"0":[3],"1":[3],"3":[5],"4":[4]},"colorToLabel":{"0":"arg#0","1":"arg#1","2":"<android.os.Message: java.lang.Object sPoolSync>","3":"<android.os.Message: android.os.Message sPool>","4":"<android.os.Message: int sPoolSize>","5":"return"}}}

Generated Model
	arg#1->return
	arg#1-><android.os.Message: android.os.Message sPool>
	arg#0->return
	arg#0-><android.os.Message: android.os.Message sPool>

