Scanning method <android.os.Bundle: java.lang.Byte getByte(java.lang.String,byte)>

All seen event types: BinaryOperationRecord, MethodReturnRecord, MethodCallRecord, ArrayLengthRecord, LoadInstanceRecord, MethodStartRecord, LoadArrayRecord, MethodEndRecord, IfRecord, 
Ignored event types: IfRecord, 

JSON Encoded Analysis Data (for visualization):{"heapEdges":[{"step":0,"from":"1093932008","to":"1093426184","type":"load","field":"<android.os.Bundle: java.util.Map mMap>"},{"step":1,"from":"1093426184","to":"1083997920","type":"load","field":"<java.util.HashMap: java.util.HashMap$HashMapEntry[] table>"},{"step":2,"from":"sdaReg1","to":"1084853144","type":"model"}],"parameters":[{"id":"1093932008","name":"this","klass":"android.os.Bundle"},{"id":"sdaReg0","name":"arg#1","klass":"string"},{"id":"sdaReg1","name":"arg#2","klass":"byte"}],"returns":[{"id":"1084853144","name":"return","klass":"java.lang.Byte"}],"colors":{"heapLocToColor":{"sdaReg8":[3],"sdaReg9":[3],"sdaReg6":[3],"sdaReg7":[3],"sdaReg4":[3],"sdaReg5":[3],"1093932008":[0],"1093426184":[0],"sdaReg11":[3],"sdaReg12":[3],"1084853144":[4],"sdaReg10":[3],"sdaReg3":[0],"sdaReg2":[0],"1083997920":[0],"sdaReg1":[2],"sdaReg0":[1],"sdaReg17":[4],"sdaReg15":[3]},"colorToColor":{"2":[4],"4":[5]},"colorToLabel":{"0":"this","1":"arg#1","2":"arg#2","5":"return"}}}

Generated Model
	arg#2->return

