Scanning method <java.util.Vector: java.lang.Object clone()>

All seen event types: MethodReturnRecord, MethodCallRecord, LoadInstanceRecord, CastRecord, StoreInstanceRecord, 
Ignored event types: 

JSON Encoded Analysis Data (for visualization):{"heapEdges":[{"step":0,"from":"1093398024","to":"1093801952","type":"model"},{"step":1,"from":"1093398024","to":"1093394328","type":"load","field":"<java.util.Vector: java.lang.Object[] elementData>"},{"step":2,"from":"1093394328","to":"1093801984","type":"model"},{"step":3,"from":"1093801952","to":"1093801984","type":"create","field":"<java.util.Vector: java.lang.Object[] elementData>"}],"parameters":[{"id":"1093398024","name":"this","klass":"java.util.Vector"}],"returns":[{"id":"1093801952","name":"return","klass":"java.lang.Object"}],"colors":{"heapLocToColor":{"1093398024":[0],"1093801952":[0, 1],"sdaReg3":[0, 2],"sdaReg2":[0, 2],"sdaReg1":[0, 1],"sdaReg0":[0, 1],"1093801984":[0, 2],"1093394328":[0]},"colorToColor":{"0":[0, 1, 3],"1":[3],"2":[0, 1]},"colorToLabel":{"0":"this","3":"return"}}}

Generated Model
	this->return

