Scanning method <java.util.Vector: java.lang.Object clone()>

All seen event types: MethodReturnRecord, MethodCallRecord, LoadInstanceRecord, CastRecord, StoreInstanceRecord, 
Ignored event types: 

JSON Encoded Analysis Data (for visualization):{"heapEdges":[{"step":0,"from":"1093396256","to":"1093344064","type":"model"},{"step":1,"from":"1093396256","to":"1093395256","type":"load","field":"<java.util.Vector: java.lang.Object[] elementData>"},{"step":2,"from":"1093395256","to":"1093342936","type":"model"},{"step":3,"from":"1093344064","to":"1093342936","type":"create","field":"<java.util.Vector: java.lang.Object[] elementData>"}],"parameters":[{"id":"1093396256","name":"this","klass":"java.util.Vector"}],"returns":[{"id":"1093344064","name":"return","klass":"java.lang.Object"}],"colors":{"heapLocToColor":{"1093395256":[0],"1093342936":[0, 2],"sdaReg3":[0, 2],"sdaReg2":[0, 2],"sdaReg1":[0, 1],"sdaReg0":[0, 1],"1093396256":[0],"1093344064":[0, 1]},"colorToColor":{"0":[0, 1, 3],"1":[3],"2":[0, 1]},"colorToLabel":{"0":"this","3":"return"}}}

Generated Model
	this->return

