Scanning method <java.util.Vector: java.lang.Object clone()>

All seen event types: MethodReturnRecord, MethodCallRecord, LoadInstanceRecord, CastRecord, StoreInstanceRecord, 
Ignored event types: 

JSON Encoded Analysis Data (for visualization):{"heapEdges":[{"step":0,"from":"1093411640","to":"1094058936","type":"model"},{"step":1,"from":"1093411640","to":"1093410624","type":"load","field":"<java.util.Vector: java.lang.Object[] elementData>"},{"step":2,"from":"1093410624","to":"1094058968","type":"model"},{"step":3,"from":"1094058936","to":"1094058968","type":"create","field":"<java.util.Vector: java.lang.Object[] elementData>"}],"parameters":[{"id":"1093411640","name":"this","klass":"java.util.Vector"}],"returns":[{"id":"1094058936","name":"return","klass":"java.lang.Object"}],"colors":{"heapLocToColor":{"1093410624":[0],"1094058936":[0, 1],"sdaReg3":[0, 2],"sdaReg2":[0, 2],"sdaReg1":[0, 1],"1093411640":[0],"sdaReg0":[0, 1],"1094058968":[0, 2]},"colorToColor":{"0":[0, 1, 3],"1":[3],"2":[0, 1]},"colorToLabel":{"0":"this","3":"return"}}}

Generated Model
	this->return

