Scanning method <java.util.HashSet: boolean add(java.lang.Object)>

All seen event types: StoreArrayRecord, SimpleAssignmentRecord, LoadInstanceRecord, MethodStartRecord, IfRecord, NewObjectRecord, StoreInstanceRecord, NewArrayRecord, BinaryOperationRecord, MethodCallRecord, MethodReturnRecord, ArrayLengthRecord, CastRecord, LoadArrayRecord, MethodEndRecord, 
Ignored event types: IfRecord, 

JSON Encoded Analysis Data (for visualization):{"heapEdges":[{"step":0,"from":"1093882080","to":"1094039048","type":"load","field":"<java.util.HashSet: java.util.HashMap backingMap>"},{"step":1,"from":"1094039048","to":"1083997920","type":"load","field":"<java.util.HashMap: java.util.HashMap$HashMapEntry[] table>"},{"step":2,"from":"1094039048","to":"1094039048.<java.util.HashMap: int modCount>","type":"load","field":"<java.util.HashMap: int modCount>"},{"step":3,"from":"sdaReg15","to":"1094039048","type":"store","field":"<java.util.HashMap: int modCount>"},{"step":4,"from":"1094039048","to":"1094039048.<java.util.HashMap: int size>","type":"load","field":"<java.util.HashMap: int size>"},{"step":5,"from":"sdaReg16","to":"1094039048","type":"store","field":"<java.util.HashMap: int size>"},{"step":6,"from":"1094039048","to":"1094039048.<java.util.HashMap: int threshold>","type":"load","field":"<java.util.HashMap: int threshold>"},{"step":7,"from":"1094039048","to":"1083997920","type":"load","field":"<java.util.HashMap: java.util.HashMap$HashMapEntry[] table>"},{"step":8,"from":"1094039048","to":"1094039232","type":"create","field":"<java.util.HashMap: java.util.HashMap$HashMapEntry[] table>"},{"step":9,"from":"sdaReg24","to":"1094039048","type":"store","field":"<java.util.HashMap: int threshold>"},{"step":10,"from":"1094039136","to":"1094039272","type":"store","field":"<java.util.HashMap$HashMapEntry: java.lang.Object key>"},{"step":11,"from":"1093882080","to":"1094039272","type":"store","field":"<java.util.HashMap$HashMapEntry: java.lang.Object value>"},{"step":12,"from":"sdaReg11","to":"1094039272","type":"store","field":"<java.util.HashMap$HashMapEntry: int hash>"},{"step":13,"from":"1094039232","to":"1094039272","type":"create","field":"arrayIdx_int:0"}],"parameters":[{"id":"1093882080","name":"this","klass":"java.util.HashSet"},{"id":"1094039136","name":"arg#1","klass":"java.lang.Object"}],"returns":[{"id":"sdaReg40","name":"return","klass":"boolean"}],"colors":{"heapLocToColor":{"1094039136":[1],"1094039232":[3],"1094039048.<java.util.HashMap: int size>":[0],"sdaReg14":[2],"sdaReg38":[4],"sdaReg11":[2],"sdaReg37":[4],"1093882080":[0],"sdaReg10":[2],"sdaReg32":[0],"sdaReg31":[1],"sdaReg30":[0],"1083997920":[0],"sdaReg17":[0],"sdaReg35":[0],"1094039048.<java.util.HashMap: int modCount>":[0],"sdaReg34":[1],"sdaReg15":[0],"sdaReg33":[4],"sdaReg16":[0],"sdaReg8":[2],"sdaReg9":[2],"sdaReg6":[2],"sdaReg7":[2],"sdaReg4":[2],"sdaReg5":[2],"1094039048":[0],"1094039048.<java.util.HashMap: java.util.HashMap$HashMapEntry[] table>":[0],"sdaReg27":[3],"1094039272":[4],"sdaReg3":[2],"sdaReg2":[0],"sdaReg1":[1],"1094039048.<java.util.HashMap: int threshold>":[0],"sdaReg0":[0],"sdaReg20":[0],"sdaReg25":[3]},"colorToColor":{"0":[0, 4],"1":[4],"2":[4],"3":[0],"4":[3]},"colorToLabel":{"0":"this","1":"arg#1","5":"return"}}}

Generated Model
	arg#1->this

