Scanning method <android.os.Bundle: void <init>(android.os.Parcel,int)>

All seen event types: SimpleAssignmentRecord, ExitMonitorRecord, MethodStartRecord, IfRecord, StoreInstanceRecord, NewObjectRecord, LoadStaticRecord, BinaryOperationRecord, MethodCallRecord, MethodReturnRecord, EnterMonitorRecord, LoadArrayRecord, MethodEndRecord, 
Ignored event types: ExitMonitorRecord, EnterMonitorRecord, IfRecord, 

JSON Encoded Analysis Data (for visualization):{"heapEdges":[{"step":0,"from":"1093631752","to":"sdaReg2","type":"create","field":"<android.os.Bundle: java.util.Map mMap>"},{"step":1,"from":"1093631752","to":"sdaReg3","type":"create","field":"<android.os.Bundle: android.os.Parcel mParcelledData>"},{"step":2,"from":"1093631752","to":"sdaReg4","type":"create","field":"<android.os.Bundle: boolean mHasFds>"},{"step":3,"from":"1093631752","to":"sdaReg5","type":"create","field":"<android.os.Bundle: boolean mFdsKnown>"},{"step":4,"from":"1093631752","to":"sdaReg6","type":"create","field":"<android.os.Bundle: boolean mAllowFds>"},{"step":5,"from":"1093446048","to":"sdaReg9","type":"model"},{"step":6,"from":"1093446048","to":"sdaReg10","type":"model"},{"step":7,"from":"1093446048","to":"sdaReg11","type":"model"},{"step":8,"from":"sdaReg11","to":"1093446048","type":"model"},{"step":9,"from":"static.<android.os.Parcel: android.os.Parcel[] sOwnedPool>","to":"1084044960","type":"load","field":"<android.os.Parcel: android.os.Parcel[] sOwnedPool>"},{"step":10,"from":"1093906952","to":"sdaReg15","type":"model"},{"step":11,"from":"sdaReg15","to":"1093906952","type":"model"},{"step":12,"from":"1093906952","to":"1093446048","type":"model"},{"step":13,"from":"1093906952","to":"sdaReg10","type":"model"},{"step":14,"from":"1093906952","to":"sdaReg0","type":"model"},{"step":15,"from":"1093446048","to":"1093906952","type":"model"},{"step":16,"from":"1093446048","to":"sdaReg10","type":"model"},{"step":17,"from":"1093446048","to":"sdaReg0","type":"model"},{"step":18,"from":"sdaReg10","to":"1093906952","type":"model"},{"step":19,"from":"sdaReg10","to":"1093446048","type":"model"},{"step":20,"from":"sdaReg10","to":"sdaReg0","type":"model"},{"step":21,"from":"sdaReg0","to":"1093906952","type":"model"},{"step":22,"from":"sdaReg0","to":"1093446048","type":"model"},{"step":23,"from":"sdaReg0","to":"sdaReg10","type":"model"},{"step":24,"from":"1093631752","to":"1093906952","type":"create","field":"<android.os.Bundle: android.os.Parcel mParcelledData>"},{"step":25,"from":"1093906952","to":"sdaReg19","type":"model"},{"step":26,"from":"sdaReg19","to":"1093631752","type":"store","field":"<android.os.Bundle: boolean mHasFds>"},{"step":27,"from":"1093631752","to":"sdaReg20","type":"create","field":"<android.os.Bundle: boolean mFdsKnown>"}],"parameters":[{"id":"1093631752","name":"this","klass":"android.os.Bundle"},{"id":"1093446048","name":"arg#1","klass":"android.os.Parcel"},{"id":"sdaReg0","name":"arg#2","klass":"int"}],"returns":[{"id":"1093631752","name":"return","klass":"android.os.Bundle"}],"colors":{"heapLocToColor":{"sdaReg8":[1],"sdaReg9":[1, 3],"sdaReg7":[0],"static.<android.os.Parcel: android.os.Parcel[] sOwnedPool>":[5],"1084044960":[5],"1093446048":[1, 6],"1093631752":[0],"1093906952":[6],"sdaReg14":[6],"sdaReg11":[1, 2, 4],"sdaReg12":[5],"sdaReg10":[1, 4, 6],"sdaReg19":[6, 7],"sdaReg1":[0],"sdaReg0":[2, 6],"sdaReg17":[6],"sdaReg18":[6],"sdaReg15":[6],"sdaReg16":[6]},"colorToColor":{"0":[8],"1":[1, 2, 4, 6],"2":[1, 4, 6],"4":[1, 2, 6],"6":[0, 1, 2, 4, 6],"7":[0]},"colorToLabel":{"0":"this","1":"arg#1","2":"arg#2","5":"<android.os.Parcel: android.os.Parcel[] sOwnedPool>","8":"return"}}}

Generated Model
	this->return
	arg#2->this
	arg#2->return
	arg#2->arg#1
	arg#1->this
	arg#1->return
	arg#1->arg#2

