Scanning method <android.location.Location: java.lang.String getProvider()>

All seen event types: LoadInstanceRecord, 
Ignored event types: 

JSON Encoded Analysis Data (for visualization):{"heapEdges":[{"step":0,"from":"1094087408","to":"1094087408.<android.location.Location: java.lang.String mProvider>","type":"load","field":"<android.location.Location: java.lang.String mProvider>"}],"parameters":[{"id":"1094087408","name":"this","klass":"android.location.Location"}],"returns":[{"id":"1094087408.<android.location.Location: java.lang.String mProvider>","name":"return","klass":"string"}],"colors":{"heapLocToColor":{"1094087408":[0],"1094087408.<android.location.Location: java.lang.String mProvider>":[0]},"colorToColor":{"0":[1]},"colorToLabel":{"0":"this","1":"return"}}}

Generated Model
	this->return

