Scanning method <android.os.Bundle: int[] getIntArray(java.lang.String)>

All seen event types: BinaryOperationRecord, MethodReturnRecord, MethodCallRecord, CastRecord, ArrayLengthRecord, LoadInstanceRecord, MethodStartRecord, LoadArrayRecord, MethodEndRecord, IfRecord, 
Ignored event types: IfRecord, 

JSON Encoded Analysis Data (for visualization):{"heapEdges":[{"step":0,"from":"1093734792","to":"1093527472","type":"load","field":"<android.os.Bundle: java.util.Map mMap>"},{"step":1,"from":"1093527472","to":"1094055368","type":"load","field":"<java.util.HashMap: java.util.HashMap$HashMapEntry[] table>"},{"step":2,"from":"1094055368","to":"1094055408","type":"load","field":"arrayIdx_int:2"},{"step":3,"from":"1094055408","to":"1093529360","type":"load","field":"<java.util.HashMap$HashMapEntry: java.lang.Object key>"},{"step":4,"from":"1094055408","to":"1094038296","type":"load","field":"<java.util.HashMap$HashMapEntry: java.lang.Object value>"}],"parameters":[{"id":"1093734792","name":"this","klass":"android.os.Bundle"},{"id":"sdaReg0","name":"arg#1","klass":"string"}],"returns":[{"id":"1094038296","name":"return","klass":"int[]"}],"colors":{"heapLocToColor":{"sdaReg8":[2],"sdaReg9":[2],"sdaReg6":[2],"sdaReg7":[2],"sdaReg4":[2],"sdaReg5":[2],"1094055368":[0],"1093529360":[0],"1093527472":[0],"sdaReg14":[2],"sdaReg11":[2],"1093734792":[0],"sdaReg10":[2],"sdaReg3":[2],"1094055408":[0],"sdaReg2":[0],"sdaReg1":[0],"sdaReg0":[1],"sdaReg17":[0],"1094038296":[0],"sdaReg15":[0],"sdaReg16":[0]},"colorToColor":{"0":[3]},"colorToLabel":{"0":"this","1":"arg#1","3":"return"}}}

Generated Model
	this->return

