Scanning method <java.nio.CharBuffer: java.nio.CharBuffer put(char[])>

All seen event types: BinaryOperationRecord, MethodReturnRecord, MethodCallRecord, LoadInstanceRecord, MethodStartRecord, ArrayLengthRecord, IfRecord, MethodEndRecord, StoreInstanceRecord, 
Ignored event types: IfRecord, 

JSON Encoded Analysis Data (for visualization):{"heapEdges":[{"step":0,"from":"1093662064","to":"1093662064.<java.nio.Buffer: int limit>","type":"load","field":"<java.nio.Buffer: int limit>"},{"step":1,"from":"1093662064","to":"1093662064.<java.nio.Buffer: int position>","type":"load","field":"<java.nio.Buffer: int position>"},{"step":2,"from":"1093662064","to":"1093662040","type":"load","field":"<java.nio.CharArrayBuffer: char[] backingArray>"},{"step":3,"from":"1093662064","to":"1093662064.<java.nio.CharArrayBuffer: int offset>","type":"load","field":"<java.nio.CharArrayBuffer: int offset>"},{"step":4,"from":"1093662064","to":"1093662064.<java.nio.Buffer: int position>","type":"load","field":"<java.nio.Buffer: int position>"},{"step":5,"from":"1093662064","to":"1093662064.<java.nio.Buffer: int position>","type":"load","field":"<java.nio.Buffer: int position>"},{"step":6,"from":"sdaReg7","to":"1093662064","type":"store","field":"<java.nio.Buffer: int position>"}],"parameters":[{"id":"1093662064","name":"this","klass":"java.nio.CharBuffer"},{"id":"1093662040","name":"arg#1","klass":"char[]"}],"returns":[{"id":"1093662064","name":"return","klass":"java.nio.CharBuffer"}],"colors":{"heapLocToColor":{"1093662064":[0],"1093662064.<java.nio.Buffer: int position>":[0],"1093662040":[0, 1],"sdaReg8":[0],"sdaReg6":[0],"sdaReg7":[0],"sdaReg4":[0],"sdaReg5":[0],"1093662064.<java.nio.CharArrayBuffer: int offset>":[0],"1093662064.<java.nio.Buffer: int limit>":[0],"sdaReg2":[1],"sdaReg1":[0],"1093662064.<java.nio.CharArrayBuffer: char[] backingArray>":[1]},"colorToColor":{"0":[0, 2]},"colorToLabel":{"0":"this","1":"arg#1","2":"return"}}}

Generated Model
	this->return

