Scanning method <java.io.SequenceInputStream: int available()>

All seen event types: BinaryOperationRecord, MethodReturnRecord, MethodCallRecord, MethodStartRecord, LoadInstanceRecord, MethodEndRecord, IfRecord, 
Ignored event types: IfRecord, 

JSON Encoded Analysis Data (for visualization):{"heapEdges":[{"step":0,"from":"1093708704","to":"1093609464","type":"load","field":"<java.io.SequenceInputStream: java.util.Enumeration e>"},{"step":1,"from":"1093708704","to":"1093708840","type":"load","field":"<java.io.SequenceInputStream: java.io.InputStream in>"},{"step":2,"from":"1093708704","to":"1093708840","type":"load","field":"<java.io.SequenceInputStream: java.io.InputStream in>"},{"step":3,"from":"1093708840","to":"1093708840.<java.io.ByteArrayInputStream: int count>","type":"load","field":"<java.io.ByteArrayInputStream: int count>"},{"step":4,"from":"1093708840","to":"1093708840.<java.io.ByteArrayInputStream: int pos>","type":"load","field":"<java.io.ByteArrayInputStream: int pos>"}],"parameters":[{"id":"1093708704","name":"this","klass":"java.io.SequenceInputStream"}],"returns":[{"id":"sdaReg1","name":"return","klass":"int"}],"colors":{"heapLocToColor":{"1093708704.<java.io.SequenceInputStream: java.io.InputStream in>":[0],"1093708840.<java.io.ByteArrayInputStream: int count>":[0],"1093708840":[0],"1093708704":[0],"sdaReg1":[0],"sdaReg0":[0],"1093609464":[0],"1093708840.<java.io.ByteArrayInputStream: int pos>":[0]},"colorToColor":{"0":[1]},"colorToLabel":{"0":"this","1":"return"}}}

Generated Model
	this->return

