Scanning method <java.io.InputStreamReader: int read()>

All seen event types: StoreArrayRecord, SimpleAssignmentRecord, ExitMonitorRecord, LoadInstanceRecord, MethodStartRecord, IfRecord, NewObjectRecord, StoreInstanceRecord, LoadStaticRecord, NewArrayRecord, BinaryOperationRecord, MethodCallRecord, MethodReturnRecord, EnterMonitorRecord, ArrayLengthRecord, LoadArrayRecord, MethodEndRecord, 
Ignored event types: ExitMonitorRecord, EnterMonitorRecord, IfRecord, 

JSON Encoded Analysis Data (for visualization):{"heapEdges":[{"step":0,"from":"1093652160","to":"1093651256","type":"load","field":"<java.io.Reader: java.lang.Object lock>"},{"step":1,"from":"1093652160","to":"1093651256","type":"load","field":"<java.io.InputStreamReader: java.io.InputStream in>"},{"step":2,"from":"1093652160","to":"1093651256","type":"load","field":"<java.io.Reader: java.lang.Object lock>"},{"step":3,"from":"1093652160","to":"1093651256","type":"load","field":"<java.io.InputStreamReader: java.io.InputStream in>"},{"step":4,"from":"1093364992","to":"sdaReg29","type":"create","field":"<java.nio.Buffer: int mark>"},{"step":5,"from":"1093364992","to":"sdaReg30","type":"create","field":"<java.nio.Buffer: int position>"},{"step":6,"from":"1093364992","to":"sdaReg27","type":"create","field":"<java.nio.Buffer: int _elementSizeShift>"},{"step":7,"from":"sdaReg21","to":"1093364992","type":"store","field":"<java.nio.Buffer: int limit>"},{"step":8,"from":"sdaReg21","to":"1093364992","type":"store","field":"<java.nio.Buffer: int capacity>"},{"step":9,"from":"1093364992","to":"1093364968","type":"create","field":"<java.nio.CharArrayBuffer: char[] backingArray>"},{"step":10,"from":"1093364992","to":"sdaReg24","type":"create","field":"<java.nio.CharArrayBuffer: int offset>"},{"step":11,"from":"1093364992","to":"sdaReg5","type":"create","field":"<java.nio.Buffer: int position>"},{"step":12,"from":"sdaReg37","to":"1093364992","type":"store","field":"<java.nio.Buffer: int limit>"},{"step":13,"from":"static.<java.nio.charset.CoderResult: java.nio.charset.CoderResult UNDERFLOW>","to":"1084215096","type":"load","field":"<java.nio.charset.CoderResult: java.nio.charset.CoderResult UNDERFLOW>"},{"step":14,"from":"1093652160","to":"1093652256","type":"load","field":"<java.io.InputStreamReader: java.nio.ByteBuffer bytes>"},{"step":15,"from":"1093652256","to":"1093652256.<java.nio.Buffer: int position>","type":"load","field":"<java.nio.Buffer: int position>"},{"step":16,"from":"1093652256","to":"1093652256.<java.nio.Buffer: int limit>","type":"load","field":"<java.nio.Buffer: int limit>"},{"step":17,"from":"1093652160","to":"1093651256","type":"load","field":"<java.io.InputStreamReader: java.io.InputStream in>"},{"step":18,"from":"1093651256","to":"1093651256.<java.io.ByteArrayInputStream: int count>","type":"load","field":"<java.io.ByteArrayInputStream: int count>"},{"step":19,"from":"1093651256","to":"1093651256.<java.io.ByteArrayInputStream: int pos>","type":"load","field":"<java.io.ByteArrayInputStream: int pos>"},{"step":20,"from":"1093652160","to":"1093652256","type":"load","field":"<java.io.InputStreamReader: java.nio.ByteBuffer bytes>"},{"step":21,"from":"1093652256","to":"1093652256.<java.nio.Buffer: int capacity>","type":"load","field":"<java.nio.Buffer: int capacity>"},{"step":22,"from":"1093652160","to":"1093652256","type":"load","field":"<java.io.InputStreamReader: java.nio.ByteBuffer bytes>"},{"step":23,"from":"1093652256","to":"1093652256.<java.nio.Buffer: int limit>","type":"load","field":"<java.nio.Buffer: int limit>"},{"step":24,"from":"1093652160","to":"1093652256","type":"load","field":"<java.io.InputStreamReader: java.nio.ByteBuffer bytes>"},{"step":25,"from":"1093652256","to":"1093652256.<java.nio.HeapByteBuffer: int offset>","type":"load","field":"<java.nio.HeapByteBuffer: int offset>"},{"step":26,"from":"1093652160","to":"1093652256","type":"load","field":"<java.io.InputStreamReader: java.nio.ByteBuffer bytes>"},{"step":27,"from":"1093652256","to":"1093652256.<java.nio.Buffer: int limit>","type":"load","field":"<java.nio.Buffer: int limit>"},{"step":28,"from":"1093652160","to":"1093651256","type":"load","field":"<java.io.InputStreamReader: java.io.InputStream in>"},{"step":29,"from":"1093652160","to":"1093652256","type":"load","field":"<java.io.InputStreamReader: java.nio.ByteBuffer bytes>"},{"step":30,"from":"1093652256","to":"1093652312","type":"load","field":"<java.nio.HeapByteBuffer: byte[] backingArray>"},{"step":31,"from":"1093651256","to":"1093651256.<java.io.ByteArrayInputStream: int pos>","type":"load","field":"<java.io.ByteArrayInputStream: int pos>"},{"step":32,"from":"1093651256","to":"1093651256.<java.io.ByteArrayInputStream: int count>","type":"load","field":"<java.io.ByteArrayInputStream: int count>"},{"step":33,"from":"1093652160","to":"sdaReg66","type":"create","field":"<java.io.InputStreamReader: boolean endOfInput>"},{"step":34,"from":"static.<java.nio.charset.CoderResult: java.nio.charset.CoderResult UNDERFLOW>","to":"1084215096","type":"load","field":"<java.nio.charset.CoderResult: java.nio.charset.CoderResult UNDERFLOW>"},{"step":35,"from":"1093652160","to":"1093670896","type":"load","field":"<java.io.InputStreamReader: java.nio.charset.CharsetDecoder decoder>"},{"step":36,"from":"1093652160","to":"1093652256","type":"load","field":"<java.io.InputStreamReader: java.nio.ByteBuffer bytes>"},{"step":37,"from":"1093670896","to":"1093670896.<java.nio.charset.CharsetDecoder: int status>","type":"load","field":"<java.nio.charset.CharsetDecoder: int status>"},{"step":38,"from":"1093652256","to":"1093652256.<java.nio.Buffer: int position>","type":"load","field":"<java.nio.Buffer: int position>"},{"step":39,"from":"1093652256","to":"1093652256.<java.nio.Buffer: int limit>","type":"load","field":"<java.nio.Buffer: int limit>"},{"step":40,"from":"static.<java.nio.charset.CoderResult: java.nio.charset.CoderResult UNDERFLOW>","to":"1084215096","type":"load","field":"<java.nio.charset.CoderResult: java.nio.charset.CoderResult UNDERFLOW>"},{"step":41,"from":"1084215096","to":"1084215096.<java.nio.charset.CoderResult: int type>","type":"load","field":"<java.nio.charset.CoderResult: int type>"},{"step":42,"from":"1093652256","to":"1093652256.<java.nio.Buffer: int limit>","type":"load","field":"<java.nio.Buffer: int limit>"},{"step":43,"from":"1093652256","to":"1093652256.<java.nio.Buffer: int position>","type":"load","field":"<java.nio.Buffer: int position>"},{"step":44,"from":"sdaReg83","to":"1093670896","type":"store","field":"<java.nio.charset.CharsetDecoder: int status>"},{"step":45,"from":"1093652160","to":"1093670896","type":"load","field":"<java.io.InputStreamReader: java.nio.charset.CharsetDecoder decoder>"},{"step":46,"from":"static.<libcore.util.EmptyArray: byte[] BYTE>","to":"1083993968","type":"load","field":"<libcore.util.EmptyArray: byte[] BYTE>"},{"step":47,"from":"1083993968","to":"1093670896","type":"store","field":"<java.nio.charset.CharsetDecoderICU: byte[] input>"},{"step":48,"from":"1093670896","to":"sdaReg89","type":"create","field":"<java.nio.charset.CharsetDecoderICU: int inEnd>"},{"step":49,"from":"1093670896","to":"1093671048","type":"load","field":"<java.nio.charset.CharsetDecoderICU: int[] data>"},{"step":50,"from":"1093671048","to":"sdaReg90","type":"create","field":"arrayIdx_int:0"},{"step":51,"from":"1093670896","to":"1093671048","type":"load","field":"<java.nio.charset.CharsetDecoderICU: int[] data>"},{"step":52,"from":"1093364968","to":"1093670896","type":"store","field":"<java.nio.charset.CharsetDecoderICU: char[] output>"},{"step":53,"from":"sdaReg105","to":"1093670896","type":"store","field":"<java.nio.charset.CharsetDecoderICU: int outEnd>"},{"step":54,"from":"sdaReg111","to":"1093671048","type":"store","field":"arrayIdx_int:1"},{"step":55,"from":"1093670896","to":"1093671048","type":"load","field":"<java.nio.charset.CharsetDecoderICU: int[] data>"},{"step":56,"from":"1093671048","to":"sdaReg112","type":"create","field":"arrayIdx_int:2"},{"step":57,"from":"1093670896","to":"1093670896.<java.nio.charset.CharsetDecoderICU: long converterHandle>","type":"load","field":"<java.nio.charset.CharsetDecoderICU: long converterHandle>"},{"step":58,"from":"1093670896","to":"1093671048","type":"load","field":"<java.nio.charset.CharsetDecoderICU: int[] data>"},{"step":59,"from":"1083993968","to":"1093364968","type":"model"},{"step":60,"from":"sdaReg113","to":"1093670896","type":"store","field":"<java.nio.charset.CharsetDecoderICU: int ec>"},{"step":61,"from":"static.<java.nio.charset.CoderResult: java.nio.charset.CoderResult UNDERFLOW>","to":"1084215096","type":"load","field":"<java.nio.charset.CoderResult: java.nio.charset.CoderResult UNDERFLOW>"},{"step":62,"from":"1093670896","to":"1093671048","type":"load","field":"<java.nio.charset.CharsetDecoderICU: int[] data>"},{"step":63,"from":"sdaReg127","to":"1093364992","type":"store","field":"<java.nio.Buffer: int position>"},{"step":64,"from":"1093670896","to":"sdaReg130","type":"create","field":"<java.nio.charset.CharsetDecoderICU: char[] output>"},{"step":65,"from":"1093670896","to":"1093670896.<java.nio.charset.CharsetDecoderICU: long converterHandle>","type":"load","field":"<java.nio.charset.CharsetDecoderICU: long converterHandle>"},{"step":66,"from":"1093670896","to":"1093671048","type":"load","field":"<java.nio.charset.CharsetDecoderICU: int[] data>"},{"step":67,"from":"1093671048","to":"sdaReg132","type":"create","field":"arrayIdx_int:0"},{"step":68,"from":"1093670896","to":"1093671048","type":"load","field":"<java.nio.charset.CharsetDecoderICU: int[] data>"},{"step":69,"from":"1093671048","to":"sdaReg133","type":"create","field":"arrayIdx_int:1"},{"step":70,"from":"1093670896","to":"1093671048","type":"load","field":"<java.nio.charset.CharsetDecoderICU: int[] data>"},{"step":71,"from":"1093671048","to":"sdaReg134","type":"create","field":"arrayIdx_int:2"},{"step":72,"from":"1093670896","to":"sdaReg135","type":"create","field":"<java.nio.charset.CharsetDecoderICU: char[] output>"},{"step":73,"from":"1093670896","to":"sdaReg136","type":"create","field":"<java.nio.charset.CharsetDecoderICU: byte[] input>"},{"step":74,"from":"1093670896","to":"sdaReg137","type":"create","field":"<java.nio.charset.CharsetDecoderICU: byte[] allocatedInput>"},{"step":75,"from":"1093670896","to":"sdaReg138","type":"create","field":"<java.nio.charset.CharsetDecoderICU: char[] allocatedOutput>"},{"step":76,"from":"1093670896","to":"sdaReg139","type":"create","field":"<java.nio.charset.CharsetDecoderICU: int ec>"},{"step":77,"from":"1093670896","to":"sdaReg140","type":"create","field":"<java.nio.charset.CharsetDecoderICU: int inEnd>"},{"step":78,"from":"1093670896","to":"sdaReg141","type":"create","field":"<java.nio.charset.CharsetDecoderICU: int outEnd>"},{"step":79,"from":"static.<java.nio.charset.CoderResult: java.nio.charset.CoderResult UNDERFLOW>","to":"1084215096","type":"load","field":"<java.nio.charset.CoderResult: java.nio.charset.CoderResult UNDERFLOW>"},{"step":80,"from":"1093670896","to":"sdaReg143","type":"create","field":"<java.nio.charset.CharsetDecoder: int status>"},{"step":81,"from":"1093652160","to":"1093670896","type":"load","field":"<java.io.InputStreamReader: java.nio.charset.CharsetDecoder decoder>"},{"step":82,"from":"1093670896","to":"sdaReg145","type":"create","field":"<java.nio.charset.CharsetDecoder: int status>"},{"step":83,"from":"1093670896","to":"1093670896.<java.nio.charset.CharsetDecoderICU: long converterHandle>","type":"load","field":"<java.nio.charset.CharsetDecoderICU: long converterHandle>"},{"step":84,"from":"1093670896","to":"1093671048","type":"load","field":"<java.nio.charset.CharsetDecoderICU: int[] data>"},{"step":85,"from":"1093671048","to":"sdaReg147","type":"create","field":"arrayIdx_int:0"},{"step":86,"from":"1093670896","to":"1093671048","type":"load","field":"<java.nio.charset.CharsetDecoderICU: int[] data>"},{"step":87,"from":"1093671048","to":"sdaReg148","type":"create","field":"arrayIdx_int:1"},{"step":88,"from":"1093670896","to":"1093671048","type":"load","field":"<java.nio.charset.CharsetDecoderICU: int[] data>"},{"step":89,"from":"1093671048","to":"sdaReg149","type":"create","field":"arrayIdx_int:2"},{"step":90,"from":"1093670896","to":"sdaReg150","type":"create","field":"<java.nio.charset.CharsetDecoderICU: char[] output>"},{"step":91,"from":"1093670896","to":"sdaReg151","type":"create","field":"<java.nio.charset.CharsetDecoderICU: byte[] input>"},{"step":92,"from":"1093670896","to":"sdaReg152","type":"create","field":"<java.nio.charset.CharsetDecoderICU: byte[] allocatedInput>"},{"step":93,"from":"1093670896","to":"sdaReg153","type":"create","field":"<java.nio.charset.CharsetDecoderICU: char[] allocatedOutput>"},{"step":94,"from":"1093670896","to":"sdaReg154","type":"create","field":"<java.nio.charset.CharsetDecoderICU: int ec>"},{"step":95,"from":"1093670896","to":"sdaReg155","type":"create","field":"<java.nio.charset.CharsetDecoderICU: int inEnd>"},{"step":96,"from":"1093670896","to":"sdaReg156","type":"create","field":"<java.nio.charset.CharsetDecoderICU: int outEnd>"},{"step":97,"from":"1084215096","to":"1084215096.<java.nio.charset.CoderResult: int type>","type":"load","field":"<java.nio.charset.CoderResult: int type>"},{"step":98,"from":"1084215096","to":"1084215096.<java.nio.charset.CoderResult: int type>","type":"load","field":"<java.nio.charset.CoderResult: int type>"}],"parameters":[{"id":"1093652160","name":"this","klass":"java.io.InputStreamReader"}],"returns":[{"id":"sdaReg165","name":"return","klass":"int"}],"colors":{"heapLocToColor":{"sdaReg125":[2],"sdaReg128":[2],"sdaReg129":[2],"sdaReg68":[0],"sdaReg69":[2],"sdaReg67":[0],"sdaReg64":[0],"sdaReg63":[0],"sdaReg13":[1],"1093364968":[1],"sdaReg19":[2],"sdaReg17":[2],"sdaReg121":[2],"sdaReg18":[1],"sdaReg124":[2],"sdaReg116":[0],"sdaReg117":[2],"1093652256.<java.nio.Buffer: int limit>":[0],"sdaReg118":[2],"sdaReg119":[2],"sdaReg78":[3],"sdaReg79":[3],"sdaReg73":[0],"sdaReg74":[0],"sdaReg75":[2],"sdaReg76":[0],"sdaReg81":[0],"sdaReg82":[0],"1084215096":[3],"1093670896.<java.nio.charset.CharsetDecoderICU: int[] data>":[0],"1083993968":[4],"sdaReg113":[5],"sdaReg107":[2],"sdaReg109":[2],"1093652160.<java.io.Reader: java.lang.Object lock>":[0],"sdaReg103":[2],"sdaReg106":[2],"sdaReg86":[2],"sdaReg87":[0],"1093364992":[2],"sdaReg84":[3],"sdaReg85":[0],"sdaReg88":[2],"1093652256.<java.nio.Buffer: int position>":[0],"sdaReg94":[2],"sdaReg93":[2],"1093671048":[0],"sdaReg92":[2],"sdaReg91":[0],"sdaReg100":[2],"1093652256":[0],"sdaReg101":[2],"1093670896.<java.nio.charset.CharsetDecoder: int status>":[0],"sdaReg96":[2],"sdaReg97":[2],"sdaReg98":[1],"sdaReg99":[1],"1093652312":[0],"1093652160.<java.io.InputStreamReader: java.nio.ByteBuffer bytes>":[0],"1093652256.<java.nio.HeapByteBuffer: int offset>":[0],"sdaReg60":[0],"sdaReg61":[0],"1093670896.<java.nio.charset.CharsetDecoderICU: long converterHandle>":[0],"sdaReg161":[2],"1093651256.<java.io.ByteArrayInputStream: int pos>":[0],"sdaReg59":[0],"sdaReg58":[0],"sdaReg57":[0],"sdaReg56":[0],"sdaReg55":[0],"sdaReg54":[0],"sdaReg53":[0],"sdaReg52":[0],"sdaReg51":[0],"sdaReg50":[0],"sdaReg159":[3],"static.<libcore.util.EmptyArray: byte[] BYTE>":[4],"1093652160.<java.io.InputStreamReader: java.io.InputStream in>":[0],"sdaReg49":[0],"sdaReg157":[3],"sdaReg45":[0],"sdaReg47":[2],"sdaReg46":[0],"sdaReg43":[2],"static.<java.nio.charset.CoderResult: java.nio.charset.CoderResult UNDERFLOW>":[3],"sdaReg144":[0],"sdaReg39":[0],"sdaReg38":[2],"sdaReg146":[0],"sdaReg142":[3],"1093651256.<java.io.ByteArrayInputStream: int count>":[0],"sdaReg32":[2],"sdaReg31":[2],"1084215096.<java.nio.charset.CoderResult: int type>":[3],"sdaReg36":[2],"sdaReg35":[2],"sdaReg34":[2],"sdaReg33":[2],"sdaReg8":[0],"1093651256":[0],"sdaReg7":[0],"sdaReg4":[1],"1093652160":[0],"1093670896":[0],"1093652256.<java.nio.Buffer: int capacity>":[0],"sdaReg26":[2],"1093652160.<java.io.InputStreamReader: java.nio.charset.CharsetDecoder decoder>":[0],"sdaReg28":[2],"sdaReg131":[0],"sdaReg3":[0],"sdaReg1":[0],"sdaReg20":[1],"sdaReg23":[1],"sdaReg22":[2],"sdaReg25":[2]},"colorToColor":{"1":[0, 2],"4":[0, 1],"5":[0]},"colorToLabel":{"0":"this","3":"<java.nio.charset.CoderResult: java.nio.charset.CoderResult UNDERFLOW>","4":"<libcore.util.EmptyArray: byte[] BYTE>","6":"return"}}}

Generated Model

