Scanning method <java.util.ArrayList$ArrayListIterator: java.lang.Object next()>

All seen event types: BinaryOperationRecord, LoadInstanceRecord, LoadArrayRecord, IfRecord, StoreInstanceRecord, 
Ignored event types: IfRecord, 

JSON Encoded Analysis Data (for visualization):{"heapEdges":[{"step":0,"from":"1093627280","to":"1093555704","type":"load","field":"<java.util.ArrayList$ArrayListIterator: java.util.ArrayList this$0>"},{"step":1,"from":"1093627280","to":"1093627280.<java.util.ArrayList$ArrayListIterator: int remaining>","type":"load","field":"<java.util.ArrayList$ArrayListIterator: int remaining>"},{"step":2,"from":"1093555704","to":"1093555704.<java.util.AbstractList: int modCount>","type":"load","field":"<java.util.AbstractList: int modCount>"},{"step":3,"from":"1093627280","to":"1093627280.<java.util.ArrayList$ArrayListIterator: int expectedModCount>","type":"load","field":"<java.util.ArrayList$ArrayListIterator: int expectedModCount>"},{"step":4,"from":"sdaReg0","to":"1093627280","type":"store","field":"<java.util.ArrayList$ArrayListIterator: int remaining>"},{"step":5,"from":"1093555704","to":"1093612512","type":"load","field":"<java.util.ArrayList: java.lang.Object[] array>"},{"step":6,"from":"1093555704","to":"1093555704.<java.util.ArrayList: int size>","type":"load","field":"<java.util.ArrayList: int size>"},{"step":7,"from":"sdaReg1","to":"1093627280","type":"store","field":"<java.util.ArrayList$ArrayListIterator: int removalIndex>"},{"step":8,"from":"1093612512","to":"1093568040","type":"load","field":"arrayIdx_int:0"}],"parameters":[{"id":"1093627280","name":"this","klass":"java.util.ArrayList$ArrayListIterator"}],"returns":[{"id":"1093568040","name":"return","klass":"java.lang.Object"}],"colors":{"heapLocToColor":{"1093555704.<java.util.ArrayList: int size>":[0],"1093627280":[0],"1093627280.<java.util.ArrayList$ArrayListIterator: int expectedModCount>":[0],"1093612512":[0],"1093568040":[0],"1093627280.<java.util.ArrayList$ArrayListIterator: int remaining>":[0],"sdaReg1":[0],"sdaReg0":[0],"1093555704.<java.util.AbstractList: int modCount>":[0],"1093555704":[0]},"colorToColor":{"0":[0, 1]},"colorToLabel":{"0":"this","1":"return"}}}

Generated Model
	this->return

