Scanning method <java.util.AbstractList: java.util.Iterator iterator()>

All seen event types: MethodReturnRecord, MethodCallRecord, LoadInstanceRecord, MethodStartRecord, MethodEndRecord, StoreInstanceRecord, NewObjectRecord, 
Ignored event types: 

JSON Encoded Analysis Data (for visualization):{"heapEdges":[{"step":0,"from":"1093636480","to":"1093658256","type":"store","field":"<java.util.AbstractList$SimpleListIterator: java.util.AbstractList this$0>"},{"step":1,"from":"1093658256","to":"sdaReg3","type":"create","field":"<java.util.AbstractList$SimpleListIterator: int pos>"},{"step":2,"from":"1093658256","to":"sdaReg4","type":"create","field":"<java.util.AbstractList$SimpleListIterator: int lastPosition>"},{"step":3,"from":"1093636480","to":"1093636480.<java.util.AbstractList: int modCount>","type":"load","field":"<java.util.AbstractList: int modCount>"},{"step":4,"from":"1093636480.<java.util.AbstractList: int modCount>","to":"1093658256","type":"store","field":"<java.util.AbstractList$SimpleListIterator: int expectedModCount>"}],"parameters":[{"id":"1093636480","name":"this","klass":"java.util.AbstractList"}],"returns":[{"id":"1093658256","name":"return","klass":"java.util.Iterator"}],"colors":{"heapLocToColor":{"1093658256":[1],"sdaReg5":[1],"1093636480":[0],"sdaReg2":[1],"sdaReg1":[0],"sdaReg0":[1],"1093636480.<java.util.AbstractList: int modCount>":[0]},"colorToColor":{"0":[1],"1":[2]},"colorToLabel":{"0":"this","2":"return"}}}

Generated Model
	this->return

