Scanning method <java.io.SequenceInputStream: int read(byte[],int,int)>

All seen event types: BinaryOperationRecord, SimpleAssignmentRecord, MethodReturnRecord, MethodCallRecord, MethodStartRecord, ArrayLengthRecord, LoadInstanceRecord, MethodEndRecord, IfRecord, StoreInstanceRecord, 
Ignored event types: IfRecord, 

JSON Encoded Analysis Data (for visualization):{"heapEdges":[{"step":0,"from":"1093859656","to":"1093457272","type":"load","field":"<java.io.SequenceInputStream: java.io.InputStream in>"},{"step":1,"from":"1093859656","to":"1093457272","type":"load","field":"<java.io.SequenceInputStream: java.io.InputStream in>"},{"step":2,"from":"1093859656","to":"1093457272","type":"load","field":"<java.io.SequenceInputStream: java.io.InputStream in>"},{"step":3,"from":"1093457272","to":"1093457272.<java.io.ByteArrayInputStream: int pos>","type":"load","field":"<java.io.ByteArrayInputStream: int pos>"},{"step":4,"from":"1093457272","to":"1093457272.<java.io.ByteArrayInputStream: int count>","type":"load","field":"<java.io.ByteArrayInputStream: int count>"},{"step":5,"from":"1093457272","to":"1093457272.<java.io.ByteArrayInputStream: int count>","type":"load","field":"<java.io.ByteArrayInputStream: int count>"},{"step":6,"from":"1093457272","to":"1093457272.<java.io.ByteArrayInputStream: int pos>","type":"load","field":"<java.io.ByteArrayInputStream: int pos>"},{"step":7,"from":"1093457272","to":"1093457592","type":"load","field":"<java.io.ByteArrayInputStream: byte[] buf>"},{"step":8,"from":"1093457272","to":"1093457272.<java.io.ByteArrayInputStream: int pos>","type":"load","field":"<java.io.ByteArrayInputStream: int pos>"},{"step":9,"from":"1093457592","to":"1093627152","type":"model"},{"step":10,"from":"1093457272","to":"1093457272.<java.io.ByteArrayInputStream: int pos>","type":"load","field":"<java.io.ByteArrayInputStream: int pos>"},{"step":11,"from":"sdaReg13","to":"1093457272","type":"store","field":"<java.io.ByteArrayInputStream: int pos>"}],"parameters":[{"id":"1093859656","name":"this","klass":"java.io.SequenceInputStream"},{"id":"1093627152","name":"arg#1","klass":"byte[]"},{"id":"sdaReg0","name":"arg#2","klass":"int"},{"id":"sdaReg1","name":"arg#3","klass":"int"}],"returns":[{"id":"sdaReg12","name":"return","klass":"int"}],"colors":{"heapLocToColor":{"sdaReg8":[2, 3],"sdaReg9":[2],"sdaReg6":[1],"sdaReg4":[2],"1093627152":[1],"1093859656.<java.io.SequenceInputStream: java.io.InputStream in>":[0],"sdaReg5":[0],"1093457272":[0],"sdaReg13":[0, 3],"sdaReg11":[3],"sdaReg12":[3],"sdaReg10":[0],"sdaReg3":[2, 3],"1093859656":[0],"sdaReg1":[3],"1093457272.<java.io.ByteArrayInputStream: int pos>":[0],"sdaReg0":[2],"1093457592":[0],"1093457272.<java.io.ByteArrayInputStream: int count>":[0]},"colorToColor":{"0":[0, 1],"3":[0, 4]},"colorToLabel":{"0":"this","1":"arg#1","2":"arg#2","3":"arg#3","4":"return"}}}

Generated Model
	this->arg#1
	arg#3->this
	arg#3->return
	arg#3->arg#1

