Scanning method <java.util.AbstractList$FullListIterator: int previousIndex()>

All seen event types: LoadInstanceRecord, 
Ignored event types: 

JSON Encoded Analysis Data (for visualization):{"heapEdges":[{"step":0,"from":"1095037464","to":"1095037464.<java.util.AbstractList$SimpleListIterator: int pos>","type":"load","field":"<java.util.AbstractList$SimpleListIterator: int pos>"}],"parameters":[{"id":"1095037464","name":"this","klass":"java.util.AbstractList$FullListIterator"}],"returns":[{"id":"1095037464.<java.util.AbstractList$SimpleListIterator: int pos>","name":"return","klass":"int"}],"colors":{"heapLocToColor":{"1095037464.<java.util.AbstractList$SimpleListIterator: int pos>":[0],"1095037464":[0]},"colorToColor":{"0":[1]},"colorToLabel":{"0":"this","1":"return"}}}

Generated Model
	this->return

