Scanning method <java.util.ArrayList: int indexOf(java.lang.Object)>

All seen event types: BinaryOperationRecord, SimpleAssignmentRecord, MethodReturnRecord, MethodCallRecord, LoadInstanceRecord, LoadArrayRecord, IfRecord, 
Ignored event types: IfRecord, 

JSON Encoded Analysis Data (for visualization):{"heapEdges":[{"step":0,"from":"1093400200","to":"1093653480","type":"load","field":"<java.util.ArrayList: java.lang.Object[] array>"},{"step":1,"from":"1093400200","to":"1093400200.<java.util.ArrayList: int size>","type":"load","field":"<java.util.ArrayList: int size>"},{"step":2,"from":"1093653480","to":"1093673568","type":"load","field":"arrayIdx_int:0"},{"step":3,"from":"1093653480","to":"1093296560","type":"load","field":"arrayIdx_int:1"},{"step":4,"from":"1093653480","to":"1093584544","type":"load","field":"arrayIdx_int:2"},{"step":5,"from":"1093653480","to":"1093323960","type":"load","field":"arrayIdx_int:3"},{"step":6,"from":"1093653480","to":"1093325088","type":"load","field":"arrayIdx_int:4"},{"step":7,"from":"1093653480","to":"1093325648","type":"load","field":"arrayIdx_int:5"},{"step":8,"from":"1093653480","to":"1093326208","type":"load","field":"arrayIdx_int:6"},{"step":9,"from":"1093653480","to":"1093326760","type":"load","field":"arrayIdx_int:7"},{"step":10,"from":"1093653480","to":"1093327312","type":"load","field":"arrayIdx_int:8"},{"step":11,"from":"1093653480","to":"1093447960","type":"load","field":"arrayIdx_int:9"},{"step":12,"from":"1093653480","to":"1093340832","type":"load","field":"arrayIdx_int:10"},{"step":13,"from":"1093653480","to":"1093347360","type":"load","field":"arrayIdx_int:11"},{"step":14,"from":"1093653480","to":"1093356680","type":"load","field":"arrayIdx_int:12"},{"step":15,"from":"1093653480","to":"1093358784","type":"load","field":"arrayIdx_int:13"},{"step":16,"from":"1093653480","to":"1093359312","type":"load","field":"arrayIdx_int:14"},{"step":17,"from":"1093653480","to":"1093361464","type":"load","field":"arrayIdx_int:15"},{"step":18,"from":"1093653480","to":"1093362544","type":"load","field":"arrayIdx_int:16"},{"step":19,"from":"1093653480","to":"1093475880","type":"load","field":"arrayIdx_int:17"},{"step":20,"from":"1093653480","to":"1093346400","type":"load","field":"arrayIdx_int:18"},{"step":21,"from":"1093653480","to":"1093352448","type":"load","field":"arrayIdx_int:19"},{"step":22,"from":"1093653480","to":"1093357720","type":"load","field":"arrayIdx_int:20"},{"step":23,"from":"1093653480","to":"1093464344","type":"load","field":"arrayIdx_int:21"},{"step":24,"from":"1093653480","to":"1093468328","type":"load","field":"arrayIdx_int:22"},{"step":25,"from":"1093653480","to":"1093486240","type":"load","field":"arrayIdx_int:23"},{"step":26,"from":"1093653480","to":"1093491600","type":"load","field":"arrayIdx_int:24"},{"step":27,"from":"1093653480","to":"1093338808","type":"load","field":"arrayIdx_int:25"},{"step":28,"from":"1093653480","to":"1093349368","type":"load","field":"arrayIdx_int:26"},{"step":29,"from":"1093653480","to":"1093365120","type":"load","field":"arrayIdx_int:27"},{"step":30,"from":"1093653480","to":"1093462928","type":"load","field":"arrayIdx_int:28"},{"step":31,"from":"1093653480","to":"1093467328","type":"load","field":"arrayIdx_int:29"},{"step":32,"from":"1093653480","to":"1093273296","type":"load","field":"arrayIdx_int:30"},{"step":33,"from":"1093653480","to":"1093342304","type":"load","field":"arrayIdx_int:31"},{"step":34,"from":"1093653480","to":"1093493160","type":"load","field":"arrayIdx_int:32"},{"step":35,"from":"1093653480","to":"1093328792","type":"load","field":"arrayIdx_int:33"},{"step":36,"from":"1093653480","to":"1093458640","type":"load","field":"arrayIdx_int:34"},{"step":37,"from":"1093653480","to":"1093497816","type":"load","field":"arrayIdx_int:35"},{"step":38,"from":"1093653480","to":"1093313216","type":"load","field":"arrayIdx_int:36"},{"step":39,"from":"1093653480","to":"1093273728","type":"load","field":"arrayIdx_int:37"},{"step":40,"from":"1093653480","to":"1093313608","type":"load","field":"arrayIdx_int:38"},{"step":41,"from":"1093653480","to":"1093369704","type":"load","field":"arrayIdx_int:39"},{"step":42,"from":"1093653480","to":"1093499024","type":"load","field":"arrayIdx_int:40"},{"step":43,"from":"1093653480","to":"1093499416","type":"load","field":"arrayIdx_int:41"},{"step":44,"from":"1093653480","to":"1093500200","type":"load","field":"arrayIdx_int:42"},{"step":45,"from":"1093653480","to":"1093501008","type":"load","field":"arrayIdx_int:43"},{"step":46,"from":"1093653480","to":"1093514752","type":"load","field":"arrayIdx_int:44"},{"step":47,"from":"1093653480","to":"1093520064","type":"load","field":"arrayIdx_int:45"},{"step":48,"from":"1093653480","to":"1093392296","type":"load","field":"arrayIdx_int:46"},{"step":49,"from":"1093653480","to":"1093392664","type":"load","field":"arrayIdx_int:47"},{"step":50,"from":"1093653480","to":"1093394064","type":"load","field":"arrayIdx_int:48"},{"step":51,"from":"1093653480","to":"1093398272","type":"load","field":"arrayIdx_int:49"},{"step":52,"from":"1093653480","to":"1093404248","type":"load","field":"arrayIdx_int:50"},{"step":53,"from":"1093653480","to":"1093522944","type":"load","field":"arrayIdx_int:51"},{"step":54,"from":"1093653480","to":"1093525752","type":"load","field":"arrayIdx_int:52"},{"step":55,"from":"1093653480","to":"1093531336","type":"load","field":"arrayIdx_int:53"},{"step":56,"from":"1093653480","to":"1093253808","type":"load","field":"arrayIdx_int:54"},{"step":57,"from":"1093653480","to":"1093271024","type":"load","field":"arrayIdx_int:55"},{"step":58,"from":"1093653480","to":"1093299600","type":"load","field":"arrayIdx_int:56"},{"step":59,"from":"1093653480","to":"1093318656","type":"load","field":"arrayIdx_int:57"},{"step":60,"from":"1093653480","to":"1093383568","type":"load","field":"arrayIdx_int:58"},{"step":61,"from":"1093653480","to":"1093311280","type":"load","field":"arrayIdx_int:59"},{"step":62,"from":"1093653480","to":"1093381960","type":"load","field":"arrayIdx_int:60"},{"step":63,"from":"1093653480","to":"1093386608","type":"load","field":"arrayIdx_int:61"},{"step":64,"from":"1093653480","to":"1093397592","type":"load","field":"arrayIdx_int:62"},{"step":65,"from":"1093653480","to":"1093401176","type":"load","field":"arrayIdx_int:63"},{"step":66,"from":"1093653480","to":"1093402144","type":"load","field":"arrayIdx_int:64"},{"step":67,"from":"1093653480","to":"1093407736","type":"load","field":"arrayIdx_int:65"},{"step":68,"from":"1093653480","to":"1093409368","type":"load","field":"arrayIdx_int:66"},{"step":69,"from":"1093653480","to":"1093412384","type":"load","field":"arrayIdx_int:67"},{"step":70,"from":"1093653480","to":"1093415976","type":"load","field":"arrayIdx_int:68"},{"step":71,"from":"1093653480","to":"1093416960","type":"load","field":"arrayIdx_int:69"},{"step":72,"from":"1093653480","to":"1093417288","type":"load","field":"arrayIdx_int:70"},{"step":73,"from":"1093653480","to":"1093427144","type":"load","field":"arrayIdx_int:71"},{"step":74,"from":"1093653480","to":"1093439800","type":"load","field":"arrayIdx_int:72"},{"step":75,"from":"1093653480","to":"1093445568","type":"load","field":"arrayIdx_int:73"},{"step":76,"from":"1093653480","to":"1093508848","type":"load","field":"arrayIdx_int:74"},{"step":77,"from":"1093653480","to":"1093513080","type":"load","field":"arrayIdx_int:75"},{"step":78,"from":"1093653480","to":"1093518408","type":"load","field":"arrayIdx_int:76"},{"step":79,"from":"1093653480","to":"1093519720","type":"load","field":"arrayIdx_int:77"},{"step":80,"from":"1093653480","to":"1093528104","type":"load","field":"arrayIdx_int:78"},{"step":81,"from":"1093653480","to":"1093538528","type":"load","field":"arrayIdx_int:79"},{"step":82,"from":"1093653480","to":"1093543536","type":"load","field":"arrayIdx_int:80"},{"step":83,"from":"1093653480","to":"1093544824","type":"load","field":"arrayIdx_int:81"},{"step":84,"from":"1093653480","to":"1093545808","type":"load","field":"arrayIdx_int:82"},{"step":85,"from":"1093653480","to":"1093302440","type":"load","field":"arrayIdx_int:83"},{"step":86,"from":"1093653480","to":"1093306976","type":"load","field":"arrayIdx_int:84"},{"step":87,"from":"1093653480","to":"1093308512","type":"load","field":"arrayIdx_int:85"},{"step":88,"from":"1093653480","to":"1093309752","type":"load","field":"arrayIdx_int:86"},{"step":89,"from":"1093653480","to":"1093383256","type":"load","field":"arrayIdx_int:87"},{"step":90,"from":"1093653480","to":"1093399896","type":"load","field":"arrayIdx_int:88"},{"step":91,"from":"1093653480","to":"1093413752","type":"load","field":"arrayIdx_int:89"},{"step":92,"from":"1093653480","to":"1093430960","type":"load","field":"arrayIdx_int:90"},{"step":93,"from":"1093653480","to":"1093437032","type":"load","field":"arrayIdx_int:91"},{"step":94,"from":"1093653480","to":"1093509848","type":"load","field":"arrayIdx_int:92"},{"step":95,"from":"1093653480","to":"1093527432","type":"load","field":"arrayIdx_int:93"},{"step":96,"from":"1093653480","to":"1093276536","type":"load","field":"arrayIdx_int:94"},{"step":97,"from":"1093653480","to":"1093297872","type":"load","field":"arrayIdx_int:95"},{"step":98,"from":"1093653480","to":"1093305880","type":"load","field":"arrayIdx_int:96"},{"step":99,"from":"1093653480","to":"1093312912","type":"load","field":"arrayIdx_int:97"},{"step":100,"from":"1093653480","to":"1093318360","type":"load","field":"arrayIdx_int:98"},{"step":101,"from":"1093653480","to":"1093440104","type":"load","field":"arrayIdx_int:99"}],"parameters":[{"id":"1093400200","name":"this","klass":"java.util.ArrayList"},{"id":"1093377168","name":"arg#1","klass":"java.lang.Object"}],"returns":[{"id":null,"name":"return","klass":"int"}],"colors":{"heapLocToColor":{"1093519720":[0],"1093383256":[0],"1093445568":[0],"1093392296":[0],"1093544824":[0],"sdaReg13":[14],"sdaReg14":[15],"sdaReg11":[12],"1093356680":[0],"sdaReg12":[13],"sdaReg10":[11],"1093361464":[0],"sdaReg19":[20],"sdaReg17":[18],"sdaReg18":[19],"sdaReg15":[16],"1093427144":[0],"sdaReg16":[17],"1093509848":[0],"1093673568":[0],"1093305880":[0],"1093309752":[0],"1093383568":[0],"1093327312":[0],"1093306976":[0],"1093584544":[0],"1093409368":[0],"1093417288":[0],"1093392664":[0],"1093447960":[0],"1093404248":[0],"1093326760":[0],"1093501008":[0],"sdaReg60":[61],"sdaReg61":[62],"1093458640":[0],"1093543536":[0],"1093312912":[0],"sdaReg59":[60],"sdaReg58":[59],"sdaReg57":[58],"sdaReg56":[57],"1093514752":[0],"sdaReg55":[56],"1093468328":[0],"sdaReg54":[55],"sdaReg53":[54],"sdaReg52":[53],"sdaReg51":[52],"sdaReg50":[51],"1093318656":[0],"1093400200":[0],"1093407736":[0],"1093346400":[0],"sdaReg49":[50],"sdaReg48":[49],"sdaReg45":[46],"1093475880":[0],"sdaReg44":[45],"sdaReg47":[48],"sdaReg46":[47],"sdaReg41":[42],"sdaReg40":[41],"sdaReg43":[44],"1093377168":[1],"sdaReg42":[43],"1093491600":[0],"1093528104":[0],"1093386608":[0],"1093325088":[0],"sdaReg39":[40],"sdaReg38":[39],"sdaReg37":[38],"1093508848":[0],"sdaReg32":[33],"1093397592":[0],"sdaReg31":[32],"sdaReg30":[31],"sdaReg36":[37],"1093400200.<java.util.ArrayList: int size>":[0],"sdaReg35":[36],"sdaReg34":[35],"sdaReg33":[34],"1093318360":[0],"sdaReg8":[9],"sdaReg9":[10],"sdaReg6":[7],"sdaReg7":[8],"sdaReg4":[5],"sdaReg5":[6],"1093520064":[0],"sdaReg27":[28],"sdaReg26":[27],"sdaReg29":[30],"sdaReg28":[29],"1093340832":[0],"1093299600":[0],"sdaReg3":[4],"sdaReg2":[3],"1093273296":[0],"sdaReg1":[2],"sdaReg21":[22],"sdaReg20":[21],"sdaReg23":[24],"sdaReg22":[23],"1093398272":[0],"sdaReg25":[26],"sdaReg24":[25],"1093394064":[0],"sdaReg68":[69],"sdaReg69":[70],"1093302440":[0],"1093500200":[0],"sdaReg66":[67],"sdaReg67":[68],"sdaReg64":[65],"1093311280":[0],"sdaReg65":[66],"sdaReg62":[63],"1093486240":[0],"sdaReg63":[64],"sdaReg72":[73],"sdaReg71":[72],"sdaReg70":[71],"1093499416":[0],"1093531336":[0],"1093342304":[0],"1093369704":[0],"1093271024":[0],"sdaReg77":[78],"sdaReg78":[79],"sdaReg79":[80],"sdaReg73":[74],"1093527432":[0],"sdaReg74":[75],"sdaReg75":[76],"sdaReg76":[77],"sdaReg81":[82],"sdaReg80":[81],"sdaReg83":[84],"sdaReg82":[83],"1093522944":[0],"1093497816":[0],"1093439800":[0],"1093399896":[0],"1093416960":[0],"1093325648":[0],"1093493160":[0],"1093538528":[0],"sdaReg86":[87],"sdaReg87":[88],"sdaReg84":[85],"sdaReg85":[86],"sdaReg88":[89],"1093437032":[0],"sdaReg89":[90],"sdaReg90":[91],"1093518408":[0],"sdaReg94":[95],"sdaReg93":[94],"sdaReg92":[93],"sdaReg91":[92],"sdaReg100":[101],"1093326208":[0],"1093253808":[0],"sdaReg95":[96],"sdaReg96":[97],"1093359312":[0],"sdaReg97":[98],"sdaReg98":[99],"1093499024":[0],"sdaReg99":[100],"1093358784":[0],"1093297872":[0],"1093545808":[0],"1093440104":[0],"1093525752":[0],"1093415976":[0],"1093347360":[0],"1093365120":[0],"1093276536":[0],"1093313608":[0],"1093296560":[0],"1093362544":[0],"1093273728":[0],"1093462928":[0],"1093323960":[0],"1093467328":[0],"1093349368":[0],"1093412384":[0],"1093328792":[0],"1093513080":[0],"1093430960":[0],"1093352448":[0],"1093653480":[0],"1093401176":[0],"1093381960":[0],"1093402144":[0],"1093338808":[0],"1093308512":[0],"1093357720":[0],"1093313216":[0],"1093413752":[0],"1093464344":[0]},"colorToColor":{},"colorToLabel":{"0":"this","1":"arg#1","102":"return"}}}

Generated Model

