Scanning method <java.util.ArrayList: int indexOf(java.lang.Object)>

All seen event types: BinaryOperationRecord, SimpleAssignmentRecord, MethodReturnRecord, MethodCallRecord, LoadInstanceRecord, LoadArrayRecord, IfRecord, 
Ignored event types: IfRecord, 

JSON Encoded Analysis Data (for visualization):{"heapEdges":[{"step":0,"from":"1093410680","to":"1093685656","type":"load","field":"<java.util.ArrayList: java.lang.Object[] array>"},{"step":1,"from":"1093410680","to":"1093410680.<java.util.ArrayList: int size>","type":"load","field":"<java.util.ArrayList: int size>"},{"step":2,"from":"1093685656","to":"1093306720","type":"load","field":"arrayIdx_int:0"},{"step":3,"from":"1093685656","to":"1093329600","type":"load","field":"arrayIdx_int:1"},{"step":4,"from":"1093685656","to":"1093330152","type":"load","field":"arrayIdx_int:2"},{"step":5,"from":"1093685656","to":"1093332984","type":"load","field":"arrayIdx_int:3"},{"step":6,"from":"1093685656","to":"1093337472","type":"load","field":"arrayIdx_int:4"},{"step":7,"from":"1093685656","to":"1093364712","type":"load","field":"arrayIdx_int:5"},{"step":8,"from":"1093685656","to":"1093366304","type":"load","field":"arrayIdx_int:6"},{"step":9,"from":"1093685656","to":"1093368944","type":"load","field":"arrayIdx_int:7"},{"step":10,"from":"1093685656","to":"1093370016","type":"load","field":"arrayIdx_int:8"},{"step":11,"from":"1093685656","to":"1093486040","type":"load","field":"arrayIdx_int:9"},{"step":12,"from":"1093685656","to":"1093495360","type":"load","field":"arrayIdx_int:10"},{"step":13,"from":"1093685656","to":"1093496928","type":"load","field":"arrayIdx_int:11"},{"step":14,"from":"1093685656","to":"1093351528","type":"load","field":"arrayIdx_int:12"},{"step":15,"from":"1093685656","to":"1093365240","type":"load","field":"arrayIdx_int:13"},{"step":16,"from":"1093685656","to":"1093373240","type":"load","field":"arrayIdx_int:14"},{"step":17,"from":"1093685656","to":"1093378584","type":"load","field":"arrayIdx_int:15"},{"step":18,"from":"1093685656","to":"1093439256","type":"load","field":"arrayIdx_int:16"},{"step":19,"from":"1093685656","to":"1093475496","type":"load","field":"arrayIdx_int:17"},{"step":20,"from":"1093685656","to":"1093491640","type":"load","field":"arrayIdx_int:18"},{"step":21,"from":"1093685656","to":"1093495888","type":"load","field":"arrayIdx_int:19"},{"step":22,"from":"1093685656","to":"1093496400","type":"load","field":"arrayIdx_int:20"},{"step":23,"from":"1093685656","to":"1093344568","type":"load","field":"arrayIdx_int:21"},{"step":24,"from":"1093685656","to":"1093359032","type":"load","field":"arrayIdx_int:22"},{"step":25,"from":"1093685656","to":"1093466520","type":"load","field":"arrayIdx_int:23"},{"step":26,"from":"1093685656","to":"1093473088","type":"load","field":"arrayIdx_int:24"},{"step":27,"from":"1093685656","to":"1093475992","type":"load","field":"arrayIdx_int:25"},{"step":28,"from":"1093685656","to":"1093488048","type":"load","field":"arrayIdx_int:26"},{"step":29,"from":"1093685656","to":"1093345504","type":"load","field":"arrayIdx_int:27"},{"step":30,"from":"1093685656","to":"1093374800","type":"load","field":"arrayIdx_int:28"},{"step":31,"from":"1093685656","to":"1093504280","type":"load","field":"arrayIdx_int:29"},{"step":32,"from":"1093685656","to":"1093339840","type":"load","field":"arrayIdx_int:30"},{"step":33,"from":"1093685656","to":"1093340728","type":"load","field":"arrayIdx_int:31"},{"step":34,"from":"1093685656","to":"1093467912","type":"load","field":"arrayIdx_int:32"},{"step":35,"from":"1093685656","to":"1093295824","type":"load","field":"arrayIdx_int:33"},{"step":36,"from":"1093685656","to":"1093382240","type":"load","field":"arrayIdx_int:34"},{"step":37,"from":"1093685656","to":"1093436512","type":"load","field":"arrayIdx_int:35"},{"step":38,"from":"1093685656","to":"1093381448","type":"load","field":"arrayIdx_int:36"},{"step":39,"from":"1093685656","to":"1093381840","type":"load","field":"arrayIdx_int:37"},{"step":40,"from":"1093685656","to":"1093383040","type":"load","field":"arrayIdx_int:38"},{"step":41,"from":"1093685656","to":"1093396392","type":"load","field":"arrayIdx_int:39"},{"step":42,"from":"1093685656","to":"1093451896","type":"load","field":"arrayIdx_int:40"},{"step":43,"from":"1093685656","to":"1093452680","type":"load","field":"arrayIdx_int:41"},{"step":44,"from":"1093685656","to":"1093509184","type":"load","field":"arrayIdx_int:42"},{"step":45,"from":"1093685656","to":"1093325784","type":"load","field":"arrayIdx_int:43"},{"step":46,"from":"1093685656","to":"1093402456","type":"load","field":"arrayIdx_int:44"},{"step":47,"from":"1093685656","to":"1093416904","type":"load","field":"arrayIdx_int:45"},{"step":48,"from":"1093685656","to":"1093439832","type":"load","field":"arrayIdx_int:46"},{"step":49,"from":"1093685656","to":"1093457688","type":"load","field":"arrayIdx_int:47"},{"step":50,"from":"1093685656","to":"1093533816","type":"load","field":"arrayIdx_int:48"},{"step":51,"from":"1093685656","to":"1093284424","type":"load","field":"arrayIdx_int:49"},{"step":52,"from":"1093685656","to":"1093312264","type":"load","field":"arrayIdx_int:50"},{"step":53,"from":"1093685656","to":"1093313208","type":"load","field":"arrayIdx_int:51"},{"step":54,"from":"1093685656","to":"1093317744","type":"load","field":"arrayIdx_int:52"},{"step":55,"from":"1093685656","to":"1093321120","type":"load","field":"arrayIdx_int:53"},{"step":56,"from":"1093685656","to":"1093399064","type":"load","field":"arrayIdx_int:54"},{"step":57,"from":"1093685656","to":"1093400704","type":"load","field":"arrayIdx_int:55"},{"step":58,"from":"1093685656","to":"1093403552","type":"load","field":"arrayIdx_int:56"},{"step":59,"from":"1093685656","to":"1093410368","type":"load","field":"arrayIdx_int:57"},{"step":60,"from":"1093685656","to":"1093411336","type":"load","field":"arrayIdx_int:58"},{"step":61,"from":"1093685656","to":"1093417256","type":"load","field":"arrayIdx_int:59"},{"step":62,"from":"1093685656","to":"1093419528","type":"load","field":"arrayIdx_int:60"},{"step":63,"from":"1093685656","to":"1093420496","type":"load","field":"arrayIdx_int:61"},{"step":64,"from":"1093685656","to":"1093421192","type":"load","field":"arrayIdx_int:62"},{"step":65,"from":"1093685656","to":"1093425496","type":"load","field":"arrayIdx_int:63"},{"step":66,"from":"1093685656","to":"1093442040","type":"load","field":"arrayIdx_int:64"},{"step":67,"from":"1093685656","to":"1093442360","type":"load","field":"arrayIdx_int:65"},{"step":68,"from":"1093685656","to":"1093445344","type":"load","field":"arrayIdx_int:66"},{"step":69,"from":"1093685656","to":"1093447824","type":"load","field":"arrayIdx_int:67"},{"step":70,"from":"1093685656","to":"1093523568","type":"load","field":"arrayIdx_int:68"},{"step":71,"from":"1093685656","to":"1093526256","type":"load","field":"arrayIdx_int:69"},{"step":72,"from":"1093685656","to":"1093527912","type":"load","field":"arrayIdx_int:70"},{"step":73,"from":"1093685656","to":"1093540504","type":"load","field":"arrayIdx_int:71"},{"step":74,"from":"1093685656","to":"1093546416","type":"load","field":"arrayIdx_int:72"},{"step":75,"from":"1093685656","to":"1093548368","type":"load","field":"arrayIdx_int:73"},{"step":76,"from":"1093685656","to":"1093549712","type":"load","field":"arrayIdx_int:74"},{"step":77,"from":"1093685656","to":"1093317136","type":"load","field":"arrayIdx_int:75"},{"step":78,"from":"1093685656","to":"1093318672","type":"load","field":"arrayIdx_int:76"},{"step":79,"from":"1093685656","to":"1093391488","type":"load","field":"arrayIdx_int:77"},{"step":80,"from":"1093685656","to":"1093395704","type":"load","field":"arrayIdx_int:78"},{"step":81,"from":"1093685656","to":"1093410056","type":"load","field":"arrayIdx_int:79"},{"step":82,"from":"1093685656","to":"1093437120","type":"load","field":"arrayIdx_int:80"},{"step":83,"from":"1093685656","to":"1093446896","type":"load","field":"arrayIdx_int:81"},{"step":84,"from":"1093685656","to":"1093448432","type":"load","field":"arrayIdx_int:82"},{"step":85,"from":"1093685656","to":"1093524224","type":"load","field":"arrayIdx_int:83"},{"step":86,"from":"1093685656","to":"1093537592","type":"load","field":"arrayIdx_int:84"},{"step":87,"from":"1093685656","to":"1093307208","type":"load","field":"arrayIdx_int:85"},{"step":88,"from":"1093685656","to":"1093324864","type":"load","field":"arrayIdx_int:86"},{"step":89,"from":"1093685656","to":"1093444560","type":"load","field":"arrayIdx_int:87"},{"step":90,"from":"1093685656","to":"1093451328","type":"load","field":"arrayIdx_int:88"},{"step":91,"from":"1093685656","to":"1093451592","type":"load","field":"arrayIdx_int:89"},{"step":92,"from":"1093685656","to":"1093300704","type":"load","field":"arrayIdx_int:90"},{"step":93,"from":"1093685656","to":"1093309480","type":"load","field":"arrayIdx_int:91"},{"step":94,"from":"1093685656","to":"1093456032","type":"load","field":"arrayIdx_int:92"},{"step":95,"from":"1093685656","to":"1093512304","type":"load","field":"arrayIdx_int:93"},{"step":96,"from":"1093685656","to":"1093514072","type":"load","field":"arrayIdx_int:94"},{"step":97,"from":"1093685656","to":"1093515096","type":"load","field":"arrayIdx_int:95"},{"step":98,"from":"1093685656","to":"1093515352","type":"load","field":"arrayIdx_int:96"},{"step":99,"from":"1093685656","to":"1093557256","type":"load","field":"arrayIdx_int:97"},{"step":100,"from":"1093685656","to":"1093409736","type":"load","field":"arrayIdx_int:98"}],"parameters":[{"id":"1093410680","name":"this","klass":"java.util.ArrayList"},{"id":"1093490608","name":"arg#1","klass":"java.lang.Object"}],"returns":[{"id":null,"name":"return","klass":"int"}],"colors":{"heapLocToColor":{"1093490608":[1],"1093317136":[0],"1093340728":[0],"sdaReg13":[14],"1093475992":[0],"sdaReg14":[15],"sdaReg11":[12],"sdaReg12":[13],"1093496400":[0],"sdaReg10":[11],"1093410680":[0],"sdaReg19":[20],"sdaReg17":[18],"sdaReg18":[19],"sdaReg15":[16],"sdaReg16":[17],"1093307208":[0],"1093381840":[0],"1093486040":[0],"1093514072":[0],"1093467912":[0],"1093523568":[0],"1093515096":[0],"1093509184":[0],"1093515352":[0],"1093421192":[0],"1093451896":[0],"1093437120":[0],"1093475496":[0],"1093447824":[0],"1093351528":[0],"1093309480":[0],"1093345504":[0],"1093527912":[0],"1093381448":[0],"sdaReg60":[61],"sdaReg61":[62],"1093436512":[0],"1093312264":[0],"1093366304":[0],"1093533816":[0],"1093416904":[0],"1093457688":[0],"sdaReg59":[60],"sdaReg58":[59],"sdaReg57":[58],"sdaReg56":[57],"sdaReg55":[56],"sdaReg54":[55],"sdaReg53":[54],"1093495360":[0],"sdaReg52":[53],"sdaReg51":[52],"sdaReg50":[51],"1093409736":[0],"1093364712":[0],"1093488048":[0],"1093370016":[0],"1093420496":[0],"sdaReg49":[50],"sdaReg48":[49],"sdaReg45":[46],"1093378584":[0],"sdaReg44":[45],"sdaReg47":[48],"1093324864":[0],"sdaReg46":[47],"sdaReg41":[42],"1093466520":[0],"sdaReg40":[41],"1093419528":[0],"sdaReg43":[44],"sdaReg42":[43],"1093546416":[0],"1093444560":[0],"1093445344":[0],"sdaReg39":[40],"sdaReg38":[39],"sdaReg37":[38],"1093442040":[0],"sdaReg32":[33],"1093451328":[0],"1093402456":[0],"sdaReg31":[32],"sdaReg30":[31],"sdaReg36":[37],"sdaReg35":[36],"sdaReg34":[35],"sdaReg33":[34],"1093318672":[0],"sdaReg8":[9],"sdaReg9":[10],"sdaReg6":[7],"sdaReg7":[8],"sdaReg4":[5],"sdaReg5":[6],"1093448432":[0],"1093344568":[0],"sdaReg27":[28],"sdaReg26":[27],"sdaReg29":[30],"1093306720":[0],"sdaReg28":[29],"1093417256":[0],"sdaReg3":[4],"sdaReg2":[3],"sdaReg1":[2],"sdaReg21":[22],"sdaReg20":[21],"sdaReg23":[24],"sdaReg22":[23],"sdaReg25":[26],"1093317744":[0],"sdaReg24":[25],"1093495888":[0],"sdaReg68":[69],"1093410680.<java.util.ArrayList: int size>":[0],"sdaReg69":[70],"sdaReg66":[67],"sdaReg67":[68],"sdaReg64":[65],"sdaReg65":[66],"sdaReg62":[63],"sdaReg63":[64],"1093473088":[0],"sdaReg72":[73],"sdaReg71":[72],"sdaReg70":[71],"1093425496":[0],"1093512304":[0],"1093382240":[0],"1093410368":[0],"sdaReg77":[78],"sdaReg78":[79],"sdaReg79":[80],"sdaReg73":[74],"sdaReg74":[75],"sdaReg75":[76],"sdaReg76":[77],"sdaReg81":[82],"1093446896":[0],"sdaReg80":[81],"sdaReg83":[84],"sdaReg82":[83],"1093451592":[0],"1093491640":[0],"1093337472":[0],"1093411336":[0],"sdaReg86":[87],"sdaReg87":[88],"sdaReg84":[85],"sdaReg85":[86],"sdaReg88":[89],"sdaReg89":[90],"sdaReg90":[91],"sdaReg94":[95],"sdaReg93":[94],"sdaReg92":[93],"sdaReg91":[92],"1093439832":[0],"1093395704":[0],"1093456032":[0],"1093284424":[0],"1093368944":[0],"sdaReg95":[96],"sdaReg96":[97],"sdaReg97":[98],"sdaReg98":[99],"sdaReg99":[100],"1093403552":[0],"1093540504":[0],"1093557256":[0],"1093524224":[0],"1093365240":[0],"1093373240":[0],"1093452680":[0],"1093313208":[0],"1093359032":[0],"1093537592":[0],"1093374800":[0],"1093300704":[0],"1093321120":[0],"1093504280":[0],"1093383040":[0],"1093439256":[0],"1093400704":[0],"1093330152":[0],"1093339840":[0],"1093295824":[0],"1093548368":[0],"1093391488":[0],"1093410056":[0],"1093442360":[0],"1093496928":[0],"1093549712":[0],"1093325784":[0],"1093396392":[0],"1093329600":[0],"1093685656":[0],"1093526256":[0],"1093332984":[0],"1093399064":[0]},"colorToColor":{},"colorToLabel":{"0":"this","1":"arg#1","101":"return"}}}

Generated Model

