Scanning method <java.io.PrintWriter: java.io.PrintWriter append(java.lang.CharSequence,int,int)>

All seen event types: SimpleAssignmentRecord, ExitMonitorRecord, MethodStartRecord, LoadInstanceRecord, IfRecord, NewObjectRecord, StoreInstanceRecord, BinaryOperationRecord, MethodCallRecord, MethodReturnRecord, EnterMonitorRecord, ArrayLengthRecord, MethodEndRecord, 
Ignored event types: ExitMonitorRecord, EnterMonitorRecord, IfRecord, 

JSON Encoded Analysis Data (for visualization):{"heapEdges":[{"step":0,"from":"1093674912","to":"sdaReg3","type":"model"},{"step":1,"from":"sdaReg3","to":"sdaReg8","type":"model"},{"step":2,"from":"sdaReg8","to":"1093253536","type":"model"},{"step":3,"from":"1093654752","to":"1093654784","type":"load","field":"<java.io.Writer: java.lang.Object lock>"},{"step":4,"from":"1093654752","to":"1093654784","type":"load","field":"<java.io.PrintWriter: java.io.Writer out>"},{"step":5,"from":"1093654752","to":"1093654784","type":"load","field":"<java.io.PrintWriter: java.io.Writer out>"},{"step":6,"from":"1093654784","to":"1093654576","type":"load","field":"<java.io.Writer: java.lang.Object lock>"},{"step":7,"from":"1093654784","to":"1093663336","type":"load","field":"<java.io.OutputStreamWriter: java.nio.charset.CharsetEncoder encoder>"},{"step":8,"from":"1093305984","to":"sdaReg42","type":"create","field":"<java.nio.Buffer: int mark>"},{"step":9,"from":"1093305984","to":"sdaReg43","type":"create","field":"<java.nio.Buffer: int position>"},{"step":10,"from":"1093305984","to":"sdaReg40","type":"create","field":"<java.nio.Buffer: int _elementSizeShift>"},{"step":11,"from":"sdaReg34","to":"1093305984","type":"store","field":"<java.nio.Buffer: int limit>"},{"step":12,"from":"sdaReg34","to":"1093305984","type":"store","field":"<java.nio.Buffer: int capacity>"},{"step":13,"from":"1093305984","to":"1093253536","type":"create","field":"<java.nio.CharArrayBuffer: char[] backingArray>"},{"step":14,"from":"1093305984","to":"sdaReg37","type":"create","field":"<java.nio.CharArrayBuffer: int offset>"},{"step":15,"from":"1093305984","to":"sdaReg15","type":"create","field":"<java.nio.Buffer: int position>"},{"step":16,"from":"sdaReg50","to":"1093305984","type":"store","field":"<java.nio.Buffer: int limit>"},{"step":17,"from":"1093654784","to":"1093663336","type":"load","field":"<java.io.OutputStreamWriter: java.nio.charset.CharsetEncoder encoder>"},{"step":18,"from":"1093654784","to":"1093654816","type":"load","field":"<java.io.OutputStreamWriter: java.nio.ByteBuffer bytes>"},{"step":19,"from":"1093663336","to":"1093305984","type":"model"},{"step":20,"from":"1093663336","to":"1093654816","type":"model"},{"step":21,"from":"1093663336","to":"1084215096","type":"model"},{"step":22,"from":"1093305984","to":"1093663336","type":"model"},{"step":23,"from":"1093305984","to":"1093654816","type":"model"},{"step":24,"from":"1093305984","to":"1084215096","type":"model"},{"step":25,"from":"1093654816","to":"1093663336","type":"model"},{"step":26,"from":"1093654816","to":"1093305984","type":"model"},{"step":27,"from":"1093654816","to":"1084215096","type":"model"},{"step":28,"from":"1084215096","to":"1084215096.<java.nio.charset.CoderResult: int type>","type":"load","field":"<java.nio.charset.CoderResult: int type>"},{"step":29,"from":"1084215096","to":"1084215096.<java.nio.charset.CoderResult: int type>","type":"load","field":"<java.nio.charset.CoderResult: int type>"},{"step":30,"from":"1084215096","to":"1084215096.<java.nio.charset.CoderResult: int type>","type":"load","field":"<java.nio.charset.CoderResult: int type>"}],"parameters":[{"id":"1093654752","name":"this","klass":"java.io.PrintWriter"},{"id":"1093674912","name":"arg#1","klass":"java.lang.CharSequence"},{"id":"sdaReg0","name":"arg#2","klass":"int"},{"id":"sdaReg1","name":"arg#3","klass":"int"}],"returns":[{"id":"1093654752","name":"return","klass":"java.io.PrintWriter"}],"colors":{"heapLocToColor":{"1093654816":[0],"1093654752":[0],"sdaReg13":[0],"sdaReg14":[1, 4, 6, 7],"sdaReg11":[1, 4, 6, 7],"sdaReg10":[0],"sdaReg57":[0, 9],"sdaReg19":[0],"sdaReg55":[0, 9],"sdaReg17":[1, 4, 6, 7],"sdaReg54":[0, 9],"sdaReg53":[8],"sdaReg52":[0],"sdaReg16":[0],"sdaReg51":[8],"1093305984":[0, 8],"sdaReg49":[8],"sdaReg48":[8],"1084215096":[0, 9],"sdaReg45":[8],"sdaReg44":[8],"sdaReg47":[8],"sdaReg46":[8],"sdaReg41":[8],"1093654576":[0],"sdaReg39":[8],"sdaReg38":[8],"sdaReg32":[8],"sdaReg31":[1, 4, 6, 7],"sdaReg30":[8],"1084215096.<java.nio.charset.CoderResult: int type>":[0, 9],"sdaReg36":[1, 4, 6, 7],"sdaReg35":[8],"sdaReg33":[1, 4, 6, 7],"1093253536":[1, 4, 6, 7],"sdaReg8":[1, 4, 6],"sdaReg9":[1, 4, 6, 7],"sdaReg7":[5],"sdaReg4":[5],"sdaReg5":[0],"1093674912":[1],"1093654784":[0],"1093663336":[0],"sdaReg26":[1, 4, 6, 7],"1093654752.<java.io.PrintWriter: java.io.Writer out>":[0],"1093654784.<java.io.OutputStreamWriter: java.nio.charset.CharsetEncoder encoder>":[0],"sdaReg3":[1, 4],"sdaReg2":[1],"sdaReg1":[3],"sdaReg20":[1, 4, 6, 7],"sdaReg0":[2],"sdaReg22":[0]},"colorToColor":{"0":[0, 8, 9, 10],"1":[8],"4":[8],"6":[8],"7":[8],"8":[0, 9]},"colorToLabel":{"0":"this","1":"arg#1","2":"arg#2","3":"arg#3","10":"return"}}}

Generated Model
	this->return
	arg#1->this
	arg#1->return

