Scanning method <java.net.InetSocketAddress: java.lang.String getHostName()>

All seen event types: LoadInstanceRecord, IfRecord, 
Ignored event types: IfRecord, 

JSON Encoded Analysis Data (for visualization):{"heapEdges":[{"step":0,"from":"1093305176","to":"1093305176.<java.net.InetSocketAddress: java.lang.String hostname>","type":"load","field":"<java.net.InetSocketAddress: java.lang.String hostname>"}],"parameters":[{"id":"1093305176","name":"this","klass":"java.net.InetSocketAddress"}],"returns":[{"id":"1093305176.<java.net.InetSocketAddress: java.lang.String hostname>","name":"return","klass":"string"}],"colors":{"heapLocToColor":{"1093305176.<java.net.InetSocketAddress: java.lang.String hostname>":[0],"1093305176":[0]},"colorToColor":{"0":[1]},"colorToLabel":{"0":"this","1":"return"}}}

Generated Model
	this->return

