Scanning method <java.util.HashMap$EntryIterator: void <init>(java.util.HashMap)>

All seen event types: BinaryOperationRecord, SimpleAssignmentRecord, MethodReturnRecord, MethodCallRecord, ArrayLengthRecord, LoadInstanceRecord, MethodStartRecord, LoadArrayRecord, MethodEndRecord, IfRecord, StoreInstanceRecord, 
Ignored event types: IfRecord, 

JSON Encoded Analysis Data (for visualization):{"heapEdges":[{"step":0,"from":"1093264120","to":"1093503368","type":"store","field":"<java.util.HashMap$EntryIterator: java.util.HashMap this$0>"},{"step":1,"from":"1093264120","to":"1093503368","type":"store","field":"<java.util.HashMap$HashIterator: java.util.HashMap this$0>"},{"step":2,"from":"1093264120","to":"1093264120.<java.util.HashMap: int modCount>","type":"load","field":"<java.util.HashMap: int modCount>"},{"step":3,"from":"1093264120.<java.util.HashMap: int modCount>","to":"1093503368","type":"store","field":"<java.util.HashMap$HashIterator: int expectedModCount>"},{"step":4,"from":"1093264120","to":"1093277664","type":"load","field":"<java.util.HashMap: java.util.HashMap$HashMapEntry[] table>"},{"step":5,"from":"1093503368","to":"1093503368.<java.util.HashMap$HashIterator: int nextIndex>","type":"load","field":"<java.util.HashMap$HashIterator: int nextIndex>"},{"step":6,"from":"1093503368","to":"1093503368.<java.util.HashMap$HashIterator: int nextIndex>","type":"load","field":"<java.util.HashMap$HashIterator: int nextIndex>"},{"step":7,"from":"sdaReg5","to":"1093503368","type":"store","field":"<java.util.HashMap$HashIterator: int nextIndex>"},{"step":8,"from":"1093277664","to":"1093277720","type":"load","field":"arrayIdx_int:0"},{"step":9,"from":"1093277720","to":"1093503368","type":"store","field":"<java.util.HashMap$HashIterator: java.util.HashMap$HashMapEntry nextEntry>"}],"parameters":[{"id":"1093503368","name":"this","klass":"java.util.HashMap$EntryIterator"},{"id":"1093264120","name":"arg#1","klass":"java.util.HashMap"}],"returns":[{"id":"1093503368","name":"return","klass":"java.util.HashMap$EntryIterator"}],"colors":{"heapLocToColor":{"1093503368.<java.util.HashMap$HashIterator: int nextIndex>":[0],"1093277664":[1],"sdaReg6":[0],"sdaReg5":[0],"1093503368":[0],"sdaReg2":[0],"sdaReg1":[1],"1093264120":[1],"1093264120.<java.util.HashMap: int modCount>":[1],"sdaReg0":[0],"1093277720":[1]},"colorToColor":{"0":[0, 2],"1":[0]},"colorToLabel":{"0":"this","1":"arg#1","2":"return"}}}

Generated Model
	this->return
	arg#1->this
	arg#1->return

