Scanning method <java.util.HashMap$EntryIterator: void <init>(java.util.HashMap)>

All seen event types: BinaryOperationRecord, SimpleAssignmentRecord, MethodReturnRecord, MethodCallRecord, ArrayLengthRecord, LoadInstanceRecord, MethodStartRecord, LoadArrayRecord, MethodEndRecord, IfRecord, StoreInstanceRecord, 
Ignored event types: IfRecord, 

JSON Encoded Analysis Data (for visualization):{"heapEdges":[{"step":0,"from":"1093567984","to":"1093647360","type":"store","field":"<java.util.HashMap$EntryIterator: java.util.HashMap this$0>"},{"step":1,"from":"1093567984","to":"1093647360","type":"store","field":"<java.util.HashMap$HashIterator: java.util.HashMap this$0>"},{"step":2,"from":"1093567984","to":"1093567984.<java.util.HashMap: int modCount>","type":"load","field":"<java.util.HashMap: int modCount>"},{"step":3,"from":"1093567984.<java.util.HashMap: int modCount>","to":"1093647360","type":"store","field":"<java.util.HashMap$HashIterator: int expectedModCount>"},{"step":4,"from":"1093567984","to":"1083997920","type":"load","field":"<java.util.HashMap: java.util.HashMap$HashMapEntry[] table>"},{"step":5,"from":"1093647360","to":"1093647360.<java.util.HashMap$HashIterator: int nextIndex>","type":"load","field":"<java.util.HashMap$HashIterator: int nextIndex>"},{"step":6,"from":"1093647360","to":"1093647360.<java.util.HashMap$HashIterator: int nextIndex>","type":"load","field":"<java.util.HashMap$HashIterator: int nextIndex>"},{"step":7,"from":"sdaReg5","to":"1093647360","type":"store","field":"<java.util.HashMap$HashIterator: int nextIndex>"},{"step":8,"from":"sdaReg5","to":"1093647360","type":"store","field":"<java.util.HashMap$HashIterator: int nextIndex>"}],"parameters":[{"id":"1093647360","name":"this","klass":"java.util.HashMap$EntryIterator"},{"id":"1093567984","name":"arg#1","klass":"java.util.HashMap"}],"returns":[{"id":"1093647360","name":"return","klass":"java.util.HashMap$EntryIterator"}],"colors":{"heapLocToColor":{"1093567984":[1],"sdaReg8":[0],"sdaReg5":[0],"1093647360.<java.util.HashMap$HashIterator: int nextIndex>":[0],"1093567984.<java.util.HashMap: int modCount>":[1],"sdaReg2":[0],"1083997920":[1],"sdaReg1":[1],"sdaReg0":[0],"1093647360":[0]},"colorToColor":{"0":[0, 2],"1":[0]},"colorToLabel":{"0":"this","1":"arg#1","2":"return"}}}

Generated Model
	this->return
	arg#1->this
	arg#1->return

