Scanning method <java.nio.CharBuffer: java.lang.String toString()>

All seen event types: BinaryOperationRecord, SimpleAssignmentRecord, MethodReturnRecord, MethodCallRecord, MethodStartRecord, LoadInstanceRecord, MethodEndRecord, IfRecord, NewObjectRecord, 
Ignored event types: IfRecord, 

JSON Encoded Analysis Data (for visualization):{"heapEdges":[{"step":0,"from":"1094927768","to":"1094927768.<java.nio.Buffer: int limit>","type":"load","field":"<java.nio.Buffer: int limit>"},{"step":1,"from":"1094927768","to":"1094927768.<java.nio.Buffer: int position>","type":"load","field":"<java.nio.Buffer: int position>"},{"step":2,"from":"1094927768","to":"1094927768.<java.nio.Buffer: int position>","type":"load","field":"<java.nio.Buffer: int position>"},{"step":3,"from":"1094927768","to":"1094927768.<java.nio.Buffer: int limit>","type":"load","field":"<java.nio.Buffer: int limit>"},{"step":4,"from":"1094927768","to":"1094927768.<java.nio.Buffer: int limit>","type":"load","field":"<java.nio.Buffer: int limit>"},{"step":5,"from":"1094927768","to":"1095512520","type":"load","field":"<java.nio.CharSequenceAdapter: java.lang.CharSequence sequence>"},{"step":6,"from":"1095512520","to":"1094927768.<java.nio.Buffer: int position>","type":"model"},{"step":7,"from":"1095512520","to":"sdaReg5","type":"model"},{"step":8,"from":"1094927768.<java.nio.Buffer: int position>","to":"1095512520","type":"model"},{"step":9,"from":"1094927768.<java.nio.Buffer: int position>","to":"sdaReg5","type":"model"},{"step":10,"from":"sdaReg5","to":"1096669112","type":"model"},{"step":11,"from":"1094927768","to":"1094927768.<java.nio.Buffer: int limit>","type":"load","field":"<java.nio.Buffer: int limit>"},{"step":12,"from":"1094927768","to":"1094927768.<java.nio.Buffer: int limit>","type":"load","field":"<java.nio.Buffer: int limit>"},{"step":13,"from":"1094927768","to":"1095512520","type":"load","field":"<java.nio.CharSequenceAdapter: java.lang.CharSequence sequence>"},{"step":14,"from":"1095512520","to":"1094927768.<java.nio.Buffer: int position>","type":"model"},{"step":15,"from":"1095512520","to":"sdaReg8","type":"model"},{"step":16,"from":"1094927768.<java.nio.Buffer: int position>","to":"1095512520","type":"model"},{"step":17,"from":"1094927768.<java.nio.Buffer: int position>","to":"sdaReg8","type":"model"},{"step":18,"from":"sdaReg8","to":"1096669112","type":"model"},{"step":19,"from":"1094927768","to":"1094927768.<java.nio.Buffer: int limit>","type":"load","field":"<java.nio.Buffer: int limit>"},{"step":20,"from":"1094927768","to":"1094927768.<java.nio.Buffer: int limit>","type":"load","field":"<java.nio.Buffer: int limit>"},{"step":21,"from":"1094927768","to":"1095512520","type":"load","field":"<java.nio.CharSequenceAdapter: java.lang.CharSequence sequence>"},{"step":22,"from":"1095512520","to":"1094927768.<java.nio.Buffer: int position>","type":"model"},{"step":23,"from":"1095512520","to":"sdaReg11","type":"model"},{"step":24,"from":"1094927768.<java.nio.Buffer: int position>","to":"1095512520","type":"model"},{"step":25,"from":"1094927768.<java.nio.Buffer: int position>","to":"sdaReg11","type":"model"},{"step":26,"from":"sdaReg11","to":"1096669112","type":"model"},{"step":27,"from":"1094927768","to":"1094927768.<java.nio.Buffer: int limit>","type":"load","field":"<java.nio.Buffer: int limit>"},{"step":28,"from":"1094927768","to":"1094927768.<java.nio.Buffer: int limit>","type":"load","field":"<java.nio.Buffer: int limit>"},{"step":29,"from":"1094927768","to":"1095512520","type":"load","field":"<java.nio.CharSequenceAdapter: java.lang.CharSequence sequence>"},{"step":30,"from":"1095512520","to":"1094927768.<java.nio.Buffer: int position>","type":"model"},{"step":31,"from":"1095512520","to":"sdaReg14","type":"model"},{"step":32,"from":"1094927768.<java.nio.Buffer: int position>","to":"1095512520","type":"model"},{"step":33,"from":"1094927768.<java.nio.Buffer: int position>","to":"sdaReg14","type":"model"},{"step":34,"from":"sdaReg14","to":"1096669112","type":"model"},{"step":35,"from":"1094927768","to":"1094927768.<java.nio.Buffer: int limit>","type":"load","field":"<java.nio.Buffer: int limit>"},{"step":36,"from":"1094927768","to":"1094927768.<java.nio.Buffer: int limit>","type":"load","field":"<java.nio.Buffer: int limit>"},{"step":37,"from":"1094927768","to":"1095512520","type":"load","field":"<java.nio.CharSequenceAdapter: java.lang.CharSequence sequence>"},{"step":38,"from":"1095512520","to":"1094927768.<java.nio.Buffer: int position>","type":"model"},{"step":39,"from":"1095512520","to":"sdaReg17","type":"model"},{"step":40,"from":"1094927768.<java.nio.Buffer: int position>","to":"1095512520","type":"model"},{"step":41,"from":"1094927768.<java.nio.Buffer: int position>","to":"sdaReg17","type":"model"},{"step":42,"from":"sdaReg17","to":"1096669112","type":"model"},{"step":43,"from":"1094927768","to":"1094927768.<java.nio.Buffer: int limit>","type":"load","field":"<java.nio.Buffer: int limit>"},{"step":44,"from":"1094927768","to":"1094927768.<java.nio.Buffer: int limit>","type":"load","field":"<java.nio.Buffer: int limit>"},{"step":45,"from":"1094927768","to":"1095512520","type":"load","field":"<java.nio.CharSequenceAdapter: java.lang.CharSequence sequence>"},{"step":46,"from":"1095512520","to":"1094927768.<java.nio.Buffer: int position>","type":"model"},{"step":47,"from":"1095512520","to":"sdaReg20","type":"model"},{"step":48,"from":"1094927768.<java.nio.Buffer: int position>","to":"1095512520","type":"model"},{"step":49,"from":"1094927768.<java.nio.Buffer: int position>","to":"sdaReg20","type":"model"},{"step":50,"from":"sdaReg20","to":"1096669112","type":"model"},{"step":51,"from":"1094927768","to":"1094927768.<java.nio.Buffer: int limit>","type":"load","field":"<java.nio.Buffer: int limit>"},{"step":52,"from":"1094927768","to":"1094927768.<java.nio.Buffer: int limit>","type":"load","field":"<java.nio.Buffer: int limit>"},{"step":53,"from":"1094927768","to":"1095512520","type":"load","field":"<java.nio.CharSequenceAdapter: java.lang.CharSequence sequence>"},{"step":54,"from":"1095512520","to":"1094927768.<java.nio.Buffer: int position>","type":"model"},{"step":55,"from":"1095512520","to":"sdaReg23","type":"model"},{"step":56,"from":"1094927768.<java.nio.Buffer: int position>","to":"1095512520","type":"model"},{"step":57,"from":"1094927768.<java.nio.Buffer: int position>","to":"sdaReg23","type":"model"},{"step":58,"from":"sdaReg23","to":"1096669112","type":"model"},{"step":59,"from":"1094927768","to":"1094927768.<java.nio.Buffer: int limit>","type":"load","field":"<java.nio.Buffer: int limit>"},{"step":60,"from":"1094927768","to":"1094927768.<java.nio.Buffer: int limit>","type":"load","field":"<java.nio.Buffer: int limit>"},{"step":61,"from":"1094927768","to":"1095512520","type":"load","field":"<java.nio.CharSequenceAdapter: java.lang.CharSequence sequence>"},{"step":62,"from":"1095512520","to":"1094927768.<java.nio.Buffer: int position>","type":"model"},{"step":63,"from":"1095512520","to":"sdaReg26","type":"model"},{"step":64,"from":"1094927768.<java.nio.Buffer: int position>","to":"1095512520","type":"model"},{"step":65,"from":"1094927768.<java.nio.Buffer: int position>","to":"sdaReg26","type":"model"},{"step":66,"from":"sdaReg26","to":"1096669112","type":"model"},{"step":67,"from":"1094927768","to":"1094927768.<java.nio.Buffer: int limit>","type":"load","field":"<java.nio.Buffer: int limit>"},{"step":68,"from":"1094927768","to":"1094927768.<java.nio.Buffer: int limit>","type":"load","field":"<java.nio.Buffer: int limit>"},{"step":69,"from":"1094927768","to":"1095512520","type":"load","field":"<java.nio.CharSequenceAdapter: java.lang.CharSequence sequence>"},{"step":70,"from":"1095512520","to":"1094927768.<java.nio.Buffer: int position>","type":"model"},{"step":71,"from":"1095512520","to":"sdaReg29","type":"model"},{"step":72,"from":"1094927768.<java.nio.Buffer: int position>","to":"1095512520","type":"model"},{"step":73,"from":"1094927768.<java.nio.Buffer: int position>","to":"sdaReg29","type":"model"},{"step":74,"from":"sdaReg29","to":"1096669112","type":"model"},{"step":75,"from":"1094927768","to":"1094927768.<java.nio.Buffer: int limit>","type":"load","field":"<java.nio.Buffer: int limit>"},{"step":76,"from":"1094927768","to":"1094927768.<java.nio.Buffer: int limit>","type":"load","field":"<java.nio.Buffer: int limit>"},{"step":77,"from":"1094927768","to":"1095512520","type":"load","field":"<java.nio.CharSequenceAdapter: java.lang.CharSequence sequence>"},{"step":78,"from":"1095512520","to":"1094927768.<java.nio.Buffer: int position>","type":"model"},{"step":79,"from":"1095512520","to":"sdaReg32","type":"model"},{"step":80,"from":"1094927768.<java.nio.Buffer: int position>","to":"1095512520","type":"model"},{"step":81,"from":"1094927768.<java.nio.Buffer: int position>","to":"sdaReg32","type":"model"},{"step":82,"from":"sdaReg32","to":"1096669112","type":"model"},{"step":83,"from":"1094927768","to":"1094927768.<java.nio.Buffer: int limit>","type":"load","field":"<java.nio.Buffer: int limit>"},{"step":84,"from":"1094927768","to":"1094927768.<java.nio.Buffer: int limit>","type":"load","field":"<java.nio.Buffer: int limit>"},{"step":85,"from":"1094927768","to":"1095512520","type":"load","field":"<java.nio.CharSequenceAdapter: java.lang.CharSequence sequence>"},{"step":86,"from":"1095512520","to":"1094927768.<java.nio.Buffer: int position>","type":"model"},{"step":87,"from":"1095512520","to":"sdaReg35","type":"model"},{"step":88,"from":"1094927768.<java.nio.Buffer: int position>","to":"1095512520","type":"model"},{"step":89,"from":"1094927768.<java.nio.Buffer: int position>","to":"sdaReg35","type":"model"},{"step":90,"from":"sdaReg35","to":"1096669112","type":"model"},{"step":91,"from":"1094927768","to":"1094927768.<java.nio.Buffer: int limit>","type":"load","field":"<java.nio.Buffer: int limit>"},{"step":92,"from":"1096669112","to":"sdaReg36","type":"model"}],"parameters":[{"id":"1094927768","name":"this","klass":"java.nio.CharBuffer"}],"returns":[{"id":"sdaReg36","name":"return","klass":"string"}],"colors":{"heapLocToColor":{"sdaReg13":[0],"sdaReg14":[0, 5],"sdaReg11":[0, 4],"sdaReg12":[0],"sdaReg10":[0],"sdaReg32":[0, 11],"sdaReg31":[0],"sdaReg30":[0],"sdaReg19":[0],"1094927768":[0],"sdaReg36":[1, 13],"sdaReg17":[0, 6],"sdaReg35":[0, 12],"sdaReg18":[0],"sdaReg34":[0],"sdaReg15":[0],"sdaReg33":[0],"sdaReg16":[0],"sdaReg8":[0, 3],"sdaReg9":[0],"sdaReg6":[0],"sdaReg7":[0],"sdaReg4":[0],"sdaReg5":[0, 2],"1094927768.<java.nio.CharSequenceAdapter: java.lang.CharSequence sequence>":[0],"sdaReg27":[0],"sdaReg26":[0, 9],"sdaReg29":[0, 10],"sdaReg28":[0],"1095512520":[0],"1096669112":[1],"sdaReg3":[0],"sdaReg2":[1],"1094927768.<java.nio.Buffer: int position>":[0],"sdaReg21":[0],"sdaReg1":[1],"sdaReg20":[0, 7],"sdaReg0":[0],"sdaReg23":[0, 8],"sdaReg22":[0],"1094927768.<java.nio.Buffer: int limit>":[0],"sdaReg25":[0],"sdaReg24":[0]},"colorToColor":{"0":[0, 1, 2, 3, 4, 5, 6, 7, 8, 9, 10, 11, 12],"1":[14],"2":[1],"3":[1],"4":[1],"5":[1],"6":[1],"7":[1],"8":[1],"9":[1],"10":[1],"11":[1],"12":[1],"13":[14]},"colorToLabel":{"0":"this","14":"return"}}}

Generated Model
	this->return

