Scanning method <java.util.HashMap$EntrySet: java.util.Iterator iterator()>

All seen event types: BinaryOperationRecord, SimpleAssignmentRecord, MethodReturnRecord, MethodCallRecord, ArrayLengthRecord, MethodStartRecord, LoadInstanceRecord, LoadArrayRecord, MethodEndRecord, IfRecord, StoreInstanceRecord, NewObjectRecord, 
Ignored event types: IfRecord, 

JSON Encoded Analysis Data (for visualization):{"heapEdges":[{"step":0,"from":"1093305696","to":"1093563032","type":"load","field":"<java.util.HashMap$EntrySet: java.util.HashMap this$0>"},{"step":1,"from":"1093563032","to":"1093850464","type":"store","field":"<java.util.HashMap$EntryIterator: java.util.HashMap this$0>"},{"step":2,"from":"1093563032","to":"1093850464","type":"store","field":"<java.util.HashMap$HashIterator: java.util.HashMap this$0>"},{"step":3,"from":"1093563032","to":"1093563032.<java.util.HashMap: int modCount>","type":"load","field":"<java.util.HashMap: int modCount>"},{"step":4,"from":"1093563032.<java.util.HashMap: int modCount>","to":"1093850464","type":"store","field":"<java.util.HashMap$HashIterator: int expectedModCount>"},{"step":5,"from":"1093563032","to":"1093567312","type":"load","field":"<java.util.HashMap: java.util.HashMap$HashMapEntry[] table>"},{"step":6,"from":"1093850464","to":"1093850464.<java.util.HashMap$HashIterator: int nextIndex>","type":"load","field":"<java.util.HashMap$HashIterator: int nextIndex>"},{"step":7,"from":"1093850464","to":"1093850464.<java.util.HashMap$HashIterator: int nextIndex>","type":"load","field":"<java.util.HashMap$HashIterator: int nextIndex>"},{"step":8,"from":"sdaReg10","to":"1093850464","type":"store","field":"<java.util.HashMap$HashIterator: int nextIndex>"},{"step":9,"from":"1093567312","to":"1093567368","type":"load","field":"arrayIdx_int:0"},{"step":10,"from":"1093567368","to":"1093850464","type":"store","field":"<java.util.HashMap$HashIterator: java.util.HashMap$HashMapEntry nextEntry>"}],"parameters":[{"id":"1093305696","name":"this","klass":"java.util.HashMap$EntrySet"}],"returns":[{"id":"1093850464","name":"return","klass":"java.util.Iterator"}],"colors":{"heapLocToColor":{"1093305696":[0],"1093563032":[0],"1093567368":[0],"sdaReg6":[0],"sdaReg7":[1],"sdaReg4":[0],"sdaReg5":[1],"1093850464":[1],"1093850464.<java.util.HashMap$HashIterator: int nextIndex>":[1],"sdaReg13":[1],"sdaReg14":[1],"sdaReg11":[1],"1093567312":[0],"sdaReg12":[1],"sdaReg10":[1],"sdaReg3":[1],"sdaReg2":[0],"sdaReg1":[1],"sdaReg0":[0],"1093563032.<java.util.HashMap: int modCount>":[0]},"colorToColor":{"0":[1],"1":[1, 2]},"colorToLabel":{"0":"this","2":"return"}}}

Generated Model
	this->return

