Scanning method <java.util.HashMap$EntrySet: java.util.Iterator iterator()>

All seen event types: BinaryOperationRecord, SimpleAssignmentRecord, MethodReturnRecord, MethodCallRecord, ArrayLengthRecord, MethodStartRecord, LoadInstanceRecord, LoadArrayRecord, MethodEndRecord, IfRecord, StoreInstanceRecord, NewObjectRecord, 
Ignored event types: IfRecord, 

JSON Encoded Analysis Data (for visualization):{"heapEdges":[{"step":0,"from":"1093482792","to":"1093264040","type":"load","field":"<java.util.HashMap$EntrySet: java.util.HashMap this$0>"},{"step":1,"from":"1093264040","to":"1093857872","type":"store","field":"<java.util.HashMap$EntryIterator: java.util.HashMap this$0>"},{"step":2,"from":"1093264040","to":"1093857872","type":"store","field":"<java.util.HashMap$HashIterator: java.util.HashMap this$0>"},{"step":3,"from":"1093264040","to":"1093264040.<java.util.HashMap: int modCount>","type":"load","field":"<java.util.HashMap: int modCount>"},{"step":4,"from":"1093264040.<java.util.HashMap: int modCount>","to":"1093857872","type":"store","field":"<java.util.HashMap$HashIterator: int expectedModCount>"},{"step":5,"from":"1093264040","to":"1093228904","type":"load","field":"<java.util.HashMap: java.util.HashMap$HashMapEntry[] table>"},{"step":6,"from":"1093857872","to":"1093857872.<java.util.HashMap$HashIterator: int nextIndex>","type":"load","field":"<java.util.HashMap$HashIterator: int nextIndex>"},{"step":7,"from":"1093857872","to":"1093857872.<java.util.HashMap$HashIterator: int nextIndex>","type":"load","field":"<java.util.HashMap$HashIterator: int nextIndex>"},{"step":8,"from":"sdaReg10","to":"1093857872","type":"store","field":"<java.util.HashMap$HashIterator: int nextIndex>"},{"step":9,"from":"1093228904","to":"1093228960","type":"load","field":"arrayIdx_int:0"},{"step":10,"from":"1093228960","to":"1093857872","type":"store","field":"<java.util.HashMap$HashIterator: java.util.HashMap$HashMapEntry nextEntry>"}],"parameters":[{"id":"1093482792","name":"this","klass":"java.util.HashMap$EntrySet"}],"returns":[{"id":"1093857872","name":"return","klass":"java.util.Iterator"}],"colors":{"heapLocToColor":{"1093482792":[0],"1093264040.<java.util.HashMap: int modCount>":[0],"1093228960":[0],"sdaReg6":[0],"sdaReg7":[1],"1093264040":[0],"sdaReg4":[0],"sdaReg5":[1],"sdaReg13":[1],"sdaReg14":[1],"1093857872.<java.util.HashMap$HashIterator: int nextIndex>":[1],"sdaReg11":[1],"sdaReg12":[1],"1093228904":[0],"sdaReg10":[1],"sdaReg3":[1],"sdaReg2":[0],"1093857872":[1],"sdaReg1":[1],"sdaReg0":[0]},"colorToColor":{"0":[1],"1":[1, 2]},"colorToLabel":{"0":"this","2":"return"}}}

Generated Model
	this->return

