Scanning method <java.io.PrintStream: void newline()>

All seen event types: MethodReturnRecord, MethodCallRecord, LoadInstanceRecord, MethodStartRecord, MethodEndRecord, IfRecord, 
Ignored event types: IfRecord, 

JSON Encoded Analysis Data (for visualization):{"heapEdges":[{"step":0,"from":"1093511112","to":"1093510936","type":"load","field":"<java.io.FilterOutputStream: java.io.OutputStream out>"},{"step":1,"from":"1093511112","to":"1093511112.<java.io.PrintStream: java.lang.String encoding>","type":"load","field":"<java.io.PrintStream: java.lang.String encoding>"},{"step":2,"from":"sdaReg0","to":"1093321776","type":"model"},{"step":3,"from":"1093511112","to":"1093321776","type":"model"},{"step":4,"from":"1093321776","to":"1093511112","type":"model"}],"parameters":[{"id":"1093511112","name":"this","klass":"java.io.PrintStream"}],"returns":[{"id":null,"name":"return","klass":null}],"colors":{"heapLocToColor":{"1093511112":[0],"1093321776":[0, 1, 2],"1093511112.<java.io.PrintStream: java.lang.String encoding>":[0],"1093510936":[0],"sdaReg2":[1, 2],"sdaReg1":[0],"sdaReg0":[1]},"colorToColor":{"0":[0],"1":[0],"2":[0]},"colorToLabel":{"0":"this","3":"return"}}}

Generated Model

