Scanning method <java.util.ArrayList: int size()>

All seen event types: LoadInstanceRecord, 
Ignored event types: 

JSON Encoded Analysis Data (for visualization):{"heapEdges":[{"step":0,"from":"1093369392","to":"1093369392.<java.util.ArrayList: int size>","type":"load","field":"<java.util.ArrayList: int size>"}],"parameters":[{"id":"1093369392","name":"this","klass":"java.util.ArrayList"}],"returns":[{"id":"1093369392.<java.util.ArrayList: int size>","name":"return","klass":"int"}],"colors":{"heapLocToColor":{"1093369392.<java.util.ArrayList: int size>":[0],"1093369392":[0]},"colorToColor":{"0":[1]},"colorToLabel":{"0":"this","1":"return"}}}

Generated Model
	this->return

