Scanning method <java.util.TreeMap: java.util.TreeMap$Node find(java.lang.Object,java.util.TreeMap$Relation)>

All seen event types: LoadStaticRecord, BinaryOperationRecord, MethodReturnRecord, MethodCallRecord, MethodStartRecord, LoadInstanceRecord, MethodEndRecord, IfRecord, StoreInstanceRecord, NewObjectRecord, InstanceOfRecord, 
Ignored event types: IfRecord, 

JSON Encoded Analysis Data (for visualization):{"heapEdges":[{"step":0,"from":"1099705064","to":"1083970648","type":"load","field":"<java.util.TreeMap: java.util.Comparator comparator>"},{"step":1,"from":"static.<java.util.TreeMap: java.util.Comparator NATURAL_ORDER>","to":"1083970648","type":"load","field":"<java.util.TreeMap: java.util.Comparator NATURAL_ORDER>"},{"step":2,"from":"static.<java.util.TreeMap$Relation: java.util.TreeMap$Relation CREATE>","to":"1085707192","type":"load","field":"<java.util.TreeMap$Relation: java.util.TreeMap$Relation CREATE>"},{"step":3,"from":"1093301176","to":"1099705112","type":"store","field":"<java.util.TreeMap$Node: java.lang.Object key>"},{"step":4,"from":"1099705112","to":"sdaReg4","type":"create","field":"<java.util.TreeMap$Node: int height>"},{"step":5,"from":"1099705064","to":"1099705112","type":"create","field":"<java.util.TreeMap: java.util.TreeMap$Node root>"},{"step":6,"from":"1099705064","to":"sdaReg6","type":"create","field":"<java.util.TreeMap: int size>"},{"step":7,"from":"1099705064","to":"1099705064.<java.util.TreeMap: int modCount>","type":"load","field":"<java.util.TreeMap: int modCount>"},{"step":8,"from":"sdaReg7","to":"1099705064","type":"store","field":"<java.util.TreeMap: int modCount>"}],"parameters":[{"id":"1099705064","name":"this","klass":"java.util.TreeMap"},{"id":"1093301176","name":"arg#1","klass":"java.lang.Object"},{"id":"1085707192","name":"arg#2","klass":"java.util.TreeMap$Relation"}],"returns":[{"id":"1099705112","name":"return","klass":"java.util.TreeMap$Node"}],"colors":{"heapLocToColor":{"sdaReg7":[0],"1093301176":[1],"static.<java.util.TreeMap: java.util.Comparator NATURAL_ORDER>":[0, 3],"sdaReg5":[5],"static.<java.util.TreeMap$Relation: java.util.TreeMap$Relation CREATE>":[2, 4],"1099705064":[0],"1099705064.<java.util.TreeMap: int modCount>":[0],"1099705112":[5],"sdaReg3":[5],"1085707192":[2, 4],"sdaReg2":[1],"sdaReg1":[5],"1083970648":[0, 3]},"colorToColor":{"0":[0],"1":[5],"5":[0, 6]},"colorToLabel":{"0":"this","1":"arg#1","2":"arg#2","3":"<java.util.TreeMap: java.util.Comparator NATURAL_ORDER>","4":"<java.util.TreeMap$Relation: java.util.TreeMap$Relation CREATE>","6":"return"}}}

Generated Model
	arg#1->this
	arg#1->return

