Scanning method <java.util.TreeMap: java.util.TreeMap$Node find(java.lang.Object,java.util.TreeMap$Relation)>

All seen event types: LoadStaticRecord, SimpleAssignmentRecord, SwitchRecord, MethodReturnRecord, MethodCallRecord, CastRecord, LoadInstanceRecord, LoadArrayRecord, IfRecord, 
Ignored event types: SwitchRecord, IfRecord, 

JSON Encoded Analysis Data (for visualization):{"heapEdges":[{"step":0,"from":"1099705064","to":"1099725312","type":"load","field":"<java.util.TreeMap: java.util.TreeMap$Node root>"},{"step":1,"from":"1099705064","to":"1083970648","type":"load","field":"<java.util.TreeMap: java.util.Comparator comparator>"},{"step":2,"from":"static.<java.util.TreeMap: java.util.Comparator NATURAL_ORDER>","to":"1083970648","type":"load","field":"<java.util.TreeMap: java.util.Comparator NATURAL_ORDER>"},{"step":3,"from":"1099705064","to":"1099725312","type":"load","field":"<java.util.TreeMap: java.util.TreeMap$Node root>"},{"step":4,"from":"1099725312","to":"1096199648","type":"load","field":"<java.util.TreeMap$Node: java.lang.Object key>"},{"step":5,"from":"1093306400","to":"1096199648","type":"model"},{"step":6,"from":"1093306400","to":"sdaReg2","type":"model"},{"step":7,"from":"1096199648","to":"1093306400","type":"model"},{"step":8,"from":"1096199648","to":"sdaReg2","type":"model"},{"step":9,"from":"1099725312","to":"1099705112","type":"load","field":"<java.util.TreeMap$Node: java.util.TreeMap$Node left>"},{"step":10,"from":"1099705112","to":"1093301176","type":"load","field":"<java.util.TreeMap$Node: java.lang.Object key>"},{"step":11,"from":"1093306400","to":"1093301176","type":"model"},{"step":12,"from":"1093306400","to":"sdaReg5","type":"model"},{"step":13,"from":"1093301176","to":"1093306400","type":"model"},{"step":14,"from":"1093301176","to":"sdaReg5","type":"model"},{"step":15,"from":"static.<java.util.TreeMap$2: int[] $SwitchMap$java$util$TreeMap$Relation>","to":"1085752200","type":"load","field":"<java.util.TreeMap$2: int[] $SwitchMap$java$util$TreeMap$Relation>"},{"step":16,"from":"1085724024","to":"sdaReg6","type":"model"},{"step":17,"from":"1085752200","to":"1085752200.arrayIdx_int:2","type":"load","field":"arrayIdx_int:2"}],"parameters":[{"id":"1099705064","name":"this","klass":"java.util.TreeMap"},{"id":"1093306400","name":"arg#1","klass":"java.lang.Object"},{"id":"1085724024","name":"arg#2","klass":"java.util.TreeMap$Relation"}],"returns":[{"id":"0","name":"return","klass":"java.util.TreeMap$Node"}],"colors":{"heapLocToColor":{"sdaReg6":[2, 7],"1099705064.<java.util.TreeMap: java.util.TreeMap$Node root>":[0],"1085752200":[6],"static.<java.util.TreeMap: java.util.Comparator NATURAL_ORDER>":[0, 3],"1093301176":[0, 1],"sdaReg5":[1, 5],"1099705064":[0],"1085752200.arrayIdx_int:2":[6],"1085724024":[2],"1096199648":[0, 1],"static.<java.util.TreeMap$2: int[] $SwitchMap$java$util$TreeMap$Relation>":[6],"1093306400":[1],"1099705112":[0],"1099725312":[0],"sdaReg3":[1, 4, 5],"sdaReg2":[1, 4],"1083970648":[0, 3]},"colorToColor":{"0":[1, 4, 5],"1":[1, 4, 5]},"colorToLabel":{"0":"this","1":"arg#1","2":"arg#2","3":"<java.util.TreeMap: java.util.Comparator NATURAL_ORDER>","6":"<java.util.TreeMap$2: int[] $SwitchMap$java$util$TreeMap$Relation>","8":"return"}}}

Generated Model
	this->arg#1

