Scanning method <java.util.TreeMap: java.util.TreeMap$Node find(java.lang.Object,java.util.TreeMap$Relation)>

All seen event types: SimpleAssignmentRecord, LoadInstanceRecord, MethodStartRecord, IfRecord, NewObjectRecord, StoreInstanceRecord, LoadStaticRecord, BinaryOperationRecord, MethodCallRecord, MethodReturnRecord, SwitchRecord, CastRecord, LoadArrayRecord, MethodEndRecord, 
Ignored event types: SwitchRecord, IfRecord, 

JSON Encoded Analysis Data (for visualization):{"heapEdges":[{"step":0,"from":"1093233072","to":"1093533024","type":"load","field":"<java.util.TreeMap: java.util.TreeMap$Node root>"},{"step":1,"from":"1093233072","to":"1083970648","type":"load","field":"<java.util.TreeMap: java.util.Comparator comparator>"},{"step":2,"from":"static.<java.util.TreeMap: java.util.Comparator NATURAL_ORDER>","to":"1083970648","type":"load","field":"<java.util.TreeMap: java.util.Comparator NATURAL_ORDER>"},{"step":3,"from":"1093233072","to":"1093533024","type":"load","field":"<java.util.TreeMap: java.util.TreeMap$Node root>"},{"step":4,"from":"1093533024","to":"1093342360","type":"load","field":"<java.util.TreeMap$Node: java.lang.Object key>"},{"step":5,"from":"1093441328","to":"1093342360","type":"model"},{"step":6,"from":"1093441328","to":"sdaReg2","type":"model"},{"step":7,"from":"1093342360","to":"1093441328","type":"model"},{"step":8,"from":"1093342360","to":"sdaReg2","type":"model"},{"step":9,"from":"1093533024","to":"1095563624","type":"load","field":"<java.util.TreeMap$Node: java.util.TreeMap$Node right>"},{"step":10,"from":"1095563624","to":"1093254744","type":"load","field":"<java.util.TreeMap$Node: java.lang.Object key>"},{"step":11,"from":"1093441328","to":"1093254744","type":"model"},{"step":12,"from":"1093441328","to":"sdaReg5","type":"model"},{"step":13,"from":"1093254744","to":"1093441328","type":"model"},{"step":14,"from":"1093254744","to":"sdaReg5","type":"model"},{"step":15,"from":"1095563624","to":"1097092104","type":"load","field":"<java.util.TreeMap$Node: java.util.TreeMap$Node right>"},{"step":16,"from":"1097092104","to":"1093250392","type":"load","field":"<java.util.TreeMap$Node: java.lang.Object key>"},{"step":17,"from":"1093441328","to":"1093250392","type":"model"},{"step":18,"from":"1093441328","to":"sdaReg6","type":"model"},{"step":19,"from":"1093250392","to":"1093441328","type":"model"},{"step":20,"from":"1093250392","to":"sdaReg6","type":"model"},{"step":21,"from":"1097092104","to":"1096599536","type":"load","field":"<java.util.TreeMap$Node: java.util.TreeMap$Node right>"},{"step":22,"from":"1096599536","to":"1093327392","type":"load","field":"<java.util.TreeMap$Node: java.lang.Object key>"},{"step":23,"from":"1093441328","to":"1093327392","type":"model"},{"step":24,"from":"1093441328","to":"sdaReg7","type":"model"},{"step":25,"from":"1093327392","to":"1093441328","type":"model"},{"step":26,"from":"1093327392","to":"sdaReg7","type":"model"},{"step":27,"from":"1096599536","to":"1096265440","type":"load","field":"<java.util.TreeMap$Node: java.util.TreeMap$Node right>"},{"step":28,"from":"1096265440","to":"1093351976","type":"load","field":"<java.util.TreeMap$Node: java.lang.Object key>"},{"step":29,"from":"1093441328","to":"1093351976","type":"model"},{"step":30,"from":"1093441328","to":"sdaReg8","type":"model"},{"step":31,"from":"1093351976","to":"1093441328","type":"model"},{"step":32,"from":"1093351976","to":"sdaReg8","type":"model"},{"step":33,"from":"1096265440","to":"1096043560","type":"load","field":"<java.util.TreeMap$Node: java.util.TreeMap$Node right>"},{"step":34,"from":"1096043560","to":"1093437704","type":"load","field":"<java.util.TreeMap$Node: java.lang.Object key>"},{"step":35,"from":"1093441328","to":"1093437704","type":"model"},{"step":36,"from":"1093441328","to":"sdaReg9","type":"model"},{"step":37,"from":"1093437704","to":"1093441328","type":"model"},{"step":38,"from":"1093437704","to":"sdaReg9","type":"model"},{"step":39,"from":"static.<java.util.TreeMap$2: int[] $SwitchMap$java$util$TreeMap$Relation>","to":"1085752200","type":"load","field":"<java.util.TreeMap$2: int[] $SwitchMap$java$util$TreeMap$Relation>"},{"step":40,"from":"1085707192","to":"sdaReg10","type":"model"},{"step":41,"from":"1085752200","to":"1085752200.arrayIdx_int:3","type":"load","field":"arrayIdx_int:3"},{"step":42,"from":"1096043560","to":"1095583016","type":"store","field":"<java.util.TreeMap$Node: java.util.TreeMap$Node parent>"},{"step":43,"from":"1093441328","to":"1095583016","type":"store","field":"<java.util.TreeMap$Node: java.lang.Object key>"},{"step":44,"from":"1095583016","to":"sdaReg15","type":"create","field":"<java.util.TreeMap$Node: int height>"},{"step":45,"from":"1096043560","to":"1095583016","type":"create","field":"<java.util.TreeMap$Node: java.util.TreeMap$Node right>"},{"step":46,"from":"1093233072","to":"1093233072.<java.util.TreeMap: int size>","type":"load","field":"<java.util.TreeMap: int size>"},{"step":47,"from":"sdaReg18","to":"1093233072","type":"store","field":"<java.util.TreeMap: int size>"},{"step":48,"from":"1093233072","to":"1093233072.<java.util.TreeMap: int modCount>","type":"load","field":"<java.util.TreeMap: int modCount>"},{"step":49,"from":"sdaReg19","to":"1093233072","type":"store","field":"<java.util.TreeMap: int modCount>"},{"step":50,"from":"static.<java.util.TreeMap: boolean $assertionsDisabled>","to":"static.<java.util.TreeMap: boolean $assertionsDisabled>","type":"load","field":"<java.util.TreeMap: boolean $assertionsDisabled>"},{"step":51,"from":"sdaReg25","to":"sdaReg26","type":"model"},{"step":52,"from":"sdaReg25","to":"sdaReg28","type":"model"},{"step":53,"from":"sdaReg26","to":"sdaReg25","type":"model"},{"step":54,"from":"sdaReg26","to":"sdaReg28","type":"model"},{"step":55,"from":"sdaReg29","to":"1096043560","type":"store","field":"<java.util.TreeMap$Node: int height>"},{"step":56,"from":"1096043560","to":"1096265440","type":"load","field":"<java.util.TreeMap$Node: java.util.TreeMap$Node parent>"},{"step":57,"from":"1096265440","to":"1096288112","type":"load","field":"<java.util.TreeMap$Node: java.util.TreeMap$Node left>"},{"step":58,"from":"1096265440","to":"1096043560","type":"load","field":"<java.util.TreeMap$Node: java.util.TreeMap$Node right>"},{"step":59,"from":"1096288112","to":"1096288112.<java.util.TreeMap$Node: int height>","type":"load","field":"<java.util.TreeMap$Node: int height>"},{"step":60,"from":"static.<java.util.TreeMap: boolean $assertionsDisabled>","to":"static.<java.util.TreeMap: boolean $assertionsDisabled>","type":"load","field":"<java.util.TreeMap: boolean $assertionsDisabled>"},{"step":61,"from":"sdaReg25","to":"sdaReg26","type":"model"},{"step":62,"from":"sdaReg25","to":"sdaReg30","type":"model"},{"step":63,"from":"sdaReg26","to":"sdaReg25","type":"model"},{"step":64,"from":"sdaReg26","to":"sdaReg30","type":"model"},{"step":65,"from":"sdaReg29","to":"1096265440","type":"store","field":"<java.util.TreeMap$Node: int height>"},{"step":66,"from":"1096265440","to":"1096599536","type":"load","field":"<java.util.TreeMap$Node: java.util.TreeMap$Node parent>"},{"step":67,"from":"1096599536","to":"1096599912","type":"load","field":"<java.util.TreeMap$Node: java.util.TreeMap$Node left>"},{"step":68,"from":"1096599536","to":"1096265440","type":"load","field":"<java.util.TreeMap$Node: java.util.TreeMap$Node right>"},{"step":69,"from":"1096599912","to":"1096599912.<java.util.TreeMap$Node: int height>","type":"load","field":"<java.util.TreeMap$Node: int height>"},{"step":70,"from":"1096265440","to":"1096288112","type":"load","field":"<java.util.TreeMap$Node: java.util.TreeMap$Node left>"},{"step":71,"from":"1096265440","to":"1096043560","type":"load","field":"<java.util.TreeMap$Node: java.util.TreeMap$Node right>"},{"step":72,"from":"1096288112","to":"1096288112.<java.util.TreeMap$Node: int height>","type":"load","field":"<java.util.TreeMap$Node: int height>"},{"step":73,"from":"1096599536","to":"1096599912","type":"load","field":"<java.util.TreeMap$Node: java.util.TreeMap$Node left>"},{"step":74,"from":"1096599536","to":"1096265440","type":"load","field":"<java.util.TreeMap$Node: java.util.TreeMap$Node right>"},{"step":75,"from":"1096265440","to":"1096288112","type":"load","field":"<java.util.TreeMap$Node: java.util.TreeMap$Node left>"},{"step":76,"from":"1096265440","to":"1096043560","type":"load","field":"<java.util.TreeMap$Node: java.util.TreeMap$Node right>"},{"step":77,"from":"1096288112","to":"1096599536","type":"store","field":"<java.util.TreeMap$Node: java.util.TreeMap$Node right>"},{"step":78,"from":"1096599536","to":"1096288112","type":"store","field":"<java.util.TreeMap$Node: java.util.TreeMap$Node parent>"},{"step":79,"from":"1096599536","to":"1097092104","type":"load","field":"<java.util.TreeMap$Node: java.util.TreeMap$Node parent>"},{"step":80,"from":"1096599536","to":"sdaReg39","type":"create","field":"<java.util.TreeMap$Node: java.util.TreeMap$Node parent>"},{"step":81,"from":"1097092104","to":"1096265440","type":"store","field":"<java.util.TreeMap$Node: java.util.TreeMap$Node parent>"},{"step":82,"from":"1097092104","to":"1095477992","type":"load","field":"<java.util.TreeMap$Node: java.util.TreeMap$Node left>"},{"step":83,"from":"static.<java.util.TreeMap: boolean $assertionsDisabled>","to":"static.<java.util.TreeMap: boolean $assertionsDisabled>","type":"load","field":"<java.util.TreeMap: boolean $assertionsDisabled>"},{"step":84,"from":"1096265440","to":"1097092104","type":"store","field":"<java.util.TreeMap$Node: java.util.TreeMap$Node right>"},{"step":85,"from":"1096599536","to":"1096265440","type":"store","field":"<java.util.TreeMap$Node: java.util.TreeMap$Node left>"},{"step":86,"from":"1096265440","to":"1096599536","type":"store","field":"<java.util.TreeMap$Node: java.util.TreeMap$Node parent>"},{"step":87,"from":"1096599912","to":"1096599912.<java.util.TreeMap$Node: int height>","type":"load","field":"<java.util.TreeMap$Node: int height>"},{"step":88,"from":"1096288112","to":"1096288112.<java.util.TreeMap$Node: int height>","type":"load","field":"<java.util.TreeMap$Node: int height>"},{"step":89,"from":"1096599912.<java.util.TreeMap$Node: int height>","to":"1096288112.<java.util.TreeMap$Node: int height>","type":"model"},{"step":90,"from":"1096599912.<java.util.TreeMap$Node: int height>","to":"sdaReg40","type":"model"},{"step":91,"from":"1096288112.<java.util.TreeMap$Node: int height>","to":"1096599912.<java.util.TreeMap$Node: int height>","type":"model"},{"step":92,"from":"1096288112.<java.util.TreeMap$Node: int height>","to":"sdaReg40","type":"model"},{"step":93,"from":"sdaReg41","to":"1096599536","type":"store","field":"<java.util.TreeMap$Node: int height>"},{"step":94,"from":"sdaReg43","to":"1096265440","type":"store","field":"<java.util.TreeMap$Node: int height>"}],"parameters":[{"id":"1093233072","name":"this","klass":"java.util.TreeMap"},{"id":"1093441328","name":"arg#1","klass":"java.lang.Object"},{"id":"1085707192","name":"arg#2","klass":"java.util.TreeMap$Relation"}],"returns":[{"id":"1095583016","name":"return","klass":"java.util.TreeMap$Node"}],"colors":{"heapLocToColor":{"1096043560":[0],"sdaReg13":[1],"1093233072.<java.util.TreeMap: int size>":[0],"sdaReg14":[12],"1093437704":[0, 1],"sdaReg11":[12],"sdaReg12":[0],"1096265440.<java.util.TreeMap$Node: java.util.TreeMap$Node right>":[0],"1096288112":[0],"1095563624":[0],"sdaReg10":[2, 11],"1085707192":[2],"sdaReg19":[0],"1096599536":[0],"sdaReg17":[12],"sdaReg18":[0],"1096599912":[0],"sdaReg16":[12],"1085752200":[10],"1093233072":[0],"1096265440.<java.util.TreeMap$Node: java.util.TreeMap$Node left>":[0],"static.<java.util.TreeMap$2: int[] $SwitchMap$java$util$TreeMap$Relation>":[10],"static.<java.util.TreeMap: boolean $assertionsDisabled>":[13],"sdaReg41":[16],"sdaReg40":[16],"sdaReg43":[17],"sdaReg42":[17],"1093351976":[0, 1],"1083970648":[0, 3],"1093342360":[0, 1],"1093233072.<java.util.TreeMap: java.util.TreeMap$Node root>":[0],"1096265440.<java.util.TreeMap$Node: java.util.TreeMap$Node parent>":[0],"static.<java.util.TreeMap: java.util.Comparator NATURAL_ORDER>":[0, 3],"1093327392":[0, 1],"1093254744":[0, 1],"1085752200.arrayIdx_int:3":[10],"sdaReg38":[0],"sdaReg37":[0],"1096599536.<java.util.TreeMap$Node: java.util.TreeMap$Node left>":[0],"sdaReg32":[0],"1096599912.<java.util.TreeMap$Node: int height>":[0],"sdaReg30":[15],"sdaReg36":[0],"sdaReg35":[0],"sdaReg34":[0],"sdaReg33":[0],"1093441328":[1],"sdaReg8":[1, 8],"1096265440":[0],"sdaReg9":[1, 9],"sdaReg6":[1, 6],"sdaReg7":[1, 7],"sdaReg5":[1, 5],"1093233072.<java.util.TreeMap: int modCount>":[0],"1096599536.<java.util.TreeMap$Node: java.util.TreeMap$Node parent>":[0],"1097092104":[0],"sdaReg27":[0],"sdaReg29":[14, 15],"sdaReg28":[14],"1093250392":[0, 1],"sdaReg3":[1, 4, 5, 6, 7, 8, 9],"sdaReg2":[1, 4],"1096043560.<java.util.TreeMap$Node: java.util.TreeMap$Node parent>":[0],"sdaReg21":[0],"1095477992":[0],"1096599536.<java.util.TreeMap$Node: java.util.TreeMap$Node right>":[0],"1093533024":[0],"sdaReg20":[0],"1096288112.<java.util.TreeMap$Node: int height>":[0],"sdaReg23":[0],"sdaReg25":[0],"1095583016":[12]},"colorToColor":{"17":[0],"0":[0, 16, 1, 4, 5, 6, 7, 8, 9, 12, 15],"16":[0],"1":[1, 4, 5, 6, 7, 8, 9, 12],"12":[0, 18],"14":[0],"15":[0]},"colorToLabel":{"0":"this","1":"arg#1","2":"arg#2","3":"<java.util.TreeMap: java.util.Comparator NATURAL_ORDER>","10":"<java.util.TreeMap$2: int[] $SwitchMap$java$util$TreeMap$Relation>","13":"<java.util.TreeMap: boolean $assertionsDisabled>","18":"return"}}}

Generated Model
	this->return
	this->arg#1
	arg#1->this
	arg#1->return

