Scanning method <android.location.Address: void <clinit>()>

All seen event types: StoreStaticRecord, MethodReturnRecord, MethodCallRecord, MethodStartRecord, MethodEndRecord, NewObjectRecord, 
Ignored event types: 

JSON Encoded Analysis Data (for visualization):{"heapEdges":[{"step":0,"from":"static.<android.location.Address: android.os.Parcelable$Creator CREATOR>","to":"1093487080","type":"create","field":"<android.location.Address: android.os.Parcelable$Creator CREATOR>"}],"parameters":[],"returns":[{"id":null,"name":"return","klass":null}],"colors":{"heapLocToColor":{"1093487080":[0],"sdaReg2":[0],"sdaReg1":[0],"sdaReg0":[0],"static.<android.location.Address: android.os.Parcelable$Creator CREATOR>":[1]},"colorToColor":{"0":[1]},"colorToLabel":{"1":"<android.location.Address: android.os.Parcelable$Creator CREATOR>","2":"return"}}}

Generated Model

