Scanning method <java.net.URLConnection: void <init>(java.net.URL)>

All seen event types: LoadStaticRecord, MethodReturnRecord, MethodCallRecord, MethodStartRecord, MethodEndRecord, StoreInstanceRecord, NewObjectRecord, 
Ignored event types: 

JSON Encoded Analysis Data (for visualization):{"heapEdges":[{"step":0,"from":"1093607328","to":"1093267576","type":"create","field":"<java.net.URLConnection: java.net.ContentHandler defaultHandler>"},{"step":1,"from":"1093607328","to":"sdaReg6","type":"create","field":"<java.net.URLConnection: long lastModified>"},{"step":2,"from":"static.<java.net.URLConnection: boolean defaultUseCaches>","to":"static.<java.net.URLConnection: boolean defaultUseCaches>","type":"load","field":"<java.net.URLConnection: boolean defaultUseCaches>"},{"step":3,"from":"static.<java.net.URLConnection: boolean defaultUseCaches>","to":"1093607328","type":"store","field":"<java.net.URLConnection: boolean useCaches>"},{"step":4,"from":"1093607328","to":"sdaReg7","type":"create","field":"<java.net.URLConnection: boolean doInput>"},{"step":5,"from":"static.<java.net.URLConnection: boolean defaultAllowUserInteraction>","to":"static.<java.net.URLConnection: boolean defaultAllowUserInteraction>","type":"load","field":"<java.net.URLConnection: boolean defaultAllowUserInteraction>"},{"step":6,"from":"static.<java.net.URLConnection: boolean defaultAllowUserInteraction>","to":"1093607328","type":"store","field":"<java.net.URLConnection: boolean allowUserInteraction>"},{"step":7,"from":"1093607328","to":"sdaReg8","type":"create","field":"<java.net.URLConnection: int readTimeout>"},{"step":8,"from":"1093607328","to":"sdaReg9","type":"create","field":"<java.net.URLConnection: int connectTimeout>"},{"step":9,"from":"1093663928","to":"1093607328","type":"store","field":"<java.net.URLConnection: java.net.URL url>"}],"parameters":[{"id":"1093607328","name":"this","klass":"java.net.URLConnection"},{"id":"1093663928","name":"arg#1","klass":"java.net.URL"}],"returns":[{"id":"1093607328","name":"return","klass":"java.net.URLConnection"}],"colors":{"heapLocToColor":{"1093267576":[2],"static.<java.net.URLConnection: boolean defaultAllowUserInteraction>":[4],"sdaReg4":[2],"sdaReg5":[2],"sdaReg3":[2],"sdaReg2":[2],"sdaReg1":[2],"sdaReg0":[0],"1093663928":[1],"1093607328":[0],"static.<java.net.URLConnection: boolean defaultUseCaches>":[3]},"colorToColor":{"0":[5],"1":[0],"2":[0],"3":[0],"4":[0]},"colorToLabel":{"0":"this","1":"arg#1","3":"<java.net.URLConnection: boolean defaultUseCaches>","4":"<java.net.URLConnection: boolean defaultAllowUserInteraction>","5":"return"}}}

Generated Model
	this->return
	arg#1->this
	arg#1->return

