Scanning method <android.location.Address: void clearLatitude()>

All seen event types: StoreInstanceRecord, 
Ignored event types: 

JSON Encoded Analysis Data (for visualization):{"heapEdges":[{"step":0,"from":"1093890656","to":"sdaReg0","type":"create","field":"<android.location.Address: boolean mHasLatitude>"}],"parameters":[{"id":"1093890656","name":"this","klass":"android.location.Address"}],"returns":[{"id":null,"name":"return","klass":null}],"colors":{"heapLocToColor":{"1093890656":[0]},"colorToColor":{},"colorToLabel":{"0":"this","1":"return"}}}

Generated Model

