Scanning method <java.io.BufferedWriter: boolean isClosed()>

All seen event types: SimpleAssignmentRecord, LoadInstanceRecord, IfRecord, 
Ignored event types: IfRecord, 

JSON Encoded Analysis Data (for visualization):{"heapEdges":[],"parameters":[{"id":"1093649360","name":"this","klass":"java.io.BufferedWriter"}],"returns":[{"id":"sdaReg0","name":"return","klass":"boolean"}],"colors":{"heapLocToColor":{"1093649360":[0]},"colorToColor":{},"colorToLabel":{"0":"this","1":"return"}}}

Generated Model

