Scanning method <java.util.Vector: void insertElementAt(java.lang.Object,int)>

All seen event types: BinaryOperationRecord, StoreArrayRecord, MethodReturnRecord, MethodCallRecord, ArrayLengthRecord, LoadInstanceRecord, IfRecord, StoreInstanceRecord, 
Ignored event types: IfRecord, 

JSON Encoded Analysis Data (for visualization):{"heapEdges":[{"step":0,"from":"1093628048","to":"1093628048.<java.util.Vector: int elementCount>","type":"load","field":"<java.util.Vector: int elementCount>"},{"step":1,"from":"1093628048","to":"1093628048.<java.util.Vector: int elementCount>","type":"load","field":"<java.util.Vector: int elementCount>"},{"step":2,"from":"1093628048","to":"1093669616","type":"load","field":"<java.util.Vector: java.lang.Object[] elementData>"},{"step":3,"from":"1093628048","to":"1093628048.<java.util.Vector: int elementCount>","type":"load","field":"<java.util.Vector: int elementCount>"},{"step":4,"from":"1093628048","to":"1093669616","type":"load","field":"<java.util.Vector: java.lang.Object[] elementData>"},{"step":5,"from":"1093628048","to":"1093669616","type":"load","field":"<java.util.Vector: java.lang.Object[] elementData>"},{"step":6,"from":"1093628048","to":"1093669616","type":"load","field":"<java.util.Vector: java.lang.Object[] elementData>"},{"step":7,"from":"1093628048","to":"1093628048.<java.util.Vector: int elementCount>","type":"load","field":"<java.util.Vector: int elementCount>"},{"step":8,"from":"sdaReg4","to":"1093628048","type":"store","field":"<java.util.Vector: int elementCount>"},{"step":9,"from":"1093628048","to":"1093628048.<java.util.AbstractList: int modCount>","type":"load","field":"<java.util.AbstractList: int modCount>"},{"step":10,"from":"sdaReg5","to":"1093628048","type":"store","field":"<java.util.AbstractList: int modCount>"}],"parameters":[{"id":"1093628048","name":"this","klass":"java.util.Vector"},{"id":"0","name":"arg#1","klass":"java.lang.Object"},{"id":"sdaReg0","name":"arg#2","klass":"int"}],"returns":[{"id":null,"name":"return","klass":null}],"colors":{"heapLocToColor":{"1093628048.<java.util.Vector: int elementCount>":[0],"0":[1],"1093628048.<java.util.Vector: java.lang.Object[] elementData>":[0],"1093669616":[0],"sdaReg4":[0],"sdaReg5":[0],"1093628048.<java.util.AbstractList: int modCount>":[0],"sdaReg3":[2],"sdaReg2":[0, 2],"sdaReg0":[2],"1093628048":[0]},"colorToColor":{"0":[0]},"colorToLabel":{"0":"this","1":"arg#1","2":"arg#2","3":"return"}}}

Generated Model

