Scanning method <java.util.Vector: void insertElementAt(java.lang.Object,int)>

All seen event types: BinaryOperationRecord, StoreArrayRecord, MethodReturnRecord, MethodCallRecord, ArrayLengthRecord, LoadInstanceRecord, IfRecord, StoreInstanceRecord, 
Ignored event types: IfRecord, 

JSON Encoded Analysis Data (for visualization):{"heapEdges":[{"step":0,"from":"1093368616","to":"1093368616.<java.util.Vector: int elementCount>","type":"load","field":"<java.util.Vector: int elementCount>"},{"step":1,"from":"1093368616","to":"1093368616.<java.util.Vector: int elementCount>","type":"load","field":"<java.util.Vector: int elementCount>"},{"step":2,"from":"1093368616","to":"1096262136","type":"load","field":"<java.util.Vector: java.lang.Object[] elementData>"},{"step":3,"from":"1093368616","to":"1093368616.<java.util.Vector: int elementCount>","type":"load","field":"<java.util.Vector: int elementCount>"},{"step":4,"from":"1093368616","to":"1096262136","type":"load","field":"<java.util.Vector: java.lang.Object[] elementData>"},{"step":5,"from":"1093368616","to":"1096262136","type":"load","field":"<java.util.Vector: java.lang.Object[] elementData>"},{"step":6,"from":"1093368616","to":"1096262136","type":"load","field":"<java.util.Vector: java.lang.Object[] elementData>"},{"step":7,"from":"1093481720","to":"1096262136","type":"store","field":"arrayIdx_int:0"},{"step":8,"from":"1093368616","to":"1093368616.<java.util.Vector: int elementCount>","type":"load","field":"<java.util.Vector: int elementCount>"},{"step":9,"from":"sdaReg4","to":"1093368616","type":"store","field":"<java.util.Vector: int elementCount>"},{"step":10,"from":"1093368616","to":"1093368616.<java.util.AbstractList: int modCount>","type":"load","field":"<java.util.AbstractList: int modCount>"},{"step":11,"from":"sdaReg5","to":"1093368616","type":"store","field":"<java.util.AbstractList: int modCount>"}],"parameters":[{"id":"1093368616","name":"this","klass":"java.util.Vector"},{"id":"1093481720","name":"arg#1","klass":"java.lang.Object"},{"id":"sdaReg0","name":"arg#2","klass":"int"}],"returns":[{"id":null,"name":"return","klass":null}],"colors":{"heapLocToColor":{"1093481720":[1],"1093368616":[0],"1093368616.<java.util.Vector: java.lang.Object[] elementData>":[0],"sdaReg4":[0],"sdaReg5":[0],"sdaReg3":[2],"1093368616.<java.util.AbstractList: int modCount>":[0],"sdaReg2":[0, 2],"sdaReg0":[2],"1096262136":[0],"1093368616.<java.util.Vector: int elementCount>":[0]},"colorToColor":{"0":[0],"1":[0]},"colorToLabel":{"0":"this","1":"arg#1","2":"arg#2","3":"return"}}}

Generated Model
	arg#1->this

