Scanning method <java.util.ArrayList: boolean addAll(java.util.Collection)>

All seen event types: NewArrayRecord, BinaryOperationRecord, SimpleAssignmentRecord, MethodReturnRecord, MethodCallRecord, ArrayLengthRecord, LoadInstanceRecord, MethodStartRecord, IfRecord, MethodEndRecord, StoreInstanceRecord, 
Ignored event types: IfRecord, 

JSON Encoded Analysis Data (for visualization):{"heapEdges":[{"step":0,"from":"1093428536","to":"1093428536.<java.util.ArrayList: int size>","type":"load","field":"<java.util.ArrayList: int size>"},{"step":1,"from":"1093428536","to":"1093512160","type":"load","field":"<java.util.ArrayList: java.lang.Object[] array>"},{"step":2,"from":"1093512160","to":"1093514504","type":"model"},{"step":3,"from":"1093632904","to":"1083994088","type":"load","field":"<java.util.ArrayList: java.lang.Object[] array>"},{"step":4,"from":"1093632904","to":"1093632904.<java.util.ArrayList: int size>","type":"load","field":"<java.util.ArrayList: int size>"},{"step":5,"from":"1083994088","to":"1093448880","type":"model"},{"step":6,"from":"1093632904","to":"1093448880","type":"create","field":"<java.util.ArrayList: java.lang.Object[] array>"},{"step":7,"from":"1093514504","to":"1093448880","type":"model"},{"step":8,"from":"sdaReg3","to":"1093632904","type":"store","field":"<java.util.ArrayList: int size>"},{"step":9,"from":"1093632904","to":"1093632904.<java.util.AbstractList: int modCount>","type":"load","field":"<java.util.AbstractList: int modCount>"},{"step":10,"from":"sdaReg9","to":"1093632904","type":"store","field":"<java.util.AbstractList: int modCount>"}],"parameters":[{"id":"1093632904","name":"this","klass":"java.util.ArrayList"},{"id":"1093428536","name":"arg#1","klass":"java.util.Collection"}],"returns":[{"id":null,"name":"return","klass":"boolean"}],"colors":{"heapLocToColor":{"sdaReg8":[0],"1093448880":[3],"sdaReg9":[0],"1093632904":[0],"1093632904.<java.util.ArrayList: int size>":[0],"1093514504":[2],"sdaReg5":[0],"1093428536.<java.util.ArrayList: int size>":[1],"1083994088":[0],"1093632904.<java.util.AbstractList: int modCount>":[0],"1093512160":[1],"sdaReg3":[0],"sdaReg1":[2],"sdaReg0":[1],"1093428536":[1]},"colorToColor":{"0":[0, 3],"1":[2],"2":[3],"3":[0]},"colorToLabel":{"0":"this","1":"arg#1","4":"return"}}}

Generated Model
	arg#1->this

