Scanning method <java.util.ArrayList: boolean addAll(java.util.Collection)>

All seen event types: NewArrayRecord, BinaryOperationRecord, SimpleAssignmentRecord, MethodReturnRecord, MethodCallRecord, ArrayLengthRecord, LoadInstanceRecord, MethodStartRecord, IfRecord, MethodEndRecord, StoreInstanceRecord, 
Ignored event types: IfRecord, 

JSON Encoded Analysis Data (for visualization):{"heapEdges":[{"step":0,"from":"1093407352","to":"1093407352.<java.util.ArrayList: int size>","type":"load","field":"<java.util.ArrayList: int size>"},{"step":1,"from":"1093407352","to":"1093686080","type":"load","field":"<java.util.ArrayList: java.lang.Object[] array>"},{"step":2,"from":"1093686080","to":"1093933312","type":"model"},{"step":3,"from":"1093407352","to":"1093686080","type":"load","field":"<java.util.ArrayList: java.lang.Object[] array>"},{"step":4,"from":"1093407352","to":"1093407352.<java.util.ArrayList: int size>","type":"load","field":"<java.util.ArrayList: int size>"},{"step":5,"from":"1093686080","to":"1093933736","type":"model"},{"step":6,"from":"1093407352","to":"1093933736","type":"create","field":"<java.util.ArrayList: java.lang.Object[] array>"},{"step":7,"from":"1093933312","to":"1093933736","type":"model"},{"step":8,"from":"sdaReg3","to":"1093407352","type":"store","field":"<java.util.ArrayList: int size>"},{"step":9,"from":"1093407352","to":"1093407352.<java.util.AbstractList: int modCount>","type":"load","field":"<java.util.AbstractList: int modCount>"},{"step":10,"from":"sdaReg9","to":"1093407352","type":"store","field":"<java.util.AbstractList: int modCount>"}],"parameters":[{"id":"1093407352","name":"this","klass":"java.util.ArrayList"},{"id":"1093407352","name":"arg#1","klass":"java.util.Collection"}],"returns":[{"id":null,"name":"return","klass":"boolean"}],"colors":{"heapLocToColor":{"sdaReg8":[0, 1],"1093933736":[3],"sdaReg9":[0, 1],"sdaReg6":[0, 1],"sdaReg7":[0, 1],"1093407352.<java.util.ArrayList: int size>":[0, 1],"sdaReg5":[0, 1],"1093686080":[0, 1],"1093407352.<java.util.AbstractList: int modCount>":[0, 1],"1093933312":[2],"1093407352":[0, 1],"sdaReg3":[0, 1],"sdaReg1":[2],"sdaReg0":[0, 1],"1093407352.<java.util.ArrayList: java.lang.Object[] array>":[0, 1]},"colorToColor":{"0":[0, 1, 2, 3],"1":[0, 1, 2, 3],"2":[3],"3":[0, 1]},"colorToLabel":{"0":"this","1":"arg#1","4":"return"}}}

Generated Model
	this->arg#1
	arg#1->this

