Scanning method <java.util.ArrayList: boolean addAll(java.util.Collection)>

All seen event types: NewArrayRecord, BinaryOperationRecord, MethodReturnRecord, MethodCallRecord, ArrayLengthRecord, LoadInstanceRecord, MethodStartRecord, IfRecord, MethodEndRecord, StoreInstanceRecord, 
Ignored event types: IfRecord, 

JSON Encoded Analysis Data (for visualization):{"heapEdges":[{"step":0,"from":"1094245016","to":"1094245016.<java.util.ArrayList: int size>","type":"load","field":"<java.util.ArrayList: int size>"},{"step":1,"from":"1094245016","to":"1093288880","type":"load","field":"<java.util.ArrayList: java.lang.Object[] array>"},{"step":2,"from":"1093288880","to":"1094249752","type":"model"},{"step":3,"from":"1093284504","to":"1094356616","type":"load","field":"<java.util.ArrayList: java.lang.Object[] array>"},{"step":4,"from":"1093284504","to":"1093284504.<java.util.ArrayList: int size>","type":"load","field":"<java.util.ArrayList: int size>"},{"step":5,"from":"1094249752","to":"1094356616","type":"model"},{"step":6,"from":"sdaReg3","to":"1093284504","type":"store","field":"<java.util.ArrayList: int size>"},{"step":7,"from":"1093284504","to":"1093284504.<java.util.AbstractList: int modCount>","type":"load","field":"<java.util.AbstractList: int modCount>"},{"step":8,"from":"sdaReg5","to":"1093284504","type":"store","field":"<java.util.AbstractList: int modCount>"}],"parameters":[{"id":"1093284504","name":"this","klass":"java.util.ArrayList"},{"id":"1094245016","name":"arg#1","klass":"java.util.Collection"}],"returns":[{"id":null,"name":"return","klass":"boolean"}],"colors":{"heapLocToColor":{"1093284504":[0],"1093284504.<java.util.AbstractList: int modCount>":[0],"1093288880":[1],"sdaReg5":[0],"sdaReg3":[0],"1093284504.<java.util.ArrayList: int size>":[0],"1094356616":[0],"sdaReg1":[2],"sdaReg0":[1],"1094245016":[1],"1094249752":[2],"1094245016.<java.util.ArrayList: int size>":[1]},"colorToColor":{"0":[0],"1":[2],"2":[0]},"colorToLabel":{"0":"this","1":"arg#1","3":"return"}}}

Generated Model
	arg#1->this

