Scanning method <java.util.ArrayList: boolean addAll(java.util.Collection)>

All seen event types: NewArrayRecord, BinaryOperationRecord, MethodReturnRecord, MethodCallRecord, ArrayLengthRecord, LoadInstanceRecord, MethodStartRecord, IfRecord, MethodEndRecord, StoreInstanceRecord, 
Ignored event types: IfRecord, 

JSON Encoded Analysis Data (for visualization):{"heapEdges":[{"step":0,"from":"1093495992","to":"1093495992.<java.util.ArrayList: int size>","type":"load","field":"<java.util.ArrayList: int size>"},{"step":1,"from":"1093495992","to":"1093941504","type":"load","field":"<java.util.ArrayList: java.lang.Object[] array>"},{"step":2,"from":"1093941504","to":"1093498696","type":"model"},{"step":3,"from":"1093393904","to":"1094092520","type":"load","field":"<java.util.ArrayList: java.lang.Object[] array>"},{"step":4,"from":"1093393904","to":"1093393904.<java.util.ArrayList: int size>","type":"load","field":"<java.util.ArrayList: int size>"},{"step":5,"from":"1093498696","to":"1094092520","type":"model"},{"step":6,"from":"sdaReg3","to":"1093393904","type":"store","field":"<java.util.ArrayList: int size>"},{"step":7,"from":"1093393904","to":"1093393904.<java.util.AbstractList: int modCount>","type":"load","field":"<java.util.AbstractList: int modCount>"},{"step":8,"from":"sdaReg5","to":"1093393904","type":"store","field":"<java.util.AbstractList: int modCount>"}],"parameters":[{"id":"1093393904","name":"this","klass":"java.util.ArrayList"},{"id":"1093495992","name":"arg#1","klass":"java.util.Collection"}],"returns":[{"id":null,"name":"return","klass":"boolean"}],"colors":{"heapLocToColor":{"1093495992":[1],"1093495992.<java.util.ArrayList: int size>":[1],"1093941504":[1],"1093393904.<java.util.AbstractList: int modCount>":[0],"1094092520":[0],"1093498696":[2],"1093393904":[0],"sdaReg5":[0],"sdaReg3":[0],"sdaReg1":[2],"sdaReg0":[1],"1093393904.<java.util.ArrayList: int size>":[0]},"colorToColor":{"0":[0],"1":[2],"2":[0]},"colorToLabel":{"0":"this","1":"arg#1","3":"return"}}}

Generated Model
	arg#1->this

