Scanning method <java.util.ArrayList: boolean addAll(java.util.Collection)>

All seen event types: NewArrayRecord, BinaryOperationRecord, SimpleAssignmentRecord, MethodReturnRecord, MethodCallRecord, ArrayLengthRecord, LoadInstanceRecord, MethodStartRecord, IfRecord, MethodEndRecord, StoreInstanceRecord, 
Ignored event types: IfRecord, 

JSON Encoded Analysis Data (for visualization):{"heapEdges":[{"step":0,"from":"1093670920","to":"1093670920.<java.util.ArrayList: int size>","type":"load","field":"<java.util.ArrayList: int size>"},{"step":1,"from":"1093670920","to":"1093531176","type":"load","field":"<java.util.ArrayList: java.lang.Object[] array>"},{"step":2,"from":"1093531176","to":"1093531520","type":"model"},{"step":3,"from":"1093663912","to":"1083994088","type":"load","field":"<java.util.ArrayList: java.lang.Object[] array>"},{"step":4,"from":"1093663912","to":"1093663912.<java.util.ArrayList: int size>","type":"load","field":"<java.util.ArrayList: int size>"},{"step":5,"from":"1083994088","to":"1093491872","type":"model"},{"step":6,"from":"1093663912","to":"1093491872","type":"create","field":"<java.util.ArrayList: java.lang.Object[] array>"},{"step":7,"from":"1093531520","to":"1093491872","type":"model"},{"step":8,"from":"sdaReg3","to":"1093663912","type":"store","field":"<java.util.ArrayList: int size>"},{"step":9,"from":"1093663912","to":"1093663912.<java.util.AbstractList: int modCount>","type":"load","field":"<java.util.AbstractList: int modCount>"},{"step":10,"from":"sdaReg9","to":"1093663912","type":"store","field":"<java.util.AbstractList: int modCount>"}],"parameters":[{"id":"1093663912","name":"this","klass":"java.util.ArrayList"},{"id":"1093670920","name":"arg#1","klass":"java.util.Collection"}],"returns":[{"id":null,"name":"return","klass":"boolean"}],"colors":{"heapLocToColor":{"sdaReg8":[0],"sdaReg9":[0],"1093670920.<java.util.ArrayList: int size>":[1],"sdaReg5":[0],"1093663912.<java.util.ArrayList: int size>":[0],"1093663912":[0],"1093670920":[1],"1093491872":[3],"1093663912.<java.util.AbstractList: int modCount>":[0],"1083994088":[0],"sdaReg3":[0],"1093531176":[1],"sdaReg1":[2],"sdaReg0":[1],"1093531520":[2]},"colorToColor":{"0":[0, 3],"1":[2],"2":[3],"3":[0]},"colorToLabel":{"0":"this","1":"arg#1","4":"return"}}}

Generated Model
	arg#1->this

