Scanning method <android.os.Bundle: char getChar(java.lang.String)>

All seen event types: StoreArrayRecord, SimpleAssignmentRecord, ExitMonitorRecord, MethodStartRecord, LoadInstanceRecord, IfRecord, InstanceOfRecord, NewObjectRecord, StoreInstanceRecord, NewArrayRecord, LoadStaticRecord, BinaryOperationRecord, MethodCallRecord, MethodReturnRecord, SwitchRecord, EnterMonitorRecord, CastRecord, ArrayLengthRecord, LoadArrayRecord, MethodEndRecord, 
Ignored event types: ExitMonitorRecord, SwitchRecord, EnterMonitorRecord, IfRecord, 

JSON Encoded Analysis Data (for visualization):{"heapEdges":[{"step":0,"from":"1093769184","to":"1093478240","type":"load","field":"<android.os.Bundle: android.os.Parcel mParcelledData>"},{"step":1,"from":"1093769184","to":"1093478240","type":"load","field":"<android.os.Bundle: android.os.Parcel mParcelledData>"},{"step":2,"from":"1093478240","to":"sdaReg2","type":"model"},{"step":3,"from":"static.<java.util.HashMap: java.util.Map$Entry[] EMPTY_TABLE>","to":"1083997920","type":"load","field":"<java.util.HashMap: java.util.Map$Entry[] EMPTY_TABLE>"},{"step":4,"from":"1083997920","to":"1093945336","type":"store","field":"<java.util.HashMap: java.util.HashMap$HashMapEntry[] table>"},{"step":5,"from":"1093945336","to":"sdaReg9","type":"create","field":"<java.util.HashMap: int threshold>"},{"step":6,"from":"1093769184","to":"1093945336","type":"create","field":"<android.os.Bundle: java.util.Map mMap>"},{"step":7,"from":"1093769184","to":"1093478240","type":"load","field":"<android.os.Bundle: android.os.Parcel mParcelledData>"},{"step":8,"from":"1093478240","to":"sdaReg16","type":"model"},{"step":9,"from":"1093478240","to":"sdaReg17","type":"model"},{"step":10,"from":"1093478240","to":"sdaReg21","type":"model"},{"step":11,"from":"1093478240","to":"sdaReg23","type":"model"},{"step":12,"from":"1093478240","to":"1093917168","type":"model"},{"step":13,"from":"1093917240","to":"sdaReg30","type":"create","field":"<java.io.ByteArrayInputStream: int mark>"},{"step":14,"from":"1093917240","to":"1093917168","type":"create","field":"<java.io.ByteArrayInputStream: byte[] buf>"},{"step":15,"from":"sdaReg31","to":"1093917240","type":"store","field":"<java.io.ByteArrayInputStream: int count>"},{"step":16,"from":"static.<libcore.util.EmptyArray: byte[] BYTE>","to":"1083993968","type":"load","field":"<libcore.util.EmptyArray: byte[] BYTE>"},{"step":17,"from":"1093783616","to":"sdaReg44","type":"create","field":"<java.io.ByteArrayInputStream: int mark>"},{"step":18,"from":"1083993968","to":"1093783616","type":"store","field":"<java.io.ByteArrayInputStream: byte[] buf>"},{"step":19,"from":"sdaReg45","to":"1093783616","type":"store","field":"<java.io.ByteArrayInputStream: int count>"},{"step":20,"from":"1093783528","to":"1093783616","type":"create","field":"<java.io.ObjectInputStream: java.io.InputStream emptyStream>"},{"step":21,"from":"1093783616","to":"1093783528","type":"store","field":"<java.io.ObjectInputStream: java.io.InputStream primitiveData>"},{"step":22,"from":"1093783528","to":"sdaReg47","type":"create","field":"<java.io.ObjectInputStream: boolean mustResolve>"},{"step":23,"from":"1093783528","to":"sdaReg48","type":"create","field":"<java.io.ObjectInputStream: int descriptorHandle>"},{"step":24,"from":"static.<java.util.HashMap: java.util.Map$Entry[] EMPTY_TABLE>","to":"1083997920","type":"load","field":"<java.util.HashMap: java.util.Map$Entry[] EMPTY_TABLE>"},{"step":25,"from":"1083997920","to":"1093888328","type":"store","field":"<java.util.HashMap: java.util.HashMap$HashMapEntry[] table>"},{"step":26,"from":"1093888328","to":"sdaReg55","type":"create","field":"<java.util.HashMap: int threshold>"},{"step":27,"from":"1093783528","to":"1093888328","type":"create","field":"<java.io.ObjectInputStream: java.util.HashMap cachedSuperclasses>"},{"step":28,"from":"1093888384","to":"1093917240","type":"create","field":"<java.io.FilterInputStream: java.io.InputStream in>"},{"step":29,"from":"1093888384","to":"1093890272","type":"create","field":"<java.io.DataInputStream: byte[] scratch>"},{"step":30,"from":"1093783528","to":"1093888384","type":"create","field":"<java.io.ObjectInputStream: java.io.DataInputStream input>"},{"step":31,"from":"1093890304","to":"1093783528","type":"create","field":"<java.io.FilterInputStream: java.io.InputStream in>"},{"step":32,"from":"1093890304","to":"1093890328","type":"create","field":"<java.io.DataInputStream: byte[] scratch>"},{"step":33,"from":"1093783528","to":"1093890304","type":"create","field":"<java.io.ObjectInputStream: java.io.DataInputStream primitiveTypes>"},{"step":34,"from":"1093783528","to":"sdaReg76","type":"create","field":"<java.io.ObjectInputStream: boolean enableResolve>"},{"step":35,"from":"1093783528","to":"sdaReg77","type":"create","field":"<java.io.ObjectInputStream: boolean subclassOverridingImplementation>"},{"step":36,"from":"static.<libcore.util.EmptyArray: java.lang.Object[] OBJECT>","to":"1083994088","type":"load","field":"<libcore.util.EmptyArray: java.lang.Object[] OBJECT>"},{"step":37,"from":"1083994088","to":"1093890360","type":"store","field":"<java.util.ArrayList: java.lang.Object[] array>"},{"step":38,"from":"1093783528","to":"1093890360","type":"create","field":"<java.io.ObjectInputStream: java.util.ArrayList objectsRead>"},{"step":39,"from":"1093783528","to":"sdaReg87","type":"create","field":"<java.io.ObjectInputStream: int nextHandle>"},{"step":40,"from":"1093783616","to":"1093783528","type":"store","field":"<java.io.ObjectInputStream: java.io.InputStream primitiveData>"},{"step":41,"from":"1093783528","to":"sdaReg88","type":"create","field":"<java.io.ObjectInputStream: boolean hasPushbackTC>"},{"step":42,"from":"1093783528","to":"sdaReg89","type":"create","field":"<java.io.ObjectInputStream: byte pushbackTC>"},{"step":43,"from":"1093783528","to":"sdaReg90","type":"create","field":"<java.io.ObjectInputStream: int nestedLevels>"},{"step":44,"from":"1093888384","to":"1093783528","type":"store","field":"<java.io.ObjectInputStream: java.io.InputStream primitiveData>"},{"step":45,"from":"1093917240","to":"1093890272","type":"model"},{"step":46,"from":"static.<java.nio.ByteOrder: java.nio.ByteOrder BIG_ENDIAN>","to":"1084439336","type":"load","field":"<java.nio.ByteOrder: java.nio.ByteOrder BIG_ENDIAN>"},{"step":47,"from":"1093890272","to":"sdaReg93","type":"model"},{"step":48,"from":"1093917240","to":"1093890272","type":"model"},{"step":49,"from":"static.<java.nio.ByteOrder: java.nio.ByteOrder BIG_ENDIAN>","to":"1084439336","type":"load","field":"<java.nio.ByteOrder: java.nio.ByteOrder BIG_ENDIAN>"},{"step":50,"from":"1093890272","to":"sdaReg95","type":"model"},{"step":51,"from":"1093783616","to":"1093783528","type":"store","field":"<java.io.ObjectInputStream: java.io.InputStream primitiveData>"},{"step":52,"from":"sdaReg103","to":"1093783528","type":"store","field":"<java.io.ObjectInputStream: int nestedLevels>"},{"step":53,"from":"1093676392","to":"1085809544","type":"load","field":"arrayIdx_int:0"},{"step":54,"from":"1085809544","to":"1083999984","type":"model"},{"step":55,"from":"static.<java.io.ObjectInputStream: java.lang.ClassLoader bootstrapLoader>","to":"1083999984","type":"load","field":"<java.io.ObjectInputStream: java.lang.ClassLoader bootstrapLoader>"},{"step":56,"from":"1093676392","to":"1085809544","type":"load","field":"arrayIdx_int:1"},{"step":57,"from":"1085809544","to":"1083999984","type":"model"},{"step":58,"from":"static.<java.io.ObjectInputStream: java.lang.ClassLoader bootstrapLoader>","to":"1083999984","type":"load","field":"<java.io.ObjectInputStream: java.lang.ClassLoader bootstrapLoader>"},{"step":59,"from":"1093676392","to":"1085809544","type":"load","field":"arrayIdx_int:2"},{"step":60,"from":"1085809544","to":"1083999984","type":"model"},{"step":61,"from":"static.<java.io.ObjectInputStream: java.lang.ClassLoader bootstrapLoader>","to":"1083999984","type":"load","field":"<java.io.ObjectInputStream: java.lang.ClassLoader bootstrapLoader>"},{"step":62,"from":"1093676392","to":"1085809544","type":"load","field":"arrayIdx_int:3"},{"step":63,"from":"1085809544","to":"1083999984","type":"model"},{"step":64,"from":"static.<java.io.ObjectInputStream: java.lang.ClassLoader bootstrapLoader>","to":"1083999984","type":"load","field":"<java.io.ObjectInputStream: java.lang.ClassLoader bootstrapLoader>"},{"step":65,"from":"1093676392","to":"1085809544","type":"load","field":"arrayIdx_int:4"},{"step":66,"from":"1085809544","to":"1083999984","type":"model"},{"step":67,"from":"static.<java.io.ObjectInputStream: java.lang.ClassLoader bootstrapLoader>","to":"1083999984","type":"load","field":"<java.io.ObjectInputStream: java.lang.ClassLoader bootstrapLoader>"},{"step":68,"from":"1093676392","to":"1084021776","type":"load","field":"arrayIdx_int:5"},{"step":69,"from":"1084021776","to":"1083999984","type":"model"},{"step":70,"from":"static.<java.io.ObjectInputStream: java.lang.ClassLoader bootstrapLoader>","to":"1083999984","type":"load","field":"<java.io.ObjectInputStream: java.lang.ClassLoader bootstrapLoader>"},{"step":71,"from":"1093676392","to":"1084021776","type":"load","field":"arrayIdx_int:6"},{"step":72,"from":"1084021776","to":"1083999984","type":"model"},{"step":73,"from":"static.<java.io.ObjectInputStream: java.lang.ClassLoader bootstrapLoader>","to":"1083999984","type":"load","field":"<java.io.ObjectInputStream: java.lang.ClassLoader bootstrapLoader>"},{"step":74,"from":"1093676392","to":"1084021776","type":"load","field":"arrayIdx_int:7"},{"step":75,"from":"1084021776","to":"1083999984","type":"model"},{"step":76,"from":"static.<java.io.ObjectInputStream: java.lang.ClassLoader bootstrapLoader>","to":"1083999984","type":"load","field":"<java.io.ObjectInputStream: java.lang.ClassLoader bootstrapLoader>"},{"step":77,"from":"1093676392","to":"1084021776","type":"load","field":"arrayIdx_int:8"},{"step":78,"from":"1084021776","to":"1083999984","type":"model"},{"step":79,"from":"static.<java.io.ObjectInputStream: java.lang.ClassLoader bootstrapLoader>","to":"1083999984","type":"load","field":"<java.io.ObjectInputStream: java.lang.ClassLoader bootstrapLoader>"},{"step":80,"from":"1093676392","to":"1084021776","type":"load","field":"arrayIdx_int:9"},{"step":81,"from":"1084021776","to":"1083999984","type":"model"},{"step":82,"from":"static.<java.io.ObjectInputStream: java.lang.ClassLoader bootstrapLoader>","to":"1083999984","type":"load","field":"<java.io.ObjectInputStream: java.lang.ClassLoader bootstrapLoader>"},{"step":83,"from":"1093676392","to":"1084021776","type":"load","field":"arrayIdx_int:10"},{"step":84,"from":"1084021776","to":"1083999984","type":"model"},{"step":85,"from":"static.<java.io.ObjectInputStream: java.lang.ClassLoader bootstrapLoader>","to":"1083999984","type":"load","field":"<java.io.ObjectInputStream: java.lang.ClassLoader bootstrapLoader>"},{"step":86,"from":"1093676392","to":"1084342632","type":"load","field":"arrayIdx_int:11"},{"step":87,"from":"1084342632","to":"1083999984","type":"model"},{"step":88,"from":"static.<java.io.ObjectInputStream: java.lang.ClassLoader bootstrapLoader>","to":"1083999984","type":"load","field":"<java.io.ObjectInputStream: java.lang.ClassLoader bootstrapLoader>"},{"step":89,"from":"1093676392","to":"1084342632","type":"load","field":"arrayIdx_int:12"},{"step":90,"from":"1084342632","to":"1083999984","type":"model"},{"step":91,"from":"static.<java.io.ObjectInputStream: java.lang.ClassLoader bootstrapLoader>","to":"1083999984","type":"load","field":"<java.io.ObjectInputStream: java.lang.ClassLoader bootstrapLoader>"},{"step":92,"from":"1093676392","to":"1084342632","type":"load","field":"arrayIdx_int:13"},{"step":93,"from":"1084342632","to":"1083999984","type":"model"},{"step":94,"from":"static.<java.io.ObjectInputStream: java.lang.ClassLoader bootstrapLoader>","to":"1083999984","type":"load","field":"<java.io.ObjectInputStream: java.lang.ClassLoader bootstrapLoader>"},{"step":95,"from":"1093676392","to":"1084342632","type":"load","field":"arrayIdx_int:14"},{"step":96,"from":"1084342632","to":"1083999984","type":"model"},{"step":97,"from":"static.<java.io.ObjectInputStream: java.lang.ClassLoader bootstrapLoader>","to":"1083999984","type":"load","field":"<java.io.ObjectInputStream: java.lang.ClassLoader bootstrapLoader>"},{"step":98,"from":"1093676392","to":"1093539352","type":"load","field":"arrayIdx_int:15"},{"step":99,"from":"1093539352","to":"1093490896","type":"model"},{"step":100,"from":"static.<java.io.ObjectInputStream: java.lang.ClassLoader bootstrapLoader>","to":"1083999984","type":"load","field":"<java.io.ObjectInputStream: java.lang.ClassLoader bootstrapLoader>"},{"step":101,"from":"static.<java.io.ObjectInputStream: java.lang.ClassLoader systemLoader>","to":"1083999760","type":"load","field":"<java.io.ObjectInputStream: java.lang.ClassLoader systemLoader>"},{"step":102,"from":"1093783528","to":"1093490896","type":"create","field":"<java.io.ObjectInputStream: java.lang.ClassLoader callerClassLoader>"},{"step":103,"from":"1093783616","to":"1093783616.<java.io.ByteArrayInputStream: int pos>","type":"load","field":"<java.io.ByteArrayInputStream: int pos>"},{"step":104,"from":"1093917240","to":"1093917240.<java.io.ByteArrayInputStream: int pos>","type":"load","field":"<java.io.ByteArrayInputStream: int pos>"},{"step":105,"from":"1093917240","to":"1093917240.<java.io.ByteArrayInputStream: int pos>","type":"load","field":"<java.io.ByteArrayInputStream: int pos>"},{"step":106,"from":"sdaReg132","to":"1093917240","type":"store","field":"<java.io.ByteArrayInputStream: int pos>"},{"step":107,"from":"1093917168","to":"1093917168.arrayIdx_int:4","type":"load","field":"arrayIdx_int:4"},{"step":108,"from":"sdaReg134","to":"1093783528","type":"store","field":"<java.io.ObjectInputStream: byte pushbackTC>"},{"step":109,"from":"1093783528","to":"sdaReg136","type":"create","field":"<java.io.ObjectInputStream: boolean hasPushbackTC>"},{"step":110,"from":"1093783616","to":"1093783616.<java.io.ByteArrayInputStream: int pos>","type":"load","field":"<java.io.ByteArrayInputStream: int pos>"},{"step":111,"from":"1093783528","to":"sdaReg140","type":"create","field":"<java.io.ObjectInputStream: boolean hasPushbackTC>"},{"step":112,"from":"sdaReg147","to":"1093917240","type":"store","field":"<java.io.ByteArrayInputStream: int pos>"},{"step":113,"from":"1093917168","to":"1093917168.arrayIdx_int:5","type":"load","field":"arrayIdx_int:5"},{"step":114,"from":"sdaReg149","to":"1093783528","type":"store","field":"<java.io.ObjectInputStream: byte pushbackTC>"},{"step":115,"from":"1093888384","to":"1093783528","type":"store","field":"<java.io.ObjectInputStream: java.io.InputStream primitiveData>"},{"step":116,"from":"sdaReg154","to":"1093783528","type":"store","field":"<java.io.ObjectInputStream: int nextHandle>"},{"step":117,"from":"sdaReg155","to":"1093783528","type":"store","field":"<java.io.ObjectInputStream: int descriptorHandle>"},{"step":118,"from":"1093917240","to":"1093890272","type":"model"},{"step":119,"from":"static.<java.nio.ByteOrder: java.nio.ByteOrder BIG_ENDIAN>","to":"1084439336","type":"load","field":"<java.nio.ByteOrder: java.nio.ByteOrder BIG_ENDIAN>"},{"step":120,"from":"1093890272","to":"sdaReg162","type":"model"},{"step":121,"from":"1093917240","to":"1093778352","type":"model"},{"step":122,"from":"1093778352","to":"1093778352.arrayIdx_int:0","type":"load","field":"arrayIdx_int:0"},{"step":123,"from":"sdaReg176","to":"1093934024","type":"store","field":"arrayIdx_int:0"},{"step":124,"from":"1093778352","to":"1093778352.arrayIdx_int:1","type":"load","field":"arrayIdx_int:1"},{"step":125,"from":"sdaReg176","to":"1093934024","type":"store","field":"arrayIdx_int:1"},{"step":126,"from":"1093778352","to":"1093778352.arrayIdx_int:2","type":"load","field":"arrayIdx_int:2"},{"step":127,"from":"sdaReg176","to":"1093934024","type":"store","field":"arrayIdx_int:2"},{"step":128,"from":"1093778352","to":"1093778352.arrayIdx_int:3","type":"load","field":"arrayIdx_int:3"},{"step":129,"from":"sdaReg176","to":"1093934024","type":"store","field":"arrayIdx_int:3"},{"step":130,"from":"1093778352","to":"1093778352.arrayIdx_int:4","type":"load","field":"arrayIdx_int:4"},{"step":131,"from":"sdaReg176","to":"1093934024","type":"store","field":"arrayIdx_int:4"},{"step":132,"from":"1093778352","to":"1093778352.arrayIdx_int:5","type":"load","field":"arrayIdx_int:5"},{"step":133,"from":"sdaReg176","to":"1093934024","type":"store","field":"arrayIdx_int:5"},{"step":134,"from":"1093778352","to":"1093778352.arrayIdx_int:6","type":"load","field":"arrayIdx_int:6"},{"step":135,"from":"sdaReg176","to":"1093934024","type":"store","field":"arrayIdx_int:6"},{"step":136,"from":"1093778352","to":"1093778352.arrayIdx_int:7","type":"load","field":"arrayIdx_int:7"},{"step":137,"from":"sdaReg176","to":"1093934024","type":"store","field":"arrayIdx_int:7"},{"step":138,"from":"1093778352","to":"1093778352.arrayIdx_int:8","type":"load","field":"arrayIdx_int:8"},{"step":139,"from":"sdaReg176","to":"1093934024","type":"store","field":"arrayIdx_int:8"},{"step":140,"from":"1093778352","to":"1093778352.arrayIdx_int:9","type":"load","field":"arrayIdx_int:9"},{"step":141,"from":"sdaReg176","to":"1093934024","type":"store","field":"arrayIdx_int:9"},{"step":142,"from":"1093778352","to":"1093778352.arrayIdx_int:10","type":"load","field":"arrayIdx_int:10"},{"step":143,"from":"sdaReg176","to":"1093934024","type":"store","field":"arrayIdx_int:10"},{"step":144,"from":"1093778352","to":"1093778352.arrayIdx_int:11","type":"load","field":"arrayIdx_int:11"},{"step":145,"from":"sdaReg176","to":"1093934024","type":"store","field":"arrayIdx_int:11"},{"step":146,"from":"1093778352","to":"1093778352.arrayIdx_int:12","type":"load","field":"arrayIdx_int:12"},{"step":147,"from":"sdaReg176","to":"1093934024","type":"store","field":"arrayIdx_int:12"},{"step":148,"from":"1093778352","to":"1093778352.arrayIdx_int:13","type":"load","field":"arrayIdx_int:13"},{"step":149,"from":"sdaReg176","to":"1093934024","type":"store","field":"arrayIdx_int:13"},{"step":150,"from":"1093778352","to":"1093778352.arrayIdx_int:14","type":"load","field":"arrayIdx_int:14"},{"step":151,"from":"sdaReg176","to":"1093934024","type":"store","field":"arrayIdx_int:14"},{"step":152,"from":"1093778352","to":"1093778352.arrayIdx_int:15","type":"load","field":"arrayIdx_int:15"},{"step":153,"from":"sdaReg176","to":"1093934024","type":"store","field":"arrayIdx_int:15"},{"step":154,"from":"1093778352","to":"1093778352.arrayIdx_int:16","type":"load","field":"arrayIdx_int:16"},{"step":155,"from":"sdaReg176","to":"1093934024","type":"store","field":"arrayIdx_int:16"},{"step":156,"from":"1093778352","to":"1093778352.arrayIdx_int:17","type":"load","field":"arrayIdx_int:17"},{"step":157,"from":"sdaReg176","to":"1093934024","type":"store","field":"arrayIdx_int:17"},{"step":158,"from":"1093778352","to":"1093778352.arrayIdx_int:18","type":"load","field":"arrayIdx_int:18"},{"step":159,"from":"sdaReg176","to":"1093934024","type":"store","field":"arrayIdx_int:18"},{"step":160,"from":"1093934024","to":"sdaReg177","type":"model"},{"step":161,"from":"1093648688","to":"sdaReg177","type":"model"},{"step":162,"from":"sdaReg177","to":"1093648688","type":"model"},{"step":163,"from":"1093917240","to":"1093890272","type":"model"},{"step":164,"from":"static.<java.nio.ByteOrder: java.nio.ByteOrder BIG_ENDIAN>","to":"1084439336","type":"load","field":"<java.nio.ByteOrder: java.nio.ByteOrder BIG_ENDIAN>"},{"step":165,"from":"1093890272","to":"sdaReg180","type":"model"},{"step":166,"from":"1093648688","to":"sdaReg180","type":"model"},{"step":167,"from":"sdaReg180","to":"1093648688","type":"model"},{"step":168,"from":"sdaReg183","to":"1093917240","type":"store","field":"<java.io.ByteArrayInputStream: int pos>"},{"step":169,"from":"1093917168","to":"1093917168.arrayIdx_int:35","type":"load","field":"arrayIdx_int:35"},{"step":170,"from":"1093648688","to":"sdaReg185","type":"model"},{"step":171,"from":"sdaReg185","to":"1093648688","type":"model"},{"step":172,"from":"1093890360","to":"1093890360.<java.util.ArrayList: int size>","type":"load","field":"<java.util.ArrayList: int size>"},{"step":173,"from":"1093890360","to":"1093890360.<java.util.ArrayList: int size>","type":"load","field":"<java.util.ArrayList: int size>"},{"step":174,"from":"1083994088","to":"1093498776","type":"model"},{"step":175,"from":"1093890360","to":"1093498776","type":"create","field":"<java.util.ArrayList: java.lang.Object[] array>"},{"step":176,"from":"1093498776","to":"1093648688","type":"create","field":"arrayIdx_int:0"},{"step":177,"from":"sdaReg198","to":"1093890360","type":"store","field":"<java.util.ArrayList: int size>"},{"step":178,"from":"1093890360","to":"1093890360.<java.util.AbstractList: int modCount>","type":"load","field":"<java.util.AbstractList: int modCount>"},{"step":179,"from":"sdaReg199","to":"1093890360","type":"store","field":"<java.util.AbstractList: int modCount>"},{"step":180,"from":"1093917240","to":"1093890272","type":"model"},{"step":181,"from":"static.<java.nio.ByteOrder: java.nio.ByteOrder BIG_ENDIAN>","to":"1084439336","type":"load","field":"<java.nio.ByteOrder: java.nio.ByteOrder BIG_ENDIAN>"},{"step":182,"from":"1093890272","to":"sdaReg204","type":"model"},{"step":183,"from":"1093648688","to":"1093507768","type":"model"},{"step":184,"from":"1093507768","to":"1093648688","type":"model"},{"step":185,"from":"sdaReg208","to":"1093917240","type":"store","field":"<java.io.ByteArrayInputStream: int pos>"},{"step":186,"from":"1093917168","to":"1093917168.arrayIdx_int:38","type":"load","field":"arrayIdx_int:38"},{"step":187,"from":"1093917240","to":"1093890272","type":"model"},{"step":188,"from":"static.<java.nio.ByteOrder: java.nio.ByteOrder BIG_ENDIAN>","to":"1084439336","type":"load","field":"<java.nio.ByteOrder: java.nio.ByteOrder BIG_ENDIAN>"},{"step":189,"from":"1093890272","to":"sdaReg215","type":"model"},{"step":190,"from":"1093917240","to":"1093907624","type":"model"},{"step":191,"from":"1093907624","to":"1093907624.arrayIdx_int:0","type":"load","field":"arrayIdx_int:0"},{"step":192,"from":"sdaReg229","to":"1093782216","type":"store","field":"arrayIdx_int:0"},{"step":193,"from":"1093907624","to":"1093907624.arrayIdx_int:1","type":"load","field":"arrayIdx_int:1"},{"step":194,"from":"sdaReg229","to":"1093782216","type":"store","field":"arrayIdx_int:1"},{"step":195,"from":"1093907624","to":"1093907624.arrayIdx_int:2","type":"load","field":"arrayIdx_int:2"},{"step":196,"from":"sdaReg229","to":"1093782216","type":"store","field":"arrayIdx_int:2"},{"step":197,"from":"1093907624","to":"1093907624.arrayIdx_int:3","type":"load","field":"arrayIdx_int:3"},{"step":198,"from":"sdaReg229","to":"1093782216","type":"store","field":"arrayIdx_int:3"},{"step":199,"from":"1093907624","to":"1093907624.arrayIdx_int:4","type":"load","field":"arrayIdx_int:4"},{"step":200,"from":"sdaReg229","to":"1093782216","type":"store","field":"arrayIdx_int:4"},{"step":201,"from":"1093782216","to":"sdaReg230","type":"model"},{"step":202,"from":"sdaReg211","to":"sdaReg231","type":"model"},{"step":203,"from":"sdaReg211","to":"sdaReg232","type":"model"},{"step":204,"from":"sdaReg232","to":"sdaReg233","type":"model"},{"step":205,"from":"sdaReg232","to":"sdaReg235","type":"model"},{"step":206,"from":"sdaReg233","to":"sdaReg232","type":"model"},{"step":207,"from":"sdaReg233","to":"sdaReg235","type":"model"},{"step":208,"from":"sdaReg230","to":"1093851600","type":"store","field":"<java.io.ObjectStreamField: java.lang.String name>"},{"step":209,"from":"sdaReg232","to":"sdaReg238","type":"model"},{"step":210,"from":"sdaReg238","to":"sdaReg239","type":"model"},{"step":211,"from":"sdaReg239","to":"1093851600","type":"store","field":"<java.io.ObjectStreamField: java.lang.String typeString>"},{"step":212,"from":"static.<java.lang.Character: java.lang.Class TYPE>","to":"1083909448","type":"load","field":"<java.lang.Character: java.lang.Class TYPE>"},{"step":213,"from":"1083909448","to":"1093851600","type":"store","field":"<java.io.ObjectStreamField: java.lang.Object type>"},{"step":214,"from":"1093851600","to":"sdaReg243","type":"create","field":"<java.io.ObjectStreamField: boolean isDeserialized>"},{"step":215,"from":"1093507768","to":"1093851600","type":"create","field":"arrayIdx_int:0"},{"step":216,"from":"1093648688","to":"1093498776","type":"store","field":"arrayIdx_int:0"},{"step":217,"from":"sdaReg256","to":"1093783528","type":"store","field":"<java.io.ObjectInputStream: int descriptorHandle>"},{"step":218,"from":"1093783616","to":"1093783528","type":"store","field":"<java.io.ObjectInputStream: java.io.InputStream primitiveData>"},{"step":219,"from":"1093648688","to":"0","type":"model"},{"step":220,"from":"1093648688","to":"sdaReg260","type":"model"},{"step":221,"from":"static.<java.io.ObjectInputStream: java.util.HashMap PRIMITIVE_CLASSES>","to":"1093917272","type":"load","field":"<java.io.ObjectInputStream: java.util.HashMap PRIMITIVE_CLASSES>"},{"step":222,"from":"1093917272","to":"1093782760","type":"load","field":"<java.util.HashMap: java.util.HashMap$HashMapEntry[] table>"},{"step":223,"from":"sdaReg260","to":"1093490896","type":"model"},{"step":224,"from":"sdaReg260","to":"1083932144","type":"model"},{"step":225,"from":"1093490896","to":"sdaReg260","type":"model"},{"step":226,"from":"1093490896","to":"1083932144","type":"model"},{"step":227,"from":"1093648688","to":"1083932144","type":"model"},{"step":228,"from":"1083932144","to":"1093648688","type":"model"},{"step":229,"from":"1093648688","to":"1083932144","type":"model"},{"step":230,"from":"1083932144","to":"1093910152","type":"model"},{"step":231,"from":"1093648688","to":"sdaReg281","type":"model"},{"step":232,"from":"1093910152","to":"sdaReg282","type":"model"},{"step":233,"from":"1093648688","to":"sdaReg284","type":"model"},{"step":234,"from":"sdaReg284","to":"sdaReg285","type":"model"},{"step":235,"from":"sdaReg284","to":"sdaReg289","type":"model"},{"step":236,"from":"1093910152","to":"sdaReg290","type":"model"},{"step":237,"from":"sdaReg290","to":"sdaReg291","type":"model"},{"step":238,"from":"sdaReg290","to":"sdaReg295","type":"model"},{"step":239,"from":"1093648688","to":"1093910152","type":"model"},{"step":240,"from":"1093910152","to":"1093648688","type":"model"},{"step":241,"from":"1093648688","to":"1093507768","type":"model"},{"step":242,"from":"1093648688","to":"1083932144","type":"model"},{"step":243,"from":"1093648688","to":"1083932144","type":"model"},{"step":244,"from":"1083932144","to":"1083999984","type":"model"},{"step":245,"from":"static.<java.lang.Character: java.lang.Class TYPE>","to":"1083909448","type":"load","field":"<java.lang.Character: java.lang.Class TYPE>"},{"step":246,"from":"1083909448","to":"1093851600","type":"store","field":"<java.io.ObjectStreamField: java.lang.Object type>"},{"step":247,"from":"1093783616","to":"1093783528","type":"store","field":"<java.io.ObjectInputStream: java.io.InputStream primitiveData>"},{"step":248,"from":"1093783528","to":"sdaReg314","type":"create","field":"<java.io.ObjectInputStream: boolean mustResolve>"},{"step":249,"from":"sdaReg318","to":"1093917240","type":"store","field":"<java.io.ByteArrayInputStream: int pos>"},{"step":250,"from":"1093917168","to":"1093917168.arrayIdx_int:46","type":"load","field":"arrayIdx_int:46"},{"step":251,"from":"sdaReg320","to":"1093783528","type":"store","field":"<java.io.ObjectInputStream: byte pushbackTC>"},{"step":252,"from":"sdaReg322","to":"1093783528","type":"store","field":"<java.io.ObjectInputStream: boolean mustResolve>"},{"step":253,"from":"sdaReg327","to":"1093917240","type":"store","field":"<java.io.ByteArrayInputStream: int pos>"},{"step":254,"from":"1093917168","to":"1093917168.arrayIdx_int:47","type":"load","field":"arrayIdx_int:47"},{"step":255,"from":"sdaReg329","to":"1093783528","type":"store","field":"<java.io.ObjectInputStream: byte pushbackTC>"},{"step":256,"from":"sdaReg338","to":"1093783528","type":"store","field":"<java.io.ObjectInputStream: int nextHandle>"},{"step":257,"from":"1093648688","to":"1083932144","type":"model"},{"step":258,"from":"1093648688","to":"1083932144","type":"model"},{"step":259,"from":"1093648688","to":"1093718528","type":"model"},{"step":260,"from":"1083932144","to":"1093648688","type":"model"},{"step":261,"from":"1083932144","to":"1093718528","type":"model"},{"step":262,"from":"1093498776","to":"1093718528","type":"create","field":"arrayIdx_int:1"},{"step":263,"from":"sdaReg352","to":"1093890360","type":"store","field":"<java.util.ArrayList: int size>"},{"step":264,"from":"sdaReg353","to":"1093890360","type":"store","field":"<java.util.AbstractList: int modCount>"},{"step":265,"from":"1093718528","to":"1093783528","type":"store","field":"<java.io.ObjectInputStream: java.lang.Object currentObject>"},{"step":266,"from":"1093648688","to":"1093783528","type":"store","field":"<java.io.ObjectInputStream: java.io.ObjectStreamClass currentClass>"},{"step":267,"from":"1093648688","to":"sdaReg355","type":"model"},{"step":268,"from":"1093648688","to":"1093506392","type":"model"},{"step":269,"from":"1093718528","to":"1083932144","type":"model"},{"step":270,"from":"1093718528","to":"1083932144","type":"model"},{"step":271,"from":"static.<libcore.util.EmptyArray: java.lang.Object[] OBJECT>","to":"1083994088","type":"load","field":"<libcore.util.EmptyArray: java.lang.Object[] OBJECT>"},{"step":272,"from":"1083994088","to":"1093717944","type":"store","field":"<java.util.ArrayList: java.lang.Object[] array>"},{"step":273,"from":"1083932144","to":"1083910288","type":"model"},{"step":274,"from":"1093717944","to":"1093717944.<java.util.ArrayList: int size>","type":"load","field":"<java.util.ArrayList: int size>"},{"step":275,"from":"1083994088","to":"1093728168","type":"model"},{"step":276,"from":"1083994088","to":"1093728168","type":"model"},{"step":277,"from":"1093717944","to":"1093728168","type":"create","field":"<java.util.ArrayList: java.lang.Object[] array>"},{"step":278,"from":"1093728168","to":"1083932144","type":"create","field":"arrayIdx_int:0"},{"step":279,"from":"sdaReg403","to":"1093717944","type":"store","field":"<java.util.ArrayList: int size>"},{"step":280,"from":"1093717944","to":"1093717944.<java.util.AbstractList: int modCount>","type":"load","field":"<java.util.AbstractList: int modCount>"},{"step":281,"from":"sdaReg404","to":"1093717944","type":"store","field":"<java.util.AbstractList: int modCount>"},{"step":282,"from":"1083910288","to":"0","type":"model"},{"step":283,"from":"1093888328","to":"1093888328.<java.util.HashMap: int modCount>","type":"load","field":"<java.util.HashMap: int modCount>"},{"step":284,"from":"sdaReg421","to":"1093888328","type":"store","field":"<java.util.HashMap: int modCount>"},{"step":285,"from":"1093888328","to":"1093888328.<java.util.HashMap: int size>","type":"load","field":"<java.util.HashMap: int size>"},{"step":286,"from":"sdaReg422","to":"1093888328","type":"store","field":"<java.util.HashMap: int size>"},{"step":287,"from":"1093888328","to":"1093503176","type":"create","field":"<java.util.HashMap: java.util.HashMap$HashMapEntry[] table>"},{"step":288,"from":"sdaReg430","to":"1093888328","type":"store","field":"<java.util.HashMap: int threshold>"},{"step":289,"from":"1083932144","to":"1093503216","type":"store","field":"<java.util.HashMap$HashMapEntry: java.lang.Object key>"},{"step":290,"from":"1093503216","to":"1093717944","type":"create","field":"<java.util.HashMap$HashMapEntry: java.lang.Object value>"},{"step":291,"from":"sdaReg417","to":"1093503216","type":"store","field":"<java.util.HashMap$HashMapEntry: int hash>"},{"step":292,"from":"1093503176","to":"1093503216","type":"create","field":"arrayIdx_int:2"},{"step":293,"from":"1093506392","to":"1093506392.<java.util.ArrayList: int size>","type":"load","field":"<java.util.ArrayList: int size>"},{"step":294,"from":"1093506392","to":"1093506392.<java.util.ArrayList: int size>","type":"load","field":"<java.util.ArrayList: int size>"},{"step":295,"from":"1093506392","to":"1093914168","type":"load","field":"<java.util.ArrayList: java.lang.Object[] array>"},{"step":296,"from":"1093914168","to":"1093648688","type":"load","field":"arrayIdx_int:0"},{"step":297,"from":"1093648688","to":"1083932144","type":"model"},{"step":298,"from":"1083932144","to":"sdaReg462","type":"model"},{"step":299,"from":"1093648688","to":"sdaReg463","type":"model"},{"step":300,"from":"1083932144","to":"sdaReg465","type":"model"},{"step":301,"from":"1093648688","to":"sdaReg466","type":"model"},{"step":302,"from":"1093506392","to":"1093506392.<java.util.ArrayList: int size>","type":"load","field":"<java.util.ArrayList: int size>"},{"step":303,"from":"1093506392","to":"1093914168","type":"load","field":"<java.util.ArrayList: java.lang.Object[] array>"},{"step":304,"from":"1093914168","to":"1093648688","type":"load","field":"arrayIdx_int:0"},{"step":305,"from":"1093718528","to":"1093783528","type":"store","field":"<java.io.ObjectInputStream: java.lang.Object currentObject>"},{"step":306,"from":"1093648688","to":"1093783528","type":"store","field":"<java.io.ObjectInputStream: java.io.ObjectStreamClass currentClass>"},{"step":307,"from":"1093648688","to":"sdaReg475","type":"model"},{"step":308,"from":"1093648688","to":"1083932144","type":"model"},{"step":309,"from":"1093648688","to":"0","type":"model"},{"step":310,"from":"1093648688","to":"1093507768","type":"model"},{"step":311,"from":"1093648688","to":"1083932144","type":"model"},{"step":312,"from":"1093648688","to":"1093851600","type":"model"},{"step":313,"from":"1093648688","to":"1093494776","type":"model"},{"step":314,"from":"1093851600","to":"1093648688","type":"model"},{"step":315,"from":"1093851600","to":"1093494776","type":"model"},{"step":316,"from":"static.<java.lang.Byte: java.lang.Class TYPE>","to":"1083909112","type":"load","field":"<java.lang.Byte: java.lang.Class TYPE>"},{"step":317,"from":"static.<java.lang.Character: java.lang.Class TYPE>","to":"1083909448","type":"load","field":"<java.lang.Character: java.lang.Class TYPE>"},{"step":318,"from":"1093917240","to":"1093890272","type":"model"},{"step":319,"from":"static.<java.nio.ByteOrder: java.nio.ByteOrder BIG_ENDIAN>","to":"1084439336","type":"load","field":"<java.nio.ByteOrder: java.nio.ByteOrder BIG_ENDIAN>"},{"step":320,"from":"1093890272","to":"sdaReg499","type":"model"},{"step":321,"from":"1093494776","to":"1093718528","type":"model"},{"step":322,"from":"1093494776","to":"sdaReg500","type":"model"},{"step":323,"from":"1093718528","to":"1093494776","type":"model"},{"step":324,"from":"1093718528","to":"sdaReg500","type":"model"},{"step":325,"from":"sdaReg500","to":"1093494776","type":"model"},{"step":326,"from":"sdaReg500","to":"1093718528","type":"model"},{"step":327,"from":"1093783528","to":"sdaReg501","type":"create","field":"<java.io.ObjectInputStream: java.lang.Object currentObject>"},{"step":328,"from":"1093783528","to":"sdaReg502","type":"create","field":"<java.io.ObjectInputStream: java.io.ObjectStreamClass currentClass>"},{"step":329,"from":"1093783528","to":"sdaReg503","type":"create","field":"<java.io.ObjectInputStream: java.lang.Object currentObject>"},{"step":330,"from":"1093783528","to":"sdaReg504","type":"create","field":"<java.io.ObjectInputStream: java.io.ObjectStreamClass currentClass>"},{"step":331,"from":"1093648688","to":"sdaReg505","type":"model"},{"step":332,"from":"sdaReg508","to":"1093783528","type":"store","field":"<java.io.ObjectInputStream: int nestedLevels>"},{"step":333,"from":"1093783528","to":"sdaReg509","type":"create","field":"<java.io.ObjectInputStream: java.lang.ClassLoader callerClassLoader>"},{"step":334,"from":"1093945336","to":"1093945336.<java.util.HashMap: int modCount>","type":"load","field":"<java.util.HashMap: int modCount>"},{"step":335,"from":"sdaReg530","to":"1093945336","type":"store","field":"<java.util.HashMap: int modCount>"},{"step":336,"from":"1093945336","to":"1093945336.<java.util.HashMap: int size>","type":"load","field":"<java.util.HashMap: int size>"},{"step":337,"from":"sdaReg531","to":"1093945336","type":"store","field":"<java.util.HashMap: int size>"},{"step":338,"from":"1093945336","to":"1093872008","type":"create","field":"<java.util.HashMap: java.util.HashMap$HashMapEntry[] table>"},{"step":339,"from":"sdaReg539","to":"1093945336","type":"store","field":"<java.util.HashMap: int threshold>"},{"step":340,"from":"1093776288","to":"1093820536","type":"store","field":"<java.util.HashMap$HashMapEntry: java.lang.Object key>"},{"step":341,"from":"1093718528","to":"1093820536","type":"store","field":"<java.util.HashMap$HashMapEntry: java.lang.Object value>"},{"step":342,"from":"sdaReg526","to":"1093820536","type":"store","field":"<java.util.HashMap$HashMapEntry: int hash>"},{"step":343,"from":"1093872008","to":"1093820536","type":"create","field":"arrayIdx_int:2"},{"step":344,"from":"1093769184","to":"1093478240","type":"load","field":"<android.os.Bundle: android.os.Parcel mParcelledData>"},{"step":345,"from":"1093478240","to":"1093478240.<android.os.Parcel: int mOwnObject>","type":"load","field":"<android.os.Parcel: int mOwnObject>"},{"step":346,"from":"static.<android.os.Parcel: android.os.Parcel[] sOwnedPool>","to":"1084044960","type":"load","field":"<android.os.Parcel: android.os.Parcel[] sOwnedPool>"},{"step":347,"from":"1093478240","to":"1084044960","type":"store","field":"arrayIdx_int:0"},{"step":348,"from":"1093769184","to":"sdaReg558","type":"create","field":"<android.os.Bundle: android.os.Parcel mParcelledData>"},{"step":349,"from":"1093769184","to":"sdaReg0","type":"model"},{"step":350,"from":"1093769184","to":"sdaReg559","type":"model"},{"step":351,"from":"sdaReg0","to":"1093769184","type":"model"},{"step":352,"from":"sdaReg0","to":"sdaReg559","type":"model"}],"parameters":[{"id":"1093769184","name":"this","klass":"android.os.Bundle"},{"id":"sdaReg0","name":"arg#1","klass":"string"}],"returns":[{"id":"sdaReg559","name":"return","klass":"char"}],"colors":{"heapLocToColor":{"sdaReg191":[19],"sdaReg294":[64, 65, 57],"sdaReg293":[66],"sdaReg193":[29],"sdaReg296":[68],"sdaReg192":[19],"sdaReg295":[64, 67, 57],"sdaReg298":[38, 29],"sdaReg297":[38, 29],"sdaReg299":[38, 29],"static.<java.io.ObjectInputStream: java.lang.ClassLoader bootstrapLoader>":[25, 24, 26],"sdaReg199":[19],"sdaReg198":[19],"sdaReg290":[64, 57],"sdaReg292":[66],"sdaReg196":[19],"sdaReg291":[64, 65, 57],"1093503216":[81],"0":[52, 77, 56, 72, 29, 74],"1093490896":[24, 27],"static.<java.lang.Character: java.lang.Class TYPE>":[51],"sdaReg170":[32],"sdaReg177":[33, 29],"sdaReg176":[31],"sdaReg179":[15],"sdaReg178":[34],"1093783616.<java.io.ByteArrayInputStream: int pos>":[12],"static.<java.util.HashMap: java.util.Map$Entry[] EMPTY_TABLE>":[4],"sdaReg182":[10],"1085809544":[24],"sdaReg181":[15],"sdaReg180":[35, 29],"sdaReg186":[11],"sdaReg185":[0, 9, 29],"sdaReg184":[0, 9],"sdaReg187":[29],"1093676392.arrayIdx_int:6":[24],"1093676392.arrayIdx_int:7":[24],"1093676392.arrayIdx_int:4":[24],"1093676392.arrayIdx_int:2":[24],"1093676392.arrayIdx_int:3":[24],"1093917168.arrayIdx_int:4":[0, 9],"1093676392.arrayIdx_int:1":[24],"1093890272":[16],"1093917168.arrayIdx_int:5":[0, 9],"1093676392.arrayIdx_int:9":[24],"1093676392.arrayIdx_int:8":[24],"1083997920":[4],"1093498776":[36],"1093506392.<java.util.ArrayList: java.lang.Object[] array>":[29, 74],"1093728168":[78],"1093914168":[29, 74],"1093907624":[40],"1084439336":[21],"1093478240.<android.os.Parcel: int mOwnObject>":[0],"1083932144":[56, 72, 29, 74],"1093890360":[19],"1093494776":[29, 89, 74],"1093890360.<java.util.AbstractList: int modCount>":[19],"1093907624.arrayIdx_int:0":[40],"1084044960":[96],"sdaReg68":[11],"1093907624.arrayIdx_int:4":[40],"sdaReg69":[17],"1093907624.arrayIdx_int:3":[40],"sdaReg66":[15],"1093907624.arrayIdx_int:2":[40],"sdaReg67":[17],"1093907624.arrayIdx_int:1":[40],"sdaReg64":[15],"sdaReg65":[15],"sdaReg62":[15],"sdaReg63":[15],"sdaReg72":[17],"sdaReg71":[17],"sdaReg70":[11],"1093890328":[18],"1093917272":[54],"1093718528":[89, 29, 72, 74],"1093506392.<java.util.ArrayList: int size>":[29, 74],"sdaReg78":[11],"sdaReg79":[11],"sdaReg73":[17],"1093539352":[24],"sdaReg74":[17],"sdaReg75":[17],"sdaReg81":[19],"sdaReg80":[19],"sdaReg506":[72, 29, 89, 74],"sdaReg83":[19],"sdaReg505":[92, 29, 74],"sdaReg82":[19],"sdaReg500":[89, 29, 74, 91],"sdaReg507":[72, 29, 89, 74],"sdaReg86":[19],"sdaReg84":[19],"sdaReg85":[19],"sdaReg513":[72, 29, 89, 74],"1093917168.arrayIdx_int:47":[0, 9],"sdaReg512":[89, 29, 72, 74],"sdaReg511":[72, 29, 89, 74],"1093890304":[17],"sdaReg510":[72, 29, 89, 74],"sdaReg517":[72, 29, 89, 74],"sdaReg94":[15],"sdaReg93":[22],"sdaReg515":[3],"sdaReg92":[15],"sdaReg514":[72, 29, 89, 74],"sdaReg91":[11],"1093717944.<java.util.ArrayList: int size>":[76],"sdaReg519":[93],"sdaReg518":[93],"1093917168.arrayIdx_int:46":[0, 9],"1093851600":[29, 47, 74],"sdaReg95":[23],"sdaReg96":[11],"sdaReg97":[11],"sdaReg98":[11],"1083910288":[77, 56, 29, 72],"sdaReg99":[11],"sdaReg520":[93],"sdaReg522":[93],"1093917168.arrayIdx_int:38":[0, 9],"sdaReg521":[93],"sdaReg524":[93],"sdaReg523":[93],"sdaReg526":[93],"sdaReg525":[93],"1093934024":[32],"sdaReg529":[93],"1093503176":[80],"1093917168.arrayIdx_int:35":[0, 9],"sdaReg531":[3],"sdaReg530":[3],"static.<java.lang.Byte: java.lang.Class TYPE>":[90],"1083909112":[90],"1093917240.<java.io.ByteArrayInputStream: int pos>":[10],"sdaReg535":[3],"sdaReg532":[3],"sdaReg540":[94],"sdaReg542":[94],"static.<libcore.util.EmptyArray: byte[] BYTE>":[13],"sdaReg547":[72, 29, 89, 74],"sdaReg548":[95],"1093917240":[10],"1083909448":[51],"sdaReg545":[3],"sdaReg553":[95],"sdaReg552":[95],"sdaReg551":[52, 77, 56, 29, 72, 74],"sdaReg550":[72, 29, 89, 74],"1093648688":[29, 74],"1093769184":[0],"1093945336.<java.util.HashMap: int modCount>":[3],"1093910152":[57, 29],"sdaReg556":[96],"sdaReg554":[0],"sdaReg555":[96],"sdaReg559":[0, 97],"static.<java.io.ObjectInputStream: java.util.HashMap PRIMITIVE_CLASSES>":[54],"1093820536":[95],"1093945336.<java.util.HashMap: int size>":[3],"1093717944":[76],"1093782760":[54],"sdaReg426":[14],"sdaReg423":[14],"sdaReg422":[14],"sdaReg326":[10],"sdaReg325":[15],"1093917168":[0, 9],"sdaReg324":[11],"sdaReg323":[11],"sdaReg329":[0, 9],"sdaReg328":[0, 9],"sdaReg14":[0],"sdaReg11":[0],"sdaReg12":[3],"sdaReg10":[3],"sdaReg320":[0, 9],"sdaReg420":[79],"sdaReg421":[14],"sdaReg19":[0],"sdaReg17":[0, 6],"sdaReg16":[0, 5],"sdaReg416":[79],"sdaReg415":[79],"sdaReg417":[79],"1093783616":[12],"sdaReg412":[79],"sdaReg411":[79],"sdaReg414":[79],"sdaReg413":[79],"1083999760":[28],"sdaReg313":[11],"sdaReg315":[11],"sdaReg317":[10],"sdaReg316":[15],"sdaReg319":[0, 9],"1093888328":[14],"sdaReg310":[47],"sdaReg311":[70],"sdaReg410":[79],"sdaReg445":[76],"sdaReg444":[81],"sdaReg448":[76],"sdaReg309":[69],"sdaReg308":[25, 24, 26, 56, 29],"sdaReg307":[47],"sdaReg304":[38, 29],"sdaReg303":[25, 24, 56, 26, 29],"sdaReg302":[25, 24, 26, 56, 29],"sdaReg301":[56, 29],"sdaReg300":[56, 29],"sdaReg442":[52, 77, 56, 29, 72],"sdaReg443":[81],"sdaReg440":[56, 29, 72],"sdaReg441":[76],"sdaReg433":[80],"sdaReg436":[14],"1093783528":[11],"sdaReg438":[76],"sdaReg437":[56, 29, 72],"sdaReg439":[81],"sdaReg431":[80],"sdaReg60":[15],"sdaReg61":[10],"static.<libcore.util.EmptyArray: java.lang.Object[] OBJECT>":[20],"sdaReg59":[10],"sdaReg58":[15],"sdaReg56":[14],"sdaReg54":[4],"1093890360.<java.util.ArrayList: int size>":[19],"sdaReg53":[4],"sdaReg52":[14],"sdaReg51":[14],"sdaReg50":[14],"sdaReg49":[14],"sdaReg46":[12],"sdaReg41":[12],"sdaReg40":[13],"sdaReg43":[12],"sdaReg42":[12],"sdaReg408":[76],"sdaReg409":[79],"sdaReg403":[76],"sdaReg401":[76],"sdaReg406":[14],"sdaReg407":[56, 29, 72],"sdaReg201":[11],"sdaReg404":[76],"sdaReg405":[52, 77, 56, 29, 72],"sdaReg39":[12],"sdaReg204":[37],"sdaReg38":[11],"sdaReg203":[15],"sdaReg37":[11],"sdaReg202":[29],"sdaReg209":[0, 9],"sdaReg207":[10],"sdaReg206":[15],"sdaReg32":[10],"1093945336":[3],"sdaReg36":[11],"sdaReg35":[10],"sdaReg34":[11],"sdaReg33":[10],"1093778352.arrayIdx_int:6":[31],"1093717944.<java.util.AbstractList: int modCount>":[76],"1093778352.arrayIdx_int:5":[31],"sdaReg8":[4],"1093778352.arrayIdx_int:8":[31],"1093778352.arrayIdx_int:7":[31],"1093778352.arrayIdx_int:2":[31],"sdaReg6":[3],"1093778352.arrayIdx_int:1":[31],"sdaReg7":[4],"1093778352.arrayIdx_int:4":[31],"sdaReg4":[3],"1093778352.arrayIdx_int:3":[31],"sdaReg5":[3],"1093778352.arrayIdx_int:0":[31],"sdaReg27":[10],"sdaReg26":[0, 9],"sdaReg29":[10],"sdaReg28":[10],"1093888384":[15],"1093676392.arrayIdx_int:12":[24],"1093676392.arrayIdx_int:13":[24],"1093676392.arrayIdx_int:14":[24],"sdaReg3":[3],"sdaReg2":[0, 2],"sdaReg1":[0],"sdaReg21":[0, 7],"1093676392.arrayIdx_int:10":[24],"sdaReg0":[0, 1],"sdaReg23":[0, 8],"1093778352.arrayIdx_int:9":[31],"sdaReg22":[0],"sdaReg25":[10],"sdaReg24":[0, 9],"sdaReg125":[11],"sdaReg126":[11],"sdaReg127":[12],"sdaReg128":[12],"sdaReg229":[40],"sdaReg220":[40],"sdaReg223":[41],"sdaReg222":[40],"1093888328.<java.util.HashMap: int size>":[14],"sdaReg120":[25, 24, 26],"sdaReg122":[25, 24, 26],"sdaReg121":[25, 24, 26],"sdaReg124":[24, 27],"sdaReg123":[24, 27],"sdaReg116":[25, 24, 26],"sdaReg395":[56, 29, 72],"sdaReg117":[25, 24, 26],"sdaReg392":[77, 56, 72, 29],"sdaReg114":[25, 24, 26],"sdaReg393":[76],"sdaReg115":[25, 24, 26],"sdaReg399":[76],"sdaReg118":[25, 24, 26],"sdaReg119":[25, 24, 26],"sdaReg497":[15],"sdaReg219":[15],"sdaReg498":[15],"sdaReg217":[15],"sdaReg496":[51],"sdaReg218":[15],"sdaReg493":[29, 47, 74],"sdaReg390":[76],"sdaReg215":[39],"sdaReg391":[52, 77, 56, 72, 29],"sdaReg216":[39],"sdaReg213":[15],"sdaReg492":[89, 29, 74],"sdaReg214":[15],"sdaReg212":[15],"sdaReg211":[0, 9],"sdaReg210":[0, 9],"1083994088":[20],"sdaReg499":[91],"1083993968":[13],"sdaReg113":[25, 24, 26],"sdaReg112":[25, 24, 26],"sdaReg111":[25, 24, 26],"sdaReg110":[25, 24, 26],"sdaReg385":[76],"sdaReg386":[76],"sdaReg108":[25, 24],"sdaReg387":[76],"sdaReg109":[25, 24, 26],"sdaReg388":[76],"sdaReg381":[11],"sdaReg382":[56, 29, 72],"sdaReg104":[24],"sdaReg383":[76],"sdaReg105":[24],"sdaReg384":[76],"sdaReg247":[29],"sdaReg248":[11],"sdaReg380":[56, 29, 72],"sdaReg249":[29],"sdaReg241":[50],"sdaReg240":[47],"1093782216":[41],"sdaReg245":[47],"1084021776":[24],"sdaReg244":[47],"sdaReg389":[76],"sdaReg377":[75],"sdaReg374":[75],"1093507768":[38, 29, 74],"sdaReg372":[75],"sdaReg373":[75],"sdaReg370":[75],"sdaReg371":[75],"sdaReg237":[47],"sdaReg238":[48, 44],"sdaReg235":[46, 44],"sdaReg236":[47],"1093478240":[0],"sdaReg239":[49, 48, 44],"sdaReg230":[42],"sdaReg234":[45],"1084342632":[24],"sdaReg233":[44],"sdaReg232":[44],"sdaReg231":[43],"1093914168.arrayIdx_int:0":[29, 74],"sdaReg379":[52, 29],"sdaReg378":[52, 29],"sdaReg463":[83, 29, 74],"1093778352.arrayIdx_int:10":[31],"sdaReg462":[82, 56, 29, 72, 74],"1093778352.arrayIdx_int:11":[31],"sdaReg465":[85, 56, 29, 72, 74],"1093778352.arrayIdx_int:12":[31],"sdaReg464":[84],"1093778352.arrayIdx_int:13":[31],"1093778352":[31],"1093778352.arrayIdx_int:14":[31],"sdaReg269":[55],"1093778352.arrayIdx_int:15":[31],"sdaReg268":[55],"sdaReg461":[56, 29, 72, 74],"1093778352.arrayIdx_int:16":[31],"sdaReg460":[29, 74],"1093778352.arrayIdx_int:17":[31],"sdaReg360":[72, 29],"sdaReg169":[31],"1093506392":[29, 74],"sdaReg362":[29, 74],"1093888328.<java.util.HashMap: int modCount>":[14],"sdaReg361":[29],"sdaReg364":[14],"sdaReg363":[56, 29, 72],"sdaReg366":[75],"sdaReg365":[56, 29, 72],"sdaReg161":[15],"sdaReg367":[75],"sdaReg162":[30],"sdaReg368":[75],"sdaReg163":[30],"sdaReg369":[75],"sdaReg164":[15],"sdaReg165":[15],"sdaReg166":[15],"sdaReg167":[31],"sdaReg264":[55],"1093778352.arrayIdx_int:18":[31],"sdaReg265":[55],"sdaReg266":[55],"sdaReg267":[55],"sdaReg466":[86, 29, 74],"static.<java.nio.ByteOrder: java.nio.ByteOrder BIG_ENDIAN>":[21],"sdaReg260":[53, 29],"sdaReg467":[87],"sdaReg261":[54],"sdaReg262":[55],"sdaReg469":[29, 74],"sdaReg160":[15],"sdaReg263":[55],"sdaReg454":[56, 29, 72],"sdaReg453":[11],"sdaReg452":[56, 72, 29],"sdaReg451":[56, 29, 72],"sdaReg450":[76],"sdaReg259":[52, 29],"sdaReg258":[29],"sdaReg257":[11],"sdaReg350":[72, 29],"sdaReg159":[15],"sdaReg158":[29],"sdaReg355":[29, 73],"sdaReg153":[11],"sdaReg359":[11],"sdaReg356":[29, 73],"sdaReg151":[11],"sdaReg156":[11],"sdaReg157":[29],"1093872008":[94],"sdaReg255":[29],"sdaReg459":[29, 74],"sdaReg254":[19],"sdaReg457":[29, 74],"1093676392":[24],"sdaReg458":[29, 74],"sdaReg252":[19],"sdaReg455":[29, 74],"1093769184.<android.os.Bundle: android.os.Parcel mParcelledData>":[0],"sdaReg481":[11],"sdaReg480":[52, 77, 56, 29, 72, 74],"sdaReg483":[72, 29],"sdaReg482":[11],"sdaReg485":[38, 29, 74],"static.<android.os.Parcel: android.os.Parcel[] sOwnedPool>":[96],"sdaReg484":[29, 74],"sdaReg487":[38, 29, 74],"sdaReg486":[38, 29, 74],"sdaReg342":[29, 72],"sdaReg344":[11],"sdaReg343":[72, 29],"sdaReg148":[0, 9],"sdaReg340":[56, 29],"sdaReg149":[0, 9],"sdaReg143":[11],"sdaReg349":[19],"sdaReg144":[11],"sdaReg145":[15],"sdaReg146":[10],"sdaReg345":[72, 29],"static.<java.io.ObjectInputStream: java.lang.ClassLoader systemLoader>":[28],"sdaReg280":[57],"sdaReg347":[19],"sdaReg142":[11],"sdaReg281":[58, 29],"sdaReg488":[56, 29, 72, 74],"sdaReg282":[59, 57],"sdaReg489":[38, 29, 74],"1083999984":[25, 24, 56, 26, 29],"sdaReg283":[59, 58, 57, 29],"sdaReg284":[29, 60],"sdaReg285":[29, 61, 60],"sdaReg286":[62],"sdaReg287":[62],"sdaReg288":[29, 61, 60],"sdaReg289":[29, 63, 60],"sdaReg472":[11],"sdaReg471":[29, 74],"sdaReg470":[29, 74],"sdaReg279":[56, 29],"sdaReg476":[29, 88, 74],"sdaReg475":[29, 88, 74],"sdaReg474":[29, 74],"sdaReg473":[72, 29],"sdaReg333":[52, 29],"sdaReg332":[29],"sdaReg331":[52, 29],"sdaReg139":[11],"sdaReg138":[12],"sdaReg137":[12],"sdaReg134":[0, 9],"sdaReg135":[11],"sdaReg132":[10],"sdaReg133":[0, 9],"sdaReg130":[15],"sdaReg336":[29],"sdaReg131":[10],"sdaReg270":[55],"sdaReg337":[11],"sdaReg334":[71],"sdaReg335":[29],"sdaReg479":[56, 29, 72, 74],"sdaReg273":[55],"sdaReg274":[52, 29],"sdaReg277":[11],"sdaReg278":[29],"sdaReg275":[56],"sdaReg276":[56]},"colorToColor":{"0":[0, 98, 96, 97, 43, 10, 11, 29, 44],"1":[0, 97],"3":[0, 3],"4":[3, 14],"9":[43, 10, 11, 29, 44],"10":[16, 40, 10, 31, 15],"11":[17],"12":[11],"13":[12],"14":[11, 14],"15":[11],"17":[11],"16":[35, 39, 23, 37, 22, 91, 30, 15],"19":[19, 11],"18":[17],"20":[19, 36, 76, 78],"24":[53, 56, 11, 29],"27":[53, 56, 11, 29],"29":[36, 78, 11, 72, 74, 81, 24, 95, 27, 57, 56, 29, 89, 91],"31":[32],"35":[29],"32":[33],"33":[29],"38":[29],"36":[19],"42":[47],"40":[41],"41":[42],"47":[38, 89, 29, 74],"44":[46, 47, 44],"51":[47],"49":[47],"48":[47],"53":[24, 27, 56],"57":[29],"56":[81, 78, 57, 72, 29],"76":[81, 76],"78":[76],"79":[81],"72":[81, 36, 95, 78, 11, 89, 29, 91, 74],"74":[95, 11, 72, 89, 29, 91, 74],"81":[80],"80":[14],"93":[95],"95":[94],"94":[3],"89":[95, 72, 89, 29, 91, 74],"91":[72, 89, 29, 74],"97":[98]},"colorToLabel":{"0":"this","1":"arg#1","4":"<java.util.HashMap: java.util.Map$Entry[] EMPTY_TABLE>","13":"<libcore.util.EmptyArray: byte[] BYTE>","20":"<libcore.util.EmptyArray: java.lang.Object[] OBJECT>","21":"<java.nio.ByteOrder: java.nio.ByteOrder BIG_ENDIAN>","26":"<java.io.ObjectInputStream: java.lang.ClassLoader bootstrapLoader>","28":"<java.io.ObjectInputStream: java.lang.ClassLoader systemLoader>","51":"<java.lang.Character: java.lang.Class TYPE>","54":"<java.io.ObjectInputStream: java.util.HashMap PRIMITIVE_CLASSES>","90":"<java.lang.Byte: java.lang.Class TYPE>","96":"<android.os.Parcel: android.os.Parcel[] sOwnedPool>","98":"return"}}}

Generated Model
	this->return
	this-><android.os.Parcel: android.os.Parcel[] sOwnedPool>
	arg#1->this
	arg#1->return
	arg#1-><android.os.Parcel: android.os.Parcel[] sOwnedPool>

