Scanning method <java.util.ArrayList: java.lang.Object[] toArray()>

All seen event types: NewArrayRecord, MethodReturnRecord, MethodCallRecord, LoadInstanceRecord, 
Ignored event types: 

JSON Encoded Analysis Data (for visualization):{"heapEdges":[{"step":0,"from":"1093466616","to":"1093466616.<java.util.ArrayList: int size>","type":"load","field":"<java.util.ArrayList: int size>"},{"step":1,"from":"1093466616","to":"1094242456","type":"load","field":"<java.util.ArrayList: java.lang.Object[] array>"},{"step":2,"from":"1094242456","to":"1093324912","type":"model"}],"parameters":[{"id":"1093466616","name":"this","klass":"java.util.ArrayList"}],"returns":[{"id":"1093324912","name":"return","klass":"java.lang.Object[]"}],"colors":{"heapLocToColor":{"1094242456":[0],"1093324912":[1],"1093466616":[0],"1093466616.<java.util.ArrayList: int size>":[0]},"colorToColor":{"0":[1],"1":[2]},"colorToLabel":{"0":"this","2":"return"}}}

Generated Model
	this->return

