Scanning method <java.util.ArrayList: java.lang.Object[] toArray()>

All seen event types: NewArrayRecord, MethodReturnRecord, MethodCallRecord, LoadInstanceRecord, 
Ignored event types: 

JSON Encoded Analysis Data (for visualization):{"heapEdges":[{"step":0,"from":"1094434040","to":"1094434040.<java.util.ArrayList: int size>","type":"load","field":"<java.util.ArrayList: int size>"},{"step":1,"from":"1094434040","to":"1094441656","type":"load","field":"<java.util.ArrayList: java.lang.Object[] array>"},{"step":2,"from":"1094441656","to":"1094441728","type":"model"}],"parameters":[{"id":"1094434040","name":"this","klass":"java.util.ArrayList"}],"returns":[{"id":"1094441728","name":"return","klass":"java.lang.Object[]"}],"colors":{"heapLocToColor":{"1094434040":[0],"1094441728":[1],"1094434040.<java.util.ArrayList: int size>":[0],"1094441656":[0]},"colorToColor":{"0":[1],"1":[2]},"colorToLabel":{"0":"this","2":"return"}}}

Generated Model
	this->return

