Scanning method <java.util.ArrayList: java.lang.Object[] toArray()>

All seen event types: NewArrayRecord, MethodReturnRecord, MethodCallRecord, LoadInstanceRecord, 
Ignored event types: 

JSON Encoded Analysis Data (for visualization):{"heapEdges":[{"step":0,"from":"1093678128","to":"1093678128.<java.util.ArrayList: int size>","type":"load","field":"<java.util.ArrayList: int size>"},{"step":1,"from":"1093678128","to":"1093685728","type":"load","field":"<java.util.ArrayList: java.lang.Object[] array>"},{"step":2,"from":"1093685728","to":"1093267496","type":"model"}],"parameters":[{"id":"1093678128","name":"this","klass":"java.util.ArrayList"}],"returns":[{"id":"1093267496","name":"return","klass":"java.lang.Object[]"}],"colors":{"heapLocToColor":{"1093685728":[0],"1093678128":[0],"1093678128.<java.util.ArrayList: int size>":[0],"1093267496":[1]},"colorToColor":{"0":[1],"1":[2]},"colorToLabel":{"0":"this","2":"return"}}}

Generated Model
	this->return

