Scanning method <java.util.ArrayList$ArrayListIterator: void <init>(java.util.ArrayList,java.util.ArrayList$1)>

All seen event types: MethodReturnRecord, MethodCallRecord, LoadInstanceRecord, MethodStartRecord, MethodEndRecord, StoreInstanceRecord, 
Ignored event types: 

JSON Encoded Analysis Data (for visualization):{"heapEdges":[{"step":0,"from":"1093632872","to":"1093396016","type":"store","field":"<java.util.ArrayList$ArrayListIterator: java.util.ArrayList this$0>"},{"step":1,"from":"1093632872","to":"1093632872.<java.util.ArrayList: int size>","type":"load","field":"<java.util.ArrayList: int size>"},{"step":2,"from":"1093632872.<java.util.ArrayList: int size>","to":"1093396016","type":"store","field":"<java.util.ArrayList$ArrayListIterator: int remaining>"},{"step":3,"from":"1093396016","to":"sdaReg3","type":"create","field":"<java.util.ArrayList$ArrayListIterator: int removalIndex>"},{"step":4,"from":"1093632872","to":"1093632872.<java.util.AbstractList: int modCount>","type":"load","field":"<java.util.AbstractList: int modCount>"},{"step":5,"from":"1093632872.<java.util.AbstractList: int modCount>","to":"1093396016","type":"store","field":"<java.util.ArrayList$ArrayListIterator: int expectedModCount>"}],"parameters":[{"id":"1093396016","name":"this","klass":"java.util.ArrayList$ArrayListIterator"},{"id":"1093632872","name":"arg#1","klass":"java.util.ArrayList"},{"id":"0","name":"arg#2","klass":"java.util.ArrayList$1"}],"returns":[{"id":"1093396016","name":"return","klass":"java.util.ArrayList$ArrayListIterator"}],"colors":{"heapLocToColor":{"0":[2],"sdaReg4":[0],"1093632872.<java.util.ArrayList: int size>":[1],"1093396016":[0],"sdaReg2":[0],"sdaReg1":[1],"1093632872":[1],"sdaReg0":[0],"1093632872.<java.util.AbstractList: int modCount>":[1]},"colorToColor":{"0":[3],"1":[0]},"colorToLabel":{"0":"this","1":"arg#1","2":"arg#2","3":"return"}}}

Generated Model
	this->return
	arg#1->this
	arg#1->return

