Scanning method <java.io.DataInputStream: char readChar()>

All seen event types: LoadStaticRecord, MethodReturnRecord, MethodCallRecord, CastRecord, LoadInstanceRecord, MethodStartRecord, MethodEndRecord, 
Ignored event types: 

JSON Encoded Analysis Data (for visualization):{"heapEdges":[{"step":0,"from":"1093648144","to":"1093648280","type":"load","field":"<java.io.FilterInputStream: java.io.InputStream in>"},{"step":1,"from":"1093648144","to":"1093648336","type":"load","field":"<java.io.DataInputStream: byte[] scratch>"},{"step":2,"from":"1093648280","to":"1093648336","type":"model"},{"step":3,"from":"1093648144","to":"1093648336","type":"load","field":"<java.io.DataInputStream: byte[] scratch>"},{"step":4,"from":"static.<java.nio.ByteOrder: java.nio.ByteOrder BIG_ENDIAN>","to":"1084339448","type":"load","field":"<java.nio.ByteOrder: java.nio.ByteOrder BIG_ENDIAN>"},{"step":5,"from":"1093648336","to":"sdaReg1","type":"model"}],"parameters":[{"id":"1093648144","name":"this","klass":"java.io.DataInputStream"}],"returns":[{"id":"sdaReg2","name":"return","klass":"char"}],"colors":{"heapLocToColor":{"1093648144.<java.io.DataInputStream: byte[] scratch>":[0],"1093648280":[0],"1093648144":[0],"1084339448":[1],"sdaReg2":[2],"sdaReg1":[2],"1093648336":[0],"sdaReg0":[0],"static.<java.nio.ByteOrder: java.nio.ByteOrder BIG_ENDIAN>":[1]},"colorToColor":{"0":[0, 2],"2":[3]},"colorToLabel":{"0":"this","1":"<java.nio.ByteOrder: java.nio.ByteOrder BIG_ENDIAN>","3":"return"}}}

Generated Model
	this->return

