Scanning method <java.nio.CharBuffer: java.nio.CharBuffer put(java.lang.String,int,int)>

All seen event types: BinaryOperationRecord, StoreArrayRecord, SimpleAssignmentRecord, MethodReturnRecord, MethodCallRecord, LoadInstanceRecord, MethodStartRecord, MethodEndRecord, IfRecord, StoreInstanceRecord, 
Ignored event types: IfRecord, 

JSON Encoded Analysis Data (for visualization):{"heapEdges":[{"step":0,"from":"1093635904","to":"1093635904.<java.nio.Buffer: int limit>","type":"load","field":"<java.nio.Buffer: int limit>"},{"step":1,"from":"1093635904","to":"1093635904.<java.nio.Buffer: int position>","type":"load","field":"<java.nio.Buffer: int position>"},{"step":2,"from":"sdaReg0","to":"sdaReg8","type":"model"},{"step":3,"from":"1093635904","to":"1093635904.<java.nio.Buffer: int position>","type":"load","field":"<java.nio.Buffer: int position>"},{"step":4,"from":"1093635904","to":"1093635904.<java.nio.Buffer: int limit>","type":"load","field":"<java.nio.Buffer: int limit>"},{"step":5,"from":"1093635904","to":"1093635952","type":"load","field":"<java.nio.CharArrayBuffer: char[] backingArray>"},{"step":6,"from":"1093635904","to":"1093635904.<java.nio.CharArrayBuffer: int offset>","type":"load","field":"<java.nio.CharArrayBuffer: int offset>"},{"step":7,"from":"1093635904","to":"1093635904.<java.nio.Buffer: int position>","type":"load","field":"<java.nio.Buffer: int position>"},{"step":8,"from":"sdaReg10","to":"1093635904","type":"store","field":"<java.nio.Buffer: int position>"},{"step":9,"from":"sdaReg8","to":"1093635952","type":"store","field":"arrayIdx_int:0"}],"parameters":[{"id":"1093635904","name":"this","klass":"java.nio.CharBuffer"},{"id":"sdaReg0","name":"arg#1","klass":"string"},{"id":"sdaReg1","name":"arg#2","klass":"int"},{"id":"sdaReg2","name":"arg#3","klass":"int"}],"returns":[{"id":"1093635904","name":"return","klass":"java.nio.CharBuffer"}],"colors":{"heapLocToColor":{"sdaReg8":[1, 5],"sdaReg9":[0],"sdaReg6":[0],"sdaReg7":[2],"sdaReg4":[2, 3],"sdaReg5":[0],"1093635904":[0],"sdaReg11":[0],"1093635904.<java.nio.Buffer: int limit>":[0],"1093635904.<java.nio.Buffer: int position>":[0],"sdaReg10":[0],"1093635904.<java.nio.CharArrayBuffer: int offset>":[0],"1093635952":[0],"sdaReg3":[4],"sdaReg2":[3],"sdaReg1":[2],"sdaReg0":[1]},"colorToColor":{"0":[0, 6],"1":[0],"5":[0]},"colorToLabel":{"0":"this","1":"arg#1","2":"arg#2","3":"arg#3","6":"return"}}}

Generated Model
	this->return
	arg#1->this
	arg#1->return

