Scanning method <java.util.AbstractList$SubAbstractList: void removeRange(int,int)>

All seen event types: BinaryOperationRecord, StoreArrayRecord, SimpleAssignmentRecord, MethodReturnRecord, MethodCallRecord, ArrayLengthRecord, MethodStartRecord, LoadInstanceRecord, MethodEndRecord, IfRecord, StoreInstanceRecord, 
Ignored event types: IfRecord, 

JSON Encoded Analysis Data (for visualization):{"heapEdges":[{"step":0,"from":"1093351928","to":"1093351928.<java.util.AbstractList: int modCount>","type":"load","field":"<java.util.AbstractList: int modCount>"},{"step":1,"from":"1093351928","to":"1093519824","type":"load","field":"<java.util.AbstractList$SubAbstractList: java.util.AbstractList fullList>"},{"step":2,"from":"1093519824","to":"1093519824.<java.util.AbstractList: int modCount>","type":"load","field":"<java.util.AbstractList: int modCount>"},{"step":3,"from":"1093351928","to":"1093519824","type":"load","field":"<java.util.AbstractList$SubAbstractList: java.util.AbstractList fullList>"},{"step":4,"from":"1093351928","to":"1093351928.<java.util.AbstractList$SubAbstractList: int offset>","type":"load","field":"<java.util.AbstractList$SubAbstractList: int offset>"},{"step":5,"from":"1093351928","to":"1093351928.<java.util.AbstractList$SubAbstractList: int offset>","type":"load","field":"<java.util.AbstractList$SubAbstractList: int offset>"},{"step":6,"from":"1093519824","to":"1094129696","type":"load","field":"<java.util.ArrayList: java.lang.Object[] array>"},{"step":7,"from":"1093519824","to":"1093519824.<java.util.ArrayList: int size>","type":"load","field":"<java.util.ArrayList: int size>"},{"step":8,"from":"sdaReg11","to":"1093519824","type":"store","field":"<java.util.ArrayList: int size>"},{"step":9,"from":"1093519824","to":"1093519824.<java.util.AbstractList: int modCount>","type":"load","field":"<java.util.AbstractList: int modCount>"},{"step":10,"from":"sdaReg12","to":"1093519824","type":"store","field":"<java.util.AbstractList: int modCount>"},{"step":11,"from":"1093351928","to":"1093351928.<java.util.AbstractList$SubAbstractList: int size>","type":"load","field":"<java.util.AbstractList$SubAbstractList: int size>"},{"step":12,"from":"sdaReg14","to":"1093351928","type":"store","field":"<java.util.AbstractList$SubAbstractList: int size>"},{"step":13,"from":"1093351928","to":"1093519824","type":"load","field":"<java.util.AbstractList$SubAbstractList: java.util.AbstractList fullList>"},{"step":14,"from":"sdaReg15","to":"1093351928","type":"store","field":"<java.util.AbstractList: int modCount>"}],"parameters":[{"id":"1093351928","name":"this","klass":"java.util.AbstractList$SubAbstractList"},{"id":"sdaReg0","name":"arg#1","klass":"int"},{"id":"sdaReg1","name":"arg#2","klass":"int"}],"returns":[{"id":null,"name":"return","klass":null}],"colors":{"heapLocToColor":{"sdaReg8":[0],"sdaReg6":[0, 1, 2],"sdaReg7":[0, 1, 2],"sdaReg4":[0],"sdaReg5":[0, 2],"1094129696":[0],"1093519824.<java.util.ArrayList: int size>":[0],"1093351928":[0],"1093351928.<java.util.AbstractList: int modCount>":[0],"sdaReg13":[1, 2],"sdaReg14":[0, 1, 2],"sdaReg11":[0, 1, 2],"sdaReg12":[0],"1093351928.<java.util.AbstractList$SubAbstractList: int offset>":[0],"1093519824":[0],"sdaReg10":[0, 1, 2],"sdaReg3":[0, 2],"1093351928.<java.util.AbstractList$SubAbstractList: int size>":[0],"1093351928.<java.util.AbstractList$SubAbstractList: java.util.AbstractList fullList>":[0],"sdaReg2":[0, 1],"sdaReg1":[2],"sdaReg0":[1],"1093519824.<java.util.AbstractList: int modCount>":[0]},"colorToColor":{"0":[0],"1":[0],"2":[0]},"colorToLabel":{"0":"this","1":"arg#1","2":"arg#2","3":"return"}}}

Generated Model
	arg#2->this
	arg#1->this

