Scanning method <java.net.URLConnection: void setDefaultAllowUserInteraction(boolean)>

All seen event types: StoreStaticRecord, 
Ignored event types: 

JSON Encoded Analysis Data (for visualization):{"heapEdges":[{"step":0,"from":"sdaReg0","to":"static.<java.net.URLConnection: boolean defaultAllowUserInteraction>","type":"store","field":"<java.net.URLConnection: boolean defaultAllowUserInteraction>"}],"parameters":[{"id":"sdaReg0","name":"arg#0","klass":"boolean"}],"returns":[{"id":null,"name":"return","klass":null}],"colors":{"heapLocToColor":{"static.<java.net.URLConnection: boolean defaultAllowUserInteraction>":[1],"sdaReg0":[0]},"colorToColor":{"0":[1]},"colorToLabel":{"0":"arg#0","1":"<java.net.URLConnection: boolean defaultAllowUserInteraction>","2":"return"}}}

Generated Model
	arg#0-><java.net.URLConnection: boolean defaultAllowUserInteraction>

