Scanning method <java.io.Reader: int read(java.nio.CharBuffer)>

All seen event types: NewArrayRecord, BinaryOperationRecord, MethodReturnRecord, MethodCallRecord, ArrayLengthRecord, LoadInstanceRecord, MethodStartRecord, IfRecord, MethodEndRecord, 
Ignored event types: IfRecord, 

JSON Encoded Analysis Data (for visualization):{"heapEdges":[{"step":0,"from":"1093709064","to":"1093709064.<java.nio.Buffer: int limit>","type":"load","field":"<java.nio.Buffer: int limit>"},{"step":1,"from":"1093709064","to":"1093709064.<java.nio.Buffer: int position>","type":"load","field":"<java.nio.Buffer: int position>"},{"step":2,"from":"1093700936","to":"1093719280","type":"model"},{"step":3,"from":"1093700936","to":"sdaReg5","type":"model"},{"step":4,"from":"1093700936","to":"sdaReg6","type":"model"},{"step":5,"from":"1093719280","to":"1093700936","type":"model"},{"step":6,"from":"1093719280","to":"sdaReg5","type":"model"},{"step":7,"from":"1093719280","to":"sdaReg6","type":"model"},{"step":8,"from":"sdaReg5","to":"1093700936","type":"model"},{"step":9,"from":"sdaReg5","to":"1093719280","type":"model"},{"step":10,"from":"sdaReg5","to":"sdaReg6","type":"model"},{"step":11,"from":"sdaReg6","to":"sdaReg7","type":"model"},{"step":12,"from":"sdaReg2","to":"sdaReg7","type":"model"}],"parameters":[{"id":"1093700936","name":"this","klass":"java.io.Reader"},{"id":"1093709064","name":"arg#1","klass":"java.nio.CharBuffer"}],"returns":[{"id":"sdaReg7","name":"return","klass":"int"}],"colors":{"heapLocToColor":{"1093709064.<java.nio.Buffer: int limit>":[1],"sdaReg6":[0, 3],"sdaReg7":[4],"1093709064":[1],"1093709064.<java.nio.Buffer: int position>":[1],"sdaReg4":[2],"sdaReg5":[0],"1093700936":[0],"1093719280":[0, 2],"sdaReg3":[0],"sdaReg2":[1],"sdaReg1":[1],"sdaReg0":[1]},"colorToColor":{"0":[0, 2, 3, 4],"1":[4],"2":[0, 3],"3":[4],"4":[5]},"colorToLabel":{"0":"this","1":"arg#1","5":"return"}}}

Generated Model
	this->return
	arg#1->return

