Scanning method <java.io.DataInputStream: double readDouble()>

All seen event types: LoadStaticRecord, MethodReturnRecord, MethodCallRecord, LoadInstanceRecord, MethodStartRecord, MethodEndRecord, 
Ignored event types: 

JSON Encoded Analysis Data (for visualization):{"heapEdges":[{"step":0,"from":"1093661808","to":"1093661944","type":"load","field":"<java.io.FilterInputStream: java.io.InputStream in>"},{"step":1,"from":"1093661808","to":"1093662008","type":"load","field":"<java.io.DataInputStream: byte[] scratch>"},{"step":2,"from":"1093661944","to":"1093662008","type":"model"},{"step":3,"from":"1093661808","to":"1093662008","type":"load","field":"<java.io.DataInputStream: byte[] scratch>"},{"step":4,"from":"static.<java.nio.ByteOrder: java.nio.ByteOrder BIG_ENDIAN>","to":"1084339448","type":"load","field":"<java.nio.ByteOrder: java.nio.ByteOrder BIG_ENDIAN>"},{"step":5,"from":"1093662008","to":"sdaReg1","type":"model"},{"step":6,"from":"sdaReg1","to":"sdaReg2","type":"model"}],"parameters":[{"id":"1093661808","name":"this","klass":"java.io.DataInputStream"}],"returns":[{"id":"sdaReg2","name":"return","klass":"double"}],"colors":{"heapLocToColor":{"1084339448":[1],"1093662008":[0],"sdaReg2":[3],"1093661944":[0],"sdaReg1":[2],"1093661808.<java.io.DataInputStream: byte[] scratch>":[0],"sdaReg0":[0],"1093661808":[0],"static.<java.nio.ByteOrder: java.nio.ByteOrder BIG_ENDIAN>":[1]},"colorToColor":{"0":[0, 2],"2":[3],"3":[4]},"colorToLabel":{"0":"this","1":"<java.nio.ByteOrder: java.nio.ByteOrder BIG_ENDIAN>","4":"return"}}}

Generated Model
	this->return

