Scanning method <java.util.HashMap$HashIterator: void <init>(java.util.HashMap)>

All seen event types: BinaryOperationRecord, SimpleAssignmentRecord, MethodReturnRecord, MethodCallRecord, ArrayLengthRecord, LoadInstanceRecord, LoadArrayRecord, IfRecord, StoreInstanceRecord, 
Ignored event types: IfRecord, 

JSON Encoded Analysis Data (for visualization):{"heapEdges":[{"step":0,"from":"1093585632","to":"1093664544","type":"store","field":"<java.util.HashMap$HashIterator: java.util.HashMap this$0>"},{"step":1,"from":"1093585632","to":"1093585632.<java.util.HashMap: int modCount>","type":"load","field":"<java.util.HashMap: int modCount>"},{"step":2,"from":"1093585632.<java.util.HashMap: int modCount>","to":"1093664544","type":"store","field":"<java.util.HashMap$HashIterator: int expectedModCount>"},{"step":3,"from":"1093585632","to":"1093592824","type":"load","field":"<java.util.HashMap: java.util.HashMap$HashMapEntry[] table>"},{"step":4,"from":"1093664544","to":"1093664544.<java.util.HashMap$HashIterator: int nextIndex>","type":"load","field":"<java.util.HashMap$HashIterator: int nextIndex>"},{"step":5,"from":"1093664544","to":"1093664544.<java.util.HashMap$HashIterator: int nextIndex>","type":"load","field":"<java.util.HashMap$HashIterator: int nextIndex>"},{"step":6,"from":"sdaReg3","to":"1093664544","type":"store","field":"<java.util.HashMap$HashIterator: int nextIndex>"},{"step":7,"from":"1093592824","to":"1093642984","type":"load","field":"arrayIdx_int:0"},{"step":8,"from":"1093642984","to":"1093664544","type":"store","field":"<java.util.HashMap$HashIterator: java.util.HashMap$HashMapEntry nextEntry>"}],"parameters":[{"id":"1093664544","name":"this","klass":"java.util.HashMap$HashIterator"},{"id":"1093585632","name":"arg#1","klass":"java.util.HashMap"}],"returns":[{"id":"1093664544","name":"return","klass":"java.util.HashMap$HashIterator"}],"colors":{"heapLocToColor":{"1093585632.<java.util.HashMap: int modCount>":[1],"1093642984":[1],"1093664544.<java.util.HashMap$HashIterator: int nextIndex>":[0],"sdaReg3":[0],"1093585632":[1],"1093592824":[1],"sdaReg0":[0],"1093664544":[0]},"colorToColor":{"0":[0, 2],"1":[0]},"colorToLabel":{"0":"this","1":"arg#1","2":"return"}}}

Generated Model
	this->return
	arg#1->this
	arg#1->return

