Scanning method <java.util.HashMap$HashIterator: void <init>(java.util.HashMap)>

All seen event types: BinaryOperationRecord, SimpleAssignmentRecord, MethodReturnRecord, MethodCallRecord, ArrayLengthRecord, LoadInstanceRecord, LoadArrayRecord, IfRecord, StoreInstanceRecord, 
Ignored event types: IfRecord, 

JSON Encoded Analysis Data (for visualization):{"heapEdges":[{"step":0,"from":"1093555424","to":"1093386104","type":"store","field":"<java.util.HashMap$HashIterator: java.util.HashMap this$0>"},{"step":1,"from":"1093555424","to":"1093555424.<java.util.HashMap: int modCount>","type":"load","field":"<java.util.HashMap: int modCount>"},{"step":2,"from":"1093555424.<java.util.HashMap: int modCount>","to":"1093386104","type":"store","field":"<java.util.HashMap$HashIterator: int expectedModCount>"},{"step":3,"from":"1093555424","to":"1093403680","type":"load","field":"<java.util.HashMap: java.util.HashMap$HashMapEntry[] table>"},{"step":4,"from":"1093386104","to":"1093386104.<java.util.HashMap$HashIterator: int nextIndex>","type":"load","field":"<java.util.HashMap$HashIterator: int nextIndex>"},{"step":5,"from":"1093386104","to":"1093386104.<java.util.HashMap$HashIterator: int nextIndex>","type":"load","field":"<java.util.HashMap$HashIterator: int nextIndex>"},{"step":6,"from":"sdaReg3","to":"1093386104","type":"store","field":"<java.util.HashMap$HashIterator: int nextIndex>"},{"step":7,"from":"sdaReg3","to":"1093386104","type":"store","field":"<java.util.HashMap$HashIterator: int nextIndex>"},{"step":8,"from":"sdaReg3","to":"1093386104","type":"store","field":"<java.util.HashMap$HashIterator: int nextIndex>"},{"step":9,"from":"1093403680","to":"1093404696","type":"load","field":"arrayIdx_int:2"},{"step":10,"from":"1093404696","to":"1093386104","type":"store","field":"<java.util.HashMap$HashIterator: java.util.HashMap$HashMapEntry nextEntry>"}],"parameters":[{"id":"1093386104","name":"this","klass":"java.util.HashMap$HashIterator"},{"id":"1093555424","name":"arg#1","klass":"java.util.HashMap"}],"returns":[{"id":"1093386104","name":"return","klass":"java.util.HashMap$HashIterator"}],"colors":{"heapLocToColor":{"1093403680":[1],"1093386104":[0],"1093404696":[1],"1093555424":[1],"sdaReg3":[0],"1093555424.<java.util.HashMap: int modCount>":[1],"sdaReg0":[0],"1093386104.<java.util.HashMap$HashIterator: int nextIndex>":[0]},"colorToColor":{"0":[0, 2],"1":[0]},"colorToLabel":{"0":"this","1":"arg#1","2":"return"}}}

Generated Model
	this->return
	arg#1->this
	arg#1->return

