Scanning method <java.io.BufferedReader: void close()>

All seen event types: SimpleAssignmentRecord, ExitMonitorRecord, MethodReturnRecord, MethodCallRecord, EnterMonitorRecord, MethodStartRecord, LoadInstanceRecord, MethodEndRecord, IfRecord, StoreInstanceRecord, 
Ignored event types: ExitMonitorRecord, EnterMonitorRecord, IfRecord, 

JSON Encoded Analysis Data (for visualization):{"heapEdges":[{"step":0,"from":"1093672576","to":"1093673520","type":"load","field":"<java.io.Reader: java.lang.Object lock>"},{"step":1,"from":"1093672576","to":"1093610376","type":"load","field":"<java.io.BufferedReader: char[] buf>"},{"step":2,"from":"1093672576","to":"1093673520","type":"load","field":"<java.io.BufferedReader: java.io.Reader in>"},{"step":3,"from":"1093672576","to":"sdaReg3","type":"create","field":"<java.io.BufferedReader: char[] buf>"}],"parameters":[{"id":"1093672576","name":"this","klass":"java.io.BufferedReader"}],"returns":[{"id":null,"name":"return","klass":null}],"colors":{"heapLocToColor":{"1093610376":[0],"1093672576":[0],"1093672576.<java.io.BufferedReader: java.io.Reader in>":[0],"sdaReg1":[0],"1093673520":[0]},"colorToColor":{},"colorToLabel":{"0":"this","1":"return"}}}

Generated Model

