Scanning method <java.io.ByteArrayInputStream: int read(byte[],int,int)>

All seen event types: BinaryOperationRecord, SimpleAssignmentRecord, MethodReturnRecord, MethodCallRecord, LoadInstanceRecord, MethodStartRecord, ArrayLengthRecord, MethodEndRecord, IfRecord, StoreInstanceRecord, 
Ignored event types: IfRecord, 

JSON Encoded Analysis Data (for visualization):{"heapEdges":[{"step":0,"from":"1093607232","to":"1093607232.<java.io.ByteArrayInputStream: int pos>","type":"load","field":"<java.io.ByteArrayInputStream: int pos>"},{"step":1,"from":"1093607232","to":"1093607232.<java.io.ByteArrayInputStream: int count>","type":"load","field":"<java.io.ByteArrayInputStream: int count>"},{"step":2,"from":"1093607232","to":"1093607232.<java.io.ByteArrayInputStream: int count>","type":"load","field":"<java.io.ByteArrayInputStream: int count>"},{"step":3,"from":"1093607232","to":"1093607232.<java.io.ByteArrayInputStream: int pos>","type":"load","field":"<java.io.ByteArrayInputStream: int pos>"},{"step":4,"from":"1093607232","to":"1093607232.<java.io.ByteArrayInputStream: int count>","type":"load","field":"<java.io.ByteArrayInputStream: int count>"},{"step":5,"from":"1093607232","to":"1093607232.<java.io.ByteArrayInputStream: int pos>","type":"load","field":"<java.io.ByteArrayInputStream: int pos>"},{"step":6,"from":"1093607232","to":"1093607728","type":"load","field":"<java.io.ByteArrayInputStream: byte[] buf>"},{"step":7,"from":"1093607232","to":"1093607232.<java.io.ByteArrayInputStream: int pos>","type":"load","field":"<java.io.ByteArrayInputStream: int pos>"},{"step":8,"from":"1093607728","to":"1093644112","type":"model"},{"step":9,"from":"1093607232","to":"1093607232.<java.io.ByteArrayInputStream: int pos>","type":"load","field":"<java.io.ByteArrayInputStream: int pos>"},{"step":10,"from":"sdaReg8","to":"1093607232","type":"store","field":"<java.io.ByteArrayInputStream: int pos>"}],"parameters":[{"id":"1093607232","name":"this","klass":"java.io.ByteArrayInputStream"},{"id":"1093644112","name":"arg#1","klass":"byte[]"},{"id":"sdaReg0","name":"arg#2","klass":"int"},{"id":"sdaReg1","name":"arg#3","klass":"int"}],"returns":[{"id":"sdaReg7","name":"return","klass":"int"}],"colors":{"heapLocToColor":{"sdaReg8":[0],"sdaReg6":[0],"sdaReg7":[0],"sdaReg4":[2],"sdaReg5":[0],"1093607232":[0],"1093607232.<java.io.ByteArrayInputStream: int count>":[0],"1093644112":[1],"1093607232.<java.io.ByteArrayInputStream: int pos>":[0],"1093607728":[0],"sdaReg3":[2, 3],"sdaReg1":[3],"sdaReg0":[2]},"colorToColor":{"0":[0, 1, 4]},"colorToLabel":{"0":"this","1":"arg#1","2":"arg#2","3":"arg#3","4":"return"}}}

Generated Model
	this->return
	this->arg#1

