Scanning method <java.io.ByteArrayInputStream: int read(byte[],int,int)>

All seen event types: BinaryOperationRecord, MethodReturnRecord, MethodCallRecord, LoadInstanceRecord, MethodStartRecord, ArrayLengthRecord, MethodEndRecord, IfRecord, 
Ignored event types: IfRecord, 

JSON Encoded Analysis Data (for visualization):{"heapEdges":[{"step":0,"from":"1093590184","to":"1093590184.<java.io.ByteArrayInputStream: int pos>","type":"load","field":"<java.io.ByteArrayInputStream: int pos>"},{"step":1,"from":"1093590184","to":"1093590184.<java.io.ByteArrayInputStream: int count>","type":"load","field":"<java.io.ByteArrayInputStream: int count>"}],"parameters":[{"id":"1093590184","name":"this","klass":"java.io.ByteArrayInputStream"},{"id":"1093627000","name":"arg#1","klass":"byte[]"},{"id":"sdaReg0","name":"arg#2","klass":"int"},{"id":"sdaReg1","name":"arg#3","klass":"int"}],"returns":[{"id":null,"name":"return","klass":"int"}],"colors":{"heapLocToColor":{"sdaReg4":[2],"1093590184":[0],"sdaReg3":[2, 3],"sdaReg1":[3],"1093590184.<java.io.ByteArrayInputStream: int pos>":[0],"sdaReg0":[2],"1093627000":[1],"1093590184.<java.io.ByteArrayInputStream: int count>":[0]},"colorToColor":{},"colorToLabel":{"0":"this","1":"arg#1","2":"arg#2","3":"arg#3","4":"return"}}}

Generated Model

