Scanning method <java.io.ByteArrayInputStream: int read(byte[],int,int)>

All seen event types: BinaryOperationRecord, SimpleAssignmentRecord, MethodReturnRecord, MethodCallRecord, LoadInstanceRecord, MethodStartRecord, ArrayLengthRecord, MethodEndRecord, IfRecord, StoreInstanceRecord, 
Ignored event types: IfRecord, 

JSON Encoded Analysis Data (for visualization):{"heapEdges":[{"step":0,"from":"1093631272","to":"1093631272.<java.io.ByteArrayInputStream: int pos>","type":"load","field":"<java.io.ByteArrayInputStream: int pos>"},{"step":1,"from":"1093631272","to":"1093631272.<java.io.ByteArrayInputStream: int count>","type":"load","field":"<java.io.ByteArrayInputStream: int count>"},{"step":2,"from":"1093631272","to":"1093631272.<java.io.ByteArrayInputStream: int count>","type":"load","field":"<java.io.ByteArrayInputStream: int count>"},{"step":3,"from":"1093631272","to":"1093631272.<java.io.ByteArrayInputStream: int pos>","type":"load","field":"<java.io.ByteArrayInputStream: int pos>"},{"step":4,"from":"1093631272","to":"1093631768","type":"load","field":"<java.io.ByteArrayInputStream: byte[] buf>"},{"step":5,"from":"1093631272","to":"1093631272.<java.io.ByteArrayInputStream: int pos>","type":"load","field":"<java.io.ByteArrayInputStream: int pos>"},{"step":6,"from":"1093631768","to":"1093668016","type":"model"},{"step":7,"from":"1093631272","to":"1093631272.<java.io.ByteArrayInputStream: int pos>","type":"load","field":"<java.io.ByteArrayInputStream: int pos>"},{"step":8,"from":"sdaReg8","to":"1093631272","type":"store","field":"<java.io.ByteArrayInputStream: int pos>"}],"parameters":[{"id":"1093631272","name":"this","klass":"java.io.ByteArrayInputStream"},{"id":"1093668016","name":"arg#1","klass":"byte[]"},{"id":"sdaReg0","name":"arg#2","klass":"int"},{"id":"sdaReg1","name":"arg#3","klass":"int"}],"returns":[{"id":"sdaReg7","name":"return","klass":"int"}],"colors":{"heapLocToColor":{"sdaReg8":[0, 3],"sdaReg6":[3],"sdaReg7":[3],"sdaReg4":[2],"sdaReg5":[0],"1093631272.<java.io.ByteArrayInputStream: int count>":[0],"1093631768":[0],"1093631272":[0],"sdaReg3":[2, 3],"1093668016":[1],"sdaReg1":[3],"sdaReg0":[2],"1093631272.<java.io.ByteArrayInputStream: int pos>":[0]},"colorToColor":{"0":[0, 1],"3":[0, 4]},"colorToLabel":{"0":"this","1":"arg#1","2":"arg#2","3":"arg#3","4":"return"}}}

Generated Model
	this->arg#1
	arg#3->this
	arg#3->return
	arg#3->arg#1

