Scanning method <java.util.LinkedList: boolean add(java.lang.Object)>

All seen event types: BinaryOperationRecord, SimpleAssignmentRecord, MethodReturnRecord, MethodCallRecord, LoadInstanceRecord, MethodStartRecord, MethodEndRecord, StoreInstanceRecord, NewObjectRecord, 
Ignored event types: 

JSON Encoded Analysis Data (for visualization):{"heapEdges":[{"step":0,"from":"1093387136","to":"1093394432","type":"load","field":"<java.util.LinkedList: java.util.LinkedList$Link voidLink>"},{"step":1,"from":"1093394432","to":"1093539168","type":"load","field":"<java.util.LinkedList$Link: java.util.LinkedList$Link previous>"},{"step":2,"from":"1093387136","to":"1093394432","type":"load","field":"<java.util.LinkedList: java.util.LinkedList$Link voidLink>"},{"step":3,"from":"1093352112","to":"1093538848","type":"store","field":"<java.util.LinkedList$Link: java.lang.Object data>"},{"step":4,"from":"1093539168","to":"1093538848","type":"store","field":"<java.util.LinkedList$Link: java.util.LinkedList$Link previous>"},{"step":5,"from":"1093394432","to":"1093538848","type":"store","field":"<java.util.LinkedList$Link: java.util.LinkedList$Link next>"},{"step":6,"from":"1093387136","to":"1093394432","type":"load","field":"<java.util.LinkedList: java.util.LinkedList$Link voidLink>"},{"step":7,"from":"1093394432","to":"1093538848","type":"create","field":"<java.util.LinkedList$Link: java.util.LinkedList$Link previous>"},{"step":8,"from":"1093538848","to":"1093539168","type":"store","field":"<java.util.LinkedList$Link: java.util.LinkedList$Link next>"},{"step":9,"from":"1093387136","to":"1093387136.<java.util.LinkedList: int size>","type":"load","field":"<java.util.LinkedList: int size>"},{"step":10,"from":"sdaReg9","to":"1093387136","type":"store","field":"<java.util.LinkedList: int size>"},{"step":11,"from":"1093387136","to":"1093387136.<java.util.AbstractList: int modCount>","type":"load","field":"<java.util.AbstractList: int modCount>"},{"step":12,"from":"sdaReg10","to":"1093387136","type":"store","field":"<java.util.AbstractList: int modCount>"}],"parameters":[{"id":"1093387136","name":"this","klass":"java.util.LinkedList"},{"id":"1093352112","name":"arg#1","klass":"java.lang.Object"}],"returns":[{"id":"sdaReg11","name":"return","klass":"boolean"}],"colors":{"heapLocToColor":{"1093387136.<java.util.LinkedList: int size>":[0],"sdaReg8":[2],"1093352112":[1],"1093394432":[0],"sdaReg9":[0],"sdaReg6":[2],"sdaReg7":[2],"sdaReg4":[0],"1093538848":[2],"sdaReg5":[0],"1093387136":[0],"sdaReg10":[0],"1093387136.<java.util.AbstractList: int modCount>":[0],"sdaReg3":[1],"1093387136.<java.util.LinkedList: java.util.LinkedList$Link voidLink>":[0],"sdaReg2":[2],"sdaReg1":[1],"sdaReg0":[0],"1093539168":[0]},"colorToColor":{"0":[0, 2],"1":[2],"2":[0]},"colorToLabel":{"0":"this","1":"arg#1","3":"return"}}}

Generated Model
	arg#1->this

