Scanning method <java.io.InputStream: int read(byte[])>

All seen event types: BinaryOperationRecord, SimpleAssignmentRecord, MethodReturnRecord, MethodCallRecord, LoadInstanceRecord, MethodStartRecord, ArrayLengthRecord, MethodEndRecord, IfRecord, StoreInstanceRecord, 
Ignored event types: IfRecord, 

JSON Encoded Analysis Data (for visualization):{"heapEdges":[{"step":0,"from":"1093284784","to":"1093284784.<java.io.ByteArrayInputStream: int pos>","type":"load","field":"<java.io.ByteArrayInputStream: int pos>"},{"step":1,"from":"1093284784","to":"1093284784.<java.io.ByteArrayInputStream: int count>","type":"load","field":"<java.io.ByteArrayInputStream: int count>"},{"step":2,"from":"1093284784","to":"1093284784.<java.io.ByteArrayInputStream: int count>","type":"load","field":"<java.io.ByteArrayInputStream: int count>"},{"step":3,"from":"1093284784","to":"1093284784.<java.io.ByteArrayInputStream: int pos>","type":"load","field":"<java.io.ByteArrayInputStream: int pos>"},{"step":4,"from":"1093284784","to":"1093284784.<java.io.ByteArrayInputStream: int count>","type":"load","field":"<java.io.ByteArrayInputStream: int count>"},{"step":5,"from":"1093284784","to":"1093284784.<java.io.ByteArrayInputStream: int pos>","type":"load","field":"<java.io.ByteArrayInputStream: int pos>"},{"step":6,"from":"1093284784","to":"1093460768","type":"load","field":"<java.io.ByteArrayInputStream: byte[] buf>"},{"step":7,"from":"1093284784","to":"1093284784.<java.io.ByteArrayInputStream: int pos>","type":"load","field":"<java.io.ByteArrayInputStream: int pos>"},{"step":8,"from":"1093460768","to":"1094270688","type":"model"},{"step":9,"from":"1093284784","to":"1093284784.<java.io.ByteArrayInputStream: int pos>","type":"load","field":"<java.io.ByteArrayInputStream: int pos>"},{"step":10,"from":"sdaReg10","to":"1093284784","type":"store","field":"<java.io.ByteArrayInputStream: int pos>"}],"parameters":[{"id":"1093284784","name":"this","klass":"java.io.InputStream"},{"id":"1094270688","name":"arg#1","klass":"byte[]"}],"returns":[{"id":"sdaReg9","name":"return","klass":"int"}],"colors":{"heapLocToColor":{"sdaReg8":[0],"sdaReg9":[0],"1093460768":[0],"1093284784":[0],"sdaReg10":[0],"sdaReg7":[0],"1093284784.<java.io.ByteArrayInputStream: int pos>":[0],"sdaReg2":[1],"sdaReg1":[0],"1093284784.<java.io.ByteArrayInputStream: int count>":[0],"1094270688":[1]},"colorToColor":{"0":[0, 1, 2]},"colorToLabel":{"0":"this","1":"arg#1","2":"return"}}}

Generated Model
	this->return
	this->arg#1

