Scanning method <java.io.InputStream: int read(byte[])>

All seen event types: BinaryOperationRecord, MethodReturnRecord, MethodCallRecord, LoadInstanceRecord, MethodStartRecord, ArrayLengthRecord, MethodEndRecord, IfRecord, 
Ignored event types: IfRecord, 

JSON Encoded Analysis Data (for visualization):{"heapEdges":[{"step":0,"from":"1093284784","to":"1093284784.<java.io.ByteArrayInputStream: int pos>","type":"load","field":"<java.io.ByteArrayInputStream: int pos>"},{"step":1,"from":"1093284784","to":"1093284784.<java.io.ByteArrayInputStream: int count>","type":"load","field":"<java.io.ByteArrayInputStream: int count>"}],"parameters":[{"id":"1093284784","name":"this","klass":"java.io.InputStream"},{"id":"1094270688","name":"arg#1","klass":"byte[]"}],"returns":[{"id":"sdaReg7","name":"return","klass":"int"}],"colors":{"heapLocToColor":{"1093284784":[0],"1093284784.<java.io.ByteArrayInputStream: int pos>":[0],"sdaReg2":[1],"sdaReg1":[0],"1093284784.<java.io.ByteArrayInputStream: int count>":[0],"1094270688":[1]},"colorToColor":{},"colorToLabel":{"0":"this","1":"arg#1","2":"return"}}}

Generated Model

