Scanning method <java.io.ObjectInputStream: java.io.ObjectStreamClass readClassDesc()>

All seen event types: StoreArrayRecord, SimpleAssignmentRecord, MethodStartRecord, LoadInstanceRecord, IfRecord, StoreInstanceRecord, NewObjectRecord, NewArrayRecord, LoadStaticRecord, BinaryOperationRecord, MethodCallRecord, MethodReturnRecord, SwitchRecord, ArrayLengthRecord, CastRecord, LoadArrayRecord, MethodEndRecord, 
Ignored event types: SwitchRecord, IfRecord, 

JSON Encoded Analysis Data (for visualization):{"heapEdges":[{"step":0,"from":"1093293768","to":"1093293768.<java.io.ObjectInputStream: boolean hasPushbackTC>","type":"load","field":"<java.io.ObjectInputStream: boolean hasPushbackTC>"},{"step":1,"from":"1093293768","to":"1093386376","type":"load","field":"<java.io.ObjectInputStream: java.io.DataInputStream input>"},{"step":2,"from":"1093386376","to":"1093544616","type":"load","field":"<java.io.FilterInputStream: java.io.InputStream in>"},{"step":3,"from":"1093544616","to":"1093544616.<java.io.ByteArrayInputStream: int pos>","type":"load","field":"<java.io.ByteArrayInputStream: int pos>"},{"step":4,"from":"1093544616","to":"1093544616.<java.io.ByteArrayInputStream: int count>","type":"load","field":"<java.io.ByteArrayInputStream: int count>"},{"step":5,"from":"1093544616","to":"1093544400","type":"load","field":"<java.io.ByteArrayInputStream: byte[] buf>"},{"step":6,"from":"1093544616","to":"1093544616.<java.io.ByteArrayInputStream: int pos>","type":"load","field":"<java.io.ByteArrayInputStream: int pos>"},{"step":7,"from":"sdaReg3","to":"1093544616","type":"store","field":"<java.io.ByteArrayInputStream: int pos>"},{"step":8,"from":"1093544400","to":"1093544400.arrayIdx_int:5","type":"load","field":"arrayIdx_int:5"},{"step":9,"from":"sdaReg5","to":"1093293768","type":"store","field":"<java.io.ObjectInputStream: byte pushbackTC>"},{"step":10,"from":"1093293768","to":"1093386376","type":"load","field":"<java.io.ObjectInputStream: java.io.DataInputStream input>"},{"step":11,"from":"1093386376","to":"1093293768","type":"store","field":"<java.io.ObjectInputStream: java.io.InputStream primitiveData>"},{"step":12,"from":"1093293768","to":"1093293768.<java.io.ObjectInputStream: int descriptorHandle>","type":"load","field":"<java.io.ObjectInputStream: int descriptorHandle>"},{"step":13,"from":"1093293768","to":"1093293768.<java.io.ObjectInputStream: int nextHandle>","type":"load","field":"<java.io.ObjectInputStream: int nextHandle>"},{"step":14,"from":"sdaReg10","to":"1093293768","type":"store","field":"<java.io.ObjectInputStream: int nextHandle>"},{"step":15,"from":"1093293768.<java.io.ObjectInputStream: int nextHandle>","to":"1093293768","type":"store","field":"<java.io.ObjectInputStream: int descriptorHandle>"},{"step":16,"from":"1093293768","to":"1093386376","type":"load","field":"<java.io.ObjectInputStream: java.io.DataInputStream input>"},{"step":17,"from":"1093386376","to":"1093544616","type":"load","field":"<java.io.FilterInputStream: java.io.InputStream in>"},{"step":18,"from":"1093386376","to":"1093388312","type":"load","field":"<java.io.DataInputStream: byte[] scratch>"},{"step":19,"from":"1093544616","to":"1093388312","type":"model"},{"step":20,"from":"1093386376","to":"1093388312","type":"load","field":"<java.io.DataInputStream: byte[] scratch>"},{"step":21,"from":"static.<java.nio.ByteOrder: java.nio.ByteOrder BIG_ENDIAN>","to":"1084339448","type":"load","field":"<java.nio.ByteOrder: java.nio.ByteOrder BIG_ENDIAN>"},{"step":22,"from":"1093388312","to":"sdaReg17","type":"model"},{"step":23,"from":"1093386376","to":"1093544616","type":"load","field":"<java.io.FilterInputStream: java.io.InputStream in>"},{"step":24,"from":"1093544616","to":"1093497832","type":"model"},{"step":25,"from":"1093497832","to":"1093497832.arrayIdx_int:0","type":"load","field":"arrayIdx_int:0"},{"step":26,"from":"sdaReg31","to":"1093499800","type":"store","field":"arrayIdx_int:0"},{"step":27,"from":"1093497832","to":"1093497832.arrayIdx_int:1","type":"load","field":"arrayIdx_int:1"},{"step":28,"from":"sdaReg31","to":"1093499800","type":"store","field":"arrayIdx_int:1"},{"step":29,"from":"1093497832","to":"1093497832.arrayIdx_int:2","type":"load","field":"arrayIdx_int:2"},{"step":30,"from":"sdaReg31","to":"1093499800","type":"store","field":"arrayIdx_int:2"},{"step":31,"from":"1093497832","to":"1093497832.arrayIdx_int:3","type":"load","field":"arrayIdx_int:3"},{"step":32,"from":"sdaReg31","to":"1093499800","type":"store","field":"arrayIdx_int:3"},{"step":33,"from":"1093497832","to":"1093497832.arrayIdx_int:4","type":"load","field":"arrayIdx_int:4"},{"step":34,"from":"sdaReg31","to":"1093499800","type":"store","field":"arrayIdx_int:4"},{"step":35,"from":"1093497832","to":"1093497832.arrayIdx_int:5","type":"load","field":"arrayIdx_int:5"},{"step":36,"from":"sdaReg31","to":"1093499800","type":"store","field":"arrayIdx_int:5"},{"step":37,"from":"1093497832","to":"1093497832.arrayIdx_int:6","type":"load","field":"arrayIdx_int:6"},{"step":38,"from":"sdaReg31","to":"1093499800","type":"store","field":"arrayIdx_int:6"},{"step":39,"from":"1093497832","to":"1093497832.arrayIdx_int:7","type":"load","field":"arrayIdx_int:7"},{"step":40,"from":"sdaReg31","to":"1093499800","type":"store","field":"arrayIdx_int:7"},{"step":41,"from":"1093497832","to":"1093497832.arrayIdx_int:8","type":"load","field":"arrayIdx_int:8"},{"step":42,"from":"sdaReg31","to":"1093499800","type":"store","field":"arrayIdx_int:8"},{"step":43,"from":"1093497832","to":"1093497832.arrayIdx_int:9","type":"load","field":"arrayIdx_int:9"},{"step":44,"from":"sdaReg31","to":"1093499800","type":"store","field":"arrayIdx_int:9"},{"step":45,"from":"1093497832","to":"1093497832.arrayIdx_int:10","type":"load","field":"arrayIdx_int:10"},{"step":46,"from":"sdaReg31","to":"1093499800","type":"store","field":"arrayIdx_int:10"},{"step":47,"from":"1093497832","to":"1093497832.arrayIdx_int:11","type":"load","field":"arrayIdx_int:11"},{"step":48,"from":"sdaReg31","to":"1093499800","type":"store","field":"arrayIdx_int:11"},{"step":49,"from":"1093497832","to":"1093497832.arrayIdx_int:12","type":"load","field":"arrayIdx_int:12"},{"step":50,"from":"sdaReg31","to":"1093499800","type":"store","field":"arrayIdx_int:12"},{"step":51,"from":"1093497832","to":"1093497832.arrayIdx_int:13","type":"load","field":"arrayIdx_int:13"},{"step":52,"from":"sdaReg31","to":"1093499800","type":"store","field":"arrayIdx_int:13"},{"step":53,"from":"1093497832","to":"1093497832.arrayIdx_int:14","type":"load","field":"arrayIdx_int:14"},{"step":54,"from":"sdaReg31","to":"1093499800","type":"store","field":"arrayIdx_int:14"},{"step":55,"from":"1093497832","to":"1093497832.arrayIdx_int:15","type":"load","field":"arrayIdx_int:15"},{"step":56,"from":"sdaReg31","to":"1093499800","type":"store","field":"arrayIdx_int:15"},{"step":57,"from":"1093497832","to":"1093497832.arrayIdx_int:16","type":"load","field":"arrayIdx_int:16"},{"step":58,"from":"sdaReg31","to":"1093499800","type":"store","field":"arrayIdx_int:16"},{"step":59,"from":"1093499800","to":"sdaReg32","type":"model"},{"step":60,"from":"1093497664","to":"sdaReg32","type":"model"},{"step":61,"from":"sdaReg32","to":"1093497664","type":"model"},{"step":62,"from":"1093293768","to":"1093386376","type":"load","field":"<java.io.ObjectInputStream: java.io.DataInputStream input>"},{"step":63,"from":"1093386376","to":"1093544616","type":"load","field":"<java.io.FilterInputStream: java.io.InputStream in>"},{"step":64,"from":"1093386376","to":"1093388312","type":"load","field":"<java.io.DataInputStream: byte[] scratch>"},{"step":65,"from":"1093544616","to":"1093388312","type":"model"},{"step":66,"from":"1093386376","to":"1093388312","type":"load","field":"<java.io.DataInputStream: byte[] scratch>"},{"step":67,"from":"static.<java.nio.ByteOrder: java.nio.ByteOrder BIG_ENDIAN>","to":"1084339448","type":"load","field":"<java.nio.ByteOrder: java.nio.ByteOrder BIG_ENDIAN>"},{"step":68,"from":"1093388312","to":"sdaReg35","type":"model"},{"step":69,"from":"1093497664","to":"sdaReg35","type":"model"},{"step":70,"from":"sdaReg35","to":"1093497664","type":"model"},{"step":71,"from":"1093293768","to":"1093386376","type":"load","field":"<java.io.ObjectInputStream: java.io.DataInputStream input>"},{"step":72,"from":"1093386376","to":"1093544616","type":"load","field":"<java.io.FilterInputStream: java.io.InputStream in>"},{"step":73,"from":"1093544616","to":"1093544616.<java.io.ByteArrayInputStream: int count>","type":"load","field":"<java.io.ByteArrayInputStream: int count>"},{"step":74,"from":"1093544616","to":"1093544400","type":"load","field":"<java.io.ByteArrayInputStream: byte[] buf>"},{"step":75,"from":"sdaReg38","to":"1093544616","type":"store","field":"<java.io.ByteArrayInputStream: int pos>"},{"step":76,"from":"1093544400","to":"1093544400.arrayIdx_int:33","type":"load","field":"arrayIdx_int:33"},{"step":77,"from":"1093497664","to":"sdaReg40","type":"model"},{"step":78,"from":"sdaReg40","to":"1093497664","type":"model"},{"step":79,"from":"1093293768","to":"1093388400","type":"load","field":"<java.io.ObjectInputStream: java.util.ArrayList objectsRead>"},{"step":80,"from":"1093388400","to":"1093388400.<java.util.ArrayList: int size>","type":"load","field":"<java.util.ArrayList: int size>"},{"step":81,"from":"1093293768","to":"1093388400","type":"load","field":"<java.io.ObjectInputStream: java.util.ArrayList objectsRead>"},{"step":82,"from":"1093388400","to":"1083994088","type":"load","field":"<java.util.ArrayList: java.lang.Object[] array>"},{"step":83,"from":"1093388400","to":"1093388400.<java.util.ArrayList: int size>","type":"load","field":"<java.util.ArrayList: int size>"},{"step":84,"from":"1083994088","to":"1093453440","type":"model"},{"step":85,"from":"1093388400","to":"1093453440","type":"create","field":"<java.util.ArrayList: java.lang.Object[] array>"},{"step":86,"from":"1093453440","to":"1093497664","type":"create","field":"arrayIdx_int:0"},{"step":87,"from":"sdaReg52","to":"1093388400","type":"store","field":"<java.util.ArrayList: int size>"},{"step":88,"from":"1093388400","to":"1093388400.<java.util.AbstractList: int modCount>","type":"load","field":"<java.util.AbstractList: int modCount>"},{"step":89,"from":"sdaReg53","to":"1093388400","type":"store","field":"<java.util.AbstractList: int modCount>"},{"step":90,"from":"1093293768","to":"1093386376","type":"load","field":"<java.io.ObjectInputStream: java.io.DataInputStream input>"},{"step":91,"from":"1093386376","to":"1093544616","type":"load","field":"<java.io.FilterInputStream: java.io.InputStream in>"},{"step":92,"from":"1093386376","to":"1093388312","type":"load","field":"<java.io.DataInputStream: byte[] scratch>"},{"step":93,"from":"1093544616","to":"1093388312","type":"model"},{"step":94,"from":"1093386376","to":"1093388312","type":"load","field":"<java.io.DataInputStream: byte[] scratch>"},{"step":95,"from":"static.<java.nio.ByteOrder: java.nio.ByteOrder BIG_ENDIAN>","to":"1084339448","type":"load","field":"<java.nio.ByteOrder: java.nio.ByteOrder BIG_ENDIAN>"},{"step":96,"from":"1093388312","to":"sdaReg58","type":"model"},{"step":97,"from":"1093497664","to":"1093702528","type":"model"},{"step":98,"from":"1093702528","to":"1093497664","type":"model"},{"step":99,"from":"1093293768","to":"1093386376","type":"load","field":"<java.io.ObjectInputStream: java.io.DataInputStream input>"},{"step":100,"from":"1093386376","to":"1093544616","type":"load","field":"<java.io.FilterInputStream: java.io.InputStream in>"},{"step":101,"from":"1093544616","to":"1093544616.<java.io.ByteArrayInputStream: int count>","type":"load","field":"<java.io.ByteArrayInputStream: int count>"},{"step":102,"from":"1093544616","to":"1093544400","type":"load","field":"<java.io.ByteArrayInputStream: byte[] buf>"},{"step":103,"from":"sdaReg62","to":"1093544616","type":"store","field":"<java.io.ByteArrayInputStream: int pos>"},{"step":104,"from":"1093544400","to":"1093544400.arrayIdx_int:36","type":"load","field":"arrayIdx_int:36"},{"step":105,"from":"1093293768","to":"1093386376","type":"load","field":"<java.io.ObjectInputStream: java.io.DataInputStream input>"},{"step":106,"from":"1093386376","to":"1093544616","type":"load","field":"<java.io.FilterInputStream: java.io.InputStream in>"},{"step":107,"from":"1093386376","to":"1093388312","type":"load","field":"<java.io.DataInputStream: byte[] scratch>"},{"step":108,"from":"1093544616","to":"1093388312","type":"model"},{"step":109,"from":"1093386376","to":"1093388312","type":"load","field":"<java.io.DataInputStream: byte[] scratch>"},{"step":110,"from":"static.<java.nio.ByteOrder: java.nio.ByteOrder BIG_ENDIAN>","to":"1084339448","type":"load","field":"<java.nio.ByteOrder: java.nio.ByteOrder BIG_ENDIAN>"},{"step":111,"from":"1093388312","to":"sdaReg69","type":"model"},{"step":112,"from":"1093386376","to":"1093544616","type":"load","field":"<java.io.FilterInputStream: java.io.InputStream in>"},{"step":113,"from":"1093544616","to":"1093325200","type":"model"},{"step":114,"from":"1093325200","to":"1093325200.arrayIdx_int:0","type":"load","field":"arrayIdx_int:0"},{"step":115,"from":"sdaReg83","to":"1093319920","type":"store","field":"arrayIdx_int:0"},{"step":116,"from":"1093325200","to":"1093325200.arrayIdx_int:1","type":"load","field":"arrayIdx_int:1"},{"step":117,"from":"sdaReg83","to":"1093319920","type":"store","field":"arrayIdx_int:1"},{"step":118,"from":"1093325200","to":"1093325200.arrayIdx_int:2","type":"load","field":"arrayIdx_int:2"},{"step":119,"from":"sdaReg83","to":"1093319920","type":"store","field":"arrayIdx_int:2"},{"step":120,"from":"1093325200","to":"1093325200.arrayIdx_int:3","type":"load","field":"arrayIdx_int:3"},{"step":121,"from":"sdaReg83","to":"1093319920","type":"store","field":"arrayIdx_int:3"},{"step":122,"from":"1093325200","to":"1093325200.arrayIdx_int:4","type":"load","field":"arrayIdx_int:4"},{"step":123,"from":"sdaReg83","to":"1093319920","type":"store","field":"arrayIdx_int:4"},{"step":124,"from":"1093319920","to":"sdaReg84","type":"model"},{"step":125,"from":"sdaReg65","to":"sdaReg85","type":"model"},{"step":126,"from":"sdaReg65","to":"sdaReg86","type":"model"},{"step":127,"from":"sdaReg86","to":"sdaReg87","type":"model"},{"step":128,"from":"sdaReg86","to":"sdaReg89","type":"model"},{"step":129,"from":"sdaReg87","to":"sdaReg86","type":"model"},{"step":130,"from":"sdaReg87","to":"sdaReg89","type":"model"},{"step":131,"from":"sdaReg84","to":"1093280088","type":"store","field":"<java.io.ObjectStreamField: java.lang.String name>"},{"step":132,"from":"sdaReg86","to":"sdaReg92","type":"model"},{"step":133,"from":"sdaReg92","to":"sdaReg93","type":"model"},{"step":134,"from":"sdaReg93","to":"1093280088","type":"store","field":"<java.io.ObjectStreamField: java.lang.String typeString>"},{"step":135,"from":"static.<java.lang.Integer: java.lang.Class TYPE>","to":"1083909616","type":"load","field":"<java.lang.Integer: java.lang.Class TYPE>"},{"step":136,"from":"1083909616","to":"1093280088","type":"store","field":"<java.io.ObjectStreamField: java.lang.Object type>"},{"step":137,"from":"1093280088","to":"sdaReg97","type":"create","field":"<java.io.ObjectStreamField: boolean isDeserialized>"},{"step":138,"from":"1093702528","to":"1093280088","type":"create","field":"arrayIdx_int:0"},{"step":139,"from":"1093293768","to":"1093388400","type":"load","field":"<java.io.ObjectInputStream: java.util.ArrayList objectsRead>"},{"step":140,"from":"1093293768","to":"1093388400","type":"load","field":"<java.io.ObjectInputStream: java.util.ArrayList objectsRead>"},{"step":141,"from":"1093497664","to":"1093453440","type":"store","field":"arrayIdx_int:0"},{"step":142,"from":"1093293768.<java.io.ObjectInputStream: int descriptorHandle>","to":"1093293768","type":"store","field":"<java.io.ObjectInputStream: int descriptorHandle>"},{"step":143,"from":"1093293768","to":"1093386288","type":"load","field":"<java.io.ObjectInputStream: java.io.InputStream emptyStream>"},{"step":144,"from":"1093386288","to":"1093293768","type":"store","field":"<java.io.ObjectInputStream: java.io.InputStream primitiveData>"},{"step":145,"from":"1093497664","to":"0","type":"model"},{"step":146,"from":"1093497664","to":"sdaReg113","type":"model"},{"step":147,"from":"static.<java.io.ObjectInputStream: java.util.HashMap PRIMITIVE_CLASSES>","to":"1093661056","type":"load","field":"<java.io.ObjectInputStream: java.util.HashMap PRIMITIVE_CLASSES>"},{"step":148,"from":"1093661056","to":"1093646272","type":"load","field":"<java.util.HashMap: java.util.HashMap$HashMapEntry[] table>"},{"step":149,"from":"1093646272","to":"1093673432","type":"load","field":"arrayIdx_int:9"},{"step":150,"from":"1093673432","to":"1083992288","type":"load","field":"<java.util.HashMap$HashMapEntry: java.lang.Object key>"},{"step":151,"from":"1093673432","to":"1093673432.<java.util.HashMap$HashMapEntry: int hash>","type":"load","field":"<java.util.HashMap$HashMapEntry: int hash>"},{"step":152,"from":"1093293768","to":"1093284544","type":"load","field":"<java.io.ObjectInputStream: java.lang.ClassLoader callerClassLoader>"},{"step":153,"from":"sdaReg113","to":"1093284544","type":"model"},{"step":154,"from":"sdaReg113","to":"1083934568","type":"model"},{"step":155,"from":"1093284544","to":"sdaReg113","type":"model"},{"step":156,"from":"1093284544","to":"1083934568","type":"model"},{"step":157,"from":"1093497664","to":"1083934568","type":"model"},{"step":158,"from":"1083934568","to":"1093497664","type":"model"},{"step":159,"from":"1093497664","to":"1083934568","type":"model"},{"step":160,"from":"1083934568","to":"1093622840","type":"model"},{"step":161,"from":"1093497664","to":"sdaReg134","type":"model"},{"step":162,"from":"1093622840","to":"sdaReg135","type":"model"},{"step":163,"from":"1093497664","to":"sdaReg137","type":"model"},{"step":164,"from":"sdaReg137","to":"sdaReg138","type":"model"},{"step":165,"from":"sdaReg137","to":"sdaReg141","type":"model"},{"step":166,"from":"sdaReg137","to":"sdaReg142","type":"model"},{"step":167,"from":"sdaReg141","to":"sdaReg137","type":"model"},{"step":168,"from":"sdaReg141","to":"sdaReg142","type":"model"},{"step":169,"from":"1093622840","to":"sdaReg143","type":"model"},{"step":170,"from":"sdaReg143","to":"sdaReg144","type":"model"},{"step":171,"from":"sdaReg143","to":"sdaReg147","type":"model"},{"step":172,"from":"sdaReg143","to":"sdaReg148","type":"model"},{"step":173,"from":"sdaReg147","to":"sdaReg143","type":"model"},{"step":174,"from":"sdaReg147","to":"sdaReg148","type":"model"},{"step":175,"from":"1093497664","to":"1093622840","type":"model"},{"step":176,"from":"1093622840","to":"1093497664","type":"model"},{"step":177,"from":"1093497664","to":"1093702528","type":"model"},{"step":178,"from":"1093497664","to":"1083934568","type":"model"},{"step":179,"from":"1093497664","to":"1083934568","type":"model"},{"step":180,"from":"1083934568","to":"1083999984","type":"model"},{"step":181,"from":"static.<java.lang.Integer: java.lang.Class TYPE>","to":"1083909616","type":"load","field":"<java.lang.Integer: java.lang.Class TYPE>"},{"step":182,"from":"1083909616","to":"1093280088","type":"store","field":"<java.io.ObjectStreamField: java.lang.Object type>"},{"step":183,"from":"1093293768","to":"1093386288","type":"load","field":"<java.io.ObjectInputStream: java.io.InputStream emptyStream>"},{"step":184,"from":"1093386288","to":"1093293768","type":"store","field":"<java.io.ObjectInputStream: java.io.InputStream primitiveData>"},{"step":185,"from":"1093293768","to":"1093293768.<java.io.ObjectInputStream: boolean mustResolve>","type":"load","field":"<java.io.ObjectInputStream: boolean mustResolve>"},{"step":186,"from":"1093293768","to":"sdaReg167","type":"create","field":"<java.io.ObjectInputStream: boolean mustResolve>"},{"step":187,"from":"1093293768","to":"1093293768.<java.io.ObjectInputStream: boolean hasPushbackTC>","type":"load","field":"<java.io.ObjectInputStream: boolean hasPushbackTC>"},{"step":188,"from":"1093293768","to":"1093386376","type":"load","field":"<java.io.ObjectInputStream: java.io.DataInputStream input>"},{"step":189,"from":"1093386376","to":"1093544616","type":"load","field":"<java.io.FilterInputStream: java.io.InputStream in>"},{"step":190,"from":"1093544616","to":"1093544616.<java.io.ByteArrayInputStream: int count>","type":"load","field":"<java.io.ByteArrayInputStream: int count>"},{"step":191,"from":"1093544616","to":"1093544400","type":"load","field":"<java.io.ByteArrayInputStream: byte[] buf>"},{"step":192,"from":"sdaReg171","to":"1093544616","type":"store","field":"<java.io.ByteArrayInputStream: int pos>"},{"step":193,"from":"1093544400","to":"1093544400.arrayIdx_int:44","type":"load","field":"arrayIdx_int:44"},{"step":194,"from":"sdaReg173","to":"1093293768","type":"store","field":"<java.io.ObjectInputStream: byte pushbackTC>"},{"step":195,"from":"1093293768.<java.io.ObjectInputStream: boolean mustResolve>","to":"1093293768","type":"store","field":"<java.io.ObjectInputStream: boolean mustResolve>"},{"step":196,"from":"1093293768","to":"1093293768.<java.io.ObjectInputStream: boolean hasPushbackTC>","type":"load","field":"<java.io.ObjectInputStream: boolean hasPushbackTC>"},{"step":197,"from":"1093293768","to":"1093386376","type":"load","field":"<java.io.ObjectInputStream: java.io.DataInputStream input>"},{"step":198,"from":"1093386376","to":"1093544616","type":"load","field":"<java.io.FilterInputStream: java.io.InputStream in>"},{"step":199,"from":"1093544616","to":"1093544616.<java.io.ByteArrayInputStream: int count>","type":"load","field":"<java.io.ByteArrayInputStream: int count>"},{"step":200,"from":"1093544616","to":"1093544400","type":"load","field":"<java.io.ByteArrayInputStream: byte[] buf>"},{"step":201,"from":"sdaReg179","to":"1093544616","type":"store","field":"<java.io.ByteArrayInputStream: int pos>"},{"step":202,"from":"1093544400","to":"1093544400.arrayIdx_int:45","type":"load","field":"arrayIdx_int:45"},{"step":203,"from":"sdaReg181","to":"1093293768","type":"store","field":"<java.io.ObjectInputStream: byte pushbackTC>"},{"step":204,"from":"1093293768","to":"1093386376","type":"load","field":"<java.io.ObjectInputStream: java.io.DataInputStream input>"},{"step":205,"from":"1093386376","to":"1093293768","type":"store","field":"<java.io.ObjectInputStream: java.io.InputStream primitiveData>"},{"step":206,"from":"sdaReg186","to":"1093293768","type":"store","field":"<java.io.ObjectInputStream: int nextHandle>"},{"step":207,"from":"sdaReg187","to":"1093293768","type":"store","field":"<java.io.ObjectInputStream: int descriptorHandle>"},{"step":208,"from":"1093293768","to":"1093386376","type":"load","field":"<java.io.ObjectInputStream: java.io.DataInputStream input>"},{"step":209,"from":"1093386376","to":"1093544616","type":"load","field":"<java.io.FilterInputStream: java.io.InputStream in>"},{"step":210,"from":"1093386376","to":"1093388312","type":"load","field":"<java.io.DataInputStream: byte[] scratch>"},{"step":211,"from":"1093544616","to":"1093388312","type":"model"},{"step":212,"from":"1093386376","to":"1093388312","type":"load","field":"<java.io.DataInputStream: byte[] scratch>"},{"step":213,"from":"static.<java.nio.ByteOrder: java.nio.ByteOrder BIG_ENDIAN>","to":"1084339448","type":"load","field":"<java.nio.ByteOrder: java.nio.ByteOrder BIG_ENDIAN>"},{"step":214,"from":"1093388312","to":"sdaReg194","type":"model"},{"step":215,"from":"1093386376","to":"1093544616","type":"load","field":"<java.io.FilterInputStream: java.io.InputStream in>"},{"step":216,"from":"1093544616","to":"1093292448","type":"model"},{"step":217,"from":"1093292448","to":"1093292448.arrayIdx_int:0","type":"load","field":"arrayIdx_int:0"},{"step":218,"from":"sdaReg208","to":"1093292488","type":"store","field":"arrayIdx_int:0"},{"step":219,"from":"1093292448","to":"1093292448.arrayIdx_int:1","type":"load","field":"arrayIdx_int:1"},{"step":220,"from":"sdaReg208","to":"1093292488","type":"store","field":"arrayIdx_int:1"},{"step":221,"from":"1093292448","to":"1093292448.arrayIdx_int:2","type":"load","field":"arrayIdx_int:2"},{"step":222,"from":"sdaReg208","to":"1093292488","type":"store","field":"arrayIdx_int:2"},{"step":223,"from":"1093292448","to":"1093292448.arrayIdx_int:3","type":"load","field":"arrayIdx_int:3"},{"step":224,"from":"sdaReg208","to":"1093292488","type":"store","field":"arrayIdx_int:3"},{"step":225,"from":"1093292448","to":"1093292448.arrayIdx_int:4","type":"load","field":"arrayIdx_int:4"},{"step":226,"from":"sdaReg208","to":"1093292488","type":"store","field":"arrayIdx_int:4"},{"step":227,"from":"1093292448","to":"1093292448.arrayIdx_int:5","type":"load","field":"arrayIdx_int:5"},{"step":228,"from":"sdaReg208","to":"1093292488","type":"store","field":"arrayIdx_int:5"},{"step":229,"from":"1093292448","to":"1093292448.arrayIdx_int:6","type":"load","field":"arrayIdx_int:6"},{"step":230,"from":"sdaReg208","to":"1093292488","type":"store","field":"arrayIdx_int:6"},{"step":231,"from":"1093292448","to":"1093292448.arrayIdx_int:7","type":"load","field":"arrayIdx_int:7"},{"step":232,"from":"sdaReg208","to":"1093292488","type":"store","field":"arrayIdx_int:7"},{"step":233,"from":"1093292448","to":"1093292448.arrayIdx_int:8","type":"load","field":"arrayIdx_int:8"},{"step":234,"from":"sdaReg208","to":"1093292488","type":"store","field":"arrayIdx_int:8"},{"step":235,"from":"1093292448","to":"1093292448.arrayIdx_int:9","type":"load","field":"arrayIdx_int:9"},{"step":236,"from":"sdaReg208","to":"1093292488","type":"store","field":"arrayIdx_int:9"},{"step":237,"from":"1093292448","to":"1093292448.arrayIdx_int:10","type":"load","field":"arrayIdx_int:10"},{"step":238,"from":"sdaReg208","to":"1093292488","type":"store","field":"arrayIdx_int:10"},{"step":239,"from":"1093292448","to":"1093292448.arrayIdx_int:11","type":"load","field":"arrayIdx_int:11"},{"step":240,"from":"sdaReg208","to":"1093292488","type":"store","field":"arrayIdx_int:11"},{"step":241,"from":"1093292448","to":"1093292448.arrayIdx_int:12","type":"load","field":"arrayIdx_int:12"},{"step":242,"from":"sdaReg208","to":"1093292488","type":"store","field":"arrayIdx_int:12"},{"step":243,"from":"1093292448","to":"1093292448.arrayIdx_int:13","type":"load","field":"arrayIdx_int:13"},{"step":244,"from":"sdaReg208","to":"1093292488","type":"store","field":"arrayIdx_int:13"},{"step":245,"from":"1093292448","to":"1093292448.arrayIdx_int:14","type":"load","field":"arrayIdx_int:14"},{"step":246,"from":"sdaReg208","to":"1093292488","type":"store","field":"arrayIdx_int:14"},{"step":247,"from":"1093292448","to":"1093292448.arrayIdx_int:15","type":"load","field":"arrayIdx_int:15"},{"step":248,"from":"sdaReg208","to":"1093292488","type":"store","field":"arrayIdx_int:15"},{"step":249,"from":"1093292488","to":"sdaReg209","type":"model"},{"step":250,"from":"1093286304","to":"sdaReg209","type":"model"},{"step":251,"from":"sdaReg209","to":"1093286304","type":"model"},{"step":252,"from":"1093293768","to":"1093386376","type":"load","field":"<java.io.ObjectInputStream: java.io.DataInputStream input>"},{"step":253,"from":"1093386376","to":"1093544616","type":"load","field":"<java.io.FilterInputStream: java.io.InputStream in>"},{"step":254,"from":"1093386376","to":"1093388312","type":"load","field":"<java.io.DataInputStream: byte[] scratch>"},{"step":255,"from":"1093544616","to":"1093388312","type":"model"},{"step":256,"from":"1093386376","to":"1093388312","type":"load","field":"<java.io.DataInputStream: byte[] scratch>"},{"step":257,"from":"static.<java.nio.ByteOrder: java.nio.ByteOrder BIG_ENDIAN>","to":"1084339448","type":"load","field":"<java.nio.ByteOrder: java.nio.ByteOrder BIG_ENDIAN>"},{"step":258,"from":"1093388312","to":"sdaReg212","type":"model"},{"step":259,"from":"1093286304","to":"sdaReg212","type":"model"},{"step":260,"from":"sdaReg212","to":"1093286304","type":"model"},{"step":261,"from":"1093293768","to":"1093386376","type":"load","field":"<java.io.ObjectInputStream: java.io.DataInputStream input>"},{"step":262,"from":"1093386376","to":"1093544616","type":"load","field":"<java.io.FilterInputStream: java.io.InputStream in>"},{"step":263,"from":"1093544616","to":"1093544616.<java.io.ByteArrayInputStream: int count>","type":"load","field":"<java.io.ByteArrayInputStream: int count>"},{"step":264,"from":"1093544616","to":"1093544400","type":"load","field":"<java.io.ByteArrayInputStream: byte[] buf>"},{"step":265,"from":"sdaReg215","to":"1093544616","type":"store","field":"<java.io.ByteArrayInputStream: int pos>"},{"step":266,"from":"1093544400","to":"1093544400.arrayIdx_int:72","type":"load","field":"arrayIdx_int:72"},{"step":267,"from":"1093286304","to":"sdaReg217","type":"model"},{"step":268,"from":"sdaReg217","to":"1093286304","type":"model"},{"step":269,"from":"1093293768","to":"1093388400","type":"load","field":"<java.io.ObjectInputStream: java.util.ArrayList objectsRead>"},{"step":270,"from":"1093293768","to":"1093388400","type":"load","field":"<java.io.ObjectInputStream: java.util.ArrayList objectsRead>"},{"step":271,"from":"1093453440","to":"1093286304","type":"create","field":"arrayIdx_int:1"},{"step":272,"from":"sdaReg228","to":"1093388400","type":"store","field":"<java.util.ArrayList: int size>"},{"step":273,"from":"sdaReg229","to":"1093388400","type":"store","field":"<java.util.AbstractList: int modCount>"},{"step":274,"from":"1093293768","to":"1093386376","type":"load","field":"<java.io.ObjectInputStream: java.io.DataInputStream input>"},{"step":275,"from":"1093386376","to":"1093544616","type":"load","field":"<java.io.FilterInputStream: java.io.InputStream in>"},{"step":276,"from":"1093386376","to":"1093388312","type":"load","field":"<java.io.DataInputStream: byte[] scratch>"},{"step":277,"from":"1093544616","to":"1093388312","type":"model"},{"step":278,"from":"1093386376","to":"1093388312","type":"load","field":"<java.io.DataInputStream: byte[] scratch>"},{"step":279,"from":"static.<java.nio.ByteOrder: java.nio.ByteOrder BIG_ENDIAN>","to":"1084339448","type":"load","field":"<java.nio.ByteOrder: java.nio.ByteOrder BIG_ENDIAN>"},{"step":280,"from":"1093388312","to":"sdaReg234","type":"model"},{"step":281,"from":"1093286304","to":"1093481392","type":"model"},{"step":282,"from":"1093481392","to":"1093286304","type":"model"},{"step":283,"from":"1093293768","to":"1093388400","type":"load","field":"<java.io.ObjectInputStream: java.util.ArrayList objectsRead>"},{"step":284,"from":"1093293768","to":"1093388400","type":"load","field":"<java.io.ObjectInputStream: java.util.ArrayList objectsRead>"},{"step":285,"from":"1093286304","to":"1093453440","type":"store","field":"arrayIdx_int:1"},{"step":286,"from":"sdaReg245","to":"1093293768","type":"store","field":"<java.io.ObjectInputStream: int descriptorHandle>"},{"step":287,"from":"1093293768","to":"1093386288","type":"load","field":"<java.io.ObjectInputStream: java.io.InputStream emptyStream>"},{"step":288,"from":"1093386288","to":"1093293768","type":"store","field":"<java.io.ObjectInputStream: java.io.InputStream primitiveData>"},{"step":289,"from":"1093286304","to":"0","type":"model"},{"step":290,"from":"1093286304","to":"sdaReg249","type":"model"},{"step":291,"from":"static.<java.io.ObjectInputStream: java.util.HashMap PRIMITIVE_CLASSES>","to":"1093661056","type":"load","field":"<java.io.ObjectInputStream: java.util.HashMap PRIMITIVE_CLASSES>"},{"step":292,"from":"1093661056","to":"1093646272","type":"load","field":"<java.util.HashMap: java.util.HashMap$HashMapEntry[] table>"},{"step":293,"from":"1093646272","to":"1093646360","type":"load","field":"arrayIdx_int:0"},{"step":294,"from":"1093646360","to":"1083991528","type":"load","field":"<java.util.HashMap$HashMapEntry: java.lang.Object key>"},{"step":295,"from":"1093646360","to":"1093646360.<java.util.HashMap$HashMapEntry: int hash>","type":"load","field":"<java.util.HashMap$HashMapEntry: int hash>"},{"step":296,"from":"1093293768","to":"1093284544","type":"load","field":"<java.io.ObjectInputStream: java.lang.ClassLoader callerClassLoader>"},{"step":297,"from":"sdaReg249","to":"1093284544","type":"model"},{"step":298,"from":"sdaReg249","to":"1083931088","type":"model"},{"step":299,"from":"1093284544","to":"sdaReg249","type":"model"},{"step":300,"from":"1093284544","to":"1083931088","type":"model"},{"step":301,"from":"1093286304","to":"1083931088","type":"model"},{"step":302,"from":"1083931088","to":"1093286304","type":"model"},{"step":303,"from":"1093286304","to":"1083931088","type":"model"},{"step":304,"from":"1083931088","to":"1093514224","type":"model"},{"step":305,"from":"1093286304","to":"sdaReg270","type":"model"},{"step":306,"from":"1093514224","to":"sdaReg271","type":"model"},{"step":307,"from":"1093286304","to":"sdaReg273","type":"model"},{"step":308,"from":"sdaReg273","to":"sdaReg274","type":"model"},{"step":309,"from":"sdaReg273","to":"sdaReg277","type":"model"},{"step":310,"from":"sdaReg273","to":"sdaReg278","type":"model"},{"step":311,"from":"sdaReg277","to":"sdaReg273","type":"model"},{"step":312,"from":"sdaReg277","to":"sdaReg278","type":"model"},{"step":313,"from":"1093514224","to":"sdaReg279","type":"model"},{"step":314,"from":"sdaReg279","to":"sdaReg280","type":"model"},{"step":315,"from":"sdaReg279","to":"sdaReg283","type":"model"},{"step":316,"from":"sdaReg279","to":"sdaReg284","type":"model"},{"step":317,"from":"sdaReg283","to":"sdaReg279","type":"model"},{"step":318,"from":"sdaReg283","to":"sdaReg284","type":"model"},{"step":319,"from":"1093286304","to":"1093514224","type":"model"},{"step":320,"from":"1093514224","to":"1093286304","type":"model"},{"step":321,"from":"1093286304","to":"1093481392","type":"model"},{"step":322,"from":"1093286304","to":"1083931088","type":"model"},{"step":323,"from":"1093286304","to":"1083931088","type":"model"},{"step":324,"from":"1083931088","to":"1083999984","type":"model"},{"step":325,"from":"1093293768","to":"1093386288","type":"load","field":"<java.io.ObjectInputStream: java.io.InputStream emptyStream>"},{"step":326,"from":"1093386288","to":"1093293768","type":"store","field":"<java.io.ObjectInputStream: java.io.InputStream primitiveData>"},{"step":327,"from":"1093293768","to":"sdaReg297","type":"create","field":"<java.io.ObjectInputStream: boolean mustResolve>"},{"step":328,"from":"1093293768","to":"1093293768.<java.io.ObjectInputStream: boolean hasPushbackTC>","type":"load","field":"<java.io.ObjectInputStream: boolean hasPushbackTC>"},{"step":329,"from":"1093293768","to":"1093386376","type":"load","field":"<java.io.ObjectInputStream: java.io.DataInputStream input>"},{"step":330,"from":"1093386376","to":"1093544616","type":"load","field":"<java.io.FilterInputStream: java.io.InputStream in>"},{"step":331,"from":"1093544616","to":"1093544616.<java.io.ByteArrayInputStream: int count>","type":"load","field":"<java.io.ByteArrayInputStream: int count>"},{"step":332,"from":"1093544616","to":"1093544400","type":"load","field":"<java.io.ByteArrayInputStream: byte[] buf>"},{"step":333,"from":"sdaReg301","to":"1093544616","type":"store","field":"<java.io.ByteArrayInputStream: int pos>"},{"step":334,"from":"1093544400","to":"1093544400.arrayIdx_int:75","type":"load","field":"arrayIdx_int:75"},{"step":335,"from":"sdaReg303","to":"1093293768","type":"store","field":"<java.io.ObjectInputStream: byte pushbackTC>"},{"step":336,"from":"sdaReg305","to":"1093293768","type":"store","field":"<java.io.ObjectInputStream: boolean mustResolve>"},{"step":337,"from":"1093293768","to":"1093293768.<java.io.ObjectInputStream: boolean hasPushbackTC>","type":"load","field":"<java.io.ObjectInputStream: boolean hasPushbackTC>"},{"step":338,"from":"1093293768","to":"1093386376","type":"load","field":"<java.io.ObjectInputStream: java.io.DataInputStream input>"},{"step":339,"from":"1093386376","to":"1093544616","type":"load","field":"<java.io.FilterInputStream: java.io.InputStream in>"},{"step":340,"from":"1093544616","to":"1093544616.<java.io.ByteArrayInputStream: int count>","type":"load","field":"<java.io.ByteArrayInputStream: int count>"},{"step":341,"from":"1093544616","to":"1093544400","type":"load","field":"<java.io.ByteArrayInputStream: byte[] buf>"},{"step":342,"from":"sdaReg310","to":"1093544616","type":"store","field":"<java.io.ByteArrayInputStream: int pos>"},{"step":343,"from":"1093544400","to":"1093544400.arrayIdx_int:76","type":"load","field":"arrayIdx_int:76"},{"step":344,"from":"sdaReg312","to":"1093293768","type":"store","field":"<java.io.ObjectInputStream: byte pushbackTC>"},{"step":345,"from":"1093497664","to":"1093286304","type":"model"},{"step":346,"from":"1093286304","to":"1093497664","type":"model"}],"parameters":[{"id":"1093293768","name":"this","klass":"java.io.ObjectInputStream"}],"returns":[{"id":"1093497664","name":"return","klass":"java.io.ObjectStreamClass"}],"colors":{"heapLocToColor":{"sdaReg191":[0],"sdaReg293":[53, 45],"sdaReg190":[45],"sdaReg296":[0],"sdaReg193":[0],"sdaReg192":[0],"sdaReg298":[0],"sdaReg299":[0],"sdaReg199":[47],"sdaReg198":[0],"sdaReg323":[1],"1093453440":[9],"sdaReg290":[56, 45],"sdaReg195":[46],"sdaReg194":[46],"sdaReg292":[1, 42, 56, 29, 45],"sdaReg197":[0],"sdaReg291":[1, 42, 56, 29, 45],"sdaReg196":[0],"sdaReg13":[1],"sdaReg14":[0],"sdaReg11":[0],"sdaReg12":[1],"sdaReg321":[45],"sdaReg322":[70],"sdaReg10":[0],"sdaReg320":[1],"sdaReg19":[0],"sdaReg17":[3],"sdaReg18":[3],"sdaReg15":[0],"sdaReg16":[0],"1093286304":[1, 45],"sdaReg312":[0],"1093544400.arrayIdx_int:36":[0],"sdaReg315":[45],"1093544400.arrayIdx_int:33":[0],"sdaReg314":[1, 25, 45],"sdaReg317":[69],"sdaReg316":[1, 25, 45],"sdaReg319":[45],"1083931088":[56, 45],"sdaReg318":[45],"1083991528":[27],"0":[1, 25, 45],"sdaReg311":[0],"sdaReg309":[0],"sdaReg170":[0],"1083934568":[1, 29],"sdaReg308":[0],"sdaReg173":[0],"sdaReg307":[0],"1093481392":[53, 45],"sdaReg172":[0],"sdaReg306":[0],"sdaReg175":[0],"sdaReg177":[0],"1093544400.arrayIdx_int:44":[0],"sdaReg303":[0],"1093544400.arrayIdx_int:45":[0],"sdaReg176":[0],"sdaReg302":[0],"sdaReg178":[0],"sdaReg300":[0],"1093386376.<java.io.FilterInputStream: java.io.InputStream in>":[0],"1093293768.<java.io.ObjectInputStream: java.io.DataInputStream input>":[0],"1093497664":[1],"sdaReg181":[0],"sdaReg180":[0],"sdaReg185":[0],"1093386376.<java.io.DataInputStream: byte[] scratch>":[0],"sdaReg183":[0],"sdaReg189":[45],"sdaReg188":[0],"sdaReg60":[0],"sdaReg61":[0],"1093673432":[27],"1093544616.<java.io.ByteArrayInputStream: int count>":[0],"sdaReg58":[10],"sdaReg57":[0],"sdaReg56":[1],"sdaReg55":[0],"sdaReg53":[0],"sdaReg52":[0],"sdaReg51":[0],"1093325200":[13],"1093646360.<java.util.HashMap$HashMapEntry: int hash>":[27],"1093514224":[57, 45],"sdaReg48":[1],"1093646272":[27],"1093544400.arrayIdx_int:72":[0],"sdaReg47":[0],"sdaReg46":[0],"1093544400.arrayIdx_int:75":[0],"sdaReg41":[0],"1093544400.arrayIdx_int:76":[0],"sdaReg40":[0, 1],"sdaReg42":[1],"sdaReg201":[47],"1093293768.<java.io.ObjectInputStream: java.util.ArrayList objectsRead>":[0],"sdaReg39":[0],"sdaReg202":[48],"sdaReg37":[0],"sdaReg209":[49, 45],"sdaReg208":[47],"1093544400.arrayIdx_int:5":[0],"1093293768.<java.io.ObjectInputStream: boolean mustResolve>":[0],"1093544400":[0],"1093293768.<java.io.ObjectInputStream: java.lang.ClassLoader callerClassLoader>":[0],"sdaReg32":[1, 6],"sdaReg31":[4],"sdaReg36":[0],"sdaReg35":[1, 8],"sdaReg34":[0],"sdaReg33":[7],"sdaReg9":[0],"sdaReg7":[0],"sdaReg4":[0],"sdaReg5":[0],"1093325200.arrayIdx_int:0":[13],"1093292448":[47],"1093325200.arrayIdx_int:1":[13],"1093325200.arrayIdx_int:2":[13],"1093325200.arrayIdx_int:3":[13],"1093325200.arrayIdx_int:4":[13],"sdaReg3":[0],"sdaReg2":[0],"sdaReg1":[0],"sdaReg21":[0],"sdaReg0":[0],"sdaReg20":[0],"1093544616":[0],"sdaReg22":[4],"sdaReg25":[5],"1093388400.<java.util.AbstractList: int modCount>":[0],"sdaReg24":[4],"sdaReg126":[28],"sdaReg127":[1, 25],"1093497832":[4],"sdaReg128":[29],"sdaReg129":[29],"sdaReg68":[0],"sdaReg69":[12],"sdaReg66":[0],"sdaReg67":[0],"sdaReg64":[0],"sdaReg225":[0],"sdaReg65":[0],"sdaReg226":[45],"sdaReg63":[0],"sdaReg72":[0],"sdaReg71":[0],"sdaReg223":[0],"sdaReg70":[12],"1093388312":[0],"sdaReg120":[28],"sdaReg122":[28],"sdaReg121":[28],"sdaReg123":[28],"sdaReg116":[28],"sdaReg117":[28],"sdaReg114":[27],"1093319920":[14],"sdaReg115":[28],"sdaReg118":[28],"sdaReg119":[28],"sdaReg219":[45],"sdaReg77":[14],"sdaReg217":[0, 45],"sdaReg218":[0],"sdaReg73":[0],"sdaReg216":[0],"sdaReg74":[13],"1093284544":[0],"sdaReg213":[0],"sdaReg214":[0],"sdaReg76":[13],"sdaReg212":[51, 45],"sdaReg211":[0],"sdaReg210":[50],"sdaReg83":[13],"1083994088":[0],"1093497832.arrayIdx_int:13":[4],"1093497832.arrayIdx_int:14":[4],"1093497832.arrayIdx_int:15":[4],"1093497832.arrayIdx_int:16":[4],"1093388400":[0],"1093497832.arrayIdx_int:10":[4],"1093497832.arrayIdx_int:11":[4],"1093497832.arrayIdx_int:12":[4],"sdaReg113":[1, 26],"sdaReg112":[1, 25],"sdaReg111":[1],"sdaReg110":[0],"sdaReg108":[0],"sdaReg109":[1],"sdaReg103":[1],"1093646360":[27],"sdaReg106":[0],"sdaReg246":[0],"sdaReg86":[17],"sdaReg247":[45],"sdaReg87":[17],"sdaReg248":[1, 25, 45],"sdaReg84":[15],"sdaReg249":[54, 45],"sdaReg85":[16],"sdaReg88":[18],"1093292488":[48],"sdaReg89":[17, 19],"sdaReg90":[20],"sdaReg241":[0],"1083909616":[24],"sdaReg243":[0],"sdaReg94":[20],"sdaReg93":[17, 21, 22],"sdaReg92":[17, 21],"sdaReg244":[45],"sdaReg91":[20],"sdaReg102":[0],"sdaReg101":[1],"sdaReg237":[0],"sdaReg95":[23],"sdaReg238":[45],"sdaReg236":[45],"sdaReg98":[20],"sdaReg99":[20],"sdaReg234":[52],"sdaReg233":[0],"1084339448":[2],"sdaReg232":[45],"sdaReg231":[0],"sdaReg269":[57],"sdaReg268":[56, 45],"sdaReg169":[0],"1093292448.arrayIdx_int:9":[47],"sdaReg161":[1, 42, 29],"1093292448.arrayIdx_int:8":[47],"sdaReg162":[43],"1093292448.arrayIdx_int:7":[47],"sdaReg163":[20],"1093292448.arrayIdx_int:6":[47],"sdaReg164":[44],"sdaReg166":[0],"sdaReg168":[0],"sdaReg264":[56],"1093292448.arrayIdx_int:1":[47],"sdaReg265":[56],"1093292448.arrayIdx_int:0":[47],"sdaReg266":[0],"1093293768":[0],"sdaReg267":[45],"1093292448.arrayIdx_int:5":[47],"static.<java.nio.ByteOrder: java.nio.ByteOrder BIG_ENDIAN>":[2],"1093292448.arrayIdx_int:4":[47],"1093544616.<java.io.ByteArrayInputStream: int pos>":[0],"sdaReg262":[55],"1093292448.arrayIdx_int:3":[47],"1093673432.<java.util.HashMap$HashMapEntry: int hash>":[27],"sdaReg263":[1, 25, 45],"1093292448.arrayIdx_int:2":[47],"sdaReg160":[20],"1093661056.<java.util.HashMap: java.util.HashMap$HashMapEntry[] table>":[27],"sdaReg259":[55],"sdaReg258":[55],"sdaReg257":[55],"1083992288":[27],"sdaReg152":[1, 11],"sdaReg153":[1, 29],"1093497832.arrayIdx_int:0":[4],"sdaReg150":[1, 11],"1093497832.arrayIdx_int:1":[4],"sdaReg151":[1, 11],"sdaReg156":[1, 42, 29],"1093497832.arrayIdx_int:2":[4],"sdaReg157":[1, 11],"1093497832.arrayIdx_int:3":[4],"1093661056":[27],"1093293768.<java.io.ObjectInputStream: int nextHandle>":[0],"1093497832.arrayIdx_int:4":[4],"sdaReg154":[1, 29],"1093497832.arrayIdx_int:5":[4],"sdaReg155":[1, 42, 29],"sdaReg255":[55],"sdaReg256":[55],"sdaReg253":[55],"sdaReg254":[55],"1093622840":[1, 30],"sdaReg251":[55],"sdaReg252":[55],"1093388400.<java.util.ArrayList: int size>":[0],"sdaReg250":[27],"1093544616.<java.io.ByteArrayInputStream: byte[] buf>":[0],"1093499800":[5],"1093292448.arrayIdx_int:10":[47],"1093292448.arrayIdx_int:12":[47],"1093292448.arrayIdx_int:11":[47],"1093497832.arrayIdx_int:9":[4],"sdaReg148":[37, 40, 30],"1093497832.arrayIdx_int:8":[4],"sdaReg147":[38, 37, 30],"1093497832.arrayIdx_int:7":[4],"1093497832.arrayIdx_int:6":[4],"sdaReg149":[41],"sdaReg143":[37, 30],"sdaReg144":[38, 37, 30],"sdaReg145":[39],"sdaReg146":[39],"sdaReg140":[35],"sdaReg280":[64, 65, 57],"sdaReg141":[34, 1, 33],"sdaReg281":[66],"sdaReg142":[1, 33, 36],"sdaReg282":[66],"sdaReg283":[64, 65, 57],"1083999984":[1, 42, 56, 29, 45],"sdaReg284":[64, 67, 57],"1093293768.<java.io.ObjectInputStream: boolean hasPushbackTC>":[0],"sdaReg285":[68],"sdaReg286":[53, 45],"sdaReg287":[53, 45],"sdaReg288":[53, 45],"sdaReg289":[56, 45],"1093702528":[1, 11],"sdaReg279":[64, 57],"1093293768.<java.io.ObjectInputStream: java.io.InputStream emptyStream>":[0],"sdaReg139":[35],"sdaReg138":[34, 1, 33],"sdaReg137":[1, 33],"static.<java.io.ObjectInputStream: java.util.HashMap PRIMITIVE_CLASSES>":[27],"sdaReg136":[1, 32, 31, 30],"sdaReg134":[1, 31],"sdaReg135":[32, 30],"sdaReg132":[1, 29],"sdaReg133":[30],"1093292448.arrayIdx_int:15":[47],"sdaReg130":[0],"sdaReg270":[58, 45],"1093386288":[0],"sdaReg131":[1],"1093292448.arrayIdx_int:13":[47],"1093292448.arrayIdx_int:14":[47],"1093386376":[0],"sdaReg273":[45, 60],"static.<java.lang.Integer: java.lang.Class TYPE>":[24],"sdaReg274":[61, 60, 45],"1093280088":[20],"sdaReg271":[59, 57],"sdaReg272":[59, 58, 57, 45],"sdaReg277":[61, 45, 60],"sdaReg278":[63, 60, 45],"1093293768.<java.io.ObjectInputStream: int descriptorHandle>":[0],"sdaReg275":[62],"sdaReg276":[62]},"colorToColor":{"0":[0, 1, 3, 4, 8, 9, 10, 46, 12, 47, 13, 45, 51, 17, 16, 54, 52, 56, 26, 29],"1":[0, 1, 71, 33, 36, 9, 29, 30],"64":[64, 67, 57],"4":[5],"65":[64, 67, 57],"5":[6],"6":[1],"8":[1],"9":[0],"11":[1],"13":[14],"14":[15],"15":[20],"17":[17, 19, 20],"21":[20],"20":[1, 11],"22":[20],"24":[20],"26":[0, 29],"29":[1, 30],"30":[1, 37, 40, 30],"34":[1, 33, 36],"33":[1, 33, 36],"38":[37, 40, 30],"37":[37, 40, 30],"47":[48],"45":[0, 1, 9, 57, 56, 63, 60, 45],"51":[45],"49":[45],"48":[49],"54":[0, 56],"53":[45],"57":[64, 67, 57, 45],"56":[57, 45],"61":[63, 60, 45],"60":[63, 60, 45]},"colorToLabel":{"0":"this","2":"<java.nio.ByteOrder: java.nio.ByteOrder BIG_ENDIAN>","24":"<java.lang.Integer: java.lang.Class TYPE>","27":"<java.io.ObjectInputStream: java.util.HashMap PRIMITIVE_CLASSES>","71":"return"}}}

Generated Model
	this->return

