Scanning method <java.io.PrintWriter: void print(java.lang.String)>

All seen event types: SimpleAssignmentRecord, ExitMonitorRecord, MethodReturnRecord, MethodCallRecord, EnterMonitorRecord, LoadInstanceRecord, ArrayLengthRecord, MethodStartRecord, MethodEndRecord, IfRecord, StoreInstanceRecord, 
Ignored event types: ExitMonitorRecord, EnterMonitorRecord, IfRecord, 

JSON Encoded Analysis Data (for visualization):{"heapEdges":[{"step":0,"from":"sdaReg1","to":"1093677824","type":"model"},{"step":1,"from":"1093602280","to":"1093602312","type":"load","field":"<java.io.Writer: java.lang.Object lock>"},{"step":2,"from":"1093602280","to":"1093602312","type":"load","field":"<java.io.Writer: java.lang.Object lock>"},{"step":3,"from":"1093602280","to":"sdaReg15","type":"create","field":"<java.io.PrintWriter: boolean ioError>"}],"parameters":[{"id":"1093602280","name":"this","klass":"java.io.PrintWriter"},{"id":"sdaReg0","name":"arg#1","klass":"string"}],"returns":[{"id":null,"name":"return","klass":null}],"colors":{"heapLocToColor":{"sdaReg8":[1, 2],"1093602312":[0],"1093602280":[0],"sdaReg7":[0],"sdaReg4":[0],"sdaReg5":[1, 2],"1093677824":[1, 2],"1093602280.<java.io.Writer: java.lang.Object lock>":[0],"sdaReg13":[0],"sdaReg14":[0],"sdaReg11":[1, 2],"sdaReg10":[0],"sdaReg3":[1, 2],"sdaReg2":[0],"sdaReg1":[1],"sdaReg0":[1]},"colorToColor":{},"colorToLabel":{"0":"this","1":"arg#1","3":"return"}}}

Generated Model

