Scanning method <java.io.PrintWriter: void print(java.lang.String)>

All seen event types: SimpleAssignmentRecord, ExitMonitorRecord, MethodReturnRecord, MethodCallRecord, EnterMonitorRecord, LoadInstanceRecord, ArrayLengthRecord, MethodStartRecord, MethodEndRecord, IfRecord, 
Ignored event types: ExitMonitorRecord, EnterMonitorRecord, IfRecord, 

JSON Encoded Analysis Data (for visualization):{"heapEdges":[{"step":0,"from":"sdaReg1","to":"1093633856","type":"model"},{"step":1,"from":"1093624400","to":"1093625336","type":"load","field":"<java.io.Writer: java.lang.Object lock>"},{"step":2,"from":"1093624400","to":"1093625336","type":"load","field":"<java.io.PrintWriter: java.io.Writer out>"},{"step":3,"from":"1093624400","to":"1093625336","type":"load","field":"<java.io.PrintWriter: java.io.Writer out>"},{"step":4,"from":"1093625336","to":"1093633856","type":"model"},{"step":5,"from":"1093625336","to":"sdaReg9","type":"model"},{"step":6,"from":"1093625336","to":"sdaReg6","type":"model"},{"step":7,"from":"1093633856","to":"1093625336","type":"model"},{"step":8,"from":"1093633856","to":"sdaReg9","type":"model"},{"step":9,"from":"1093633856","to":"sdaReg6","type":"model"},{"step":10,"from":"sdaReg9","to":"1093625336","type":"model"},{"step":11,"from":"sdaReg9","to":"1093633856","type":"model"},{"step":12,"from":"sdaReg9","to":"sdaReg6","type":"model"},{"step":13,"from":"sdaReg6","to":"1093625336","type":"model"},{"step":14,"from":"sdaReg6","to":"1093633856","type":"model"},{"step":15,"from":"sdaReg6","to":"sdaReg9","type":"model"}],"parameters":[{"id":"1093624400","name":"this","klass":"java.io.PrintWriter"},{"id":"sdaReg0","name":"arg#1","klass":"string"}],"returns":[{"id":null,"name":"return","klass":null}],"colors":{"heapLocToColor":{"1093633856":[0, 1, 2],"sdaReg8":[1, 2],"sdaReg9":[0],"sdaReg6":[0],"1093625336":[0],"sdaReg7":[0],"sdaReg4":[0],"sdaReg5":[1, 2],"1093624400":[0],"sdaReg11":[1, 2],"sdaReg10":[0],"1093624400.<java.io.PrintWriter: java.io.Writer out>":[0],"sdaReg3":[1, 2],"sdaReg2":[0],"sdaReg1":[1],"sdaReg0":[1]},"colorToColor":{"0":[0, 1, 2],"1":[0],"2":[0]},"colorToLabel":{"0":"this","1":"arg#1","3":"return"}}}

Generated Model
	this->arg#1
	arg#1->this

