Scanning method <java.io.ObjectInputStream: void close()>

All seen event types: MethodReturnRecord, MethodCallRecord, MethodStartRecord, LoadInstanceRecord, MethodEndRecord, IfRecord, StoreInstanceRecord, 
Ignored event types: IfRecord, 

JSON Encoded Analysis Data (for visualization):{"heapEdges":[{"step":0,"from":"1093273712","to":"1093312416","type":"load","field":"<java.io.ObjectInputStream: java.io.DataInputStream input>"},{"step":1,"from":"1093312416","to":"1093300632","type":"load","field":"<java.io.FilterInputStream: java.io.InputStream in>"},{"step":2,"from":"1093300632","to":"sdaReg2","type":"create","field":"<java.io.BufferedInputStream: byte[] buf>"},{"step":3,"from":"1093300632","to":"1093271736","type":"load","field":"<java.io.FilterInputStream: java.io.InputStream in>"},{"step":4,"from":"1093300632","to":"sdaReg3","type":"create","field":"<java.io.FilterInputStream: java.io.InputStream in>"}],"parameters":[{"id":"1093273712","name":"this","klass":"java.io.ObjectInputStream"}],"returns":[{"id":null,"name":"return","klass":null}],"colors":{"heapLocToColor":{"1093312416":[0],"sdaReg4":[0],"1093273712":[0],"1093300632":[0],"sdaReg1":[0],"sdaReg0":[0],"1093271736":[0]},"colorToColor":{},"colorToLabel":{"0":"this","1":"return"}}}

Generated Model

