Scanning method <java.io.ObjectInputStream: void close()>

All seen event types: MethodReturnRecord, MethodCallRecord, MethodStartRecord, LoadInstanceRecord, MethodEndRecord, 
Ignored event types: 

JSON Encoded Analysis Data (for visualization):{"heapEdges":[{"step":0,"from":"1093301376","to":"1093303664","type":"load","field":"<java.io.ObjectInputStream: java.io.DataInputStream input>"},{"step":1,"from":"1093303664","to":"1093301576","type":"load","field":"<java.io.FilterInputStream: java.io.InputStream in>"}],"parameters":[{"id":"1093301376","name":"this","klass":"java.io.ObjectInputStream"}],"returns":[{"id":null,"name":"return","klass":null}],"colors":{"heapLocToColor":{"1093303664":[0],"sdaReg1":[0],"1093301576":[0],"sdaReg0":[0],"1093301376":[0]},"colorToColor":{},"colorToLabel":{"0":"this","1":"return"}}}

Generated Model

