Scanning method <android.location.Location: void reset()>

All seen event types: StoreInstanceRecord, 
Ignored event types: 

JSON Encoded Analysis Data (for visualization):{"heapEdges":[{"step":0,"from":"1093958232","to":"sdaReg0","type":"create","field":"<android.location.Location: java.lang.String mProvider>"},{"step":1,"from":"1093958232","to":"sdaReg1","type":"create","field":"<android.location.Location: long mTime>"},{"step":2,"from":"1093958232","to":"sdaReg2","type":"create","field":"<android.location.Location: double mLatitude>"},{"step":3,"from":"1093958232","to":"sdaReg3","type":"create","field":"<android.location.Location: double mLongitude>"},{"step":4,"from":"1093958232","to":"sdaReg4","type":"create","field":"<android.location.Location: boolean mHasAltitude>"},{"step":5,"from":"1093958232","to":"sdaReg5","type":"create","field":"<android.location.Location: double mAltitude>"},{"step":6,"from":"1093958232","to":"sdaReg6","type":"create","field":"<android.location.Location: boolean mHasSpeed>"},{"step":7,"from":"1093958232","to":"sdaReg7","type":"create","field":"<android.location.Location: float mSpeed>"},{"step":8,"from":"1093958232","to":"sdaReg8","type":"create","field":"<android.location.Location: boolean mHasBearing>"},{"step":9,"from":"1093958232","to":"sdaReg9","type":"create","field":"<android.location.Location: float mBearing>"},{"step":10,"from":"1093958232","to":"sdaReg10","type":"create","field":"<android.location.Location: boolean mHasAccuracy>"},{"step":11,"from":"1093958232","to":"sdaReg11","type":"create","field":"<android.location.Location: float mAccuracy>"},{"step":12,"from":"1093958232","to":"sdaReg12","type":"create","field":"<android.location.Location: android.os.Bundle mExtras>"}],"parameters":[{"id":"1093958232","name":"this","klass":"android.location.Location"}],"returns":[{"id":null,"name":"return","klass":null}],"colors":{"heapLocToColor":{"1093958232":[0]},"colorToColor":{},"colorToLabel":{"0":"this","1":"return"}}}

Generated Model

