Scanning method <java.util.AbstractList: void <init>()>

All seen event types: MethodReturnRecord, MethodCallRecord, MethodStartRecord, MethodEndRecord, 
Ignored event types: 

JSON Encoded Analysis Data (for visualization):{"heapEdges":[],"parameters":[{"id":"1093441544","name":"this","klass":"java.util.AbstractList"}],"returns":[{"id":"1093441544","name":"return","klass":"java.util.AbstractList"}],"colors":{"heapLocToColor":{"1093441544":[0],"sdaReg2":[0],"sdaReg1":[0],"sdaReg0":[0]},"colorToColor":{"0":[1]},"colorToLabel":{"0":"this","1":"return"}}}

Generated Model
	this->return

