Scanning method <java.io.PrintStream: void println(java.lang.String)>

All seen event types: MethodReturnRecord, MethodCallRecord, LoadInstanceRecord, MethodStartRecord, MethodEndRecord, IfRecord, 
Ignored event types: IfRecord, 

JSON Encoded Analysis Data (for visualization):{"heapEdges":[{"step":0,"from":"1093511112","to":"1093510936","type":"load","field":"<java.io.FilterOutputStream: java.io.OutputStream out>"},{"step":1,"from":"1093511112","to":"1093511112.<java.io.PrintStream: java.lang.String encoding>","type":"load","field":"<java.io.PrintStream: java.lang.String encoding>"},{"step":2,"from":"sdaReg0","to":"1093321552","type":"model"},{"step":3,"from":"1093511112","to":"1093321552","type":"model"},{"step":4,"from":"1093321552","to":"1093511112","type":"model"},{"step":5,"from":"1093511112","to":"1093510936","type":"load","field":"<java.io.FilterOutputStream: java.io.OutputStream out>"},{"step":6,"from":"1093511112","to":"1093511112.<java.io.PrintStream: java.lang.String encoding>","type":"load","field":"<java.io.PrintStream: java.lang.String encoding>"},{"step":7,"from":"sdaReg4","to":"1093321776","type":"model"},{"step":8,"from":"1093511112","to":"1093321776","type":"model"},{"step":9,"from":"1093321776","to":"1093511112","type":"model"}],"parameters":[{"id":"1093511112","name":"this","klass":"java.io.PrintStream"},{"id":"sdaReg0","name":"arg#1","klass":"string"}],"returns":[{"id":null,"name":"return","klass":null}],"colors":{"heapLocToColor":{"1093321776":[0, 3, 4],"sdaReg6":[3, 4],"sdaReg4":[3],"1093510936":[0],"1093511112.<java.io.PrintStream: java.lang.String encoding>":[0],"sdaReg5":[0],"1093511112":[0],"1093321552":[0, 1, 2],"sdaReg3":[0],"sdaReg2":[1, 2],"sdaReg1":[0],"sdaReg0":[1],"1093511112.<java.io.FilterOutputStream: java.io.OutputStream out>":[0]},"colorToColor":{"0":[0],"1":[0],"2":[0],"3":[0],"4":[0]},"colorToLabel":{"0":"this","1":"arg#1","5":"return"}}}

Generated Model
	arg#1->this

