Scanning method <java.io.PrintStream: void println(java.lang.String)>

All seen event types: MethodReturnRecord, MethodCallRecord, LoadInstanceRecord, MethodStartRecord, MethodEndRecord, IfRecord, 
Ignored event types: IfRecord, 

JSON Encoded Analysis Data (for visualization):{"heapEdges":[{"step":0,"from":"1093467512","to":"1093467336","type":"load","field":"<java.io.FilterOutputStream: java.io.OutputStream out>"},{"step":1,"from":"1093467512","to":"1093467512.<java.io.PrintStream: java.lang.String encoding>","type":"load","field":"<java.io.PrintStream: java.lang.String encoding>"},{"step":2,"from":"sdaReg0","to":"1093228872","type":"model"},{"step":3,"from":"1093467512","to":"1093228872","type":"model"},{"step":4,"from":"1093228872","to":"1093467512","type":"model"},{"step":5,"from":"1093467512","to":"1093467336","type":"load","field":"<java.io.FilterOutputStream: java.io.OutputStream out>"},{"step":6,"from":"1093467512","to":"1093467512.<java.io.PrintStream: java.lang.String encoding>","type":"load","field":"<java.io.PrintStream: java.lang.String encoding>"},{"step":7,"from":"sdaReg4","to":"1093230960","type":"model"},{"step":8,"from":"1093467512","to":"1093230960","type":"model"},{"step":9,"from":"1093230960","to":"1093467512","type":"model"}],"parameters":[{"id":"1093467512","name":"this","klass":"java.io.PrintStream"},{"id":"sdaReg0","name":"arg#1","klass":"string"}],"returns":[{"id":null,"name":"return","klass":null}],"colors":{"heapLocToColor":{"1093467512":[0],"sdaReg6":[3, 4],"sdaReg4":[3],"sdaReg5":[0],"1093230960":[0, 3, 4],"1093467512.<java.io.PrintStream: java.lang.String encoding>":[0],"1093228872":[0, 1, 2],"1093467336":[0],"sdaReg3":[0],"sdaReg2":[1, 2],"sdaReg1":[0],"sdaReg0":[1],"1093467512.<java.io.FilterOutputStream: java.io.OutputStream out>":[0]},"colorToColor":{"0":[0],"1":[0],"2":[0],"3":[0],"4":[0]},"colorToLabel":{"0":"this","1":"arg#1","5":"return"}}}

Generated Model
	arg#1->this

