Scanning method <android.location.Location: float getSpeed()>

All seen event types: LoadInstanceRecord, 
Ignored event types: 

JSON Encoded Analysis Data (for visualization):{"heapEdges":[{"step":0,"from":"1093687432","to":"1093687432.<android.location.Location: float mSpeed>","type":"load","field":"<android.location.Location: float mSpeed>"}],"parameters":[{"id":"1093687432","name":"this","klass":"android.location.Location"}],"returns":[{"id":"1093687432.<android.location.Location: float mSpeed>","name":"return","klass":"float"}],"colors":{"heapLocToColor":{"1093687432.<android.location.Location: float mSpeed>":[0],"1093687432":[0]},"colorToColor":{"0":[1]},"colorToLabel":{"0":"this","1":"return"}}}

Generated Model
	this->return

