Scanning method <java.util.Vector$1: boolean hasMoreElements()>

All seen event types: SimpleAssignmentRecord, LoadInstanceRecord, IfRecord, 
Ignored event types: IfRecord, 

JSON Encoded Analysis Data (for visualization):{"heapEdges":[{"step":0,"from":"1093380264","to":"1093380264.<java.util.Vector$1: int pos>","type":"load","field":"<java.util.Vector$1: int pos>"},{"step":1,"from":"1093380264","to":"1093659768","type":"load","field":"<java.util.Vector$1: java.util.Vector this$0>"},{"step":2,"from":"1093659768","to":"1093659768.<java.util.Vector: int elementCount>","type":"load","field":"<java.util.Vector: int elementCount>"}],"parameters":[{"id":"1093380264","name":"this","klass":"java.util.Vector$1"}],"returns":[{"id":"sdaReg0","name":"return","klass":"boolean"}],"colors":{"heapLocToColor":{"1093659768":[0],"1093380264.<java.util.Vector$1: int pos>":[0],"1093380264":[0],"1093659768.<java.util.Vector: int elementCount>":[0]},"colorToColor":{},"colorToLabel":{"0":"this","1":"return"}}}

Generated Model

