Scanning method <java.io.SequenceInputStream: void close()>

All seen event types: LoadInstanceRecord, IfRecord, StoreInstanceRecord, 
Ignored event types: IfRecord, 

JSON Encoded Analysis Data (for visualization):{"heapEdges":[{"step":0,"from":"1093620504","to":"sdaReg0","type":"create","field":"<java.io.SequenceInputStream: java.util.Enumeration e>"}],"parameters":[{"id":"1093620504","name":"this","klass":"java.io.SequenceInputStream"}],"returns":[{"id":null,"name":"return","klass":null}],"colors":{"heapLocToColor":{"1093620504":[0]},"colorToColor":{},"colorToLabel":{"0":"this","1":"return"}}}

Generated Model

