Scanning method <java.io.InputStreamReader: void <init>(java.io.InputStream,java.lang.String)>

All seen event types: SimpleAssignmentRecord, ExitMonitorRecord, LoadInstanceRecord, MethodStartRecord, IfRecord, StoreInstanceRecord, NewObjectRecord, NewArrayRecord, LoadStaticRecord, BinaryOperationRecord, MethodCallRecord, MethodReturnRecord, EnterMonitorRecord, CastRecord, ArrayLengthRecord, LoadArrayRecord, MethodEndRecord, 
Ignored event types: ExitMonitorRecord, EnterMonitorRecord, IfRecord, 

JSON Encoded Analysis Data (for visualization):{"heapEdges":[{"step":0,"from":"1093692560","to":"1093713752","type":"store","field":"<java.io.Reader: java.lang.Object lock>"},{"step":1,"from":"1093713752","to":"sdaReg5","type":"create","field":"<java.io.InputStreamReader: boolean endOfInput>"},{"step":2,"from":"1093713848","to":"sdaReg19","type":"create","field":"<java.nio.Buffer: int mark>"},{"step":3,"from":"1093713848","to":"sdaReg20","type":"create","field":"<java.nio.Buffer: int position>"},{"step":4,"from":"1093713848","to":"sdaReg16","type":"create","field":"<java.nio.Buffer: int _elementSizeShift>"},{"step":5,"from":"1093713848","to":"sdaReg6","type":"create","field":"<java.nio.Buffer: int limit>"},{"step":6,"from":"sdaReg6","to":"1093713848","type":"store","field":"<java.nio.Buffer: int capacity>"},{"step":7,"from":"static.<java.nio.ByteOrder: java.nio.ByteOrder BIG_ENDIAN>","to":"1084339448","type":"load","field":"<java.nio.ByteOrder: java.nio.ByteOrder BIG_ENDIAN>"},{"step":8,"from":"1084339448","to":"1093713848","type":"store","field":"<java.nio.ByteBuffer: java.nio.ByteOrder order>"},{"step":9,"from":"1093713848","to":"1093713904","type":"create","field":"<java.nio.HeapByteBuffer: byte[] backingArray>"},{"step":10,"from":"1093713848","to":"sdaReg11","type":"create","field":"<java.nio.HeapByteBuffer: int offset>"},{"step":11,"from":"1093713752","to":"1093713848","type":"create","field":"<java.io.InputStreamReader: java.nio.ByteBuffer bytes>"},{"step":12,"from":"1093692560","to":"1093713752","type":"store","field":"<java.io.InputStreamReader: java.io.InputStream in>"},{"step":13,"from":"static.<java.nio.charset.Charset: java.util.HashMap CACHED_CHARSETS>","to":"1084324784","type":"load","field":"<java.nio.charset.Charset: java.util.HashMap CACHED_CHARSETS>"},{"step":14,"from":"static.<java.nio.charset.Charset: java.util.HashMap CACHED_CHARSETS>","to":"1084324784","type":"load","field":"<java.nio.charset.Charset: java.util.HashMap CACHED_CHARSETS>"},{"step":15,"from":"1084324784","to":"1084332560","type":"load","field":"<java.util.HashMap: java.util.HashMap$HashMapEntry[] table>"},{"step":16,"from":"1084332560","to":"1084332840","type":"load","field":"arrayIdx_int:33"},{"step":17,"from":"1084332840","to":"1084331016","type":"load","field":"<java.util.HashMap$HashMapEntry: java.lang.Object key>"},{"step":18,"from":"1084332840","to":"1084332840.<java.util.HashMap$HashMapEntry: int hash>","type":"load","field":"<java.util.HashMap$HashMapEntry: int hash>"},{"step":19,"from":"1084332840","to":"1084326792","type":"load","field":"<java.util.HashMap$HashMapEntry: java.util.HashMap$HashMapEntry next>"},{"step":20,"from":"1084326792","to":"1084324840","type":"load","field":"<java.util.HashMap$HashMapEntry: java.lang.Object key>"},{"step":21,"from":"1084326792","to":"1084326792.<java.util.HashMap$HashMapEntry: int hash>","type":"load","field":"<java.util.HashMap$HashMapEntry: int hash>"},{"step":22,"from":"1084326792","to":"1084325896","type":"load","field":"<java.util.HashMap$HashMapEntry: java.lang.Object value>"},{"step":23,"from":"1084325896","to":"1084325896.<java.nio.charset.CharsetICU: java.lang.String icuCanonicalName>","type":"load","field":"<java.nio.charset.CharsetICU: java.lang.String icuCanonicalName>"},{"step":24,"from":"1084325896.<java.nio.charset.CharsetICU: java.lang.String icuCanonicalName>","to":"sdaReg51","type":"model"},{"step":25,"from":"sdaReg51","to":"sdaReg52","type":"model"},{"step":26,"from":"sdaReg52","to":"1093499760","type":"store","field":"<java.nio.charset.CharsetDecoder: float averageCharsPerByte>"},{"step":27,"from":"1093499760","to":"sdaReg57","type":"create","field":"<java.nio.charset.CharsetDecoder: float maxCharsPerByte>"},{"step":28,"from":"1084325896","to":"1093499760","type":"store","field":"<java.nio.charset.CharsetDecoder: java.nio.charset.Charset cs>"},{"step":29,"from":"1093499760","to":"sdaReg62","type":"create","field":"<java.nio.charset.CharsetDecoder: int status>"},{"step":30,"from":"static.<java.nio.charset.CodingErrorAction: java.nio.charset.CodingErrorAction REPORT>","to":"1084336272","type":"load","field":"<java.nio.charset.CodingErrorAction: java.nio.charset.CodingErrorAction REPORT>"},{"step":31,"from":"1084336272","to":"1093499760","type":"store","field":"<java.nio.charset.CharsetDecoder: java.nio.charset.CodingErrorAction malformedInputAction>"},{"step":32,"from":"static.<java.nio.charset.CodingErrorAction: java.nio.charset.CodingErrorAction REPORT>","to":"1084336272","type":"load","field":"<java.nio.charset.CodingErrorAction: java.nio.charset.CodingErrorAction REPORT>"},{"step":33,"from":"1084336272","to":"1093499760","type":"store","field":"<java.nio.charset.CharsetDecoder: java.nio.charset.CodingErrorAction unmappableCharacterAction>"},{"step":34,"from":"1093499760","to":"sdaReg63","type":"create","field":"<java.nio.charset.CharsetDecoder: java.lang.String replacementChars>"},{"step":35,"from":"1093499760","to":"1093496480","type":"create","field":"<java.nio.charset.CharsetDecoderICU: int[] data>"},{"step":36,"from":"1093499760","to":"sdaReg65","type":"create","field":"<java.nio.charset.CharsetDecoderICU: long converterHandle>"},{"step":37,"from":"1093499760","to":"sdaReg66","type":"create","field":"<java.nio.charset.CharsetDecoderICU: byte[] input>"},{"step":38,"from":"1093499760","to":"sdaReg67","type":"create","field":"<java.nio.charset.CharsetDecoderICU: char[] output>"},{"step":39,"from":"1093499760","to":"sdaReg68","type":"create","field":"<java.nio.charset.CharsetDecoderICU: byte[] allocatedInput>"},{"step":40,"from":"1093499760","to":"sdaReg69","type":"create","field":"<java.nio.charset.CharsetDecoderICU: char[] allocatedOutput>"},{"step":41,"from":"sdaReg51","to":"1093499760","type":"store","field":"<java.nio.charset.CharsetDecoderICU: long converterHandle>"},{"step":42,"from":"static.<java.nio.charset.CodingErrorAction: java.nio.charset.CodingErrorAction REPORT>","to":"1084336272","type":"load","field":"<java.nio.charset.CodingErrorAction: java.nio.charset.CodingErrorAction REPORT>"},{"step":43,"from":"static.<java.nio.charset.CodingErrorAction: java.nio.charset.CodingErrorAction REPORT>","to":"1084336272","type":"load","field":"<java.nio.charset.CodingErrorAction: java.nio.charset.CodingErrorAction REPORT>"},{"step":44,"from":"sdaReg73","to":"sdaReg78","type":"model"},{"step":45,"from":"sdaReg73","to":"sdaReg82","type":"model"},{"step":46,"from":"sdaReg73","to":"sdaReg84","type":"model"},{"step":47,"from":"sdaReg73","to":"sdaReg85","type":"model"},{"step":48,"from":"sdaReg78","to":"sdaReg73","type":"model"},{"step":49,"from":"sdaReg78","to":"sdaReg82","type":"model"},{"step":50,"from":"sdaReg78","to":"sdaReg84","type":"model"},{"step":51,"from":"sdaReg78","to":"sdaReg85","type":"model"},{"step":52,"from":"sdaReg82","to":"sdaReg73","type":"model"},{"step":53,"from":"sdaReg82","to":"sdaReg78","type":"model"},{"step":54,"from":"sdaReg82","to":"sdaReg84","type":"model"},{"step":55,"from":"sdaReg82","to":"sdaReg85","type":"model"},{"step":56,"from":"sdaReg84","to":"sdaReg73","type":"model"},{"step":57,"from":"sdaReg84","to":"sdaReg78","type":"model"},{"step":58,"from":"sdaReg84","to":"sdaReg82","type":"model"},{"step":59,"from":"sdaReg84","to":"sdaReg85","type":"model"},{"step":60,"from":"sdaReg85","to":"1093499760","type":"store","field":"<java.nio.charset.CharsetDecoderICU: int ec>"},{"step":61,"from":"static.<java.nio.charset.CodingErrorAction: java.nio.charset.CodingErrorAction REPLACE>","to":"1084051696","type":"load","field":"<java.nio.charset.CodingErrorAction: java.nio.charset.CodingErrorAction REPLACE>"},{"step":62,"from":"1084051696","to":"1093499760","type":"store","field":"<java.nio.charset.CharsetDecoder: java.nio.charset.CodingErrorAction malformedInputAction>"},{"step":63,"from":"static.<java.nio.charset.CodingErrorAction: java.nio.charset.CodingErrorAction REPORT>","to":"1084336272","type":"load","field":"<java.nio.charset.CodingErrorAction: java.nio.charset.CodingErrorAction REPORT>"},{"step":64,"from":"static.<java.nio.charset.CodingErrorAction: java.nio.charset.CodingErrorAction IGNORE>","to":"1084016976","type":"load","field":"<java.nio.charset.CodingErrorAction: java.nio.charset.CodingErrorAction IGNORE>"},{"step":65,"from":"static.<java.nio.charset.CodingErrorAction: java.nio.charset.CodingErrorAction REPLACE>","to":"1084051696","type":"load","field":"<java.nio.charset.CodingErrorAction: java.nio.charset.CodingErrorAction REPLACE>"},{"step":66,"from":"static.<java.nio.charset.CodingErrorAction: java.nio.charset.CodingErrorAction REPORT>","to":"1084336272","type":"load","field":"<java.nio.charset.CodingErrorAction: java.nio.charset.CodingErrorAction REPORT>"},{"step":67,"from":"sdaReg97","to":"sdaReg102","type":"model"},{"step":68,"from":"sdaReg97","to":"sdaReg106","type":"model"},{"step":69,"from":"sdaReg97","to":"sdaReg108","type":"model"},{"step":70,"from":"sdaReg97","to":"sdaReg109","type":"model"},{"step":71,"from":"sdaReg102","to":"sdaReg97","type":"model"},{"step":72,"from":"sdaReg102","to":"sdaReg106","type":"model"},{"step":73,"from":"sdaReg102","to":"sdaReg108","type":"model"},{"step":74,"from":"sdaReg102","to":"sdaReg109","type":"model"},{"step":75,"from":"sdaReg106","to":"sdaReg97","type":"model"},{"step":76,"from":"sdaReg106","to":"sdaReg102","type":"model"},{"step":77,"from":"sdaReg106","to":"sdaReg108","type":"model"},{"step":78,"from":"sdaReg106","to":"sdaReg109","type":"model"},{"step":79,"from":"sdaReg108","to":"sdaReg97","type":"model"},{"step":80,"from":"sdaReg108","to":"sdaReg102","type":"model"},{"step":81,"from":"sdaReg108","to":"sdaReg106","type":"model"},{"step":82,"from":"sdaReg108","to":"sdaReg109","type":"model"},{"step":83,"from":"sdaReg109","to":"1093499760","type":"store","field":"<java.nio.charset.CharsetDecoderICU: int ec>"},{"step":84,"from":"static.<java.nio.charset.CodingErrorAction: java.nio.charset.CodingErrorAction REPLACE>","to":"1084051696","type":"load","field":"<java.nio.charset.CodingErrorAction: java.nio.charset.CodingErrorAction REPLACE>"},{"step":85,"from":"1084051696","to":"1093499760","type":"store","field":"<java.nio.charset.CharsetDecoder: java.nio.charset.CodingErrorAction unmappableCharacterAction>"},{"step":86,"from":"static.<java.nio.charset.CodingErrorAction: java.nio.charset.CodingErrorAction REPORT>","to":"1084336272","type":"load","field":"<java.nio.charset.CodingErrorAction: java.nio.charset.CodingErrorAction REPORT>"},{"step":87,"from":"static.<java.nio.charset.CodingErrorAction: java.nio.charset.CodingErrorAction IGNORE>","to":"1084016976","type":"load","field":"<java.nio.charset.CodingErrorAction: java.nio.charset.CodingErrorAction IGNORE>"},{"step":88,"from":"static.<java.nio.charset.CodingErrorAction: java.nio.charset.CodingErrorAction REPLACE>","to":"1084051696","type":"load","field":"<java.nio.charset.CodingErrorAction: java.nio.charset.CodingErrorAction REPLACE>"},{"step":89,"from":"static.<java.nio.charset.CodingErrorAction: java.nio.charset.CodingErrorAction REPORT>","to":"1084336272","type":"load","field":"<java.nio.charset.CodingErrorAction: java.nio.charset.CodingErrorAction REPORT>"},{"step":90,"from":"static.<java.nio.charset.CodingErrorAction: java.nio.charset.CodingErrorAction IGNORE>","to":"1084016976","type":"load","field":"<java.nio.charset.CodingErrorAction: java.nio.charset.CodingErrorAction IGNORE>"},{"step":91,"from":"static.<java.nio.charset.CodingErrorAction: java.nio.charset.CodingErrorAction REPLACE>","to":"1084051696","type":"load","field":"<java.nio.charset.CodingErrorAction: java.nio.charset.CodingErrorAction REPLACE>"},{"step":92,"from":"sdaReg118","to":"sdaReg123","type":"model"},{"step":93,"from":"sdaReg118","to":"sdaReg127","type":"model"},{"step":94,"from":"sdaReg118","to":"sdaReg129","type":"model"},{"step":95,"from":"sdaReg118","to":"sdaReg130","type":"model"},{"step":96,"from":"sdaReg123","to":"sdaReg118","type":"model"},{"step":97,"from":"sdaReg123","to":"sdaReg127","type":"model"},{"step":98,"from":"sdaReg123","to":"sdaReg129","type":"model"},{"step":99,"from":"sdaReg123","to":"sdaReg130","type":"model"},{"step":100,"from":"sdaReg127","to":"sdaReg118","type":"model"},{"step":101,"from":"sdaReg127","to":"sdaReg123","type":"model"},{"step":102,"from":"sdaReg127","to":"sdaReg129","type":"model"},{"step":103,"from":"sdaReg127","to":"sdaReg130","type":"model"},{"step":104,"from":"sdaReg129","to":"sdaReg118","type":"model"},{"step":105,"from":"sdaReg129","to":"sdaReg123","type":"model"},{"step":106,"from":"sdaReg129","to":"sdaReg127","type":"model"},{"step":107,"from":"sdaReg129","to":"sdaReg130","type":"model"},{"step":108,"from":"sdaReg130","to":"1093499760","type":"store","field":"<java.nio.charset.CharsetDecoderICU: int ec>"},{"step":109,"from":"1093713752","to":"1093499760","type":"create","field":"<java.io.InputStreamReader: java.nio.charset.CharsetDecoder decoder>"},{"step":110,"from":"1093713848","to":"sdaReg135","type":"create","field":"<java.nio.Buffer: int limit>"}],"parameters":[{"id":"1093713752","name":"this","klass":"java.io.InputStreamReader"},{"id":"1093692560","name":"arg#1","klass":"java.io.InputStream"},{"id":"sdaReg0","name":"arg#2","klass":"string"}],"returns":[{"id":"1093713752","name":"return","klass":"java.io.InputStreamReader"}],"colors":{"heapLocToColor":{"sdaReg125":[15],"1084331016":[6],"sdaReg126":[15],"sdaReg128":[11],"1084324784":[6],"sdaReg64":[11],"sdaReg13":[3],"sdaReg72":[11],"sdaReg71":[11],"sdaReg70":[11],"sdaReg12":[3],"sdaReg10":[4],"sdaReg120":[11],"sdaReg122":[15],"sdaReg121":[15],"sdaReg18":[3],"sdaReg124":[11],"sdaReg15":[3],"sdaReg116":[15],"sdaReg117":[11],"sdaReg114":[15],"sdaReg115":[11],"sdaReg119":[11],"sdaReg77":[12],"sdaReg79":[11],"sdaReg74":[11],"sdaReg75":[11],"sdaReg76":[12],"sdaReg81":[12],"sdaReg80":[12],"sdaReg83":[11],"sdaReg113":[11],"sdaReg112":[11],"sdaReg107":[11],"sdaReg109":[17],"sdaReg103":[11],"sdaReg104":[12],"sdaReg105":[12],"sdaReg85":[14],"sdaReg88":[11],"sdaReg89":[9],"1093713752":[0],"sdaReg90":[11],"sdaReg94":[11],"sdaReg93":[15],"sdaReg92":[11],"sdaReg91":[11],"sdaReg100":[15],"static.<java.nio.charset.CodingErrorAction: java.nio.charset.CodingErrorAction REPLACE>":[15],"1084051696":[15],"sdaReg101":[15],"1093496480":[13],"sdaReg95":[15],"sdaReg96":[11],"sdaReg98":[11],"1084326792.<java.util.HashMap$HashMapEntry: int hash>":[6],"sdaReg99":[11],"1084339448":[5],"1084324840":[6],"1084326792":[6],"1084016976":[16],"sdaReg61":[10],"sdaReg59":[10],"sdaReg58":[11],"sdaReg56":[6],"sdaReg55":[11],"static.<java.nio.ByteOrder: java.nio.ByteOrder BIG_ENDIAN>":[5],"sdaReg54":[6],"sdaReg53":[11],"sdaReg52":[10],"sdaReg51":[9],"1084332840":[6],"static.<java.nio.charset.CodingErrorAction: java.nio.charset.CodingErrorAction IGNORE>":[16],"sdaReg49":[6],"sdaReg48":[6],"sdaReg45":[6],"sdaReg44":[8],"static.<java.nio.charset.CodingErrorAction: java.nio.charset.CodingErrorAction REPORT>":[12],"sdaReg47":[6],"1084325896.<java.nio.charset.CharsetICU: java.lang.String icuCanonicalName>":[6],"1084336272":[12],"1093713848":[3],"sdaReg46":[6],"sdaReg40":[7],"sdaReg43":[7],"1093713904":[4],"sdaReg39":[7],"sdaReg38":[7],"sdaReg37":[7],"sdaReg32":[7],"sdaReg31":[6],"sdaReg30":[6],"1084332560":[6],"sdaReg36":[7],"sdaReg35":[7],"sdaReg34":[7],"sdaReg33":[7],"1093499760":[11],"sdaReg8":[3],"sdaReg9":[3],"sdaReg7":[3],"sdaReg4":[0],"1084325896":[6],"static.<java.nio.charset.Charset: java.util.HashMap CACHED_CHARSETS>":[6],"sdaReg136":[3],"sdaReg134":[3],"sdaReg27":[3],"sdaReg26":[3],"sdaReg29":[3],"sdaReg133":[11],"1093692560":[1],"sdaReg28":[3],"sdaReg130":[18],"1084332840.<java.util.HashMap$HashMapEntry: int hash>":[6],"sdaReg3":[0],"sdaReg2":[1],"sdaReg1":[0],"sdaReg21":[3],"sdaReg0":[2],"sdaReg23":[3],"sdaReg22":[3]},"colorToColor":{"0":[19],"1":[0],"3":[0],"4":[3],"5":[3],"6":[9, 11],"9":[10, 11],"10":[11],"11":[0],"12":[11],"13":[11],"14":[11],"15":[11],"17":[11],"18":[11]},"colorToLabel":{"0":"this","1":"arg#1","2":"arg#2","5":"<java.nio.ByteOrder: java.nio.ByteOrder BIG_ENDIAN>","6":"<java.nio.charset.Charset: java.util.HashMap CACHED_CHARSETS>","12":"<java.nio.charset.CodingErrorAction: java.nio.charset.CodingErrorAction REPORT>","15":"<java.nio.charset.CodingErrorAction: java.nio.charset.CodingErrorAction REPLACE>","16":"<java.nio.charset.CodingErrorAction: java.nio.charset.CodingErrorAction IGNORE>","19":"return"}}}

Generated Model
	this->return
	arg#1->this
	arg#1->return

