Scanning method <java.io.InputStreamReader: void <init>(java.io.InputStream,java.lang.String)>

All seen event types: StoreArrayRecord, SimpleAssignmentRecord, ExitMonitorRecord, LoadInstanceRecord, MethodStartRecord, IfRecord, StoreInstanceRecord, NewObjectRecord, NewArrayRecord, LoadStaticRecord, BinaryOperationRecord, MethodCallRecord, MethodReturnRecord, EnterMonitorRecord, CastRecord, ArrayLengthRecord, LoadArrayRecord, MethodEndRecord, 
Ignored event types: ExitMonitorRecord, EnterMonitorRecord, IfRecord, 

JSON Encoded Analysis Data (for visualization):{"heapEdges":[{"step":0,"from":"1093800504","to":"1093800472","type":"store","field":"<java.io.Reader: java.lang.Object lock>"},{"step":1,"from":"1093800472","to":"sdaReg5","type":"create","field":"<java.io.InputStreamReader: boolean endOfInput>"},{"step":2,"from":"1093802592","to":"sdaReg19","type":"create","field":"<java.nio.Buffer: int mark>"},{"step":3,"from":"1093802592","to":"sdaReg20","type":"create","field":"<java.nio.Buffer: int position>"},{"step":4,"from":"1093802592","to":"sdaReg16","type":"create","field":"<java.nio.Buffer: int _elementSizeShift>"},{"step":5,"from":"1093802592","to":"sdaReg6","type":"create","field":"<java.nio.Buffer: int limit>"},{"step":6,"from":"sdaReg6","to":"1093802592","type":"store","field":"<java.nio.Buffer: int capacity>"},{"step":7,"from":"static.<java.nio.ByteOrder: java.nio.ByteOrder BIG_ENDIAN>","to":"1084339448","type":"load","field":"<java.nio.ByteOrder: java.nio.ByteOrder BIG_ENDIAN>"},{"step":8,"from":"1084339448","to":"1093802592","type":"store","field":"<java.nio.ByteBuffer: java.nio.ByteOrder order>"},{"step":9,"from":"1093802592","to":"1093993872","type":"create","field":"<java.nio.HeapByteBuffer: byte[] backingArray>"},{"step":10,"from":"1093802592","to":"sdaReg11","type":"create","field":"<java.nio.HeapByteBuffer: int offset>"},{"step":11,"from":"1093800472","to":"1093802592","type":"create","field":"<java.io.InputStreamReader: java.nio.ByteBuffer bytes>"},{"step":12,"from":"1093800504","to":"1093800472","type":"store","field":"<java.io.InputStreamReader: java.io.InputStream in>"},{"step":13,"from":"static.<java.nio.charset.Charset: java.util.HashMap CACHED_CHARSETS>","to":"1084324784","type":"load","field":"<java.nio.charset.Charset: java.util.HashMap CACHED_CHARSETS>"},{"step":14,"from":"static.<java.nio.charset.Charset: java.util.HashMap CACHED_CHARSETS>","to":"1084324784","type":"load","field":"<java.nio.charset.Charset: java.util.HashMap CACHED_CHARSETS>"},{"step":15,"from":"1084324784","to":"1084332560","type":"load","field":"<java.util.HashMap: java.util.HashMap$HashMapEntry[] table>"},{"step":16,"from":"1084332560","to":"1084333256","type":"load","field":"arrayIdx_int:56"},{"step":17,"from":"1084333256","to":"1084330944","type":"load","field":"<java.util.HashMap$HashMapEntry: java.lang.Object key>"},{"step":18,"from":"1084333256","to":"1084333256.<java.util.HashMap$HashMapEntry: int hash>","type":"load","field":"<java.util.HashMap$HashMapEntry: int hash>"},{"step":19,"from":"sdaReg0","to":"sdaReg46","type":"model"},{"step":20,"from":"sdaReg0","to":"sdaReg49","type":"model"},{"step":21,"from":"sdaReg0","to":"sdaReg51","type":"model"},{"step":22,"from":"sdaReg0","to":"sdaReg53","type":"model"},{"step":23,"from":"sdaReg0","to":"sdaReg55","type":"model"},{"step":24,"from":"sdaReg0","to":"1093326648","type":"model"},{"step":25,"from":"static.<java.nio.charset.Charset: java.util.HashMap CACHED_CHARSETS>","to":"1084324784","type":"load","field":"<java.nio.charset.Charset: java.util.HashMap CACHED_CHARSETS>"},{"step":26,"from":"1093326648","to":"1093326648.<java.nio.charset.Charset: java.lang.String canonicalName>","type":"load","field":"<java.nio.charset.Charset: java.lang.String canonicalName>"},{"step":27,"from":"static.<java.nio.charset.Charset: java.util.HashMap CACHED_CHARSETS>","to":"1084324784","type":"load","field":"<java.nio.charset.Charset: java.util.HashMap CACHED_CHARSETS>"},{"step":28,"from":"1084324784","to":"1084332560","type":"load","field":"<java.util.HashMap: java.util.HashMap$HashMapEntry[] table>"},{"step":29,"from":"1084332560","to":"1084332840","type":"load","field":"arrayIdx_int:33"},{"step":30,"from":"1084332840","to":"1084331016","type":"load","field":"<java.util.HashMap$HashMapEntry: java.lang.Object key>"},{"step":31,"from":"1084332840","to":"1084332840.<java.util.HashMap$HashMapEntry: int hash>","type":"load","field":"<java.util.HashMap$HashMapEntry: int hash>"},{"step":32,"from":"1084332840","to":"1084326792","type":"load","field":"<java.util.HashMap$HashMapEntry: java.util.HashMap$HashMapEntry next>"},{"step":33,"from":"1084326792","to":"1084324840","type":"load","field":"<java.util.HashMap$HashMapEntry: java.lang.Object key>"},{"step":34,"from":"1084326792","to":"1084326792.<java.util.HashMap$HashMapEntry: int hash>","type":"load","field":"<java.util.HashMap$HashMapEntry: int hash>"},{"step":35,"from":"1084326792","to":"1084325896","type":"load","field":"<java.util.HashMap$HashMapEntry: java.lang.Object value>"},{"step":36,"from":"static.<java.nio.charset.Charset: java.util.HashMap CACHED_CHARSETS>","to":"1084324784","type":"load","field":"<java.nio.charset.Charset: java.util.HashMap CACHED_CHARSETS>"},{"step":37,"from":"1084324784","to":"1084332560","type":"load","field":"<java.util.HashMap: java.util.HashMap$HashMapEntry[] table>"},{"step":38,"from":"1084332560","to":"1084332840","type":"load","field":"arrayIdx_int:33"},{"step":39,"from":"1084332840","to":"1084332840.<java.util.HashMap$HashMapEntry: int hash>","type":"load","field":"<java.util.HashMap$HashMapEntry: int hash>"},{"step":40,"from":"1084332840","to":"1084326792","type":"load","field":"<java.util.HashMap$HashMapEntry: java.util.HashMap$HashMapEntry next>"},{"step":41,"from":"1084326792","to":"1084326792.<java.util.HashMap$HashMapEntry: int hash>","type":"load","field":"<java.util.HashMap$HashMapEntry: int hash>"},{"step":42,"from":"1084326792","to":"1084324840","type":"load","field":"<java.util.HashMap$HashMapEntry: java.lang.Object key>"},{"step":43,"from":"1084326792","to":"1084325896","type":"load","field":"<java.util.HashMap$HashMapEntry: java.lang.Object value>"},{"step":44,"from":"1084325896","to":"1084326792","type":"store","field":"<java.util.HashMap$HashMapEntry: java.lang.Object value>"},{"step":45,"from":"static.<java.nio.charset.Charset: java.util.HashMap CACHED_CHARSETS>","to":"1084324784","type":"load","field":"<java.nio.charset.Charset: java.util.HashMap CACHED_CHARSETS>"},{"step":46,"from":"1084324784","to":"1084332560","type":"load","field":"<java.util.HashMap: java.util.HashMap$HashMapEntry[] table>"},{"step":47,"from":"1084332560","to":"1084333256","type":"load","field":"arrayIdx_int:56"},{"step":48,"from":"1084333256","to":"1084333256.<java.util.HashMap$HashMapEntry: int hash>","type":"load","field":"<java.util.HashMap$HashMapEntry: int hash>"},{"step":49,"from":"1084324784","to":"1084324784.<java.util.HashMap: int modCount>","type":"load","field":"<java.util.HashMap: int modCount>"},{"step":50,"from":"sdaReg108","to":"1084324784","type":"store","field":"<java.util.HashMap: int modCount>"},{"step":51,"from":"1084324784","to":"1084324784.<java.util.HashMap: int size>","type":"load","field":"<java.util.HashMap: int size>"},{"step":52,"from":"sdaReg109","to":"1084324784","type":"store","field":"<java.util.HashMap: int size>"},{"step":53,"from":"1084324784","to":"1084324784.<java.util.HashMap: int threshold>","type":"load","field":"<java.util.HashMap: int threshold>"},{"step":54,"from":"1084324784","to":"1084332560","type":"load","field":"<java.util.HashMap: java.util.HashMap$HashMapEntry[] table>"},{"step":55,"from":"1084324784","to":"1084332560","type":"load","field":"<java.util.HashMap: java.util.HashMap$HashMapEntry[] table>"},{"step":56,"from":"1084332560","to":"1084333256","type":"load","field":"arrayIdx_int:56"},{"step":57,"from":"1093802464","to":"1093800928","type":"store","field":"<java.util.HashMap$HashMapEntry: java.lang.Object key>"},{"step":58,"from":"1084325896","to":"1093800928","type":"store","field":"<java.util.HashMap$HashMapEntry: java.lang.Object value>"},{"step":59,"from":"sdaReg104","to":"1093800928","type":"store","field":"<java.util.HashMap$HashMapEntry: int hash>"},{"step":60,"from":"1084333256","to":"1093800928","type":"store","field":"<java.util.HashMap$HashMapEntry: java.util.HashMap$HashMapEntry next>"},{"step":61,"from":"1084332560","to":"1093800928","type":"create","field":"arrayIdx_int:56"},{"step":62,"from":"1093326648","to":"1093330976","type":"load","field":"<java.nio.charset.Charset: java.util.HashSet aliasesSet>"},{"step":63,"from":"1093330976","to":"1093330992","type":"load","field":"<java.util.HashSet: java.util.HashMap backingMap>"},{"step":64,"from":"1093330992","to":"1094080848","type":"store","field":"<java.util.HashMap$KeySet: java.util.HashMap this$0>"},{"step":65,"from":"1093330992","to":"1094080848","type":"create","field":"<java.util.HashMap: java.util.Set keySet>"},{"step":66,"from":"1093330992","to":"1094080864","type":"store","field":"<java.util.HashMap$KeyIterator: java.util.HashMap this$0>"},{"step":67,"from":"1093330992","to":"1094080864","type":"store","field":"<java.util.HashMap$HashIterator: java.util.HashMap this$0>"},{"step":68,"from":"1093330992","to":"1093330992.<java.util.HashMap: int modCount>","type":"load","field":"<java.util.HashMap: int modCount>"},{"step":69,"from":"1093330992.<java.util.HashMap: int modCount>","to":"1094080864","type":"store","field":"<java.util.HashMap$HashIterator: int expectedModCount>"},{"step":70,"from":"1093330992","to":"1093415432","type":"load","field":"<java.util.HashMap: java.util.HashMap$HashMapEntry[] table>"},{"step":71,"from":"1094080864","to":"1094080864.<java.util.HashMap$HashIterator: int nextIndex>","type":"load","field":"<java.util.HashMap$HashIterator: int nextIndex>"},{"step":72,"from":"1094080864","to":"1094080864.<java.util.HashMap$HashIterator: int nextIndex>","type":"load","field":"<java.util.HashMap$HashIterator: int nextIndex>"},{"step":73,"from":"sdaReg145","to":"1094080864","type":"store","field":"<java.util.HashMap$HashIterator: int nextIndex>"},{"step":74,"from":"sdaReg145","to":"1094080864","type":"store","field":"<java.util.HashMap$HashIterator: int nextIndex>"},{"step":75,"from":"1093415432","to":"1093620224","type":"load","field":"arrayIdx_int:1"},{"step":76,"from":"1093620224","to":"1094080864","type":"store","field":"<java.util.HashMap$HashIterator: java.util.HashMap$HashMapEntry nextEntry>"},{"step":77,"from":"1093330992","to":"1093330992.<java.util.HashMap: int modCount>","type":"load","field":"<java.util.HashMap: int modCount>"},{"step":78,"from":"1093330992","to":"1093415432","type":"load","field":"<java.util.HashMap: java.util.HashMap$HashMapEntry[] table>"},{"step":79,"from":"sdaReg158","to":"1094080864","type":"store","field":"<java.util.HashMap$HashIterator: int nextIndex>"},{"step":80,"from":"1093415432","to":"1093551872","type":"load","field":"arrayIdx_int:2"},{"step":81,"from":"1093551872","to":"1094080864","type":"store","field":"<java.util.HashMap$HashIterator: java.util.HashMap$HashMapEntry nextEntry>"},{"step":82,"from":"1093620224","to":"1094080864","type":"store","field":"<java.util.HashMap$HashIterator: java.util.HashMap$HashMapEntry lastEntryReturned>"},{"step":83,"from":"1093620224","to":"1093325728","type":"load","field":"<java.util.HashMap$HashMapEntry: java.lang.Object key>"},{"step":84,"from":"static.<java.nio.charset.Charset: java.util.HashMap CACHED_CHARSETS>","to":"1084324784","type":"load","field":"<java.nio.charset.Charset: java.util.HashMap CACHED_CHARSETS>"},{"step":85,"from":"1084324784","to":"1084332560","type":"load","field":"<java.util.HashMap: java.util.HashMap$HashMapEntry[] table>"},{"step":86,"from":"1084332560","to":"1084332840","type":"load","field":"arrayIdx_int:33"},{"step":87,"from":"1084332840","to":"1084332840.<java.util.HashMap$HashMapEntry: int hash>","type":"load","field":"<java.util.HashMap$HashMapEntry: int hash>"},{"step":88,"from":"1084332840","to":"1084326792","type":"load","field":"<java.util.HashMap$HashMapEntry: java.util.HashMap$HashMapEntry next>"},{"step":89,"from":"1084326792","to":"1084326792.<java.util.HashMap$HashMapEntry: int hash>","type":"load","field":"<java.util.HashMap$HashMapEntry: int hash>"},{"step":90,"from":"1084326792","to":"1084324840","type":"load","field":"<java.util.HashMap$HashMapEntry: java.lang.Object key>"},{"step":91,"from":"1084325896","to":"1084326792","type":"store","field":"<java.util.HashMap$HashMapEntry: java.lang.Object value>"},{"step":92,"from":"1093330992","to":"1093330992.<java.util.HashMap: int modCount>","type":"load","field":"<java.util.HashMap: int modCount>"},{"step":93,"from":"1093330992","to":"1093415432","type":"load","field":"<java.util.HashMap: java.util.HashMap$HashMapEntry[] table>"},{"step":94,"from":"sdaReg184","to":"1094080864","type":"store","field":"<java.util.HashMap$HashIterator: int nextIndex>"},{"step":95,"from":"sdaReg184","to":"1094080864","type":"store","field":"<java.util.HashMap$HashIterator: int nextIndex>"},{"step":96,"from":"1093415432","to":"1093382688","type":"load","field":"arrayIdx_int:4"},{"step":97,"from":"1093382688","to":"1094080864","type":"store","field":"<java.util.HashMap$HashIterator: java.util.HashMap$HashMapEntry nextEntry>"},{"step":98,"from":"1093551872","to":"1094080864","type":"store","field":"<java.util.HashMap$HashIterator: java.util.HashMap$HashMapEntry lastEntryReturned>"},{"step":99,"from":"1093551872","to":"1093326512","type":"load","field":"<java.util.HashMap$HashMapEntry: java.lang.Object key>"},{"step":100,"from":"static.<java.nio.charset.Charset: java.util.HashMap CACHED_CHARSETS>","to":"1084324784","type":"load","field":"<java.nio.charset.Charset: java.util.HashMap CACHED_CHARSETS>"},{"step":101,"from":"1084324784","to":"1084332560","type":"load","field":"<java.util.HashMap: java.util.HashMap$HashMapEntry[] table>"},{"step":102,"from":"1084332560","to":"1084327384","type":"load","field":"arrayIdx_int:18"},{"step":103,"from":"1084327384","to":"1084327384.<java.util.HashMap$HashMapEntry: int hash>","type":"load","field":"<java.util.HashMap$HashMapEntry: int hash>"},{"step":104,"from":"1084327384","to":"1084325760","type":"load","field":"<java.util.HashMap$HashMapEntry: java.lang.Object key>"},{"step":105,"from":"1084327384","to":"1084325896","type":"load","field":"<java.util.HashMap$HashMapEntry: java.lang.Object value>"},{"step":106,"from":"1084325896","to":"1084327384","type":"store","field":"<java.util.HashMap$HashMapEntry: java.lang.Object value>"},{"step":107,"from":"1093330992","to":"1093330992.<java.util.HashMap: int modCount>","type":"load","field":"<java.util.HashMap: int modCount>"},{"step":108,"from":"1093330992","to":"1093415432","type":"load","field":"<java.util.HashMap: java.util.HashMap$HashMapEntry[] table>"},{"step":109,"from":"sdaReg210","to":"1094080864","type":"store","field":"<java.util.HashMap$HashIterator: int nextIndex>"},{"step":110,"from":"1093415432","to":"1093553984","type":"load","field":"arrayIdx_int:5"},{"step":111,"from":"1093553984","to":"1094080864","type":"store","field":"<java.util.HashMap$HashIterator: java.util.HashMap$HashMapEntry nextEntry>"},{"step":112,"from":"1093382688","to":"1094080864","type":"store","field":"<java.util.HashMap$HashIterator: java.util.HashMap$HashMapEntry lastEntryReturned>"},{"step":113,"from":"1093382688","to":"1093326368","type":"load","field":"<java.util.HashMap$HashMapEntry: java.lang.Object key>"},{"step":114,"from":"static.<java.nio.charset.Charset: java.util.HashMap CACHED_CHARSETS>","to":"1084324784","type":"load","field":"<java.nio.charset.Charset: java.util.HashMap CACHED_CHARSETS>"},{"step":115,"from":"1084324784","to":"1084332560","type":"load","field":"<java.util.HashMap: java.util.HashMap$HashMapEntry[] table>"},{"step":116,"from":"1084332560","to":"1084332936","type":"load","field":"arrayIdx_int:4"},{"step":117,"from":"1084332936","to":"1084332936.<java.util.HashMap$HashMapEntry: int hash>","type":"load","field":"<java.util.HashMap$HashMapEntry: int hash>"},{"step":118,"from":"1084332936","to":"1084327416","type":"load","field":"<java.util.HashMap$HashMapEntry: java.util.HashMap$HashMapEntry next>"},{"step":119,"from":"1084327416","to":"1084327416.<java.util.HashMap$HashMapEntry: int hash>","type":"load","field":"<java.util.HashMap$HashMapEntry: int hash>"},{"step":120,"from":"1084327416","to":"1084325616","type":"load","field":"<java.util.HashMap$HashMapEntry: java.lang.Object key>"},{"step":121,"from":"1084327416","to":"1084325896","type":"load","field":"<java.util.HashMap$HashMapEntry: java.lang.Object value>"},{"step":122,"from":"1084325896","to":"1084327416","type":"store","field":"<java.util.HashMap$HashMapEntry: java.lang.Object value>"},{"step":123,"from":"1093330992","to":"1093330992.<java.util.HashMap: int modCount>","type":"load","field":"<java.util.HashMap: int modCount>"},{"step":124,"from":"1093330992","to":"1093415432","type":"load","field":"<java.util.HashMap: java.util.HashMap$HashMapEntry[] table>"},{"step":125,"from":"sdaReg235","to":"1094080864","type":"store","field":"<java.util.HashMap$HashIterator: int nextIndex>"},{"step":126,"from":"sdaReg235","to":"1094080864","type":"store","field":"<java.util.HashMap$HashIterator: int nextIndex>"},{"step":127,"from":"sdaReg235","to":"1094080864","type":"store","field":"<java.util.HashMap$HashIterator: int nextIndex>"},{"step":128,"from":"sdaReg235","to":"1094080864","type":"store","field":"<java.util.HashMap$HashIterator: int nextIndex>"},{"step":129,"from":"sdaReg235","to":"1094080864","type":"store","field":"<java.util.HashMap$HashIterator: int nextIndex>"},{"step":130,"from":"1093415432","to":"1093296616","type":"load","field":"arrayIdx_int:10"},{"step":131,"from":"1093296616","to":"1094080864","type":"store","field":"<java.util.HashMap$HashIterator: java.util.HashMap$HashMapEntry nextEntry>"},{"step":132,"from":"1093553984","to":"1094080864","type":"store","field":"<java.util.HashMap$HashIterator: java.util.HashMap$HashMapEntry lastEntryReturned>"},{"step":133,"from":"1093553984","to":"1093326224","type":"load","field":"<java.util.HashMap$HashMapEntry: java.lang.Object key>"},{"step":134,"from":"static.<java.nio.charset.Charset: java.util.HashMap CACHED_CHARSETS>","to":"1084324784","type":"load","field":"<java.nio.charset.Charset: java.util.HashMap CACHED_CHARSETS>"},{"step":135,"from":"1084324784","to":"1084332560","type":"load","field":"<java.util.HashMap: java.util.HashMap$HashMapEntry[] table>"},{"step":136,"from":"1084332560","to":"1084327448","type":"load","field":"arrayIdx_int:53"},{"step":137,"from":"1084327448","to":"1084327448.<java.util.HashMap$HashMapEntry: int hash>","type":"load","field":"<java.util.HashMap$HashMapEntry: int hash>"},{"step":138,"from":"1084327448","to":"1084325472","type":"load","field":"<java.util.HashMap$HashMapEntry: java.lang.Object key>"},{"step":139,"from":"1084327448","to":"1084325896","type":"load","field":"<java.util.HashMap$HashMapEntry: java.lang.Object value>"},{"step":140,"from":"1084325896","to":"1084327448","type":"store","field":"<java.util.HashMap$HashMapEntry: java.lang.Object value>"},{"step":141,"from":"1093330992","to":"1093330992.<java.util.HashMap: int modCount>","type":"load","field":"<java.util.HashMap: int modCount>"},{"step":142,"from":"1093330992","to":"1093415432","type":"load","field":"<java.util.HashMap: java.util.HashMap$HashMapEntry[] table>"},{"step":143,"from":"sdaReg264","to":"1094080864","type":"store","field":"<java.util.HashMap$HashIterator: int nextIndex>"},{"step":144,"from":"1093415432","to":"1093483872","type":"load","field":"arrayIdx_int:11"},{"step":145,"from":"1093483872","to":"1094080864","type":"store","field":"<java.util.HashMap$HashIterator: java.util.HashMap$HashMapEntry nextEntry>"},{"step":146,"from":"1093296616","to":"1094080864","type":"store","field":"<java.util.HashMap$HashIterator: java.util.HashMap$HashMapEntry lastEntryReturned>"},{"step":147,"from":"1093296616","to":"1093326080","type":"load","field":"<java.util.HashMap$HashMapEntry: java.lang.Object key>"},{"step":148,"from":"static.<java.nio.charset.Charset: java.util.HashMap CACHED_CHARSETS>","to":"1084324784","type":"load","field":"<java.nio.charset.Charset: java.util.HashMap CACHED_CHARSETS>"},{"step":149,"from":"1084324784","to":"1084332560","type":"load","field":"<java.util.HashMap: java.util.HashMap$HashMapEntry[] table>"},{"step":150,"from":"1084332560","to":"1084327536","type":"load","field":"arrayIdx_int:10"},{"step":151,"from":"1084327536","to":"1084327536.<java.util.HashMap$HashMapEntry: int hash>","type":"load","field":"<java.util.HashMap$HashMapEntry: int hash>"},{"step":152,"from":"1084327536","to":"1084325328","type":"load","field":"<java.util.HashMap$HashMapEntry: java.lang.Object key>"},{"step":153,"from":"1084327536","to":"1084325896","type":"load","field":"<java.util.HashMap$HashMapEntry: java.lang.Object value>"},{"step":154,"from":"1084325896","to":"1084327536","type":"store","field":"<java.util.HashMap$HashMapEntry: java.lang.Object value>"},{"step":155,"from":"1093330992","to":"1093330992.<java.util.HashMap: int modCount>","type":"load","field":"<java.util.HashMap: int modCount>"},{"step":156,"from":"1093330992","to":"1093415432","type":"load","field":"<java.util.HashMap: java.util.HashMap$HashMapEntry[] table>"},{"step":157,"from":"1093483872","to":"1093452232","type":"load","field":"<java.util.HashMap$HashMapEntry: java.util.HashMap$HashMapEntry next>"},{"step":158,"from":"1093452232","to":"1094080864","type":"store","field":"<java.util.HashMap$HashIterator: java.util.HashMap$HashMapEntry nextEntry>"},{"step":159,"from":"1093483872","to":"1094080864","type":"store","field":"<java.util.HashMap$HashIterator: java.util.HashMap$HashMapEntry lastEntryReturned>"},{"step":160,"from":"1093483872","to":"1093326296","type":"load","field":"<java.util.HashMap$HashMapEntry: java.lang.Object key>"},{"step":161,"from":"static.<java.nio.charset.Charset: java.util.HashMap CACHED_CHARSETS>","to":"1084324784","type":"load","field":"<java.nio.charset.Charset: java.util.HashMap CACHED_CHARSETS>"},{"step":162,"from":"1084324784","to":"1084332560","type":"load","field":"<java.util.HashMap: java.util.HashMap$HashMapEntry[] table>"},{"step":163,"from":"1084332560","to":"1084333032","type":"load","field":"arrayIdx_int:43"},{"step":164,"from":"1084333032","to":"1084333032.<java.util.HashMap$HashMapEntry: int hash>","type":"load","field":"<java.util.HashMap$HashMapEntry: int hash>"},{"step":165,"from":"1084333032","to":"1084327568","type":"load","field":"<java.util.HashMap$HashMapEntry: java.util.HashMap$HashMapEntry next>"},{"step":166,"from":"1084327568","to":"1084327568.<java.util.HashMap$HashMapEntry: int hash>","type":"load","field":"<java.util.HashMap$HashMapEntry: int hash>"},{"step":167,"from":"1084327568","to":"1084325544","type":"load","field":"<java.util.HashMap$HashMapEntry: java.lang.Object key>"},{"step":168,"from":"1084327568","to":"1084325896","type":"load","field":"<java.util.HashMap$HashMapEntry: java.lang.Object value>"},{"step":169,"from":"1084325896","to":"1084327568","type":"store","field":"<java.util.HashMap$HashMapEntry: java.lang.Object value>"},{"step":170,"from":"1093330992","to":"1093330992.<java.util.HashMap: int modCount>","type":"load","field":"<java.util.HashMap: int modCount>"},{"step":171,"from":"1093330992","to":"1093415432","type":"load","field":"<java.util.HashMap: java.util.HashMap$HashMapEntry[] table>"},{"step":172,"from":"1093452232","to":"1093652088","type":"load","field":"<java.util.HashMap$HashMapEntry: java.util.HashMap$HashMapEntry next>"},{"step":173,"from":"1093652088","to":"1094080864","type":"store","field":"<java.util.HashMap$HashIterator: java.util.HashMap$HashMapEntry nextEntry>"},{"step":174,"from":"1093452232","to":"1094080864","type":"store","field":"<java.util.HashMap$HashIterator: java.util.HashMap$HashMapEntry lastEntryReturned>"},{"step":175,"from":"1093452232","to":"1093326152","type":"load","field":"<java.util.HashMap$HashMapEntry: java.lang.Object key>"},{"step":176,"from":"static.<java.nio.charset.Charset: java.util.HashMap CACHED_CHARSETS>","to":"1084324784","type":"load","field":"<java.nio.charset.Charset: java.util.HashMap CACHED_CHARSETS>"},{"step":177,"from":"1084324784","to":"1084332560","type":"load","field":"<java.util.HashMap: java.util.HashMap$HashMapEntry[] table>"},{"step":178,"from":"1084332560","to":"1084329944","type":"load","field":"arrayIdx_int:11"},{"step":179,"from":"1084329944","to":"1084329944.<java.util.HashMap$HashMapEntry: int hash>","type":"load","field":"<java.util.HashMap$HashMapEntry: int hash>"},{"step":180,"from":"1084329944","to":"1084327600","type":"load","field":"<java.util.HashMap$HashMapEntry: java.util.HashMap$HashMapEntry next>"},{"step":181,"from":"1084327600","to":"1084327600.<java.util.HashMap$HashMapEntry: int hash>","type":"load","field":"<java.util.HashMap$HashMapEntry: int hash>"},{"step":182,"from":"1084327600","to":"1084325400","type":"load","field":"<java.util.HashMap$HashMapEntry: java.lang.Object key>"},{"step":183,"from":"1084327600","to":"1084325896","type":"load","field":"<java.util.HashMap$HashMapEntry: java.lang.Object value>"},{"step":184,"from":"1084325896","to":"1084327600","type":"store","field":"<java.util.HashMap$HashMapEntry: java.lang.Object value>"},{"step":185,"from":"1093330992","to":"1093330992.<java.util.HashMap: int modCount>","type":"load","field":"<java.util.HashMap: int modCount>"},{"step":186,"from":"1093330992","to":"1093415432","type":"load","field":"<java.util.HashMap: java.util.HashMap$HashMapEntry[] table>"},{"step":187,"from":"sdaReg335","to":"1094080864","type":"store","field":"<java.util.HashMap$HashIterator: int nextIndex>"},{"step":188,"from":"1093415432","to":"1093296800","type":"load","field":"arrayIdx_int:12"},{"step":189,"from":"1093296800","to":"1094080864","type":"store","field":"<java.util.HashMap$HashIterator: java.util.HashMap$HashMapEntry nextEntry>"},{"step":190,"from":"1093652088","to":"1094080864","type":"store","field":"<java.util.HashMap$HashIterator: java.util.HashMap$HashMapEntry lastEntryReturned>"},{"step":191,"from":"1093652088","to":"1093325936","type":"load","field":"<java.util.HashMap$HashMapEntry: java.lang.Object key>"},{"step":192,"from":"static.<java.nio.charset.Charset: java.util.HashMap CACHED_CHARSETS>","to":"1084324784","type":"load","field":"<java.nio.charset.Charset: java.util.HashMap CACHED_CHARSETS>"},{"step":193,"from":"1084324784","to":"1084332560","type":"load","field":"<java.util.HashMap: java.util.HashMap$HashMapEntry[] table>"},{"step":194,"from":"1084332560","to":"1084327720","type":"load","field":"arrayIdx_int:59"},{"step":195,"from":"1084327720","to":"1084327720.<java.util.HashMap$HashMapEntry: int hash>","type":"load","field":"<java.util.HashMap$HashMapEntry: int hash>"},{"step":196,"from":"1084327720","to":"1084325184","type":"load","field":"<java.util.HashMap$HashMapEntry: java.lang.Object key>"},{"step":197,"from":"1084327720","to":"1084325896","type":"load","field":"<java.util.HashMap$HashMapEntry: java.lang.Object value>"},{"step":198,"from":"1084325896","to":"1084327720","type":"store","field":"<java.util.HashMap$HashMapEntry: java.lang.Object value>"},{"step":199,"from":"1093330992","to":"1093330992.<java.util.HashMap: int modCount>","type":"load","field":"<java.util.HashMap: int modCount>"},{"step":200,"from":"1093330992","to":"1093415432","type":"load","field":"<java.util.HashMap: java.util.HashMap$HashMapEntry[] table>"},{"step":201,"from":"1093296800","to":"1094090664","type":"load","field":"<java.util.HashMap$HashMapEntry: java.util.HashMap$HashMapEntry next>"},{"step":202,"from":"1094090664","to":"1094080864","type":"store","field":"<java.util.HashMap$HashIterator: java.util.HashMap$HashMapEntry nextEntry>"},{"step":203,"from":"1093296800","to":"1094080864","type":"store","field":"<java.util.HashMap$HashIterator: java.util.HashMap$HashMapEntry lastEntryReturned>"},{"step":204,"from":"1093296800","to":"1093326008","type":"load","field":"<java.util.HashMap$HashMapEntry: java.lang.Object key>"},{"step":205,"from":"static.<java.nio.charset.Charset: java.util.HashMap CACHED_CHARSETS>","to":"1084324784","type":"load","field":"<java.nio.charset.Charset: java.util.HashMap CACHED_CHARSETS>"},{"step":206,"from":"1084324784","to":"1084332560","type":"load","field":"<java.util.HashMap: java.util.HashMap$HashMapEntry[] table>"},{"step":207,"from":"1084332560","to":"1084327752","type":"load","field":"arrayIdx_int:60"},{"step":208,"from":"1084327752","to":"1084327752.<java.util.HashMap$HashMapEntry: int hash>","type":"load","field":"<java.util.HashMap$HashMapEntry: int hash>"},{"step":209,"from":"1084327752","to":"1084325256","type":"load","field":"<java.util.HashMap$HashMapEntry: java.lang.Object key>"},{"step":210,"from":"1084327752","to":"1084325896","type":"load","field":"<java.util.HashMap$HashMapEntry: java.lang.Object value>"},{"step":211,"from":"1084325896","to":"1084327752","type":"store","field":"<java.util.HashMap$HashMapEntry: java.lang.Object value>"},{"step":212,"from":"1093330992","to":"1093330992.<java.util.HashMap: int modCount>","type":"load","field":"<java.util.HashMap: int modCount>"},{"step":213,"from":"1093330992","to":"1093415432","type":"load","field":"<java.util.HashMap: java.util.HashMap$HashMapEntry[] table>"},{"step":214,"from":"sdaReg383","to":"1094080864","type":"store","field":"<java.util.HashMap$HashIterator: int nextIndex>"},{"step":215,"from":"1093415432","to":"1094059752","type":"load","field":"arrayIdx_int:13"},{"step":216,"from":"1094059752","to":"1094080864","type":"store","field":"<java.util.HashMap$HashIterator: java.util.HashMap$HashMapEntry nextEntry>"},{"step":217,"from":"1094090664","to":"1094080864","type":"store","field":"<java.util.HashMap$HashIterator: java.util.HashMap$HashMapEntry lastEntryReturned>"},{"step":218,"from":"1094090664","to":"1093325864","type":"load","field":"<java.util.HashMap$HashMapEntry: java.lang.Object key>"},{"step":219,"from":"static.<java.nio.charset.Charset: java.util.HashMap CACHED_CHARSETS>","to":"1084324784","type":"load","field":"<java.nio.charset.Charset: java.util.HashMap CACHED_CHARSETS>"},{"step":220,"from":"1084324784","to":"1084332560","type":"load","field":"<java.util.HashMap: java.util.HashMap$HashMapEntry[] table>"},{"step":221,"from":"1084332560","to":"1084327784","type":"load","field":"arrayIdx_int:28"},{"step":222,"from":"1084327784","to":"1084327784.<java.util.HashMap$HashMapEntry: int hash>","type":"load","field":"<java.util.HashMap$HashMapEntry: int hash>"},{"step":223,"from":"1084327784","to":"1084325112","type":"load","field":"<java.util.HashMap$HashMapEntry: java.lang.Object key>"},{"step":224,"from":"1084327784","to":"1084325896","type":"load","field":"<java.util.HashMap$HashMapEntry: java.lang.Object value>"},{"step":225,"from":"1084325896","to":"1084327784","type":"store","field":"<java.util.HashMap$HashMapEntry: java.lang.Object value>"},{"step":226,"from":"1093330992","to":"1093330992.<java.util.HashMap: int modCount>","type":"load","field":"<java.util.HashMap: int modCount>"},{"step":227,"from":"1093330992","to":"1093415432","type":"load","field":"<java.util.HashMap: java.util.HashMap$HashMapEntry[] table>"},{"step":228,"from":"sdaReg408","to":"1094080864","type":"store","field":"<java.util.HashMap$HashIterator: int nextIndex>"},{"step":229,"from":"sdaReg408","to":"1094080864","type":"store","field":"<java.util.HashMap$HashIterator: int nextIndex>"},{"step":230,"from":"1093415432","to":"1093488560","type":"load","field":"arrayIdx_int:15"},{"step":231,"from":"1093488560","to":"1094080864","type":"store","field":"<java.util.HashMap$HashIterator: java.util.HashMap$HashMapEntry nextEntry>"},{"step":232,"from":"1094059752","to":"1094080864","type":"store","field":"<java.util.HashMap$HashIterator: java.util.HashMap$HashMapEntry lastEntryReturned>"},{"step":233,"from":"1094059752","to":"1093325792","type":"load","field":"<java.util.HashMap$HashMapEntry: java.lang.Object key>"},{"step":234,"from":"static.<java.nio.charset.Charset: java.util.HashMap CACHED_CHARSETS>","to":"1084324784","type":"load","field":"<java.nio.charset.Charset: java.util.HashMap CACHED_CHARSETS>"},{"step":235,"from":"1084324784","to":"1084332560","type":"load","field":"<java.util.HashMap: java.util.HashMap$HashMapEntry[] table>"},{"step":236,"from":"1084332560","to":"1084327816","type":"load","field":"arrayIdx_int:29"},{"step":237,"from":"1084327816","to":"1084327816.<java.util.HashMap$HashMapEntry: int hash>","type":"load","field":"<java.util.HashMap$HashMapEntry: int hash>"},{"step":238,"from":"1084327816","to":"1084325040","type":"load","field":"<java.util.HashMap$HashMapEntry: java.lang.Object key>"},{"step":239,"from":"1084327816","to":"1084325896","type":"load","field":"<java.util.HashMap$HashMapEntry: java.lang.Object value>"},{"step":240,"from":"1084325896","to":"1084327816","type":"store","field":"<java.util.HashMap$HashMapEntry: java.lang.Object value>"},{"step":241,"from":"1093330992","to":"1093330992.<java.util.HashMap: int modCount>","type":"load","field":"<java.util.HashMap: int modCount>"},{"step":242,"from":"1093330992","to":"1093415432","type":"load","field":"<java.util.HashMap: java.util.HashMap$HashMapEntry[] table>"},{"step":243,"from":"1093488560","to":"1094080864","type":"store","field":"<java.util.HashMap$HashIterator: java.util.HashMap$HashMapEntry lastEntryReturned>"},{"step":244,"from":"1093488560","to":"1093326448","type":"load","field":"<java.util.HashMap$HashMapEntry: java.lang.Object key>"},{"step":245,"from":"static.<java.nio.charset.Charset: java.util.HashMap CACHED_CHARSETS>","to":"1084324784","type":"load","field":"<java.nio.charset.Charset: java.util.HashMap CACHED_CHARSETS>"},{"step":246,"from":"1084324784","to":"1084332560","type":"load","field":"<java.util.HashMap: java.util.HashMap$HashMapEntry[] table>"},{"step":247,"from":"1084332560","to":"1084327848","type":"load","field":"arrayIdx_int:47"},{"step":248,"from":"1084327848","to":"1084327848.<java.util.HashMap$HashMapEntry: int hash>","type":"load","field":"<java.util.HashMap$HashMapEntry: int hash>"},{"step":249,"from":"1084327848","to":"1084325696","type":"load","field":"<java.util.HashMap$HashMapEntry: java.lang.Object key>"},{"step":250,"from":"1084327848","to":"1084325896","type":"load","field":"<java.util.HashMap$HashMapEntry: java.lang.Object value>"},{"step":251,"from":"1084325896","to":"1084327848","type":"store","field":"<java.util.HashMap$HashMapEntry: java.lang.Object value>"},{"step":252,"from":"1084325896","to":"1084325896.<java.nio.charset.CharsetICU: java.lang.String icuCanonicalName>","type":"load","field":"<java.nio.charset.CharsetICU: java.lang.String icuCanonicalName>"},{"step":253,"from":"1084325896.<java.nio.charset.CharsetICU: java.lang.String icuCanonicalName>","to":"sdaReg460","type":"model"},{"step":254,"from":"sdaReg460","to":"sdaReg461","type":"model"},{"step":255,"from":"sdaReg461","to":"1093442336","type":"store","field":"<java.nio.charset.CharsetDecoder: float averageCharsPerByte>"},{"step":256,"from":"1093442336","to":"sdaReg466","type":"create","field":"<java.nio.charset.CharsetDecoder: float maxCharsPerByte>"},{"step":257,"from":"1084325896","to":"1093442336","type":"store","field":"<java.nio.charset.CharsetDecoder: java.nio.charset.Charset cs>"},{"step":258,"from":"1093442336","to":"sdaReg471","type":"create","field":"<java.nio.charset.CharsetDecoder: int status>"},{"step":259,"from":"static.<java.nio.charset.CodingErrorAction: java.nio.charset.CodingErrorAction REPORT>","to":"1084336272","type":"load","field":"<java.nio.charset.CodingErrorAction: java.nio.charset.CodingErrorAction REPORT>"},{"step":260,"from":"1084336272","to":"1093442336","type":"store","field":"<java.nio.charset.CharsetDecoder: java.nio.charset.CodingErrorAction malformedInputAction>"},{"step":261,"from":"static.<java.nio.charset.CodingErrorAction: java.nio.charset.CodingErrorAction REPORT>","to":"1084336272","type":"load","field":"<java.nio.charset.CodingErrorAction: java.nio.charset.CodingErrorAction REPORT>"},{"step":262,"from":"1084336272","to":"1093442336","type":"store","field":"<java.nio.charset.CharsetDecoder: java.nio.charset.CodingErrorAction unmappableCharacterAction>"},{"step":263,"from":"1093442336","to":"sdaReg472","type":"create","field":"<java.nio.charset.CharsetDecoder: java.lang.String replacementChars>"},{"step":264,"from":"1093442336","to":"1093442448","type":"create","field":"<java.nio.charset.CharsetDecoderICU: int[] data>"},{"step":265,"from":"1093442336","to":"sdaReg474","type":"create","field":"<java.nio.charset.CharsetDecoderICU: long converterHandle>"},{"step":266,"from":"1093442336","to":"sdaReg475","type":"create","field":"<java.nio.charset.CharsetDecoderICU: byte[] input>"},{"step":267,"from":"1093442336","to":"sdaReg476","type":"create","field":"<java.nio.charset.CharsetDecoderICU: char[] output>"},{"step":268,"from":"1093442336","to":"sdaReg477","type":"create","field":"<java.nio.charset.CharsetDecoderICU: byte[] allocatedInput>"},{"step":269,"from":"1093442336","to":"sdaReg478","type":"create","field":"<java.nio.charset.CharsetDecoderICU: char[] allocatedOutput>"},{"step":270,"from":"sdaReg460","to":"1093442336","type":"store","field":"<java.nio.charset.CharsetDecoderICU: long converterHandle>"},{"step":271,"from":"static.<java.nio.charset.CodingErrorAction: java.nio.charset.CodingErrorAction REPORT>","to":"1084336272","type":"load","field":"<java.nio.charset.CodingErrorAction: java.nio.charset.CodingErrorAction REPORT>"},{"step":272,"from":"static.<java.nio.charset.CodingErrorAction: java.nio.charset.CodingErrorAction REPORT>","to":"1084336272","type":"load","field":"<java.nio.charset.CodingErrorAction: java.nio.charset.CodingErrorAction REPORT>"},{"step":273,"from":"sdaReg482","to":"sdaReg487","type":"model"},{"step":274,"from":"sdaReg482","to":"sdaReg491","type":"model"},{"step":275,"from":"sdaReg482","to":"sdaReg493","type":"model"},{"step":276,"from":"sdaReg482","to":"sdaReg494","type":"model"},{"step":277,"from":"sdaReg487","to":"sdaReg482","type":"model"},{"step":278,"from":"sdaReg487","to":"sdaReg491","type":"model"},{"step":279,"from":"sdaReg487","to":"sdaReg493","type":"model"},{"step":280,"from":"sdaReg487","to":"sdaReg494","type":"model"},{"step":281,"from":"sdaReg491","to":"sdaReg482","type":"model"},{"step":282,"from":"sdaReg491","to":"sdaReg487","type":"model"},{"step":283,"from":"sdaReg491","to":"sdaReg493","type":"model"},{"step":284,"from":"sdaReg491","to":"sdaReg494","type":"model"},{"step":285,"from":"sdaReg493","to":"sdaReg482","type":"model"},{"step":286,"from":"sdaReg493","to":"sdaReg487","type":"model"},{"step":287,"from":"sdaReg493","to":"sdaReg491","type":"model"},{"step":288,"from":"sdaReg493","to":"sdaReg494","type":"model"},{"step":289,"from":"sdaReg494","to":"1093442336","type":"store","field":"<java.nio.charset.CharsetDecoderICU: int ec>"},{"step":290,"from":"static.<java.nio.charset.CodingErrorAction: java.nio.charset.CodingErrorAction REPLACE>","to":"1084051696","type":"load","field":"<java.nio.charset.CodingErrorAction: java.nio.charset.CodingErrorAction REPLACE>"},{"step":291,"from":"1084051696","to":"1093442336","type":"store","field":"<java.nio.charset.CharsetDecoder: java.nio.charset.CodingErrorAction malformedInputAction>"},{"step":292,"from":"static.<java.nio.charset.CodingErrorAction: java.nio.charset.CodingErrorAction REPORT>","to":"1084336272","type":"load","field":"<java.nio.charset.CodingErrorAction: java.nio.charset.CodingErrorAction REPORT>"},{"step":293,"from":"static.<java.nio.charset.CodingErrorAction: java.nio.charset.CodingErrorAction IGNORE>","to":"1084016976","type":"load","field":"<java.nio.charset.CodingErrorAction: java.nio.charset.CodingErrorAction IGNORE>"},{"step":294,"from":"static.<java.nio.charset.CodingErrorAction: java.nio.charset.CodingErrorAction REPLACE>","to":"1084051696","type":"load","field":"<java.nio.charset.CodingErrorAction: java.nio.charset.CodingErrorAction REPLACE>"},{"step":295,"from":"static.<java.nio.charset.CodingErrorAction: java.nio.charset.CodingErrorAction REPORT>","to":"1084336272","type":"load","field":"<java.nio.charset.CodingErrorAction: java.nio.charset.CodingErrorAction REPORT>"},{"step":296,"from":"sdaReg506","to":"sdaReg511","type":"model"},{"step":297,"from":"sdaReg506","to":"sdaReg515","type":"model"},{"step":298,"from":"sdaReg506","to":"sdaReg517","type":"model"},{"step":299,"from":"sdaReg506","to":"sdaReg518","type":"model"},{"step":300,"from":"sdaReg511","to":"sdaReg506","type":"model"},{"step":301,"from":"sdaReg511","to":"sdaReg515","type":"model"},{"step":302,"from":"sdaReg511","to":"sdaReg517","type":"model"},{"step":303,"from":"sdaReg511","to":"sdaReg518","type":"model"},{"step":304,"from":"sdaReg515","to":"sdaReg506","type":"model"},{"step":305,"from":"sdaReg515","to":"sdaReg511","type":"model"},{"step":306,"from":"sdaReg515","to":"sdaReg517","type":"model"},{"step":307,"from":"sdaReg515","to":"sdaReg518","type":"model"},{"step":308,"from":"sdaReg517","to":"sdaReg506","type":"model"},{"step":309,"from":"sdaReg517","to":"sdaReg511","type":"model"},{"step":310,"from":"sdaReg517","to":"sdaReg515","type":"model"},{"step":311,"from":"sdaReg517","to":"sdaReg518","type":"model"},{"step":312,"from":"sdaReg518","to":"1093442336","type":"store","field":"<java.nio.charset.CharsetDecoderICU: int ec>"},{"step":313,"from":"static.<java.nio.charset.CodingErrorAction: java.nio.charset.CodingErrorAction REPLACE>","to":"1084051696","type":"load","field":"<java.nio.charset.CodingErrorAction: java.nio.charset.CodingErrorAction REPLACE>"},{"step":314,"from":"1084051696","to":"1093442336","type":"store","field":"<java.nio.charset.CharsetDecoder: java.nio.charset.CodingErrorAction unmappableCharacterAction>"},{"step":315,"from":"static.<java.nio.charset.CodingErrorAction: java.nio.charset.CodingErrorAction REPORT>","to":"1084336272","type":"load","field":"<java.nio.charset.CodingErrorAction: java.nio.charset.CodingErrorAction REPORT>"},{"step":316,"from":"static.<java.nio.charset.CodingErrorAction: java.nio.charset.CodingErrorAction IGNORE>","to":"1084016976","type":"load","field":"<java.nio.charset.CodingErrorAction: java.nio.charset.CodingErrorAction IGNORE>"},{"step":317,"from":"static.<java.nio.charset.CodingErrorAction: java.nio.charset.CodingErrorAction REPLACE>","to":"1084051696","type":"load","field":"<java.nio.charset.CodingErrorAction: java.nio.charset.CodingErrorAction REPLACE>"},{"step":318,"from":"static.<java.nio.charset.CodingErrorAction: java.nio.charset.CodingErrorAction REPORT>","to":"1084336272","type":"load","field":"<java.nio.charset.CodingErrorAction: java.nio.charset.CodingErrorAction REPORT>"},{"step":319,"from":"static.<java.nio.charset.CodingErrorAction: java.nio.charset.CodingErrorAction IGNORE>","to":"1084016976","type":"load","field":"<java.nio.charset.CodingErrorAction: java.nio.charset.CodingErrorAction IGNORE>"},{"step":320,"from":"static.<java.nio.charset.CodingErrorAction: java.nio.charset.CodingErrorAction REPLACE>","to":"1084051696","type":"load","field":"<java.nio.charset.CodingErrorAction: java.nio.charset.CodingErrorAction REPLACE>"},{"step":321,"from":"sdaReg527","to":"sdaReg532","type":"model"},{"step":322,"from":"sdaReg527","to":"sdaReg536","type":"model"},{"step":323,"from":"sdaReg527","to":"sdaReg538","type":"model"},{"step":324,"from":"sdaReg527","to":"sdaReg539","type":"model"},{"step":325,"from":"sdaReg532","to":"sdaReg527","type":"model"},{"step":326,"from":"sdaReg532","to":"sdaReg536","type":"model"},{"step":327,"from":"sdaReg532","to":"sdaReg538","type":"model"},{"step":328,"from":"sdaReg532","to":"sdaReg539","type":"model"},{"step":329,"from":"sdaReg536","to":"sdaReg527","type":"model"},{"step":330,"from":"sdaReg536","to":"sdaReg532","type":"model"},{"step":331,"from":"sdaReg536","to":"sdaReg538","type":"model"},{"step":332,"from":"sdaReg536","to":"sdaReg539","type":"model"},{"step":333,"from":"sdaReg538","to":"sdaReg527","type":"model"},{"step":334,"from":"sdaReg538","to":"sdaReg532","type":"model"},{"step":335,"from":"sdaReg538","to":"sdaReg536","type":"model"},{"step":336,"from":"sdaReg538","to":"sdaReg539","type":"model"},{"step":337,"from":"sdaReg539","to":"1093442336","type":"store","field":"<java.nio.charset.CharsetDecoderICU: int ec>"},{"step":338,"from":"1093800472","to":"1093442336","type":"create","field":"<java.io.InputStreamReader: java.nio.charset.CharsetDecoder decoder>"},{"step":339,"from":"1093802592","to":"sdaReg544","type":"create","field":"<java.nio.Buffer: int limit>"}],"parameters":[{"id":"1093800472","name":"this","klass":"java.io.InputStreamReader"},{"id":"1093800504","name":"arg#1","klass":"java.io.InputStream"},{"id":"sdaReg0","name":"arg#2","klass":"string"}],"returns":[{"id":"1093800472","name":"return","klass":"java.io.InputStreamReader"}],"colors":{"heapLocToColor":{"sdaReg191":[25],"sdaReg294":[33],"sdaReg190":[25],"sdaReg293":[33],"sdaReg193":[25],"sdaReg296":[33],"sdaReg192":[25],"sdaReg295":[33],"sdaReg298":[33],"1084333032":[6],"1084327536.<java.util.HashMap$HashMapEntry: java.lang.Object value>":[6],"sdaReg297":[33],"sdaReg299":[33],"sdaReg198":[25],"sdaReg195":[25],"1084327384":[6],"sdaReg290":[6],"sdaReg194":[25],"sdaReg197":[25],"sdaReg292":[33],"sdaReg196":[25],"sdaReg291":[6],"1084327448":[6],"1084326792.<java.util.HashMap$HashMapEntry: java.lang.Object key>":[6],"1093326368":[14],"1084327784.<java.util.HashMap$HashMapEntry: int hash>":[6],"1093802592":[3],"1093620224":[14],"1084324784.<java.util.HashMap: int modCount>":[6],"1084327568.<java.util.HashMap$HashMapEntry: java.lang.Object value>":[6],"1093296616":[14],"1084327848":[6],"sdaReg171":[23],"sdaReg170":[23],"sdaReg172":[23],"sdaReg175":[23],"sdaReg177":[6],"sdaReg176":[24],"sdaReg179":[22],"sdaReg178":[6],"1084327568":[6],"1084327600.<java.util.HashMap$HashMapEntry: java.lang.Object value>":[6],"1084327784":[6],"1084326792.<java.util.HashMap$HashMapEntry: java.lang.Object value>":[6],"sdaReg182":[22],"sdaReg181":[22],"sdaReg186":[14],"sdaReg189":[6],"sdaReg188":[6],"sdaReg187":[14],"1084326792":[6],"1084327384.<java.util.HashMap$HashMapEntry: int hash>":[6],"1084333032.<java.util.HashMap$HashMapEntry: int hash>":[6],"1084327720":[6],"1093553984":[14],"1084327416.<java.util.HashMap$HashMapEntry: java.lang.Object value>":[6],"1093325864":[14],"1093652088":[14],"1084327416.<java.util.HashMap$HashMapEntry: int hash>":[6],"1093993872":[4],"1084330944":[6],"1093330992.<java.util.HashMap: int modCount>":[14],"1093326448":[14],"1084327600":[6],"1084327816.<java.util.HashMap$HashMapEntry: java.lang.Object value>":[6],"1084333256":[6],"1084327752":[6],"1084329944.<java.util.HashMap$HashMapEntry: int hash>":[6],"1084332840.<java.util.HashMap$HashMapEntry: java.util.HashMap$HashMapEntry next>":[6],"1093800928":[20],"sdaReg68":[15],"sdaReg69":[15],"1084327384.<java.util.HashMap$HashMapEntry: java.lang.Object value>":[6],"1094059752":[14],"sdaReg66":[15],"1084324784":[6],"sdaReg67":[15],"sdaReg64":[15],"sdaReg65":[15],"sdaReg62":[15],"sdaReg63":[15],"sdaReg70":[15],"1093326648.<java.nio.charset.Charset: java.lang.String canonicalName>":[14],"1084325184":[6],"1084327448.<java.util.HashMap$HashMapEntry: int hash>":[6],"1094090664":[14],"sdaReg77":[6],"sdaReg78":[6],"sdaReg79":[17],"sdaReg73":[15],"sdaReg74":[16],"sdaReg75":[6],"sdaReg76":[6],"sdaReg504":[53],"sdaReg81":[17],"sdaReg503":[49],"sdaReg80":[17],"sdaReg83":[17],"sdaReg505":[49],"sdaReg82":[17],"sdaReg500":[49],"sdaReg502":[53],"sdaReg501":[49],"1084327600.<java.util.HashMap$HashMapEntry: int hash>":[6],"sdaReg508":[49],"sdaReg507":[49],"sdaReg509":[53],"1084327448.<java.util.HashMap$HashMapEntry: java.lang.Object value>":[6],"sdaReg86":[17],"sdaReg87":[17],"sdaReg84":[17],"sdaReg85":[17],"sdaReg513":[50],"sdaReg90":[17],"sdaReg512":[49],"sdaReg510":[53],"sdaReg94":[6],"1093452232":[14],"sdaReg516":[49],"sdaReg93":[6],"sdaReg92":[6],"sdaReg514":[50],"sdaReg91":[18],"sdaReg518":[55],"1084051696":[53],"static.<java.nio.charset.CodingErrorAction: java.nio.charset.CodingErrorAction REPLACE>":[53],"1084329944":[6],"sdaReg95":[6],"sdaReg96":[19],"1093483872":[14],"sdaReg97":[19],"sdaReg98":[19],"sdaReg99":[19],"sdaReg522":[49],"sdaReg521":[49],"sdaReg524":[49],"sdaReg523":[53],"1084327848.<java.util.HashMap$HashMapEntry: java.lang.Object value>":[6],"1093325728":[14],"sdaReg526":[49],"sdaReg525":[53],"sdaReg528":[49],"sdaReg529":[49],"1093326008":[14],"1084016976":[54],"sdaReg531":[53],"1084327816":[6],"sdaReg530":[53],"1084327568.<java.util.HashMap$HashMapEntry: int hash>":[6],"sdaReg539":[56],"sdaReg537":[49],"sdaReg534":[53],"sdaReg535":[53],"1084325040":[6],"sdaReg533":[49],"sdaReg542":[49],"1093382688":[14],"1093326224":[14],"1093325792":[14],"static.<java.nio.charset.CodingErrorAction: java.nio.charset.CodingErrorAction REPORT>":[50],"sdaReg543":[3],"sdaReg545":[3],"1093326648":[14],"1093326512":[14],"sdaReg429":[22],"1084331016":[6],"sdaReg428":[6],"sdaReg427":[6],"sdaReg426":[44],"sdaReg425":[43],"1084333256.<java.util.HashMap$HashMapEntry: int hash>":[6],"sdaReg422":[43],"sdaReg326":[35],"1084325112":[6],"sdaReg323":[35],"sdaReg329":[6],"sdaReg328":[6],"sdaReg327":[36],"sdaReg13":[3],"sdaReg12":[3],"sdaReg321":[35],"1093296800":[14],"sdaReg10":[4],"sdaReg322":[35],"sdaReg320":[35],"sdaReg420":[43],"sdaReg421":[43],"1084325400":[6],"sdaReg18":[3],"sdaReg15":[3],"1093551872":[14],"sdaReg416":[43],"sdaReg415":[43],"1093415432":[14],"sdaReg418":[43],"sdaReg417":[43],"sdaReg412":[6],"sdaReg411":[14],"sdaReg414":[43],"sdaReg413":[6],"1084327536.<java.util.HashMap$HashMapEntry: int hash>":[6],"sdaReg313":[6],"sdaReg312":[14],"sdaReg315":[35],"1093488560":[14],"sdaReg314":[6],"sdaReg317":[35],"sdaReg419":[43],"sdaReg316":[35],"sdaReg319":[35],"sdaReg318":[35],"sdaReg310":[22],"sdaReg311":[14],"sdaReg410":[14],"1093326152":[14],"sdaReg446":[45],"sdaReg445":[45],"sdaReg444":[45],"sdaReg449":[45],"sdaReg309":[22],"sdaReg307":[22],"sdaReg306":[6],"sdaReg305":[6],"sdaReg304":[34],"sdaReg303":[33],"sdaReg300":[33],"1093800472":[0],"sdaReg442":[45],"sdaReg443":[45],"sdaReg440":[45],"sdaReg441":[45],"sdaReg434":[14],"sdaReg436":[6],"sdaReg435":[14],"sdaReg438":[45],"sdaReg437":[6],"sdaReg439":[45],"1084326792.<java.util.HashMap$HashMapEntry: int hash>":[6],"1084324840":[6],"sdaReg431":[22],"sdaReg432":[22],"1084325328":[6],"sdaReg60":[14],"sdaReg61":[6],"1093326080":[14],"1084332560.arrayIdx_int:56":[6],"sdaReg59":[6],"sdaReg58":[14],"sdaReg57":[14],"1084325256":[6],"sdaReg55":[2, 13],"sdaReg53":[2, 12],"sdaReg51":[2, 11],"1084324784.<java.util.HashMap: int threshold>":[6],"static.<java.nio.charset.CodingErrorAction: java.nio.charset.CodingErrorAction IGNORE>":[54],"1084327848.<java.util.HashMap$HashMapEntry: int hash>":[6],"sdaReg49":[2, 10],"1084336272":[50],"1084325896.<java.nio.charset.CharsetICU: java.lang.String icuCanonicalName>":[6],"sdaReg47":[9],"sdaReg46":[2, 8],"sdaReg40":[7],"sdaReg43":[7],"sdaReg402":[6],"1084332560.arrayIdx_int:33":[6],"sdaReg403":[22],"sdaReg400":[42],"sdaReg401":[6],"sdaReg406":[22],"sdaReg201":[25],"1084325760":[6],"sdaReg405":[22],"sdaReg205":[22],"sdaReg39":[7],"sdaReg204":[6],"sdaReg38":[7],"sdaReg203":[6],"sdaReg37":[7],"sdaReg202":[26],"sdaReg208":[22],"sdaReg207":[22],"1084325616":[6],"sdaReg32":[7],"sdaReg31":[6],"sdaReg30":[6],"sdaReg36":[7],"sdaReg35":[7],"sdaReg34":[7],"sdaReg33":[7],"sdaReg8":[3],"sdaReg9":[3],"sdaReg7":[3],"sdaReg4":[0],"1084325896":[6],"1084327720.<java.util.HashMap$HashMapEntry: java.lang.Object value>":[6],"static.<java.nio.charset.Charset: java.util.HashMap CACHED_CHARSETS>":[6],"sdaReg27":[3],"sdaReg26":[3],"sdaReg29":[3],"sdaReg28":[3],"sdaReg3":[0],"sdaReg2":[1],"sdaReg1":[0],"sdaReg21":[3],"sdaReg0":[2],"sdaReg23":[3],"sdaReg22":[3],"sdaReg125":[21],"sdaReg126":[21],"1093442448":[51],"sdaReg127":[21],"sdaReg128":[21],"sdaReg129":[21],"sdaReg228":[6],"sdaReg229":[6],"sdaReg226":[27],"sdaReg227":[28],"1084327784.<java.util.HashMap$HashMapEntry: java.lang.Object value>":[6],"sdaReg221":[27],"1093330992":[14],"sdaReg220":[27],"sdaReg223":[27],"sdaReg222":[27],"sdaReg120":[14],"1094080864":[22],"sdaReg122":[14],"sdaReg121":[21],"1084327752.<java.util.HashMap$HashMapEntry: int hash>":[6],"sdaReg124":[14],"sdaReg123":[21],"sdaReg394":[41],"sdaReg116":[6],"1084324784.<java.util.HashMap: int size>":[6],"sdaReg490":[50],"sdaReg395":[41],"sdaReg117":[20],"sdaReg392":[41],"sdaReg393":[41],"sdaReg115":[6],"sdaReg399":[41],"sdaReg396":[41],"sdaReg118":[20],"sdaReg119":[14],"sdaReg497":[49],"1093330976":[14],"sdaReg219":[27],"sdaReg498":[47],"sdaReg217":[27],"sdaReg218":[27],"sdaReg390":[41],"sdaReg215":[27],"sdaReg494":[52],"sdaReg391":[41],"sdaReg216":[27],"sdaReg213":[6],"sdaReg492":[49],"sdaReg214":[6],"sdaReg212":[14],"sdaReg211":[14],"1084325696":[6],"sdaReg499":[49],"1084332936":[6],"sdaReg113":[20],"sdaReg112":[6],"sdaReg110":[6],"sdaReg385":[14],"sdaReg107":[19],"sdaReg386":[6],"sdaReg108":[6],"sdaReg387":[6],"sdaReg109":[6],"sdaReg388":[41],"sdaReg381":[22],"sdaReg103":[19],"sdaReg104":[19],"sdaReg384":[14],"sdaReg246":[29],"sdaReg247":[29],"sdaReg248":[29],"sdaReg380":[22],"sdaReg249":[29],"sdaReg241":[14],"sdaReg240":[14],"sdaReg243":[6],"sdaReg242":[6],"sdaReg245":[29],"sdaReg244":[29],"sdaReg100":[19],"sdaReg102":[19],"sdaReg101":[19],"sdaReg389":[41],"1094080848":[21],"sdaReg376":[6],"sdaReg377":[6],"sdaReg374":[39],"sdaReg375":[40],"1084325472":[6],"1093325936":[14],"sdaReg370":[39],"sdaReg371":[39],"sdaReg230":[22],"1084327720.<java.util.HashMap$HashMapEntry: int hash>":[6],"1084339448":[5],"sdaReg233":[22],"sdaReg232":[22],"sdaReg378":[22],"sdaReg463":[6],"1084324784.<java.util.HashMap: java.util.HashMap$HashMapEntry[] table>":[6],"sdaReg462":[49],"sdaReg465":[6],"sdaReg464":[49],"1093326296":[14],"sdaReg269":[31],"sdaReg268":[6],"sdaReg461":[48],"sdaReg460":[47],"sdaReg360":[14],"sdaReg169":[23],"1084327416":[6],"sdaReg362":[6],"sdaReg361":[6],"1084327752.<java.util.HashMap$HashMapEntry: java.lang.Object value>":[6],"sdaReg364":[39],"sdaReg363":[39],"sdaReg366":[39],"1084325544":[6],"sdaReg365":[39],"sdaReg367":[39],"sdaReg161":[14],"1084327816.<java.util.HashMap$HashMapEntry: int hash>":[6],"sdaReg368":[39],"sdaReg162":[6],"sdaReg369":[39],"sdaReg163":[6],"sdaReg164":[23],"1084332936.<java.util.HashMap$HashMapEntry: int hash>":[6],"sdaReg165":[23],"sdaReg166":[23],"sdaReg167":[23],"sdaReg168":[23],"sdaReg265":[14],"sdaReg266":[14],"sdaReg267":[6],"static.<java.nio.ByteOrder: java.nio.ByteOrder BIG_ENDIAN>":[5],"sdaReg467":[49],"sdaReg261":[22],"sdaReg468":[48],"sdaReg262":[22],"sdaReg160":[14],"sdaReg453":[22],"sdaReg452":[6],"sdaReg451":[6],"sdaReg450":[46],"1084332840":[6],"sdaReg259":[22],"sdaReg258":[6],"1093442336":[49],"sdaReg257":[6],"sdaReg351":[37],"sdaReg159":[14],"sdaReg355":[22],"sdaReg354":[6],"sdaReg353":[6],"sdaReg352":[38],"sdaReg152":[22],"sdaReg358":[22],"sdaReg153":[22],"sdaReg359":[14],"sdaReg150":[22],"sdaReg151":[22],"sdaReg357":[22],"sdaReg156":[22],"sdaReg155":[22],"sdaReg255":[29],"sdaReg256":[30],"sdaReg457":[6],"sdaReg251":[29],"sdaReg458":[6],"sdaReg252":[29],"sdaReg455":[6],"sdaReg456":[6],"sdaReg250":[29],"sdaReg481":[49],"sdaReg480":[49],"sdaReg483":[49],"sdaReg485":[50],"sdaReg484":[49],"1084327536":[6],"sdaReg486":[50],"1093330992.<java.util.HashMap: java.util.HashMap$HashMapEntry[] table>":[14],"sdaReg342":[37],"sdaReg341":[37],"sdaReg344":[37],"sdaReg343":[37],"sdaReg148":[22],"sdaReg147":[22],"sdaReg340":[37],"sdaReg149":[22],"sdaReg145":[22],"sdaReg345":[37],"sdaReg140":[22],"sdaReg346":[37],"sdaReg141":[14],"sdaReg280":[31],"sdaReg347":[37],"sdaReg142":[22],"sdaReg281":[32],"sdaReg348":[37],"sdaReg488":[49],"sdaReg282":[6],"sdaReg489":[50],"sdaReg283":[6],"sdaReg284":[22],"1084332560":[6],"sdaReg286":[22],"sdaReg287":[22],"sdaReg288":[14],"sdaReg289":[14],"sdaReg470":[48],"1094080864.<java.util.HashMap$HashIterator: int nextIndex>":[22],"sdaReg473":[49],"sdaReg333":[22],"1093800504":[1],"sdaReg332":[22],"sdaReg330":[22],"sdaReg139":[14],"sdaReg138":[22],"sdaReg137":[14],"sdaReg136":[22],"sdaReg134":[21],"sdaReg135":[14],"sdaReg132":[21],"sdaReg338":[6],"sdaReg133":[21],"sdaReg339":[6],"sdaReg130":[21],"sdaReg336":[14],"sdaReg131":[21],"sdaReg270":[31],"sdaReg337":[14],"1084332840.<java.util.HashMap$HashMapEntry: int hash>":[6],"sdaReg479":[49],"sdaReg273":[31],"sdaReg274":[31],"sdaReg271":[31],"sdaReg272":[31],"sdaReg277":[31],"sdaReg275":[31],"sdaReg276":[31]},"colorToColor":{"0":[57],"1":[0],"2":[14],"3":[0],"4":[3],"5":[3],"6":[49, 20, 6, 47],"47":[49, 48],"14":[21, 22],"51":[49],"50":[49],"49":[0],"19":[20],"48":[49],"55":[49],"21":[14],"20":[6],"53":[49],"52":[49],"22":[22],"56":[49]},"colorToLabel":{"0":"this","1":"arg#1","2":"arg#2","5":"<java.nio.ByteOrder: java.nio.ByteOrder BIG_ENDIAN>","6":"<java.nio.charset.Charset: java.util.HashMap CACHED_CHARSETS>","50":"<java.nio.charset.CodingErrorAction: java.nio.charset.CodingErrorAction REPORT>","53":"<java.nio.charset.CodingErrorAction: java.nio.charset.CodingErrorAction REPLACE>","54":"<java.nio.charset.CodingErrorAction: java.nio.charset.CodingErrorAction IGNORE>","57":"return"}}}

Generated Model
	this->return
	arg#1->this
	arg#1->return

