Scanning method <java.io.DataInputStream: java.lang.String decodeUTF(int,java.io.DataInput)>

All seen event types: StoreArrayRecord, SimpleAssignmentRecord, MethodStartRecord, LoadInstanceRecord, IfRecord, NewObjectRecord, NewArrayRecord, BinaryOperationRecord, MethodCallRecord, MethodReturnRecord, CastRecord, LoadArrayRecord, MethodEndRecord, 
Ignored event types: IfRecord, 

JSON Encoded Analysis Data (for visualization):{"heapEdges":[{"step":0,"from":"1093679648","to":"1093679784","type":"load","field":"<java.io.FilterInputStream: java.io.InputStream in>"},{"step":1,"from":"1093679784","to":"1093688176","type":"model"},{"step":2,"from":"1093688176","to":"1093688176.arrayIdx_int:0","type":"load","field":"arrayIdx_int:0"},{"step":3,"from":"sdaReg11","to":"1093698352","type":"store","field":"arrayIdx_int:0"},{"step":4,"from":"1093688176","to":"1093688176.arrayIdx_int:1","type":"load","field":"arrayIdx_int:1"},{"step":5,"from":"sdaReg11","to":"1093698352","type":"store","field":"arrayIdx_int:1"},{"step":6,"from":"1093688176","to":"1093688176.arrayIdx_int:2","type":"load","field":"arrayIdx_int:2"},{"step":7,"from":"sdaReg11","to":"1093698352","type":"store","field":"arrayIdx_int:2"},{"step":8,"from":"1093688176","to":"1093688176.arrayIdx_int:3","type":"load","field":"arrayIdx_int:3"},{"step":9,"from":"sdaReg11","to":"1093698352","type":"store","field":"arrayIdx_int:3"},{"step":10,"from":"1093688176","to":"1093688176.arrayIdx_int:4","type":"load","field":"arrayIdx_int:4"},{"step":11,"from":"sdaReg11","to":"1093698352","type":"store","field":"arrayIdx_int:4"},{"step":12,"from":"1093688176","to":"1093688176.arrayIdx_int:5","type":"load","field":"arrayIdx_int:5"},{"step":13,"from":"sdaReg11","to":"1093698352","type":"store","field":"arrayIdx_int:5"},{"step":14,"from":"1093688176","to":"1093688176.arrayIdx_int:6","type":"load","field":"arrayIdx_int:6"},{"step":15,"from":"sdaReg11","to":"1093698352","type":"store","field":"arrayIdx_int:6"},{"step":16,"from":"1093688176","to":"1093688176.arrayIdx_int:7","type":"load","field":"arrayIdx_int:7"},{"step":17,"from":"sdaReg11","to":"1093698352","type":"store","field":"arrayIdx_int:7"},{"step":18,"from":"1093688176","to":"1093688176.arrayIdx_int:8","type":"load","field":"arrayIdx_int:8"},{"step":19,"from":"sdaReg11","to":"1093698352","type":"store","field":"arrayIdx_int:8"},{"step":20,"from":"1093688176","to":"1093688176.arrayIdx_int:9","type":"load","field":"arrayIdx_int:9"},{"step":21,"from":"sdaReg11","to":"1093698352","type":"store","field":"arrayIdx_int:9"},{"step":22,"from":"1093688176","to":"1093688176.arrayIdx_int:10","type":"load","field":"arrayIdx_int:10"},{"step":23,"from":"sdaReg11","to":"1093698352","type":"store","field":"arrayIdx_int:10"},{"step":24,"from":"1093698352","to":"sdaReg12","type":"model"}],"parameters":[{"id":"sdaReg0","name":"arg#0","klass":"int"},{"id":"1093679648","name":"arg#1","klass":"java.io.DataInput"}],"returns":[{"id":"sdaReg12","name":"return","klass":"string"}],"colors":{"heapLocToColor":{"1093688176.arrayIdx_int:3":[2],"1093688176.arrayIdx_int:4":[2],"1093688176.arrayIdx_int:10":[2],"1093688176.arrayIdx_int:5":[2],"1093688176.arrayIdx_int:6":[2],"1093688176.arrayIdx_int:7":[2],"1093688176.arrayIdx_int:8":[2],"1093688176.arrayIdx_int:9":[2],"sdaReg4":[2],"sdaReg5":[3],"1093698352":[3],"1093688176.arrayIdx_int:0":[2],"1093688176.arrayIdx_int:1":[2],"1093688176.arrayIdx_int:2":[2],"sdaReg11":[2],"sdaReg12":[4],"1093679648":[1],"1093688176":[2],"sdaReg2":[2],"sdaReg1":[1],"sdaReg0":[0],"1093679784":[1]},"colorToColor":{"1":[2],"2":[3],"3":[4],"4":[5]},"colorToLabel":{"0":"arg#0","1":"arg#1","5":"return"}}}

Generated Model
	arg#1->return

