Scanning method <java.net.URLConnection: int getConnectTimeout()>

All seen event types: LoadInstanceRecord, 
Ignored event types: 

JSON Encoded Analysis Data (for visualization):{"heapEdges":[{"step":0,"from":"1093678992","to":"1093678992.<java.net.URLConnection: int connectTimeout>","type":"load","field":"<java.net.URLConnection: int connectTimeout>"}],"parameters":[{"id":"1093678992","name":"this","klass":"java.net.URLConnection"}],"returns":[{"id":"1093678992.<java.net.URLConnection: int connectTimeout>","name":"return","klass":"int"}],"colors":{"heapLocToColor":{"1093678992.<java.net.URLConnection: int connectTimeout>":[0],"1093678992":[0]},"colorToColor":{"0":[1]},"colorToLabel":{"0":"this","1":"return"}}}

Generated Model
	this->return

