Scanning method <java.util.TreeMap: void rebalance(java.util.TreeMap$Node,boolean)>

All seen event types: LoadStaticRecord, BinaryOperationRecord, SimpleAssignmentRecord, MethodReturnRecord, MethodCallRecord, MethodStartRecord, LoadInstanceRecord, MethodEndRecord, IfRecord, StoreInstanceRecord, 
Ignored event types: IfRecord, 

JSON Encoded Analysis Data (for visualization):{"heapEdges":[{"step":0,"from":"1096549600","to":"1096549640","type":"load","field":"<java.util.TreeMap$Node: java.util.TreeMap$Node right>"},{"step":1,"from":"1096549640","to":"1096549640.<java.util.TreeMap$Node: int height>","type":"load","field":"<java.util.TreeMap$Node: int height>"},{"step":2,"from":"static.<java.util.TreeMap: boolean $assertionsDisabled>","to":"static.<java.util.TreeMap: boolean $assertionsDisabled>","type":"load","field":"<java.util.TreeMap: boolean $assertionsDisabled>"},{"step":3,"from":"sdaReg3","to":"sdaReg4","type":"model"},{"step":4,"from":"sdaReg3","to":"sdaReg6","type":"model"},{"step":5,"from":"sdaReg4","to":"sdaReg3","type":"model"},{"step":6,"from":"sdaReg4","to":"sdaReg6","type":"model"},{"step":7,"from":"sdaReg7","to":"1096549600","type":"store","field":"<java.util.TreeMap$Node: int height>"},{"step":8,"from":"1096549600","to":"1094588128","type":"load","field":"<java.util.TreeMap$Node: java.util.TreeMap$Node parent>"},{"step":9,"from":"1094588128","to":"1094845584","type":"load","field":"<java.util.TreeMap$Node: java.util.TreeMap$Node left>"},{"step":10,"from":"1094588128","to":"1096549600","type":"load","field":"<java.util.TreeMap$Node: java.util.TreeMap$Node right>"},{"step":11,"from":"1094845584","to":"1094845584.<java.util.TreeMap$Node: int height>","type":"load","field":"<java.util.TreeMap$Node: int height>"},{"step":12,"from":"static.<java.util.TreeMap: boolean $assertionsDisabled>","to":"static.<java.util.TreeMap: boolean $assertionsDisabled>","type":"load","field":"<java.util.TreeMap: boolean $assertionsDisabled>"},{"step":13,"from":"sdaReg3","to":"sdaReg4","type":"model"},{"step":14,"from":"sdaReg3","to":"sdaReg8","type":"model"},{"step":15,"from":"sdaReg4","to":"sdaReg3","type":"model"},{"step":16,"from":"sdaReg4","to":"sdaReg8","type":"model"},{"step":17,"from":"sdaReg7","to":"1094588128","type":"store","field":"<java.util.TreeMap$Node: int height>"},{"step":18,"from":"1094588128","to":"1094845544","type":"load","field":"<java.util.TreeMap$Node: java.util.TreeMap$Node parent>"},{"step":19,"from":"1094845544","to":"1094845464","type":"load","field":"<java.util.TreeMap$Node: java.util.TreeMap$Node left>"},{"step":20,"from":"1094845544","to":"1094588128","type":"load","field":"<java.util.TreeMap$Node: java.util.TreeMap$Node right>"},{"step":21,"from":"1094845464","to":"1094845464.<java.util.TreeMap$Node: int height>","type":"load","field":"<java.util.TreeMap$Node: int height>"},{"step":22,"from":"static.<java.util.TreeMap: boolean $assertionsDisabled>","to":"static.<java.util.TreeMap: boolean $assertionsDisabled>","type":"load","field":"<java.util.TreeMap: boolean $assertionsDisabled>"},{"step":23,"from":"sdaReg3","to":"sdaReg4","type":"model"},{"step":24,"from":"sdaReg3","to":"sdaReg9","type":"model"},{"step":25,"from":"sdaReg4","to":"sdaReg3","type":"model"},{"step":26,"from":"sdaReg4","to":"sdaReg9","type":"model"},{"step":27,"from":"sdaReg7","to":"1094845544","type":"store","field":"<java.util.TreeMap$Node: int height>"},{"step":28,"from":"1094845544","to":"1095193432","type":"load","field":"<java.util.TreeMap$Node: java.util.TreeMap$Node parent>"},{"step":29,"from":"1095193432","to":"1093278784","type":"load","field":"<java.util.TreeMap$Node: java.util.TreeMap$Node left>"},{"step":30,"from":"1095193432","to":"1094845544","type":"load","field":"<java.util.TreeMap$Node: java.util.TreeMap$Node right>"},{"step":31,"from":"1093278784","to":"1093278784.<java.util.TreeMap$Node: int height>","type":"load","field":"<java.util.TreeMap$Node: int height>"},{"step":32,"from":"1094845544","to":"1094845464","type":"load","field":"<java.util.TreeMap$Node: java.util.TreeMap$Node left>"},{"step":33,"from":"1094845544","to":"1094588128","type":"load","field":"<java.util.TreeMap$Node: java.util.TreeMap$Node right>"},{"step":34,"from":"1094845464","to":"1094845464.<java.util.TreeMap$Node: int height>","type":"load","field":"<java.util.TreeMap$Node: int height>"},{"step":35,"from":"1095193432","to":"1093278784","type":"load","field":"<java.util.TreeMap$Node: java.util.TreeMap$Node left>"},{"step":36,"from":"1095193432","to":"1094845544","type":"load","field":"<java.util.TreeMap$Node: java.util.TreeMap$Node right>"},{"step":37,"from":"1094845544","to":"1094845464","type":"load","field":"<java.util.TreeMap$Node: java.util.TreeMap$Node left>"},{"step":38,"from":"1094845544","to":"1094588128","type":"load","field":"<java.util.TreeMap$Node: java.util.TreeMap$Node right>"},{"step":39,"from":"1094845464","to":"1095193432","type":"store","field":"<java.util.TreeMap$Node: java.util.TreeMap$Node right>"},{"step":40,"from":"1095193432","to":"1094845464","type":"store","field":"<java.util.TreeMap$Node: java.util.TreeMap$Node parent>"},{"step":41,"from":"1095193432","to":"1093944824","type":"load","field":"<java.util.TreeMap$Node: java.util.TreeMap$Node parent>"},{"step":42,"from":"1095193432","to":"sdaReg18","type":"create","field":"<java.util.TreeMap$Node: java.util.TreeMap$Node parent>"},{"step":43,"from":"1093944824","to":"1094845544","type":"store","field":"<java.util.TreeMap$Node: java.util.TreeMap$Node parent>"},{"step":44,"from":"1093944824","to":"1095116944","type":"load","field":"<java.util.TreeMap$Node: java.util.TreeMap$Node left>"},{"step":45,"from":"static.<java.util.TreeMap: boolean $assertionsDisabled>","to":"static.<java.util.TreeMap: boolean $assertionsDisabled>","type":"load","field":"<java.util.TreeMap: boolean $assertionsDisabled>"},{"step":46,"from":"1094845544","to":"1093944824","type":"store","field":"<java.util.TreeMap$Node: java.util.TreeMap$Node right>"},{"step":47,"from":"1095193432","to":"1094845544","type":"store","field":"<java.util.TreeMap$Node: java.util.TreeMap$Node left>"},{"step":48,"from":"1094845544","to":"1095193432","type":"store","field":"<java.util.TreeMap$Node: java.util.TreeMap$Node parent>"},{"step":49,"from":"1093278784","to":"1093278784.<java.util.TreeMap$Node: int height>","type":"load","field":"<java.util.TreeMap$Node: int height>"},{"step":50,"from":"1094845464","to":"1094845464.<java.util.TreeMap$Node: int height>","type":"load","field":"<java.util.TreeMap$Node: int height>"},{"step":51,"from":"1093278784.<java.util.TreeMap$Node: int height>","to":"1094845464.<java.util.TreeMap$Node: int height>","type":"model"},{"step":52,"from":"1093278784.<java.util.TreeMap$Node: int height>","to":"sdaReg19","type":"model"},{"step":53,"from":"1094845464.<java.util.TreeMap$Node: int height>","to":"1093278784.<java.util.TreeMap$Node: int height>","type":"model"},{"step":54,"from":"1094845464.<java.util.TreeMap$Node: int height>","to":"sdaReg19","type":"model"},{"step":55,"from":"sdaReg20","to":"1095193432","type":"store","field":"<java.util.TreeMap$Node: int height>"},{"step":56,"from":"sdaReg22","to":"1094845544","type":"store","field":"<java.util.TreeMap$Node: int height>"}],"parameters":[{"id":"1093233072","name":"this","klass":"java.util.TreeMap"},{"id":"1096549600","name":"arg#1","klass":"java.util.TreeMap$Node"},{"id":"sdaReg0","name":"arg#2","klass":"boolean"}],"returns":[{"id":null,"name":"return","klass":null}],"colors":{"heapLocToColor":{"1094845584":[1],"1095193432.<java.util.TreeMap$Node: java.util.TreeMap$Node left>":[1],"1094845464":[1],"1094845544":[1],"sdaReg13":[0],"sdaReg14":[1],"sdaReg11":[1],"sdaReg12":[1],"1094845544.<java.util.TreeMap$Node: java.util.TreeMap$Node right>":[1],"1096549640.<java.util.TreeMap$Node: int height>":[1],"1095193432":[1],"sdaReg19":[7],"sdaReg17":[1],"sdaReg15":[0],"sdaReg16":[1],"sdaReg8":[5],"sdaReg9":[6],"sdaReg6":[4],"sdaReg7":[4, 5, 6],"1093278784":[1],"1094845544.<java.util.TreeMap$Node: java.util.TreeMap$Node left>":[1],"sdaReg4":[1],"sdaReg5":[1],"1094588128.<java.util.TreeMap$Node: java.util.TreeMap$Node right>":[1],"1096549640":[1],"1093233072":[0],"1096549600":[1],"1095116944":[1],"1093278784.<java.util.TreeMap$Node: int height>":[1],"1093944824":[1],"1095193432.<java.util.TreeMap$Node: java.util.TreeMap$Node right>":[1],"static.<java.util.TreeMap: boolean $assertionsDisabled>":[3],"sdaReg3":[1],"sdaReg21":[8],"sdaReg20":[7],"sdaReg0":[2],"1094845464.<java.util.TreeMap$Node: int height>":[1],"sdaReg22":[8],"1094845584.<java.util.TreeMap$Node: int height>":[1],"1094588128":[1]},"colorToColor":{"1":[1, 4, 5, 6, 7],"4":[1],"5":[1],"6":[1],"7":[1],"8":[1]},"colorToLabel":{"0":"this","1":"arg#1","2":"arg#2","3":"<java.util.TreeMap: boolean $assertionsDisabled>","9":"return"}}}

Generated Model

