Scanning method <java.util.TreeMap: void rebalance(java.util.TreeMap$Node,boolean)>

All seen event types: LoadStaticRecord, BinaryOperationRecord, SimpleAssignmentRecord, MethodReturnRecord, MethodCallRecord, LoadInstanceRecord, IfRecord, StoreInstanceRecord, 
Ignored event types: IfRecord, 

JSON Encoded Analysis Data (for visualization):{"heapEdges":[{"step":0,"from":"1094259376","to":"1094259416","type":"load","field":"<java.util.TreeMap$Node: java.util.TreeMap$Node right>"},{"step":1,"from":"1094259416","to":"1094259416.<java.util.TreeMap$Node: int height>","type":"load","field":"<java.util.TreeMap$Node: int height>"},{"step":2,"from":"static.<java.util.TreeMap: boolean $assertionsDisabled>","to":"static.<java.util.TreeMap: boolean $assertionsDisabled>","type":"load","field":"<java.util.TreeMap: boolean $assertionsDisabled>"},{"step":3,"from":"sdaReg3","to":"sdaReg4","type":"model"},{"step":4,"from":"sdaReg3","to":"sdaReg6","type":"model"},{"step":5,"from":"sdaReg4","to":"sdaReg3","type":"model"},{"step":6,"from":"sdaReg4","to":"sdaReg6","type":"model"},{"step":7,"from":"sdaReg7","to":"1094259376","type":"store","field":"<java.util.TreeMap$Node: int height>"},{"step":8,"from":"1094259376","to":"1093627320","type":"load","field":"<java.util.TreeMap$Node: java.util.TreeMap$Node parent>"},{"step":9,"from":"1093627320","to":"1093627280","type":"load","field":"<java.util.TreeMap$Node: java.util.TreeMap$Node left>"},{"step":10,"from":"1093627320","to":"1094259376","type":"load","field":"<java.util.TreeMap$Node: java.util.TreeMap$Node right>"},{"step":11,"from":"1093627280","to":"1093627280.<java.util.TreeMap$Node: int height>","type":"load","field":"<java.util.TreeMap$Node: int height>"},{"step":12,"from":"static.<java.util.TreeMap: boolean $assertionsDisabled>","to":"static.<java.util.TreeMap: boolean $assertionsDisabled>","type":"load","field":"<java.util.TreeMap: boolean $assertionsDisabled>"},{"step":13,"from":"sdaReg3","to":"sdaReg4","type":"model"},{"step":14,"from":"sdaReg3","to":"sdaReg8","type":"model"},{"step":15,"from":"sdaReg4","to":"sdaReg3","type":"model"},{"step":16,"from":"sdaReg4","to":"sdaReg8","type":"model"},{"step":17,"from":"sdaReg7","to":"1093627320","type":"store","field":"<java.util.TreeMap$Node: int height>"},{"step":18,"from":"1093627320","to":"1093627240","type":"load","field":"<java.util.TreeMap$Node: java.util.TreeMap$Node parent>"},{"step":19,"from":"1093627240","to":"1093627160","type":"load","field":"<java.util.TreeMap$Node: java.util.TreeMap$Node left>"},{"step":20,"from":"1093627240","to":"1093627320","type":"load","field":"<java.util.TreeMap$Node: java.util.TreeMap$Node right>"},{"step":21,"from":"1093627160","to":"1093627160.<java.util.TreeMap$Node: int height>","type":"load","field":"<java.util.TreeMap$Node: int height>"},{"step":22,"from":"static.<java.util.TreeMap: boolean $assertionsDisabled>","to":"static.<java.util.TreeMap: boolean $assertionsDisabled>","type":"load","field":"<java.util.TreeMap: boolean $assertionsDisabled>"},{"step":23,"from":"sdaReg3","to":"sdaReg4","type":"model"},{"step":24,"from":"sdaReg3","to":"sdaReg9","type":"model"},{"step":25,"from":"sdaReg4","to":"sdaReg3","type":"model"},{"step":26,"from":"sdaReg4","to":"sdaReg9","type":"model"},{"step":27,"from":"sdaReg7","to":"1093627240","type":"store","field":"<java.util.TreeMap$Node: int height>"},{"step":28,"from":"1093627240","to":"1096549800","type":"load","field":"<java.util.TreeMap$Node: java.util.TreeMap$Node parent>"},{"step":29,"from":"1096549800","to":"1096549640","type":"load","field":"<java.util.TreeMap$Node: java.util.TreeMap$Node left>"},{"step":30,"from":"1096549800","to":"1093627240","type":"load","field":"<java.util.TreeMap$Node: java.util.TreeMap$Node right>"},{"step":31,"from":"1096549640","to":"1096549640.<java.util.TreeMap$Node: int height>","type":"load","field":"<java.util.TreeMap$Node: int height>"},{"step":32,"from":"static.<java.util.TreeMap: boolean $assertionsDisabled>","to":"static.<java.util.TreeMap: boolean $assertionsDisabled>","type":"load","field":"<java.util.TreeMap: boolean $assertionsDisabled>"},{"step":33,"from":"sdaReg3","to":"sdaReg4","type":"model"},{"step":34,"from":"sdaReg3","to":"sdaReg10","type":"model"},{"step":35,"from":"sdaReg4","to":"sdaReg3","type":"model"},{"step":36,"from":"sdaReg4","to":"sdaReg10","type":"model"},{"step":37,"from":"sdaReg7","to":"1096549800","type":"store","field":"<java.util.TreeMap$Node: int height>"},{"step":38,"from":"1096549800","to":"1094845544","type":"load","field":"<java.util.TreeMap$Node: java.util.TreeMap$Node parent>"},{"step":39,"from":"1094845544","to":"1093944824","type":"load","field":"<java.util.TreeMap$Node: java.util.TreeMap$Node left>"},{"step":40,"from":"1094845544","to":"1096549800","type":"load","field":"<java.util.TreeMap$Node: java.util.TreeMap$Node right>"},{"step":41,"from":"1093944824","to":"1093944824.<java.util.TreeMap$Node: int height>","type":"load","field":"<java.util.TreeMap$Node: int height>"},{"step":42,"from":"static.<java.util.TreeMap: boolean $assertionsDisabled>","to":"static.<java.util.TreeMap: boolean $assertionsDisabled>","type":"load","field":"<java.util.TreeMap: boolean $assertionsDisabled>"},{"step":43,"from":"sdaReg3","to":"sdaReg4","type":"model"},{"step":44,"from":"sdaReg3","to":"sdaReg11","type":"model"},{"step":45,"from":"sdaReg4","to":"sdaReg3","type":"model"},{"step":46,"from":"sdaReg4","to":"sdaReg11","type":"model"},{"step":47,"from":"sdaReg7","to":"1094845544","type":"store","field":"<java.util.TreeMap$Node: int height>"},{"step":48,"from":"1094845544","to":"1096265440","type":"load","field":"<java.util.TreeMap$Node: java.util.TreeMap$Node parent>"},{"step":49,"from":"1096265440","to":"1093533024","type":"load","field":"<java.util.TreeMap$Node: java.util.TreeMap$Node left>"},{"step":50,"from":"1096265440","to":"1094845544","type":"load","field":"<java.util.TreeMap$Node: java.util.TreeMap$Node right>"},{"step":51,"from":"1093533024","to":"1093533024.<java.util.TreeMap$Node: int height>","type":"load","field":"<java.util.TreeMap$Node: int height>"},{"step":52,"from":"static.<java.util.TreeMap: boolean $assertionsDisabled>","to":"static.<java.util.TreeMap: boolean $assertionsDisabled>","type":"load","field":"<java.util.TreeMap: boolean $assertionsDisabled>"},{"step":53,"from":"sdaReg3","to":"sdaReg4","type":"model"},{"step":54,"from":"sdaReg3","to":"sdaReg12","type":"model"},{"step":55,"from":"sdaReg4","to":"sdaReg3","type":"model"},{"step":56,"from":"sdaReg4","to":"sdaReg12","type":"model"},{"step":57,"from":"sdaReg7","to":"1096265440","type":"store","field":"<java.util.TreeMap$Node: int height>"}],"parameters":[{"id":"1093233072","name":"this","klass":"java.util.TreeMap"},{"id":"1094259376","name":"arg#1","klass":"java.util.TreeMap$Node"},{"id":"sdaReg0","name":"arg#2","klass":"boolean"}],"returns":[{"id":null,"name":"return","klass":null}],"colors":{"heapLocToColor":{"1093627280":[1],"1096549800":[1],"1093533024.<java.util.TreeMap$Node: int height>":[1],"1093627240":[1],"1096549800.<java.util.TreeMap$Node: java.util.TreeMap$Node right>":[1],"1093627320":[1],"1093627160":[1],"1094845544":[1],"sdaReg11":[8],"sdaReg12":[9],"1096265440.<java.util.TreeMap$Node: java.util.TreeMap$Node right>":[1],"1093627240.<java.util.TreeMap$Node: java.util.TreeMap$Node right>":[1],"sdaReg10":[7],"1094845544.<java.util.TreeMap$Node: java.util.TreeMap$Node right>":[1],"1094259416.<java.util.TreeMap$Node: int height>":[1],"1096549640.<java.util.TreeMap$Node: int height>":[1],"1094259416":[1],"1093627320.<java.util.TreeMap$Node: java.util.TreeMap$Node right>":[1],"1096265440":[1],"sdaReg8":[5],"sdaReg9":[6],"sdaReg6":[4],"sdaReg7":[4, 5, 6, 7, 8, 9],"sdaReg4":[1],"sdaReg5":[1],"1093627280.<java.util.TreeMap$Node: int height>":[1],"1096549640":[1],"1093233072":[0],"1093944824.<java.util.TreeMap$Node: int height>":[1],"1094259376":[1],"1093944824":[1],"static.<java.util.TreeMap: boolean $assertionsDisabled>":[3],"sdaReg3":[1],"1093627160.<java.util.TreeMap$Node: int height>":[1],"1093533024":[1],"sdaReg0":[2]},"colorToColor":{"1":[1, 4, 5, 6, 7, 8, 9],"4":[1],"5":[1],"6":[1],"7":[1],"8":[1],"9":[1]},"colorToLabel":{"0":"this","1":"arg#1","2":"arg#2","3":"<java.util.TreeMap: boolean $assertionsDisabled>","10":"return"}}}

Generated Model

