Scanning method <java.util.TreeMap: void replaceInParent(java.util.TreeMap$Node,java.util.TreeMap$Node)>

All seen event types: LoadInstanceRecord, IfRecord, StoreInstanceRecord, 
Ignored event types: IfRecord, 

JSON Encoded Analysis Data (for visualization):{"heapEdges":[{"step":0,"from":"1093447784","to":"sdaReg0","type":"create","field":"<java.util.TreeMap$Node: java.util.TreeMap$Node parent>"},{"step":1,"from":"1093533024","to":"1093233072","type":"store","field":"<java.util.TreeMap: java.util.TreeMap$Node root>"}],"parameters":[{"id":"1093233072","name":"this","klass":"java.util.TreeMap"},{"id":"1093447784","name":"arg#1","klass":"java.util.TreeMap$Node"},{"id":"1093533024","name":"arg#2","klass":"java.util.TreeMap$Node"}],"returns":[{"id":null,"name":"return","klass":null}],"colors":{"heapLocToColor":{"1093533024":[2],"1093233072":[0],"1093447784":[1]},"colorToColor":{"2":[0]},"colorToLabel":{"0":"this","1":"arg#1","2":"arg#2","3":"return"}}}

Generated Model
	arg#2->this

