Scanning method <java.util.TreeMap: void replaceInParent(java.util.TreeMap$Node,java.util.TreeMap$Node)>

All seen event types: LoadStaticRecord, LoadInstanceRecord, IfRecord, StoreInstanceRecord, 
Ignored event types: IfRecord, 

JSON Encoded Analysis Data (for visualization):{"heapEdges":[{"step":0,"from":"1094030816","to":"1094030776","type":"load","field":"<java.util.TreeMap$Node: java.util.TreeMap$Node parent>"},{"step":1,"from":"1094030816","to":"sdaReg0","type":"create","field":"<java.util.TreeMap$Node: java.util.TreeMap$Node parent>"},{"step":2,"from":"1094030776","to":"1093944824","type":"store","field":"<java.util.TreeMap$Node: java.util.TreeMap$Node parent>"},{"step":3,"from":"1094030776","to":"1095064128","type":"load","field":"<java.util.TreeMap$Node: java.util.TreeMap$Node left>"},{"step":4,"from":"static.<java.util.TreeMap: boolean $assertionsDisabled>","to":"static.<java.util.TreeMap: boolean $assertionsDisabled>","type":"load","field":"<java.util.TreeMap: boolean $assertionsDisabled>"},{"step":5,"from":"1093944824","to":"1094030776","type":"store","field":"<java.util.TreeMap$Node: java.util.TreeMap$Node right>"}],"parameters":[{"id":"1093233072","name":"this","klass":"java.util.TreeMap"},{"id":"1094030816","name":"arg#1","klass":"java.util.TreeMap$Node"},{"id":"1093944824","name":"arg#2","klass":"java.util.TreeMap$Node"}],"returns":[{"id":null,"name":"return","klass":null}],"colors":{"heapLocToColor":{"1094030776":[1],"1093944824":[2],"static.<java.util.TreeMap: boolean $assertionsDisabled>":[3],"1094030816":[1],"1095064128":[1],"1093233072":[0]},"colorToColor":{"1":[2],"2":[1]},"colorToLabel":{"0":"this","1":"arg#1","2":"arg#2","3":"<java.util.TreeMap: boolean $assertionsDisabled>","4":"return"}}}

Generated Model
	arg#2->arg#1
	arg#1->arg#2

