Scanning method <java.util.TreeMap: void replaceInParent(java.util.TreeMap$Node,java.util.TreeMap$Node)>

All seen event types: LoadStaticRecord, LoadInstanceRecord, IfRecord, StoreInstanceRecord, 
Ignored event types: IfRecord, 

JSON Encoded Analysis Data (for visualization):{"heapEdges":[{"step":0,"from":"1093263136","to":"1095193432","type":"load","field":"<java.util.TreeMap$Node: java.util.TreeMap$Node parent>"},{"step":1,"from":"1093263136","to":"sdaReg0","type":"create","field":"<java.util.TreeMap$Node: java.util.TreeMap$Node parent>"},{"step":2,"from":"1095193432","to":"1094845464","type":"store","field":"<java.util.TreeMap$Node: java.util.TreeMap$Node parent>"},{"step":3,"from":"1095193432","to":"1093278784","type":"load","field":"<java.util.TreeMap$Node: java.util.TreeMap$Node left>"},{"step":4,"from":"static.<java.util.TreeMap: boolean $assertionsDisabled>","to":"static.<java.util.TreeMap: boolean $assertionsDisabled>","type":"load","field":"<java.util.TreeMap: boolean $assertionsDisabled>"},{"step":5,"from":"1094845464","to":"1095193432","type":"store","field":"<java.util.TreeMap$Node: java.util.TreeMap$Node right>"}],"parameters":[{"id":"1093233072","name":"this","klass":"java.util.TreeMap"},{"id":"1093263136","name":"arg#1","klass":"java.util.TreeMap$Node"},{"id":"1094845464","name":"arg#2","klass":"java.util.TreeMap$Node"}],"returns":[{"id":null,"name":"return","klass":null}],"colors":{"heapLocToColor":{"1093278784":[1],"static.<java.util.TreeMap: boolean $assertionsDisabled>":[3],"1095193432":[1],"1093263136":[1],"1094845464":[2],"1093233072":[0]},"colorToColor":{"1":[2],"2":[1]},"colorToLabel":{"0":"this","1":"arg#1","2":"arg#2","3":"<java.util.TreeMap: boolean $assertionsDisabled>","4":"return"}}}

Generated Model
	arg#2->arg#1
	arg#1->arg#2

