Scanning method <android.location.Address: void setExtras(android.os.Bundle)>

All seen event types: StoreArrayRecord, SimpleAssignmentRecord, MethodStartRecord, LoadInstanceRecord, IfRecord, NewObjectRecord, StoreInstanceRecord, NewArrayRecord, BinaryOperationRecord, MethodCallRecord, MethodReturnRecord, CastRecord, ArrayLengthRecord, LoadArrayRecord, MethodEndRecord, 
Ignored event types: IfRecord, 

JSON Encoded Analysis Data (for visualization):{"heapEdges":[{"step":0,"from":"1093775712","to":"sdaReg3","type":"create","field":"<android.os.Bundle: java.util.Map mMap>"},{"step":1,"from":"1093775712","to":"sdaReg4","type":"create","field":"<android.os.Bundle: android.os.Parcel mParcelledData>"},{"step":2,"from":"1093775712","to":"sdaReg5","type":"create","field":"<android.os.Bundle: boolean mHasFds>"},{"step":3,"from":"1093775712","to":"sdaReg6","type":"create","field":"<android.os.Bundle: boolean mFdsKnown>"},{"step":4,"from":"1093775712","to":"sdaReg7","type":"create","field":"<android.os.Bundle: boolean mAllowFds>"},{"step":5,"from":"1093775712","to":"sdaReg8","type":"create","field":"<android.os.Bundle: android.os.Parcel mParcelledData>"},{"step":6,"from":"1093750984","to":"1093505552","type":"load","field":"<android.os.Bundle: java.util.Map mMap>"},{"step":7,"from":"1093750984","to":"1093505552","type":"load","field":"<android.os.Bundle: java.util.Map mMap>"},{"step":8,"from":"1093505552","to":"1093505552.<java.util.HashMap: int size>","type":"load","field":"<java.util.HashMap: int size>"},{"step":9,"from":"1093562056","to":"1093562112","type":"create","field":"<java.util.HashMap: java.util.HashMap$HashMapEntry[] table>"},{"step":10,"from":"sdaReg25","to":"1093562056","type":"store","field":"<java.util.HashMap: int threshold>"},{"step":11,"from":"1093505552","to":"1093777976","type":"store","field":"<java.util.HashMap$EntrySet: java.util.HashMap this$0>"},{"step":12,"from":"1093505552","to":"1093777976","type":"create","field":"<java.util.HashMap: java.util.Set entrySet>"},{"step":13,"from":"1093505552","to":"1093562152","type":"store","field":"<java.util.HashMap$EntryIterator: java.util.HashMap this$0>"},{"step":14,"from":"1093505552","to":"1093562152","type":"store","field":"<java.util.HashMap$HashIterator: java.util.HashMap this$0>"},{"step":15,"from":"1093505552","to":"1093505552.<java.util.HashMap: int modCount>","type":"load","field":"<java.util.HashMap: int modCount>"},{"step":16,"from":"1093505552.<java.util.HashMap: int modCount>","to":"1093562152","type":"store","field":"<java.util.HashMap$HashIterator: int expectedModCount>"},{"step":17,"from":"1093505552","to":"1093718688","type":"load","field":"<java.util.HashMap: java.util.HashMap$HashMapEntry[] table>"},{"step":18,"from":"1093562152","to":"1093562152.<java.util.HashMap$HashIterator: int nextIndex>","type":"load","field":"<java.util.HashMap$HashIterator: int nextIndex>"},{"step":19,"from":"1093562152","to":"1093562152.<java.util.HashMap$HashIterator: int nextIndex>","type":"load","field":"<java.util.HashMap$HashIterator: int nextIndex>"},{"step":20,"from":"sdaReg54","to":"1093562152","type":"store","field":"<java.util.HashMap$HashIterator: int nextIndex>"},{"step":21,"from":"sdaReg54","to":"1093562152","type":"store","field":"<java.util.HashMap$HashIterator: int nextIndex>"},{"step":22,"from":"sdaReg54","to":"1093562152","type":"store","field":"<java.util.HashMap$HashIterator: int nextIndex>"},{"step":23,"from":"sdaReg54","to":"1093562152","type":"store","field":"<java.util.HashMap$HashIterator: int nextIndex>"},{"step":24,"from":"1093718688","to":"1093718728","type":"load","field":"arrayIdx_int:3"},{"step":25,"from":"1093718728","to":"1093562152","type":"store","field":"<java.util.HashMap$HashIterator: java.util.HashMap$HashMapEntry nextEntry>"},{"step":26,"from":"1093505552","to":"1093505552.<java.util.HashMap: int modCount>","type":"load","field":"<java.util.HashMap: int modCount>"},{"step":27,"from":"1093505552","to":"1093718688","type":"load","field":"<java.util.HashMap: java.util.HashMap$HashMapEntry[] table>"},{"step":28,"from":"1093718728","to":"1093562152","type":"store","field":"<java.util.HashMap$HashIterator: java.util.HashMap$HashMapEntry lastEntryReturned>"},{"step":29,"from":"1093718728","to":"1093614104","type":"load","field":"<java.util.HashMap$HashMapEntry: java.lang.Object key>"},{"step":30,"from":"1093718728","to":"1093782112","type":"load","field":"<java.util.HashMap$HashMapEntry: java.lang.Object value>"},{"step":31,"from":"1093614104","to":"1093563888","type":"store","field":"<java.util.HashMap$HashMapEntry: java.lang.Object key>"},{"step":32,"from":"1093782112","to":"1093563888","type":"store","field":"<java.util.HashMap$HashMapEntry: java.lang.Object value>"},{"step":33,"from":"sdaReg88","to":"1093563888","type":"store","field":"<java.util.HashMap$HashMapEntry: int hash>"},{"step":34,"from":"1093562112","to":"1093563888","type":"create","field":"arrayIdx_int:3"},{"step":35,"from":"1093562056","to":"1093562056.<java.util.HashMap: int size>","type":"load","field":"<java.util.HashMap: int size>"},{"step":36,"from":"sdaReg104","to":"1093562056","type":"store","field":"<java.util.HashMap: int size>"},{"step":37,"from":"1093775712","to":"1093562056","type":"create","field":"<android.os.Bundle: java.util.Map mMap>"},{"step":38,"from":"1093750984","to":"1093750984.<android.os.Bundle: boolean mHasFds>","type":"load","field":"<android.os.Bundle: boolean mHasFds>"},{"step":39,"from":"1093750984.<android.os.Bundle: boolean mHasFds>","to":"1093775712","type":"store","field":"<android.os.Bundle: boolean mHasFds>"},{"step":40,"from":"1093750984","to":"1093750984.<android.os.Bundle: boolean mFdsKnown>","type":"load","field":"<android.os.Bundle: boolean mFdsKnown>"},{"step":41,"from":"1093750984.<android.os.Bundle: boolean mFdsKnown>","to":"1093775712","type":"store","field":"<android.os.Bundle: boolean mFdsKnown>"},{"step":42,"from":"1093750984","to":"1083999984","type":"load","field":"<android.os.Bundle: java.lang.ClassLoader mClassLoader>"},{"step":43,"from":"1083999984","to":"1093775712","type":"store","field":"<android.os.Bundle: java.lang.ClassLoader mClassLoader>"},{"step":44,"from":"1093511776","to":"1093775712","type":"create","field":"<android.location.Address: android.os.Bundle mExtras>"}],"parameters":[{"id":"1093511776","name":"this","klass":"android.location.Address"},{"id":"1093750984","name":"arg#1","klass":"android.os.Bundle"}],"returns":[{"id":null,"name":"return","klass":null}],"colors":{"heapLocToColor":{"1093562056.<java.util.HashMap: int size>":[3],"sdaReg69":[1],"sdaReg66":[6],"sdaReg67":[6],"sdaReg65":[6],"sdaReg62":[6],"sdaReg63":[6],"sdaReg13":[1],"sdaReg72":[1],"sdaReg14":[1],"sdaReg71":[1],"sdaReg11":[1],"sdaReg70":[1],"sdaReg12":[1],"sdaReg10":[1],"1093718728":[1],"sdaReg19":[3],"sdaReg17":[3],"sdaReg18":[3],"sdaReg15":[1],"sdaReg16":[3],"sdaReg77":[3],"sdaReg78":[1],"sdaReg79":[1],"sdaReg73":[1],"sdaReg74":[1],"sdaReg75":[1],"sdaReg76":[1],"sdaReg81":[7],"sdaReg80":[7],"sdaReg83":[7],"sdaReg82":[7],"1093511776":[0],"sdaReg107":[3],"sdaReg108":[2],"sdaReg103":[8],"1093718688":[1],"sdaReg104":[3],"sdaReg105":[6],"1093775712":[2],"sdaReg86":[7],"1093614104":[1],"sdaReg87":[7],"sdaReg84":[7],"sdaReg85":[7],"sdaReg88":[7],"sdaReg94":[1],"sdaReg93":[3],"sdaReg91":[7],"1093562152":[6],"1093563888":[8],"sdaReg102":[8],"sdaReg101":[8],"sdaReg95":[1],"sdaReg97":[8],"sdaReg98":[1],"sdaReg99":[1],"1093505552":[1],"1093562056":[3],"sdaReg60":[6],"1093777976":[5],"sdaReg61":[6],"1093505552.<java.util.HashMap: int size>":[1],"sdaReg59":[6],"sdaReg58":[6],"sdaReg54":[6],"1093750984.<android.os.Bundle: boolean mFdsKnown>":[1],"sdaReg51":[6],"sdaReg50":[1],"1093505552.<java.util.HashMap: java.util.HashMap$HashMapEntry[] table>":[1],"sdaReg49":[6],"sdaReg48":[1],"sdaReg45":[6],"sdaReg44":[1],"sdaReg47":[6],"sdaReg46":[1],"sdaReg41":[5],"sdaReg40":[5],"sdaReg43":[5],"sdaReg42":[5],"1093562152.<java.util.HashMap$HashIterator: int nextIndex>":[6],"1093750984":[1],"sdaReg39":[5],"sdaReg38":[5],"sdaReg37":[5],"1093782112":[1],"sdaReg32":[5],"1083999984":[1],"sdaReg31":[1],"sdaReg30":[5],"sdaReg36":[5],"sdaReg35":[5],"1093562112":[4],"sdaReg34":[5],"sdaReg33":[1],"1093750984.<android.os.Bundle: java.util.Map mMap>":[1],"sdaReg9":[3],"1093750984.<android.os.Bundle: boolean mHasFds>":[1],"sdaReg27":[3],"sdaReg26":[3],"sdaReg29":[1],"sdaReg28":[1],"sdaReg2":[2],"sdaReg1":[1],"sdaReg21":[3],"1093505552.<java.util.HashMap: int modCount>":[1],"sdaReg0":[2]},"colorToColor":{"1":[2, 5, 6, 8],"2":[0],"3":[2, 3],"4":[3],"5":[1],"6":[6],"7":[8],"8":[4]},"colorToLabel":{"0":"this","1":"arg#1","9":"return"}}}

Generated Model
	arg#1->this

