Scanning method <java.util.HashMap: java.util.HashMap$HashMapEntry constructorNewEntry(java.lang.Object,java.lang.Object,int,java.util.HashMap$HashMapEntry)>

All seen event types: MethodReturnRecord, MethodCallRecord, MethodStartRecord, MethodEndRecord, StoreInstanceRecord, NewObjectRecord, 
Ignored event types: 

JSON Encoded Analysis Data (for visualization):{"heapEdges":[{"step":0,"from":"1093563840","to":"1093229120","type":"store","field":"<java.util.HashMap$HashMapEntry: java.lang.Object key>"},{"step":1,"from":"1083976944","to":"1093229120","type":"store","field":"<java.util.HashMap$HashMapEntry: java.lang.Object value>"},{"step":2,"from":"sdaReg0","to":"1093229120","type":"store","field":"<java.util.HashMap$HashMapEntry: int hash>"}],"parameters":[{"id":"1093277256","name":"this","klass":"java.util.HashMap"},{"id":"1093563840","name":"arg#1","klass":"java.lang.Object"},{"id":"1083976944","name":"arg#2","klass":"java.lang.Object"},{"id":"sdaReg0","name":"arg#3","klass":"int"},{"id":"0","name":"arg#4","klass":"java.util.HashMap$HashMapEntry"}],"returns":[{"id":"1093229120","name":"return","klass":"java.util.HashMap$HashMapEntry"}],"colors":{"heapLocToColor":{"1083976944":[2],"0":[4],"sdaReg6":[5],"1093229120":[5],"1093563840":[1],"1093277256":[0],"sdaReg4":[4],"sdaReg5":[5],"sdaReg3":[2],"sdaReg2":[1],"sdaReg1":[5],"sdaReg0":[3]},"colorToColor":{"1":[5],"2":[5],"3":[5],"5":[6]},"colorToLabel":{"0":"this","1":"arg#1","2":"arg#2","3":"arg#3","4":"arg#4","6":"return"}}}

Generated Model
	arg#3->return
	arg#2->return
	arg#1->return

