Scanning method <java.io.CharArrayWriter: void <init>()>

All seen event types: NewArrayRecord, MethodReturnRecord, MethodCallRecord, LoadInstanceRecord, MethodStartRecord, MethodEndRecord, StoreInstanceRecord, 
Ignored event types: 

JSON Encoded Analysis Data (for visualization):{"heapEdges":[{"step":0,"from":"1093592824","to":"1093592824","type":"store","field":"<java.io.Writer: java.lang.Object lock>"},{"step":1,"from":"1093592824","to":"1093592848","type":"create","field":"<java.io.CharArrayWriter: char[] buf>"},{"step":2,"from":"1093592848","to":"1093592824","type":"store","field":"<java.io.Writer: java.lang.Object lock>"}],"parameters":[{"id":"1093592824","name":"this","klass":"java.io.CharArrayWriter"}],"returns":[{"id":"1093592824","name":"return","klass":"java.io.CharArrayWriter"}],"colors":{"heapLocToColor":{"1093592848":[1],"sdaReg2":[0],"sdaReg1":[0],"1093592824":[0],"sdaReg0":[0]},"colorToColor":{"0":[0, 2],"1":[0]},"colorToLabel":{"0":"this","2":"return"}}}

Generated Model
	this->return

