Scanning method <java.util.TreeMap$KeySet$1: void <init>(java.util.TreeMap$KeySet,java.util.TreeMap$Node)>

All seen event types: MethodReturnRecord, MethodCallRecord, MethodStartRecord, LoadInstanceRecord, MethodEndRecord, StoreInstanceRecord, 
Ignored event types: 

JSON Encoded Analysis Data (for visualization):{"heapEdges":[{"step":0,"from":"1093637312","to":"1093637328","type":"store","field":"<java.util.TreeMap$KeySet$1: java.util.TreeMap$KeySet this$1>"},{"step":1,"from":"1093637312","to":"1093565544","type":"load","field":"<java.util.TreeMap$KeySet: java.util.TreeMap this$0>"},{"step":2,"from":"1093565544","to":"1093637328","type":"store","field":"<java.util.TreeMap$MapIterator: java.util.TreeMap this$0>"},{"step":3,"from":"1093565544","to":"1093565544.<java.util.TreeMap: int modCount>","type":"load","field":"<java.util.TreeMap: int modCount>"},{"step":4,"from":"1093565544.<java.util.TreeMap: int modCount>","to":"1093637328","type":"store","field":"<java.util.TreeMap$MapIterator: int expectedModCount>"}],"parameters":[{"id":"1093637328","name":"this","klass":"java.util.TreeMap$KeySet$1"},{"id":"1093637312","name":"arg#1","klass":"java.util.TreeMap$KeySet"},{"id":"0","name":"arg#2","klass":"java.util.TreeMap$Node"}],"returns":[{"id":"1093637328","name":"return","klass":"java.util.TreeMap$KeySet$1"}],"colors":{"heapLocToColor":{"0":[2],"1093637312":[1],"1093637328":[0],"sdaReg4":[0],"sdaReg3":[0],"1093565544":[1],"sdaReg2":[2],"sdaReg1":[1],"sdaReg0":[0],"1093565544.<java.util.TreeMap: int modCount>":[1]},"colorToColor":{"0":[3],"1":[0]},"colorToLabel":{"0":"this","1":"arg#1","2":"arg#2","3":"return"}}}

Generated Model
	this->return
	arg#1->this
	arg#1->return

