Scanning method <java.util.TreeMap$KeySet$1: void <init>(java.util.TreeMap$KeySet,java.util.TreeMap$Node)>

All seen event types: MethodReturnRecord, MethodCallRecord, MethodStartRecord, LoadInstanceRecord, MethodEndRecord, StoreInstanceRecord, 
Ignored event types: 

JSON Encoded Analysis Data (for visualization):{"heapEdges":[{"step":0,"from":"1093850104","to":"1093336432","type":"store","field":"<java.util.TreeMap$KeySet$1: java.util.TreeMap$KeySet this$1>"},{"step":1,"from":"1093850104","to":"1099705064","type":"load","field":"<java.util.TreeMap$KeySet: java.util.TreeMap this$0>"},{"step":2,"from":"1099705064","to":"1093336432","type":"store","field":"<java.util.TreeMap$MapIterator: java.util.TreeMap this$0>"},{"step":3,"from":"1099705064","to":"1099705064.<java.util.TreeMap: int modCount>","type":"load","field":"<java.util.TreeMap: int modCount>"},{"step":4,"from":"1099705064.<java.util.TreeMap: int modCount>","to":"1093336432","type":"store","field":"<java.util.TreeMap$MapIterator: int expectedModCount>"},{"step":5,"from":"1099705112","to":"1093336432","type":"store","field":"<java.util.TreeMap$MapIterator: java.util.TreeMap$Node next>"}],"parameters":[{"id":"1093336432","name":"this","klass":"java.util.TreeMap$KeySet$1"},{"id":"1093850104","name":"arg#1","klass":"java.util.TreeMap$KeySet"},{"id":"1099705112","name":"arg#2","klass":"java.util.TreeMap$Node"}],"returns":[{"id":"1093336432","name":"return","klass":"java.util.TreeMap$KeySet$1"}],"colors":{"heapLocToColor":{"1099705064.<java.util.TreeMap: int modCount>":[1],"1093850104":[1],"1093336432":[0],"1099705112":[2],"sdaReg4":[0],"sdaReg3":[0],"sdaReg2":[2],"sdaReg1":[1],"sdaReg0":[0],"1099705064":[1]},"colorToColor":{"0":[3],"1":[0],"2":[0]},"colorToLabel":{"0":"this","1":"arg#1","2":"arg#2","3":"return"}}}

Generated Model
	this->return
	arg#2->this
	arg#2->return
	arg#1->this
	arg#1->return

