Scanning method <java.io.RandomAccessFile: long length()>

All seen event types: LoadStaticRecord, MethodReturnRecord, MethodCallRecord, LoadInstanceRecord, 
Ignored event types: 

JSON Encoded Analysis Data (for visualization):{"heapEdges":[{"step":0,"from":"static.<libcore.io.Libcore: libcore.io.Os os>","to":"1083982784","type":"load","field":"<libcore.io.Libcore: libcore.io.Os os>"},{"step":1,"from":"1093683536","to":"1093684568","type":"load","field":"<java.io.RandomAccessFile: java.io.FileDescriptor fd>"},{"step":2,"from":"1083982784","to":"1093684568","type":"model"},{"step":3,"from":"1083982784","to":"1093593840","type":"model"},{"step":4,"from":"1093684568","to":"1083982784","type":"model"},{"step":5,"from":"1093684568","to":"1093593840","type":"model"},{"step":6,"from":"1093593840","to":"1093593840.<libcore.io.StructStat: long st_size>","type":"load","field":"<libcore.io.StructStat: long st_size>"}],"parameters":[{"id":"1093683536","name":"this","klass":"java.io.RandomAccessFile"}],"returns":[{"id":"1093593840.<libcore.io.StructStat: long st_size>","name":"return","klass":"long"}],"colors":{"heapLocToColor":{"1093593840":[1, 2],"1083982784":[1],"sdaReg0":[1, 2],"1093684568":[0, 1],"1093593840.<libcore.io.StructStat: long st_size>":[1, 2],"static.<libcore.io.Libcore: libcore.io.Os os>":[1],"1093683536":[0]},"colorToColor":{"0":[1, 2],"1":[1, 2, 3],"2":[3]},"colorToLabel":{"0":"this","1":"<libcore.io.Libcore: libcore.io.Os os>","3":"return"}}}

Generated Model
	this->return
	this-><libcore.io.Libcore: libcore.io.Os os>

