Scanning method <android.text.Html: void withinHtml(java.lang.StringBuilder,android.text.Spanned)>

All seen event types: LoadStaticRecord, BinaryOperationRecord, SimpleAssignmentRecord, MethodReturnRecord, MethodCallRecord, ArrayLengthRecord, CastRecord, LoadInstanceRecord, MethodStartRecord, LoadArrayRecord, IfRecord, MethodEndRecord, 
Ignored event types: IfRecord, 

JSON Encoded Analysis Data (for visualization):{"heapEdges":[{"step":0,"from":"1094159864","to":"1094159864.<android.text.SpannableStringInternal: java.lang.String mText>","type":"load","field":"<android.text.SpannableStringInternal: java.lang.String mText>"},{"step":1,"from":"1094159864","to":"1094159864.<android.text.SpannableStringInternal: java.lang.String mText>","type":"load","field":"<android.text.SpannableStringInternal: java.lang.String mText>"},{"step":2,"from":"1094159864","to":"1094159864.<android.text.SpannableStringInternal: int mSpanCount>","type":"load","field":"<android.text.SpannableStringInternal: int mSpanCount>"},{"step":3,"from":"1094159864","to":"1093445856","type":"load","field":"<android.text.SpannableStringInternal: java.lang.Object[] mSpans>"},{"step":4,"from":"1094159864","to":"1093794952","type":"load","field":"<android.text.SpannableStringInternal: int[] mSpanData>"},{"step":5,"from":"1094159864","to":"1094159864.<android.text.SpannableStringInternal: int mSpanCount>","type":"load","field":"<android.text.SpannableStringInternal: int mSpanCount>"},{"step":6,"from":"1094159864","to":"1093445856","type":"load","field":"<android.text.SpannableStringInternal: java.lang.Object[] mSpans>"},{"step":7,"from":"1094159864","to":"1093794952","type":"load","field":"<android.text.SpannableStringInternal: int[] mSpanData>"},{"step":8,"from":"1084659448","to":"sdaReg19","type":"model"},{"step":9,"from":"static.<com.android.internal.util.ArrayUtils: java.lang.Object[] sCache>","to":"1084375760","type":"load","field":"<com.android.internal.util.ArrayUtils: java.lang.Object[] sCache>"},{"step":10,"from":"1084375760","to":"1085268040","type":"load","field":"arrayIdx_int:42"},{"step":11,"from":"1085268040","to":"1084833288","type":"model"},{"step":12,"from":"1084833288","to":"1084659448","type":"model"},{"step":13,"from":"1094159864","to":"1094159864.<android.text.SpannableStringInternal: int mSpanCount>","type":"load","field":"<android.text.SpannableStringInternal: int mSpanCount>"},{"step":14,"from":"1094159864","to":"1093445856","type":"load","field":"<android.text.SpannableStringInternal: java.lang.Object[] mSpans>"},{"step":15,"from":"1094159864","to":"1093794952","type":"load","field":"<android.text.SpannableStringInternal: int[] mSpanData>"},{"step":16,"from":"1094159864","to":"1094159864.<android.text.SpannableStringInternal: int mSpanCount>","type":"load","field":"<android.text.SpannableStringInternal: int mSpanCount>"},{"step":17,"from":"1094159864","to":"1093445856","type":"load","field":"<android.text.SpannableStringInternal: java.lang.Object[] mSpans>"},{"step":18,"from":"1094159864","to":"1093794952","type":"load","field":"<android.text.SpannableStringInternal: int[] mSpanData>"},{"step":19,"from":"1084853880","to":"sdaReg53","type":"model"},{"step":20,"from":"static.<com.android.internal.util.ArrayUtils: java.lang.Object[] sCache>","to":"1084375760","type":"load","field":"<com.android.internal.util.ArrayUtils: java.lang.Object[] sCache>"},{"step":21,"from":"1084375760","to":"1093993560","type":"load","field":"arrayIdx_int:37"},{"step":22,"from":"1093993560","to":"1093503856","type":"model"},{"step":23,"from":"1093503856","to":"1084853880","type":"model"},{"step":24,"from":"1094159864","to":"1094159864.<android.text.SpannableStringInternal: java.lang.String mText>","type":"load","field":"<android.text.SpannableStringInternal: java.lang.String mText>"},{"step":25,"from":"1094159864.<android.text.SpannableStringInternal: java.lang.String mText>","to":"sdaReg75","type":"model"},{"step":26,"from":"1094159864","to":"1094159864.<android.text.SpannableStringInternal: java.lang.String mText>","type":"load","field":"<android.text.SpannableStringInternal: java.lang.String mText>"},{"step":27,"from":"1094159864.<android.text.SpannableStringInternal: java.lang.String mText>","to":"sdaReg77","type":"model"},{"step":28,"from":"1094159864","to":"1094159864.<android.text.SpannableStringInternal: java.lang.String mText>","type":"load","field":"<android.text.SpannableStringInternal: java.lang.String mText>"},{"step":29,"from":"1094159864.<android.text.SpannableStringInternal: java.lang.String mText>","to":"sdaReg79","type":"model"},{"step":30,"from":"1094159864","to":"1094159864.<android.text.SpannableStringInternal: java.lang.String mText>","type":"load","field":"<android.text.SpannableStringInternal: java.lang.String mText>"},{"step":31,"from":"1094159864.<android.text.SpannableStringInternal: java.lang.String mText>","to":"sdaReg81","type":"model"},{"step":32,"from":"1094159864","to":"1094159864.<android.text.SpannableStringInternal: int mSpanCount>","type":"load","field":"<android.text.SpannableStringInternal: int mSpanCount>"},{"step":33,"from":"1094159864","to":"1093445856","type":"load","field":"<android.text.SpannableStringInternal: java.lang.Object[] mSpans>"},{"step":34,"from":"1094159864","to":"1093794952","type":"load","field":"<android.text.SpannableStringInternal: int[] mSpanData>"},{"step":35,"from":"1094159864","to":"1094159864.<android.text.SpannableStringInternal: int mSpanCount>","type":"load","field":"<android.text.SpannableStringInternal: int mSpanCount>"},{"step":36,"from":"1094159864","to":"1093445856","type":"load","field":"<android.text.SpannableStringInternal: java.lang.Object[] mSpans>"},{"step":37,"from":"1094159864","to":"1093794952","type":"load","field":"<android.text.SpannableStringInternal: int[] mSpanData>"},{"step":38,"from":"1084661656","to":"sdaReg103","type":"model"},{"step":39,"from":"static.<com.android.internal.util.ArrayUtils: java.lang.Object[] sCache>","to":"1084375760","type":"load","field":"<com.android.internal.util.ArrayUtils: java.lang.Object[] sCache>"},{"step":40,"from":"1084375760","to":"1093528904","type":"load","field":"arrayIdx_int:26"},{"step":41,"from":"1093528904","to":"1085374624","type":"model"},{"step":42,"from":"1085374624","to":"1084661656","type":"model"},{"step":43,"from":"1094159864","to":"1094159864.<android.text.SpannableStringInternal: java.lang.String mText>","type":"load","field":"<android.text.SpannableStringInternal: java.lang.String mText>"},{"step":44,"from":"1094159864.<android.text.SpannableStringInternal: java.lang.String mText>","to":"sdaReg122","type":"model"},{"step":45,"from":"sdaReg122","to":"1093463656","type":"model"},{"step":46,"from":"1094159864","to":"1094159864.<android.text.SpannableStringInternal: java.lang.String mText>","type":"load","field":"<android.text.SpannableStringInternal: java.lang.String mText>"},{"step":47,"from":"1094159864.<android.text.SpannableStringInternal: java.lang.String mText>","to":"sdaReg124","type":"model"},{"step":48,"from":"sdaReg124","to":"1093463656","type":"model"},{"step":49,"from":"1094159864","to":"1094159864.<android.text.SpannableStringInternal: java.lang.String mText>","type":"load","field":"<android.text.SpannableStringInternal: java.lang.String mText>"},{"step":50,"from":"1094159864.<android.text.SpannableStringInternal: java.lang.String mText>","to":"sdaReg126","type":"model"},{"step":51,"from":"sdaReg126","to":"1093463656","type":"model"},{"step":52,"from":"1094159864","to":"1094159864.<android.text.SpannableStringInternal: java.lang.String mText>","type":"load","field":"<android.text.SpannableStringInternal: java.lang.String mText>"},{"step":53,"from":"1094159864.<android.text.SpannableStringInternal: java.lang.String mText>","to":"sdaReg128","type":"model"},{"step":54,"from":"sdaReg128","to":"1093463656","type":"model"},{"step":55,"from":"1094159864","to":"1094159864.<android.text.SpannableStringInternal: java.lang.String mText>","type":"load","field":"<android.text.SpannableStringInternal: java.lang.String mText>"},{"step":56,"from":"1094159864.<android.text.SpannableStringInternal: java.lang.String mText>","to":"sdaReg130","type":"model"},{"step":57,"from":"sdaReg130","to":"1093463656","type":"model"},{"step":58,"from":"1094159864","to":"1094159864.<android.text.SpannableStringInternal: java.lang.String mText>","type":"load","field":"<android.text.SpannableStringInternal: java.lang.String mText>"},{"step":59,"from":"1094159864.<android.text.SpannableStringInternal: java.lang.String mText>","to":"sdaReg132","type":"model"},{"step":60,"from":"1094159864","to":"1094159864.<android.text.SpannableStringInternal: java.lang.String mText>","type":"load","field":"<android.text.SpannableStringInternal: java.lang.String mText>"},{"step":61,"from":"1094159864.<android.text.SpannableStringInternal: java.lang.String mText>","to":"sdaReg136","type":"model"},{"step":62,"from":"1094159864","to":"1094159864.<android.text.SpannableStringInternal: java.lang.String mText>","type":"load","field":"<android.text.SpannableStringInternal: java.lang.String mText>"},{"step":63,"from":"1094159864.<android.text.SpannableStringInternal: java.lang.String mText>","to":"sdaReg138","type":"model"},{"step":64,"from":"sdaReg138","to":"1093463656","type":"model"},{"step":65,"from":"1094159864","to":"1094159864.<android.text.SpannableStringInternal: java.lang.String mText>","type":"load","field":"<android.text.SpannableStringInternal: java.lang.String mText>"},{"step":66,"from":"1094159864.<android.text.SpannableStringInternal: java.lang.String mText>","to":"sdaReg140","type":"model"},{"step":67,"from":"sdaReg140","to":"1093463656","type":"model"},{"step":68,"from":"1094159864","to":"1094159864.<android.text.SpannableStringInternal: java.lang.String mText>","type":"load","field":"<android.text.SpannableStringInternal: java.lang.String mText>"},{"step":69,"from":"1094159864.<android.text.SpannableStringInternal: java.lang.String mText>","to":"sdaReg142","type":"model"},{"step":70,"from":"sdaReg142","to":"1093463656","type":"model"},{"step":71,"from":"1094159864","to":"1094159864.<android.text.SpannableStringInternal: java.lang.String mText>","type":"load","field":"<android.text.SpannableStringInternal: java.lang.String mText>"},{"step":72,"from":"1094159864.<android.text.SpannableStringInternal: java.lang.String mText>","to":"sdaReg144","type":"model"},{"step":73,"from":"sdaReg144","to":"1093463656","type":"model"},{"step":74,"from":"1094159864","to":"1094159864.<android.text.SpannableStringInternal: java.lang.String mText>","type":"load","field":"<android.text.SpannableStringInternal: java.lang.String mText>"},{"step":75,"from":"1094159864.<android.text.SpannableStringInternal: java.lang.String mText>","to":"sdaReg146","type":"model"},{"step":76,"from":"sdaReg146","to":"1093463656","type":"model"},{"step":77,"from":"sdaReg150","to":"1093463656","type":"model"},{"step":78,"from":"1094159864","to":"1094159864.<android.text.SpannableStringInternal: int mSpanCount>","type":"load","field":"<android.text.SpannableStringInternal: int mSpanCount>"},{"step":79,"from":"1094159864","to":"1093445856","type":"load","field":"<android.text.SpannableStringInternal: java.lang.Object[] mSpans>"},{"step":80,"from":"1094159864","to":"1093794952","type":"load","field":"<android.text.SpannableStringInternal: int[] mSpanData>"},{"step":81,"from":"1094159864","to":"1094159864.<android.text.SpannableStringInternal: int mSpanCount>","type":"load","field":"<android.text.SpannableStringInternal: int mSpanCount>"},{"step":82,"from":"1094159864","to":"1093445856","type":"load","field":"<android.text.SpannableStringInternal: java.lang.Object[] mSpans>"},{"step":83,"from":"1094159864","to":"1093794952","type":"load","field":"<android.text.SpannableStringInternal: int[] mSpanData>"},{"step":84,"from":"1084661656","to":"sdaReg170","type":"model"},{"step":85,"from":"static.<com.android.internal.util.ArrayUtils: java.lang.Object[] sCache>","to":"1084375760","type":"load","field":"<com.android.internal.util.ArrayUtils: java.lang.Object[] sCache>"},{"step":86,"from":"1084375760","to":"1093528904","type":"load","field":"arrayIdx_int:26"},{"step":87,"from":"1093528904","to":"1085374624","type":"model"},{"step":88,"from":"1085374624","to":"1084661656","type":"model"},{"step":89,"from":"1094159864","to":"1094159864.<android.text.SpannableStringInternal: java.lang.String mText>","type":"load","field":"<android.text.SpannableStringInternal: java.lang.String mText>"},{"step":90,"from":"1094159864.<android.text.SpannableStringInternal: java.lang.String mText>","to":"sdaReg189","type":"model"},{"step":91,"from":"sdaReg189","to":"1093463656","type":"model"},{"step":92,"from":"1094159864","to":"1094159864.<android.text.SpannableStringInternal: java.lang.String mText>","type":"load","field":"<android.text.SpannableStringInternal: java.lang.String mText>"},{"step":93,"from":"1094159864.<android.text.SpannableStringInternal: java.lang.String mText>","to":"sdaReg191","type":"model"},{"step":94,"from":"sdaReg191","to":"1093463656","type":"model"},{"step":95,"from":"1094159864","to":"1094159864.<android.text.SpannableStringInternal: java.lang.String mText>","type":"load","field":"<android.text.SpannableStringInternal: java.lang.String mText>"},{"step":96,"from":"1094159864.<android.text.SpannableStringInternal: java.lang.String mText>","to":"sdaReg193","type":"model"},{"step":97,"from":"1094159864","to":"1094159864.<android.text.SpannableStringInternal: java.lang.String mText>","type":"load","field":"<android.text.SpannableStringInternal: java.lang.String mText>"},{"step":98,"from":"1094159864.<android.text.SpannableStringInternal: java.lang.String mText>","to":"sdaReg197","type":"model"},{"step":99,"from":"1094159864","to":"1094159864.<android.text.SpannableStringInternal: java.lang.String mText>","type":"load","field":"<android.text.SpannableStringInternal: java.lang.String mText>"},{"step":100,"from":"1094159864.<android.text.SpannableStringInternal: java.lang.String mText>","to":"sdaReg199","type":"model"},{"step":101,"from":"sdaReg199","to":"1093463656","type":"model"},{"step":102,"from":"1094159864","to":"1094159864.<android.text.SpannableStringInternal: java.lang.String mText>","type":"load","field":"<android.text.SpannableStringInternal: java.lang.String mText>"},{"step":103,"from":"1094159864.<android.text.SpannableStringInternal: java.lang.String mText>","to":"sdaReg201","type":"model"},{"step":104,"from":"sdaReg201","to":"1093463656","type":"model"},{"step":105,"from":"1094159864","to":"1094159864.<android.text.SpannableStringInternal: java.lang.String mText>","type":"load","field":"<android.text.SpannableStringInternal: java.lang.String mText>"},{"step":106,"from":"1094159864.<android.text.SpannableStringInternal: java.lang.String mText>","to":"sdaReg203","type":"model"},{"step":107,"from":"sdaReg203","to":"1093463656","type":"model"},{"step":108,"from":"1094159864","to":"1094159864.<android.text.SpannableStringInternal: java.lang.String mText>","type":"load","field":"<android.text.SpannableStringInternal: java.lang.String mText>"},{"step":109,"from":"1094159864.<android.text.SpannableStringInternal: java.lang.String mText>","to":"sdaReg205","type":"model"},{"step":110,"from":"sdaReg205","to":"1093463656","type":"model"},{"step":111,"from":"1094159864","to":"1094159864.<android.text.SpannableStringInternal: java.lang.String mText>","type":"load","field":"<android.text.SpannableStringInternal: java.lang.String mText>"},{"step":112,"from":"1094159864.<android.text.SpannableStringInternal: java.lang.String mText>","to":"sdaReg207","type":"model"},{"step":113,"from":"sdaReg207","to":"1093463656","type":"model"},{"step":114,"from":"1094159864","to":"1094159864.<android.text.SpannableStringInternal: java.lang.String mText>","type":"load","field":"<android.text.SpannableStringInternal: java.lang.String mText>"},{"step":115,"from":"1094159864.<android.text.SpannableStringInternal: java.lang.String mText>","to":"sdaReg209","type":"model"},{"step":116,"from":"sdaReg209","to":"1093463656","type":"model"},{"step":117,"from":"1094159864","to":"1094159864.<android.text.SpannableStringInternal: java.lang.String mText>","type":"load","field":"<android.text.SpannableStringInternal: java.lang.String mText>"},{"step":118,"from":"1094159864.<android.text.SpannableStringInternal: java.lang.String mText>","to":"sdaReg211","type":"model"},{"step":119,"from":"sdaReg211","to":"1093463656","type":"model"},{"step":120,"from":"1094159864","to":"1094159864.<android.text.SpannableStringInternal: java.lang.String mText>","type":"load","field":"<android.text.SpannableStringInternal: java.lang.String mText>"},{"step":121,"from":"1094159864.<android.text.SpannableStringInternal: java.lang.String mText>","to":"sdaReg213","type":"model"},{"step":122,"from":"sdaReg213","to":"1093463656","type":"model"},{"step":123,"from":"1094159864","to":"1094159864.<android.text.SpannableStringInternal: java.lang.String mText>","type":"load","field":"<android.text.SpannableStringInternal: java.lang.String mText>"},{"step":124,"from":"1094159864.<android.text.SpannableStringInternal: java.lang.String mText>","to":"sdaReg215","type":"model"},{"step":125,"from":"sdaReg215","to":"1093463656","type":"model"},{"step":126,"from":"sdaReg219","to":"1093463656","type":"model"},{"step":127,"from":"1094159864","to":"1094159864.<android.text.SpannableStringInternal: java.lang.String mText>","type":"load","field":"<android.text.SpannableStringInternal: java.lang.String mText>"}],"parameters":[{"id":"1093463656","name":"arg#0","klass":"java.lang.StringBuilder"},{"id":"1094159864","name":"arg#1","klass":"android.text.Spanned"}],"returns":[{"id":null,"name":"return","klass":null}],"colors":{"heapLocToColor":{"sdaReg191":[34, 1],"sdaReg125":[1],"sdaReg190":[1],"sdaReg126":[1, 21],"sdaReg193":[1, 35],"sdaReg127":[1],"sdaReg192":[1],"1084853880":[5, 9, 10],"sdaReg128":[1, 22],"sdaReg129":[1],"sdaReg199":[1, 37],"sdaReg198":[1],"sdaReg69":[0],"sdaReg66":[5],"sdaReg224":[1],"sdaReg195":[11],"sdaReg64":[5],"sdaReg225":[46],"sdaReg194":[11],"sdaReg65":[5],"sdaReg197":[1, 36],"sdaReg62":[5],"sdaReg196":[1],"sdaReg63":[5],"sdaReg221":[5],"sdaReg72":[11],"sdaReg71":[2, 11, 31],"sdaReg70":[1],"sdaReg12":[1],"sdaReg10":[1],"sdaReg19":[4],"sdaReg122":[1, 19],"sdaReg121":[1],"sdaReg124":[1, 20],"sdaReg123":[1],"sdaReg114":[5],"sdaReg115":[5],"sdaReg118":[0],"sdaReg119":[1],"sdaReg77":[1, 13],"sdaReg78":[1],"sdaReg79":[1, 14],"1093503856":[5, 9],"sdaReg215":[1, 45],"sdaReg74":[1],"sdaReg213":[1, 44],"sdaReg75":[1, 12],"sdaReg214":[1],"sdaReg76":[1],"sdaReg212":[1],"sdaReg81":[1, 15],"sdaReg211":[1, 43],"sdaReg80":[1],"sdaReg210":[1],"1094159864.<android.text.SpannableStringInternal: java.lang.Object[] mSpans>":[1],"sdaReg83":[2, 11, 31],"sdaReg82":[11],"1085268040":[5],"sdaReg113":[5],"sdaReg112":[5],"sdaReg111":[5],"1093463656":[0],"sdaReg107":[17, 5],"sdaReg108":[17, 18, 5],"sdaReg103":[16],"sdaReg104":[16],"sdaReg171":[32],"sdaReg105":[16],"sdaReg170":[32],"sdaReg106":[16],"sdaReg173":[32],"static.<com.android.internal.util.ArrayUtils: java.lang.Object[] sCache>":[5],"sdaReg86":[0],"sdaReg172":[32],"sdaReg87":[1],"sdaReg175":[17, 18, 5],"sdaReg174":[17, 5],"sdaReg177":[5],"sdaReg176":[5],"sdaReg179":[5],"sdaReg88":[11],"sdaReg178":[5],"sdaReg89":[1],"sdaReg94":[1],"sdaReg91":[1],"sdaReg182":[5],"sdaReg181":[5],"sdaReg180":[5],"sdaReg186":[1],"sdaReg185":[0],"sdaReg96":[1],"sdaReg189":[1, 33],"sdaReg188":[1],"sdaReg187":[11],"1093445856":[1],"sdaReg61":[5],"1093993560":[5],"1084375760.arrayIdx_int:26":[5],"1093528904":[5],"sdaReg169":[17, 18, 5],"sdaReg161":[1],"sdaReg162":[17, 18, 5],"sdaReg163":[1],"sdaReg164":[17, 18, 5],"sdaReg58":[5, 9, 10],"1094159864.<android.text.SpannableStringInternal: java.lang.String mText>":[1],"sdaReg57":[5, 9],"sdaReg56":[8],"sdaReg55":[8],"sdaReg54":[8],"sdaReg53":[8],"sdaReg159":[17, 18, 5],"sdaReg158":[1],"1084833288":[5, 6],"1084661656":[17, 18, 5],"sdaReg152":[2, 31],"sdaReg153":[0],"sdaReg156":[1],"sdaReg157":[17, 18, 5],"sdaReg154":[1],"sdaReg155":[2, 11, 31],"1084659448":[5, 6, 7],"sdaReg44":[1],"sdaReg46":[1],"sdaReg41":[1],"1093794952":[1],"1094159864":[1],"1094159864.<android.text.SpannableStringInternal: int[] mSpanData>":[1],"sdaReg200":[1],"sdaReg201":[1, 38],"1085374624":[17, 5],"sdaReg205":[1, 40],"sdaReg143":[1],"sdaReg204":[1],"sdaReg144":[1, 29],"sdaReg39":[1],"sdaReg38":[2],"sdaReg203":[1, 39],"sdaReg145":[1],"sdaReg202":[1],"sdaReg146":[1, 30],"sdaReg37":[1],"1084375760":[5],"sdaReg209":[1, 42],"sdaReg208":[1],"sdaReg140":[1, 27],"sdaReg207":[1, 41],"sdaReg141":[1],"sdaReg206":[1],"sdaReg142":[1, 28],"sdaReg31":[5],"sdaReg30":[5],"sdaReg36":[0],"sdaReg7":[1],"sdaReg4":[3],"sdaReg5":[1],"1094159864.<android.text.SpannableStringInternal: int mSpanCount>":[1],"sdaReg139":[1],"sdaReg138":[1, 26],"sdaReg137":[1],"sdaReg136":[1, 25],"sdaReg27":[5],"sdaReg135":[1],"sdaReg132":[1, 24],"sdaReg29":[5],"sdaReg28":[5],"sdaReg130":[1, 23],"sdaReg131":[1],"sdaReg3":[1],"sdaReg2":[2],"sdaReg1":[2],"sdaReg21":[4],"sdaReg0":[1],"sdaReg20":[4],"sdaReg23":[5, 6],"sdaReg22":[4],"sdaReg24":[5, 6, 7]},"colorToColor":{"1":[0],"5":[32],"17":[32],"19":[0],"18":[32],"21":[0],"20":[0],"23":[0],"22":[0],"27":[0],"26":[0],"29":[0],"28":[0],"30":[0],"34":[0],"33":[0],"38":[0],"39":[0],"37":[0],"42":[0],"43":[0],"40":[0],"41":[0],"44":[0],"45":[0]},"colorToLabel":{"0":"arg#0","1":"arg#1","5":"<com.android.internal.util.ArrayUtils: java.lang.Object[] sCache>","47":"return"}}}

Generated Model
	arg#1->arg#0

