Scanning method <java.util.Random: void setSeed(long)>

All seen event types: BinaryOperationRecord, StoreInstanceRecord, 
Ignored event types: 

JSON Encoded Analysis Data (for visualization):{"heapEdges":[{"step":0,"from":"sdaReg2","to":"1093384624","type":"store","field":"<java.util.Random: long seed>"},{"step":1,"from":"1093384624","to":"sdaReg3","type":"create","field":"<java.util.Random: boolean haveNextNextGaussian>"}],"parameters":[{"id":"1093384624","name":"this","klass":"java.util.Random"},{"id":"sdaReg0","name":"arg#1","klass":"long"}],"returns":[{"id":null,"name":"return","klass":null}],"colors":{"heapLocToColor":{"1093384624":[0],"sdaReg2":[1],"sdaReg1":[1],"sdaReg0":[1]},"colorToColor":{"1":[0]},"colorToLabel":{"0":"this","1":"arg#1","2":"return"}}}

Generated Model
	arg#1->this

