Scanning method <java.io.BufferedWriter: void flushInternal()>

All seen event types: LoadInstanceRecord, IfRecord, StoreInstanceRecord, 
Ignored event types: IfRecord, 

JSON Encoded Analysis Data (for visualization):{"heapEdges":[{"step":0,"from":"1093612176","to":"1093612176.<java.io.BufferedWriter: int pos>","type":"load","field":"<java.io.BufferedWriter: int pos>"},{"step":1,"from":"1093612176","to":"sdaReg0","type":"create","field":"<java.io.BufferedWriter: int pos>"}],"parameters":[{"id":"1093612176","name":"this","klass":"java.io.BufferedWriter"}],"returns":[{"id":null,"name":"return","klass":null}],"colors":{"heapLocToColor":{"1093612176":[0],"1093612176.<java.io.BufferedWriter: int pos>":[0]},"colorToColor":{},"colorToLabel":{"0":"this","1":"return"}}}

Generated Model

