Scanning method <java.net.InetSocketAddress: boolean isUnresolved()>

All seen event types: SimpleAssignmentRecord, LoadInstanceRecord, IfRecord, 
Ignored event types: IfRecord, 

JSON Encoded Analysis Data (for visualization):{"heapEdges":[],"parameters":[{"id":"1093310376","name":"this","klass":"java.net.InetSocketAddress"}],"returns":[{"id":"sdaReg0","name":"return","klass":"boolean"}],"colors":{"heapLocToColor":{"1093310376":[0]},"colorToColor":{},"colorToLabel":{"0":"this","1":"return"}}}

Generated Model

