Scanning method <java.io.ObjectInputStream: void verifyAndInit(java.io.ObjectStreamClass)>

All seen event types: BinaryOperationRecord, MethodReturnRecord, MethodCallRecord, MethodStartRecord, MethodEndRecord, IfRecord, 
Ignored event types: IfRecord, 

JSON Encoded Analysis Data (for visualization):{"heapEdges":[{"step":0,"from":"1093299576","to":"1093399144","type":"model"},{"step":1,"from":"1093399144","to":"1093565232","type":"model"},{"step":2,"from":"1093299576","to":"sdaReg2","type":"model"},{"step":3,"from":"1093565232","to":"sdaReg3","type":"model"},{"step":4,"from":"1093299576","to":"sdaReg5","type":"model"},{"step":5,"from":"sdaReg5","to":"sdaReg6","type":"model"},{"step":6,"from":"sdaReg5","to":"sdaReg9","type":"model"},{"step":7,"from":"sdaReg5","to":"sdaReg10","type":"model"},{"step":8,"from":"sdaReg9","to":"sdaReg5","type":"model"},{"step":9,"from":"sdaReg9","to":"sdaReg10","type":"model"},{"step":10,"from":"1093565232","to":"sdaReg11","type":"model"},{"step":11,"from":"sdaReg11","to":"sdaReg12","type":"model"},{"step":12,"from":"sdaReg11","to":"sdaReg15","type":"model"},{"step":13,"from":"sdaReg11","to":"sdaReg16","type":"model"},{"step":14,"from":"sdaReg15","to":"sdaReg11","type":"model"},{"step":15,"from":"sdaReg15","to":"sdaReg16","type":"model"},{"step":16,"from":"1093299576","to":"1093565232","type":"model"},{"step":17,"from":"1093565232","to":"1093299576","type":"model"}],"parameters":[{"id":"1093381560","name":"this","klass":"java.io.ObjectInputStream"},{"id":"1093299576","name":"arg#1","klass":"java.io.ObjectStreamClass"}],"returns":[{"id":null,"name":"return","klass":null}],"colors":{"heapLocToColor":{"1093299576":[1],"sdaReg8":[8],"sdaReg9":[1, 6, 7],"sdaReg6":[1, 6, 7],"sdaReg7":[8],"sdaReg4":[1, 3, 4, 5],"sdaReg5":[1, 6],"1093399144":[1, 2],"sdaReg13":[12],"sdaReg14":[12],"sdaReg11":[3, 10],"sdaReg12":[3, 10, 11],"sdaReg10":[1, 6, 9],"1093381560":[0],"sdaReg3":[3, 5],"sdaReg2":[1, 4],"sdaReg1":[3],"sdaReg0":[1, 2],"sdaReg17":[14],"1093565232":[1, 3],"sdaReg15":[3, 10, 11],"sdaReg16":[3, 10, 13]},"colorToColor":{"1":[1, 3, 6, 9],"2":[3],"3":[1, 3, 10, 13],"6":[1, 6, 9],"7":[1, 6, 9],"10":[3, 10, 13],"11":[3, 10, 13]},"colorToLabel":{"0":"this","1":"arg#1","15":"return"}}}

Generated Model

