Scanning method <java.io.ByteArrayInputStream: void <init>(byte[])>

All seen event types: MethodReturnRecord, MethodCallRecord, ArrayLengthRecord, MethodStartRecord, MethodEndRecord, StoreInstanceRecord, 
Ignored event types: 

JSON Encoded Analysis Data (for visualization):{"heapEdges":[{"step":0,"from":"1093593600","to":"sdaReg3","type":"create","field":"<java.io.ByteArrayInputStream: int mark>"},{"step":1,"from":"1093604240","to":"1093593600","type":"store","field":"<java.io.ByteArrayInputStream: byte[] buf>"},{"step":2,"from":"sdaReg4","to":"1093593600","type":"store","field":"<java.io.ByteArrayInputStream: int count>"}],"parameters":[{"id":"1093593600","name":"this","klass":"java.io.ByteArrayInputStream"},{"id":"1093604240","name":"arg#1","klass":"byte[]"}],"returns":[{"id":"1093593600","name":"return","klass":"java.io.ByteArrayInputStream"}],"colors":{"heapLocToColor":{"1093604240":[1],"1093593600":[0],"sdaReg2":[0],"sdaReg1":[0],"sdaReg0":[0]},"colorToColor":{"0":[2],"1":[0]},"colorToLabel":{"0":"this","1":"arg#1","2":"return"}}}

Generated Model
	this->return
	arg#1->this
	arg#1->return

