Scanning method <android.location.Location: int describeContents()>

All seen event types: 
Ignored event types: 

JSON Encoded Analysis Data (for visualization):{"heapEdges":[],"parameters":[{"id":"1093992832","name":"this","klass":"android.location.Location"}],"returns":[{"id":null,"name":"return","klass":"int"}],"colors":{"heapLocToColor":{"1093992832":[0]},"colorToColor":{},"colorToLabel":{"0":"this","1":"return"}}}

Generated Model

