Scanning method <java.util.HashMap$EntrySet: int size()>

All seen event types: LoadInstanceRecord, 
Ignored event types: 

JSON Encoded Analysis Data (for visualization):{"heapEdges":[{"step":0,"from":"1093333728","to":"1093559816","type":"load","field":"<java.util.HashMap$EntrySet: java.util.HashMap this$0>"},{"step":1,"from":"1093559816","to":"1093559816.<java.util.HashMap: int size>","type":"load","field":"<java.util.HashMap: int size>"}],"parameters":[{"id":"1093333728","name":"this","klass":"java.util.HashMap$EntrySet"}],"returns":[{"id":"1093559816.<java.util.HashMap: int size>","name":"return","klass":"int"}],"colors":{"heapLocToColor":{"1093333728":[0],"1093559816.<java.util.HashMap: int size>":[0],"1093559816":[0]},"colorToColor":{"0":[1]},"colorToLabel":{"0":"this","1":"return"}}}

Generated Model
	this->return

