Scanning method <android.location.Address: void setFeatureName(java.lang.String)>

All seen event types: StoreInstanceRecord, 
Ignored event types: 

JSON Encoded Analysis Data (for visualization):{"heapEdges":[{"step":0,"from":"sdaReg0","to":"1093781448","type":"store","field":"<android.location.Address: java.lang.String mFeatureName>"}],"parameters":[{"id":"1093781448","name":"this","klass":"android.location.Address"},{"id":"sdaReg0","name":"arg#1","klass":"string"}],"returns":[{"id":null,"name":"return","klass":null}],"colors":{"heapLocToColor":{"1093781448":[0],"sdaReg0":[1]},"colorToColor":{"1":[0]},"colorToLabel":{"0":"this","1":"arg#1","2":"return"}}}

Generated Model
	arg#1->this

