Scanning method <java.io.CharArrayWriter: void expand(int)>

All seen event types: NewArrayRecord, BinaryOperationRecord, MethodReturnRecord, MethodCallRecord, ArrayLengthRecord, LoadInstanceRecord, IfRecord, StoreInstanceRecord, 
Ignored event types: IfRecord, 

JSON Encoded Analysis Data (for visualization):{"heapEdges":[{"step":0,"from":"1093660032","to":"1093660032.<java.io.CharArrayWriter: int count>","type":"load","field":"<java.io.CharArrayWriter: int count>"},{"step":1,"from":"1093660032","to":"1093660056","type":"load","field":"<java.io.CharArrayWriter: char[] buf>"},{"step":2,"from":"1093660032","to":"1093660056","type":"load","field":"<java.io.CharArrayWriter: char[] buf>"},{"step":3,"from":"1093660032","to":"1093660032.<java.io.CharArrayWriter: int count>","type":"load","field":"<java.io.CharArrayWriter: int count>"},{"step":4,"from":"sdaReg4","to":"sdaReg5","type":"model"},{"step":5,"from":"sdaReg4","to":"sdaReg6","type":"model"},{"step":6,"from":"sdaReg5","to":"sdaReg4","type":"model"},{"step":7,"from":"sdaReg5","to":"sdaReg6","type":"model"},{"step":8,"from":"1093660032","to":"1093660056","type":"load","field":"<java.io.CharArrayWriter: char[] buf>"},{"step":9,"from":"1093660032","to":"1093660032.<java.io.CharArrayWriter: int count>","type":"load","field":"<java.io.CharArrayWriter: int count>"},{"step":10,"from":"1093660056","to":"1093660336","type":"model"},{"step":11,"from":"1093660032","to":"1093660336","type":"create","field":"<java.io.CharArrayWriter: char[] buf>"}],"parameters":[{"id":"1093660032","name":"this","klass":"java.io.CharArrayWriter"},{"id":"sdaReg0","name":"arg#1","klass":"int"}],"returns":[{"id":null,"name":"return","klass":null}],"colors":{"heapLocToColor":{"1093660056":[0],"sdaReg6":[2],"1093660336":[3],"1093660032.<java.io.CharArrayWriter: char[] buf>":[0],"1093660032.<java.io.CharArrayWriter: int count>":[0],"sdaReg5":[0, 1],"1093660032":[0],"sdaReg1":[0, 1],"sdaReg0":[1]},"colorToColor":{"0":[2, 3],"1":[2],"3":[0]},"colorToLabel":{"0":"this","1":"arg#1","4":"return"}}}

Generated Model

