Scanning method <java.io.CharArrayWriter: void expand(int)>

All seen event types: BinaryOperationRecord, ArrayLengthRecord, LoadInstanceRecord, IfRecord, 
Ignored event types: IfRecord, 

JSON Encoded Analysis Data (for visualization):{"heapEdges":[{"step":0,"from":"1093645984","to":"1093645984.<java.io.CharArrayWriter: int count>","type":"load","field":"<java.io.CharArrayWriter: int count>"},{"step":1,"from":"1093645984","to":"1093646008","type":"load","field":"<java.io.CharArrayWriter: char[] buf>"}],"parameters":[{"id":"1093645984","name":"this","klass":"java.io.CharArrayWriter"},{"id":"sdaReg0","name":"arg#1","klass":"int"}],"returns":[{"id":null,"name":"return","klass":null}],"colors":{"heapLocToColor":{"1093645984":[0],"1093646008":[0],"sdaReg1":[0, 1],"sdaReg0":[1],"1093645984.<java.io.CharArrayWriter: int count>":[0]},"colorToColor":{},"colorToLabel":{"0":"this","1":"arg#1","2":"return"}}}

Generated Model

