Scanning method <java.util.HashMap: java.util.Set entrySet()>

All seen event types: SimpleAssignmentRecord, LoadInstanceRecord, IfRecord, 
Ignored event types: IfRecord, 

JSON Encoded Analysis Data (for visualization):{"heapEdges":[{"step":0,"from":"1093249896","to":"1093310424","type":"load","field":"<java.util.HashMap: java.util.Set entrySet>"}],"parameters":[{"id":"1093249896","name":"this","klass":"java.util.HashMap"}],"returns":[{"id":"1093310424","name":"return","klass":"java.util.Set"}],"colors":{"heapLocToColor":{"1093310424":[0],"1093249896":[0]},"colorToColor":{"0":[1]},"colorToLabel":{"0":"this","1":"return"}}}

Generated Model
	this->return

