Scanning method <java.io.ObjectInputStream: java.lang.Object readObject(boolean)>

All seen event types: StoreArrayRecord, SimpleAssignmentRecord, LoadInstanceRecord, MethodStartRecord, IfRecord, StoreInstanceRecord, NewArrayRecord, LoadStaticRecord, BinaryOperationRecord, SwitchRecord, MethodCallRecord, MethodReturnRecord, ArrayLengthRecord, CastRecord, LoadArrayRecord, MethodEndRecord, 
Ignored event types: SwitchRecord, IfRecord, 

JSON Encoded Analysis Data (for visualization):{"heapEdges":[{"step":0,"from":"1093619504","to":"1093230200","type":"load","field":"<java.io.ObjectInputStream: java.io.InputStream primitiveData>"},{"step":1,"from":"1093619504","to":"1093551856","type":"load","field":"<java.io.ObjectInputStream: java.io.DataInputStream input>"},{"step":2,"from":"1093619504","to":"1093619504.<java.io.ObjectInputStream: boolean subclassOverridingImplementation>","type":"load","field":"<java.io.ObjectInputStream: boolean subclassOverridingImplementation>"},{"step":3,"from":"1093619504","to":"1093619504.<java.io.ObjectInputStream: int nestedLevels>","type":"load","field":"<java.io.ObjectInputStream: int nestedLevels>"},{"step":4,"from":"sdaReg3","to":"1093619504","type":"store","field":"<java.io.ObjectInputStream: int nestedLevels>"},{"step":5,"from":"1093219496","to":"1085582952","type":"load","field":"arrayIdx_int:0"},{"step":6,"from":"1085582952","to":"1083999984","type":"model"},{"step":7,"from":"static.<java.io.ObjectInputStream: java.lang.ClassLoader bootstrapLoader>","to":"1083999984","type":"load","field":"<java.io.ObjectInputStream: java.lang.ClassLoader bootstrapLoader>"},{"step":8,"from":"1093219496","to":"1085582952","type":"load","field":"arrayIdx_int:1"},{"step":9,"from":"1085582952","to":"1083999984","type":"model"},{"step":10,"from":"static.<java.io.ObjectInputStream: java.lang.ClassLoader bootstrapLoader>","to":"1083999984","type":"load","field":"<java.io.ObjectInputStream: java.lang.ClassLoader bootstrapLoader>"},{"step":11,"from":"1093219496","to":"1085582952","type":"load","field":"arrayIdx_int:2"},{"step":12,"from":"1085582952","to":"1083999984","type":"model"},{"step":13,"from":"static.<java.io.ObjectInputStream: java.lang.ClassLoader bootstrapLoader>","to":"1083999984","type":"load","field":"<java.io.ObjectInputStream: java.lang.ClassLoader bootstrapLoader>"},{"step":14,"from":"1093219496","to":"1085582952","type":"load","field":"arrayIdx_int:3"},{"step":15,"from":"1085582952","to":"1083999984","type":"model"},{"step":16,"from":"static.<java.io.ObjectInputStream: java.lang.ClassLoader bootstrapLoader>","to":"1083999984","type":"load","field":"<java.io.ObjectInputStream: java.lang.ClassLoader bootstrapLoader>"},{"step":17,"from":"1093219496","to":"1085582952","type":"load","field":"arrayIdx_int:4"},{"step":18,"from":"1085582952","to":"1083999984","type":"model"},{"step":19,"from":"static.<java.io.ObjectInputStream: java.lang.ClassLoader bootstrapLoader>","to":"1083999984","type":"load","field":"<java.io.ObjectInputStream: java.lang.ClassLoader bootstrapLoader>"},{"step":20,"from":"1093219496","to":"1093340104","type":"load","field":"arrayIdx_int:5"},{"step":21,"from":"1093340104","to":"1093291256","type":"model"},{"step":22,"from":"static.<java.io.ObjectInputStream: java.lang.ClassLoader bootstrapLoader>","to":"1083999984","type":"load","field":"<java.io.ObjectInputStream: java.lang.ClassLoader bootstrapLoader>"},{"step":23,"from":"static.<java.io.ObjectInputStream: java.lang.ClassLoader systemLoader>","to":"1083999760","type":"load","field":"<java.io.ObjectInputStream: java.lang.ClassLoader systemLoader>"},{"step":24,"from":"1093619504","to":"1093291256","type":"create","field":"<java.io.ObjectInputStream: java.lang.ClassLoader callerClassLoader>"},{"step":25,"from":"1093619504","to":"1093230200","type":"load","field":"<java.io.ObjectInputStream: java.io.InputStream primitiveData>"},{"step":26,"from":"1093619504","to":"1093551856","type":"load","field":"<java.io.ObjectInputStream: java.io.DataInputStream input>"},{"step":27,"from":"1093619504","to":"1093230200","type":"load","field":"<java.io.ObjectInputStream: java.io.InputStream primitiveData>"},{"step":28,"from":"1093230200","to":"1093230200.<java.io.ByteArrayInputStream: int count>","type":"load","field":"<java.io.ByteArrayInputStream: int count>"},{"step":29,"from":"1093230200","to":"1093230200.<java.io.ByteArrayInputStream: int pos>","type":"load","field":"<java.io.ByteArrayInputStream: int pos>"},{"step":30,"from":"1093619504","to":"1093619504.<java.io.ObjectInputStream: boolean hasPushbackTC>","type":"load","field":"<java.io.ObjectInputStream: boolean hasPushbackTC>"},{"step":31,"from":"1093619504","to":"1093551856","type":"load","field":"<java.io.ObjectInputStream: java.io.DataInputStream input>"},{"step":32,"from":"1093551856","to":"1093721784","type":"load","field":"<java.io.FilterInputStream: java.io.InputStream in>"},{"step":33,"from":"1093721784","to":"1093721784.<java.io.PipedInputStream: boolean isConnected>","type":"load","field":"<java.io.PipedInputStream: boolean isConnected>"},{"step":34,"from":"1093721784","to":"1093721824","type":"load","field":"<java.io.PipedInputStream: byte[] buffer>"},{"step":35,"from":"1093721784","to":"1093475720","type":"create","field":"<java.io.PipedInputStream: java.lang.Thread lastReader>"},{"step":36,"from":"1093721784","to":"1093721784.<java.io.PipedInputStream: int in>","type":"load","field":"<java.io.PipedInputStream: int in>"},{"step":37,"from":"1093721784","to":"1093721824","type":"load","field":"<java.io.PipedInputStream: byte[] buffer>"},{"step":38,"from":"1093721784","to":"1093721784.<java.io.PipedInputStream: int out>","type":"load","field":"<java.io.PipedInputStream: int out>"},{"step":39,"from":"sdaReg24","to":"1093721784","type":"store","field":"<java.io.PipedInputStream: int out>"},{"step":40,"from":"1093721824","to":"1093721824.arrayIdx_int:4","type":"load","field":"arrayIdx_int:4"},{"step":41,"from":"1093721784","to":"1093721824","type":"load","field":"<java.io.PipedInputStream: byte[] buffer>"},{"step":42,"from":"1093721784","to":"1093721784.<java.io.PipedInputStream: int in>","type":"load","field":"<java.io.PipedInputStream: int in>"},{"step":43,"from":"sdaReg27","to":"1093619504","type":"store","field":"<java.io.ObjectInputStream: byte pushbackTC>"},{"step":44,"from":"1093619504","to":"sdaReg29","type":"create","field":"<java.io.ObjectInputStream: boolean hasPushbackTC>"},{"step":45,"from":"1093619504","to":"1093230200","type":"load","field":"<java.io.ObjectInputStream: java.io.InputStream primitiveData>"},{"step":46,"from":"1093230200","to":"1093230200.<java.io.ByteArrayInputStream: int count>","type":"load","field":"<java.io.ByteArrayInputStream: int count>"},{"step":47,"from":"1093230200","to":"1093230200.<java.io.ByteArrayInputStream: int pos>","type":"load","field":"<java.io.ByteArrayInputStream: int pos>"},{"step":48,"from":"1093619504","to":"sdaReg33","type":"create","field":"<java.io.ObjectInputStream: boolean hasPushbackTC>"},{"step":49,"from":"1093619504","to":"1093551856","type":"load","field":"<java.io.ObjectInputStream: java.io.DataInputStream input>"},{"step":50,"from":"1093551856","to":"1093721784","type":"load","field":"<java.io.FilterInputStream: java.io.InputStream in>"},{"step":51,"from":"1093721784","to":"1093721784.<java.io.PipedInputStream: boolean isConnected>","type":"load","field":"<java.io.PipedInputStream: boolean isConnected>"},{"step":52,"from":"1093721784","to":"1093721824","type":"load","field":"<java.io.PipedInputStream: byte[] buffer>"},{"step":53,"from":"1093475720","to":"1093721784","type":"store","field":"<java.io.PipedInputStream: java.lang.Thread lastReader>"},{"step":54,"from":"1093721784","to":"1093721784.<java.io.PipedInputStream: int in>","type":"load","field":"<java.io.PipedInputStream: int in>"},{"step":55,"from":"1093721784","to":"1093721824","type":"load","field":"<java.io.PipedInputStream: byte[] buffer>"},{"step":56,"from":"sdaReg42","to":"1093721784","type":"store","field":"<java.io.PipedInputStream: int out>"},{"step":57,"from":"1093721824","to":"1093721824.arrayIdx_int:5","type":"load","field":"arrayIdx_int:5"},{"step":58,"from":"1093721784","to":"1093721824","type":"load","field":"<java.io.PipedInputStream: byte[] buffer>"},{"step":59,"from":"1093721784","to":"1093721784.<java.io.PipedInputStream: int in>","type":"load","field":"<java.io.PipedInputStream: int in>"},{"step":60,"from":"sdaReg45","to":"1093619504","type":"store","field":"<java.io.ObjectInputStream: byte pushbackTC>"},{"step":61,"from":"1093619504","to":"1093551856","type":"load","field":"<java.io.ObjectInputStream: java.io.DataInputStream input>"},{"step":62,"from":"1093551856","to":"1093619504","type":"store","field":"<java.io.ObjectInputStream: java.io.InputStream primitiveData>"},{"step":63,"from":"1093619504","to":"1093619504.<java.io.ObjectInputStream: int descriptorHandle>","type":"load","field":"<java.io.ObjectInputStream: int descriptorHandle>"},{"step":64,"from":"1093619504","to":"1093619504.<java.io.ObjectInputStream: int nextHandle>","type":"load","field":"<java.io.ObjectInputStream: int nextHandle>"},{"step":65,"from":"sdaReg50","to":"1093619504","type":"store","field":"<java.io.ObjectInputStream: int nextHandle>"},{"step":66,"from":"1093619504.<java.io.ObjectInputStream: int nextHandle>","to":"1093619504","type":"store","field":"<java.io.ObjectInputStream: int descriptorHandle>"},{"step":67,"from":"1093619504","to":"1093283136","type":"model"},{"step":68,"from":"1093619504","to":"1093548816","type":"load","field":"<java.io.ObjectInputStream: java.util.ArrayList objectsRead>"},{"step":69,"from":"1093548816","to":"1093548816.<java.util.ArrayList: int size>","type":"load","field":"<java.util.ArrayList: int size>"},{"step":70,"from":"1093619504","to":"1093548816","type":"load","field":"<java.io.ObjectInputStream: java.util.ArrayList objectsRead>"},{"step":71,"from":"1093548816","to":"1083994088","type":"load","field":"<java.util.ArrayList: java.lang.Object[] array>"},{"step":72,"from":"1093548816","to":"1093548816.<java.util.ArrayList: int size>","type":"load","field":"<java.util.ArrayList: int size>"},{"step":73,"from":"1083994088","to":"1093700752","type":"model"},{"step":74,"from":"1093548816","to":"1093700752","type":"create","field":"<java.util.ArrayList: java.lang.Object[] array>"},{"step":75,"from":"1093700752","to":"1093283136","type":"create","field":"arrayIdx_int:0"},{"step":76,"from":"sdaReg62","to":"1093548816","type":"store","field":"<java.util.ArrayList: int size>"},{"step":77,"from":"1093548816","to":"1093548816.<java.util.AbstractList: int modCount>","type":"load","field":"<java.util.AbstractList: int modCount>"},{"step":78,"from":"sdaReg63","to":"1093548816","type":"store","field":"<java.util.AbstractList: int modCount>"},{"step":79,"from":"1093619504.<java.io.ObjectInputStream: int descriptorHandle>","to":"1093619504","type":"store","field":"<java.io.ObjectInputStream: int descriptorHandle>"},{"step":80,"from":"1093619504","to":"1093230200","type":"load","field":"<java.io.ObjectInputStream: java.io.InputStream emptyStream>"},{"step":81,"from":"1093230200","to":"1093619504","type":"store","field":"<java.io.ObjectInputStream: java.io.InputStream primitiveData>"},{"step":82,"from":"1093283136","to":"1093660336","type":"model"},{"step":83,"from":"1093283136","to":"1093660336","type":"model"},{"step":84,"from":"1093660336","to":"1093283136","type":"model"},{"step":85,"from":"1093283136","to":"1093660336","type":"model"},{"step":86,"from":"1093660336","to":"1093283136","type":"model"},{"step":87,"from":"1093283136","to":"sdaReg73","type":"model"},{"step":88,"from":"1093283136","to":"sdaReg74","type":"model"},{"step":89,"from":"1093283136","to":"sdaReg76","type":"model"},{"step":90,"from":"sdaReg76","to":"sdaReg77","type":"model"},{"step":91,"from":"sdaReg76","to":"sdaReg80","type":"model"},{"step":92,"from":"sdaReg76","to":"sdaReg81","type":"model"},{"step":93,"from":"sdaReg80","to":"sdaReg76","type":"model"},{"step":94,"from":"sdaReg80","to":"sdaReg81","type":"model"},{"step":95,"from":"1093283136","to":"sdaReg82","type":"model"},{"step":96,"from":"sdaReg82","to":"sdaReg83","type":"model"},{"step":97,"from":"sdaReg82","to":"sdaReg86","type":"model"},{"step":98,"from":"sdaReg82","to":"sdaReg87","type":"model"},{"step":99,"from":"sdaReg86","to":"sdaReg82","type":"model"},{"step":100,"from":"sdaReg86","to":"sdaReg87","type":"model"},{"step":101,"from":"1093283136","to":"1093308352","type":"model"},{"step":102,"from":"1093283136","to":"1093660336","type":"model"},{"step":103,"from":"1093283136","to":"1093660336","type":"model"},{"step":104,"from":"1093660336","to":"1093291256","type":"model"},{"step":105,"from":"1093619504","to":"1093230200","type":"load","field":"<java.io.ObjectInputStream: java.io.InputStream emptyStream>"},{"step":106,"from":"1093230200","to":"1093619504","type":"store","field":"<java.io.ObjectInputStream: java.io.InputStream primitiveData>"},{"step":107,"from":"1093619504","to":"1093619504.<java.io.ObjectInputStream: boolean mustResolve>","type":"load","field":"<java.io.ObjectInputStream: boolean mustResolve>"},{"step":108,"from":"1093619504","to":"sdaReg100","type":"create","field":"<java.io.ObjectInputStream: boolean mustResolve>"},{"step":109,"from":"1093619504","to":"1093551856","type":"load","field":"<java.io.ObjectInputStream: java.io.DataInputStream input>"},{"step":110,"from":"1093551856","to":"1093721784","type":"load","field":"<java.io.FilterInputStream: java.io.InputStream in>"},{"step":111,"from":"1093721784","to":"1093721784.<java.io.PipedInputStream: boolean isConnected>","type":"load","field":"<java.io.PipedInputStream: boolean isConnected>"},{"step":112,"from":"1093721784","to":"1093721824","type":"load","field":"<java.io.PipedInputStream: byte[] buffer>"},{"step":113,"from":"1093475720","to":"1093721784","type":"store","field":"<java.io.PipedInputStream: java.lang.Thread lastReader>"},{"step":114,"from":"1093721784","to":"1093721784.<java.io.PipedInputStream: int in>","type":"load","field":"<java.io.PipedInputStream: int in>"},{"step":115,"from":"1093721784","to":"1093721824","type":"load","field":"<java.io.PipedInputStream: byte[] buffer>"},{"step":116,"from":"sdaReg106","to":"1093721784","type":"store","field":"<java.io.PipedInputStream: int out>"},{"step":117,"from":"1093721824","to":"1093721824.arrayIdx_int:6","type":"load","field":"arrayIdx_int:6"},{"step":118,"from":"1093721784","to":"1093721824","type":"load","field":"<java.io.PipedInputStream: byte[] buffer>"},{"step":119,"from":"1093721784","to":"1093721784.<java.io.PipedInputStream: int in>","type":"load","field":"<java.io.PipedInputStream: int in>"},{"step":120,"from":"sdaReg109","to":"1093619504","type":"store","field":"<java.io.ObjectInputStream: byte pushbackTC>"},{"step":121,"from":"1093619504.<java.io.ObjectInputStream: boolean mustResolve>","to":"1093619504","type":"store","field":"<java.io.ObjectInputStream: boolean mustResolve>"},{"step":122,"from":"1093619504","to":"1093551856","type":"load","field":"<java.io.ObjectInputStream: java.io.DataInputStream input>"},{"step":123,"from":"1093551856","to":"1093721784","type":"load","field":"<java.io.FilterInputStream: java.io.InputStream in>"},{"step":124,"from":"1093721784","to":"1093721784.<java.io.PipedInputStream: boolean isConnected>","type":"load","field":"<java.io.PipedInputStream: boolean isConnected>"},{"step":125,"from":"1093721784","to":"1093721824","type":"load","field":"<java.io.PipedInputStream: byte[] buffer>"},{"step":126,"from":"1093475720","to":"1093721784","type":"store","field":"<java.io.PipedInputStream: java.lang.Thread lastReader>"},{"step":127,"from":"1093721784","to":"1093721784.<java.io.PipedInputStream: int in>","type":"load","field":"<java.io.PipedInputStream: int in>"},{"step":128,"from":"1093721784","to":"1093721824","type":"load","field":"<java.io.PipedInputStream: byte[] buffer>"},{"step":129,"from":"sdaReg117","to":"1093721784","type":"store","field":"<java.io.PipedInputStream: int out>"},{"step":130,"from":"1093721824","to":"1093721824.arrayIdx_int:7","type":"load","field":"arrayIdx_int:7"},{"step":131,"from":"1093721784","to":"1093721824","type":"load","field":"<java.io.PipedInputStream: byte[] buffer>"},{"step":132,"from":"1093721784","to":"1093721784.<java.io.PipedInputStream: int in>","type":"load","field":"<java.io.PipedInputStream: int in>"},{"step":133,"from":"sdaReg120","to":"1093619504","type":"store","field":"<java.io.ObjectInputStream: byte pushbackTC>"},{"step":134,"from":"sdaReg129","to":"1093619504","type":"store","field":"<java.io.ObjectInputStream: int nextHandle>"},{"step":135,"from":"1093283136","to":"1093660336","type":"model"},{"step":136,"from":"1093283136","to":"1093660336","type":"model"},{"step":137,"from":"1093283136","to":"1094556336","type":"model"},{"step":138,"from":"1093660336","to":"1093283136","type":"model"},{"step":139,"from":"1093660336","to":"1094556336","type":"model"},{"step":140,"from":"1093619504","to":"1093548816","type":"load","field":"<java.io.ObjectInputStream: java.util.ArrayList objectsRead>"},{"step":141,"from":"1093619504","to":"1093548816","type":"load","field":"<java.io.ObjectInputStream: java.util.ArrayList objectsRead>"},{"step":142,"from":"1093700752","to":"1094556336","type":"create","field":"arrayIdx_int:1"},{"step":143,"from":"sdaReg143","to":"1093548816","type":"store","field":"<java.util.ArrayList: int size>"},{"step":144,"from":"sdaReg144","to":"1093548816","type":"store","field":"<java.util.AbstractList: int modCount>"},{"step":145,"from":"1094556336","to":"1093619504","type":"store","field":"<java.io.ObjectInputStream: java.lang.Object currentObject>"},{"step":146,"from":"1093283136","to":"1093619504","type":"store","field":"<java.io.ObjectInputStream: java.io.ObjectStreamClass currentClass>"},{"step":147,"from":"1093283136","to":"sdaReg146","type":"model"},{"step":148,"from":"1093283136","to":"sdaReg150","type":"model"},{"step":149,"from":"1094556336","to":"1093619504","type":"model"},{"step":150,"from":"1093619504","to":"1094556336","type":"model"},{"step":151,"from":"1093619504","to":"1093230200","type":"load","field":"<java.io.ObjectInputStream: java.io.InputStream emptyStream>"},{"step":152,"from":"1093230200","to":"1093619504","type":"store","field":"<java.io.ObjectInputStream: java.io.InputStream primitiveData>"},{"step":153,"from":"1093619504","to":"sdaReg156","type":"create","field":"<java.io.ObjectInputStream: boolean mustResolve>"},{"step":154,"from":"1093619504","to":"1093551856","type":"load","field":"<java.io.ObjectInputStream: java.io.DataInputStream input>"},{"step":155,"from":"1093551856","to":"1093721784","type":"load","field":"<java.io.FilterInputStream: java.io.InputStream in>"},{"step":156,"from":"1093721784","to":"1093721784.<java.io.PipedInputStream: boolean isConnected>","type":"load","field":"<java.io.PipedInputStream: boolean isConnected>"},{"step":157,"from":"1093721784","to":"1093721824","type":"load","field":"<java.io.PipedInputStream: byte[] buffer>"},{"step":158,"from":"1093475720","to":"1093721784","type":"store","field":"<java.io.PipedInputStream: java.lang.Thread lastReader>"},{"step":159,"from":"1093721784","to":"1093721784.<java.io.PipedInputStream: int in>","type":"load","field":"<java.io.PipedInputStream: int in>"},{"step":160,"from":"1093721784","to":"1093721824","type":"load","field":"<java.io.PipedInputStream: byte[] buffer>"},{"step":161,"from":"sdaReg162","to":"1093721784","type":"store","field":"<java.io.PipedInputStream: int out>"},{"step":162,"from":"1093721824","to":"1093721824.arrayIdx_int:14","type":"load","field":"arrayIdx_int:14"},{"step":163,"from":"1093721784","to":"1093721824","type":"load","field":"<java.io.PipedInputStream: byte[] buffer>"},{"step":164,"from":"1093721784","to":"1093721784.<java.io.PipedInputStream: int in>","type":"load","field":"<java.io.PipedInputStream: int in>"},{"step":165,"from":"sdaReg165","to":"1093619504","type":"store","field":"<java.io.ObjectInputStream: byte pushbackTC>"},{"step":166,"from":"sdaReg167","to":"1093619504","type":"store","field":"<java.io.ObjectInputStream: boolean mustResolve>"},{"step":167,"from":"1093619504","to":"sdaReg168","type":"create","field":"<java.io.ObjectInputStream: java.lang.Object currentObject>"},{"step":168,"from":"1093619504","to":"sdaReg169","type":"create","field":"<java.io.ObjectInputStream: java.io.ObjectStreamClass currentClass>"},{"step":169,"from":"1093283136","to":"sdaReg170","type":"model"},{"step":170,"from":"1093619504","to":"1093619504.<java.io.ObjectInputStream: boolean enableResolve>","type":"load","field":"<java.io.ObjectInputStream: boolean enableResolve>"},{"step":171,"from":"sdaReg173","to":"1093619504","type":"store","field":"<java.io.ObjectInputStream: int nestedLevels>"},{"step":172,"from":"1093619504","to":"sdaReg174","type":"create","field":"<java.io.ObjectInputStream: java.lang.ClassLoader callerClassLoader>"}],"parameters":[{"id":"1093619504","name":"this","klass":"java.io.ObjectInputStream"},{"id":"sdaReg0","name":"arg#1","klass":"boolean"}],"returns":[{"id":"1094556336","name":"return","klass":"java.lang.Object"}],"colors":{"heapLocToColor":{"sdaReg125":[23],"sdaReg126":[0, 8],"sdaReg127":[0, 8],"1093619504.<java.io.ObjectInputStream: boolean enableResolve>":[0, 8, 24],"sdaReg128":[0],"1093475720":[7],"static.<java.io.ObjectInputStream: java.lang.ClassLoader bootstrapLoader>":[2, 3, 4],"sdaReg68":[0, 8, 10],"sdaReg69":[0],"sdaReg66":[0, 8],"sdaReg67":[0, 8, 10],"sdaReg65":[0],"1093619504.<java.io.ObjectInputStream: int nextHandle>":[0],"sdaReg62":[0],"sdaReg63":[0],"sdaReg13":[2, 5],"sdaReg72":[0, 8],"sdaReg14":[2, 5],"sdaReg71":[0, 8, 10],"sdaReg11":[2, 3, 4],"sdaReg70":[0, 8],"sdaReg12":[2, 3, 4],"sdaReg10":[2, 3, 4],"sdaReg120":[0],"sdaReg17":[0],"sdaReg18":[0],"sdaReg15":[0],"sdaReg123":[0, 8],"1093721824":[0, 8, 24],"sdaReg16":[0],"1093230200":[0, 8, 24],"sdaReg114":[0],"sdaReg115":[7],"sdaReg118":[0],"sdaReg77":[0, 8, 13, 14],"1083999760":[6],"sdaReg78":[15],"sdaReg79":[15],"sdaReg73":[0, 8, 11],"sdaReg74":[0, 8, 12],"sdaReg75":[0, 8, 11, 12],"sdaReg76":[0, 8, 13],"1093619504.<java.io.ObjectInputStream: java.io.InputStream primitiveData>":[0],"1093340104":[2],"sdaReg81":[0, 16, 8, 13],"sdaReg80":[0, 8, 13, 14],"1093721784":[0, 8, 24],"sdaReg83":[17, 0, 18, 8],"sdaReg82":[0, 17, 8],"1083994088":[0],"1093619504.<java.io.ObjectInputStream: boolean mustResolve>":[0],"1093548816.<java.util.ArrayList: int size>":[0],"sdaReg113":[0],"sdaReg112":[0],"sdaReg111":[0],"sdaReg107":[0],"sdaReg109":[0],"sdaReg103":[0],"sdaReg104":[7],"sdaReg171":[0, 8, 24],"sdaReg170":[0, 8, 27],"1094556336":[0, 8, 24],"sdaReg86":[0, 17, 18, 8],"sdaReg172":[0, 8, 24],"sdaReg87":[17, 0, 20, 8],"sdaReg84":[19],"sdaReg85":[19],"sdaReg88":[21],"sdaReg89":[0, 22, 8],"sdaReg90":[0, 22, 8],"1093219496.arrayIdx_int:4":[2],"sdaReg94":[0, 2, 5, 8, 10],"1093219496.arrayIdx_int:2":[2],"sdaReg93":[0, 8, 10],"1093219496.arrayIdx_int:3":[2],"sdaReg92":[0, 8, 10],"sdaReg91":[0, 22, 8],"1093219496.arrayIdx_int:1":[2],"1093619504":[0, 8, 24],"1093721824.arrayIdx_int:4":[0],"sdaReg102":[0],"1093291256":[0, 2, 5, 8, 10],"sdaReg101":[0],"1093548816.<java.util.AbstractList: int modCount>":[0],"1093721824.arrayIdx_int:6":[0],"1093721824.arrayIdx_int:5":[0],"1093308352":[0, 22, 8],"1085582952":[2],"1093721824.arrayIdx_int:7":[0],"sdaReg95":[0, 2, 5, 8, 10],"sdaReg96":[0, 22, 8],"1093619504.<java.io.ObjectInputStream: boolean hasPushbackTC>":[0],"sdaReg99":[0],"1093721824.arrayIdx_int:14":[0, 8, 24],"1093700752":[9],"1093283136":[0, 8],"sdaReg61":[0],"1093619504.<java.io.ObjectInputStream: java.util.ArrayList objectsRead>":[0],"sdaReg163":[0, 8, 24],"sdaReg165":[0, 8, 24],"sdaReg58":[0, 8],"sdaReg57":[0],"sdaReg56":[0],"sdaReg53":[0, 8],"sdaReg52":[0],"sdaReg160":[7],"sdaReg51":[0, 8],"sdaReg50":[0],"sdaReg159":[0, 8, 24],"sdaReg158":[0, 8, 24],"1093721784.<java.io.PipedInputStream: int in>":[0, 8, 24],"1093619504.<java.io.ObjectInputStream: int descriptorHandle>":[0],"sdaReg150":[0, 8, 26],"sdaReg151":[0, 8, 26],"sdaReg49":[0],"sdaReg157":[0, 8, 24],"1093660336":[0, 8, 10],"sdaReg154":[0, 8, 24],"sdaReg155":[0, 8, 24],"sdaReg45":[0],"sdaReg47":[0],"1093619504.<java.io.ObjectInputStream: int nestedLevels>":[0],"sdaReg40":[7],"sdaReg43":[0],"1093619504.<java.io.ObjectInputStream: java.io.InputStream emptyStream>":[0],"sdaReg147":[0, 25, 8],"sdaReg39":[0],"sdaReg38":[0],"1093551856.<java.io.FilterInputStream: java.io.InputStream in>":[0],"sdaReg146":[0, 8, 25],"sdaReg37":[0],"sdaReg140":[0],"sdaReg141":[0, 8, 24],"1093230200.<java.io.ByteArrayInputStream: int pos>":[0],"static.<java.io.ObjectInputStream: java.lang.ClassLoader systemLoader>":[6],"1093230200.<java.io.ByteArrayInputStream: int count>":[0],"sdaReg32":[0],"1083999984":[2, 3, 4],"sdaReg31":[0],"1093548816":[0],"sdaReg30":[0],"sdaReg36":[0],"sdaReg35":[0],"1093721784.<java.io.PipedInputStream: byte[] buffer>":[0, 8, 24],"sdaReg8":[2, 3],"sdaReg9":[2, 3, 4],"1093721784.<java.io.PipedInputStream: int out>":[0],"1093619504.<java.io.ObjectInputStream: java.io.DataInputStream input>":[0],"sdaReg4":[2],"sdaReg5":[2],"1093219496":[2],"1093551856":[0, 8, 24],"sdaReg138":[0],"1093721784.<java.io.PipedInputStream: boolean isConnected>":[0, 8, 24],"sdaReg136":[0, 8, 24],"sdaReg134":[0, 8, 24],"sdaReg27":[0],"sdaReg135":[0],"sdaReg133":[0, 8, 24],"sdaReg28":[0],"sdaReg131":[0, 8, 10],"sdaReg3":[0],"1093619504.<java.io.ObjectInputStream: boolean subclassOverridingImplementation>":[0],"sdaReg21":[0],"sdaReg20":[0],"sdaReg0":[1],"sdaReg22":[7],"sdaReg25":[0],"sdaReg24":[0]},"colorToColor":{"17":[17, 0, 20, 8],"0":[17, 0, 16, 20, 8, 24, 9, 28, 13],"2":[0],"18":[17, 0, 20, 8],"5":[0],"7":[0, 8, 24],"8":[17, 0, 16, 20, 8, 24, 9, 28, 13],"24":[0, 8, 24, 9, 28],"9":[0],"10":[0, 8, 24],"13":[0, 16, 8, 13],"14":[0, 16, 8, 13]},"colorToLabel":{"0":"this","1":"arg#1","4":"<java.io.ObjectInputStream: java.lang.ClassLoader bootstrapLoader>","6":"<java.io.ObjectInputStream: java.lang.ClassLoader systemLoader>","28":"return"}}}

Generated Model
	this->return

