Scanning method <java.io.ObjectInputStream: java.lang.Object readObject(boolean)>

All seen event types: StoreArrayRecord, SimpleAssignmentRecord, LoadInstanceRecord, MethodStartRecord, IfRecord, NewObjectRecord, StoreInstanceRecord, NewArrayRecord, LoadStaticRecord, BinaryOperationRecord, SwitchRecord, MethodCallRecord, MethodReturnRecord, ArrayLengthRecord, CastRecord, LoadArrayRecord, MethodEndRecord, 
Ignored event types: SwitchRecord, IfRecord, 

JSON Encoded Analysis Data (for visualization):{"heapEdges":[{"step":0,"from":"1093619504","to":"1093230200","type":"load","field":"<java.io.ObjectInputStream: java.io.InputStream primitiveData>"},{"step":1,"from":"1093619504","to":"1093551856","type":"load","field":"<java.io.ObjectInputStream: java.io.DataInputStream input>"},{"step":2,"from":"1093619504","to":"1093619504.<java.io.ObjectInputStream: boolean subclassOverridingImplementation>","type":"load","field":"<java.io.ObjectInputStream: boolean subclassOverridingImplementation>"},{"step":3,"from":"1093619504","to":"1093619504.<java.io.ObjectInputStream: int nestedLevels>","type":"load","field":"<java.io.ObjectInputStream: int nestedLevels>"},{"step":4,"from":"sdaReg3","to":"1093619504","type":"store","field":"<java.io.ObjectInputStream: int nestedLevels>"},{"step":5,"from":"1094882336","to":"1085582952","type":"load","field":"arrayIdx_int:0"},{"step":6,"from":"1085582952","to":"1083999984","type":"model"},{"step":7,"from":"static.<java.io.ObjectInputStream: java.lang.ClassLoader bootstrapLoader>","to":"1083999984","type":"load","field":"<java.io.ObjectInputStream: java.lang.ClassLoader bootstrapLoader>"},{"step":8,"from":"1094882336","to":"1085582952","type":"load","field":"arrayIdx_int:1"},{"step":9,"from":"1085582952","to":"1083999984","type":"model"},{"step":10,"from":"static.<java.io.ObjectInputStream: java.lang.ClassLoader bootstrapLoader>","to":"1083999984","type":"load","field":"<java.io.ObjectInputStream: java.lang.ClassLoader bootstrapLoader>"},{"step":11,"from":"1094882336","to":"1085582952","type":"load","field":"arrayIdx_int:2"},{"step":12,"from":"1085582952","to":"1083999984","type":"model"},{"step":13,"from":"static.<java.io.ObjectInputStream: java.lang.ClassLoader bootstrapLoader>","to":"1083999984","type":"load","field":"<java.io.ObjectInputStream: java.lang.ClassLoader bootstrapLoader>"},{"step":14,"from":"1094882336","to":"1085582952","type":"load","field":"arrayIdx_int:3"},{"step":15,"from":"1085582952","to":"1083999984","type":"model"},{"step":16,"from":"static.<java.io.ObjectInputStream: java.lang.ClassLoader bootstrapLoader>","to":"1083999984","type":"load","field":"<java.io.ObjectInputStream: java.lang.ClassLoader bootstrapLoader>"},{"step":17,"from":"1094882336","to":"1085582952","type":"load","field":"arrayIdx_int:4"},{"step":18,"from":"1085582952","to":"1083999984","type":"model"},{"step":19,"from":"static.<java.io.ObjectInputStream: java.lang.ClassLoader bootstrapLoader>","to":"1083999984","type":"load","field":"<java.io.ObjectInputStream: java.lang.ClassLoader bootstrapLoader>"},{"step":20,"from":"1094882336","to":"1093340104","type":"load","field":"arrayIdx_int:5"},{"step":21,"from":"1093340104","to":"1093291256","type":"model"},{"step":22,"from":"static.<java.io.ObjectInputStream: java.lang.ClassLoader bootstrapLoader>","to":"1083999984","type":"load","field":"<java.io.ObjectInputStream: java.lang.ClassLoader bootstrapLoader>"},{"step":23,"from":"static.<java.io.ObjectInputStream: java.lang.ClassLoader systemLoader>","to":"1083999760","type":"load","field":"<java.io.ObjectInputStream: java.lang.ClassLoader systemLoader>"},{"step":24,"from":"1093619504","to":"1093291256","type":"create","field":"<java.io.ObjectInputStream: java.lang.ClassLoader callerClassLoader>"},{"step":25,"from":"1093619504","to":"1093230200","type":"load","field":"<java.io.ObjectInputStream: java.io.InputStream primitiveData>"},{"step":26,"from":"1093619504","to":"1093551856","type":"load","field":"<java.io.ObjectInputStream: java.io.DataInputStream input>"},{"step":27,"from":"1093619504","to":"1093230200","type":"load","field":"<java.io.ObjectInputStream: java.io.InputStream primitiveData>"},{"step":28,"from":"1093230200","to":"1093230200.<java.io.ByteArrayInputStream: int count>","type":"load","field":"<java.io.ByteArrayInputStream: int count>"},{"step":29,"from":"1093230200","to":"1093230200.<java.io.ByteArrayInputStream: int pos>","type":"load","field":"<java.io.ByteArrayInputStream: int pos>"},{"step":30,"from":"1093619504","to":"1093619504.<java.io.ObjectInputStream: boolean hasPushbackTC>","type":"load","field":"<java.io.ObjectInputStream: boolean hasPushbackTC>"},{"step":31,"from":"1093619504","to":"1093551856","type":"load","field":"<java.io.ObjectInputStream: java.io.DataInputStream input>"},{"step":32,"from":"1093551856","to":"1093721784","type":"load","field":"<java.io.FilterInputStream: java.io.InputStream in>"},{"step":33,"from":"1093721784","to":"1093721784.<java.io.PipedInputStream: boolean isConnected>","type":"load","field":"<java.io.PipedInputStream: boolean isConnected>"},{"step":34,"from":"1093721784","to":"1093721824","type":"load","field":"<java.io.PipedInputStream: byte[] buffer>"},{"step":35,"from":"1093721784","to":"1093475720","type":"create","field":"<java.io.PipedInputStream: java.lang.Thread lastReader>"},{"step":36,"from":"1093721784","to":"1093721784.<java.io.PipedInputStream: int in>","type":"load","field":"<java.io.PipedInputStream: int in>"},{"step":37,"from":"1093721784","to":"1093721824","type":"load","field":"<java.io.PipedInputStream: byte[] buffer>"},{"step":38,"from":"1093721784","to":"1093721784.<java.io.PipedInputStream: int out>","type":"load","field":"<java.io.PipedInputStream: int out>"},{"step":39,"from":"sdaReg24","to":"1093721784","type":"store","field":"<java.io.PipedInputStream: int out>"},{"step":40,"from":"1093721824","to":"1093721824.arrayIdx_int:15","type":"load","field":"arrayIdx_int:15"},{"step":41,"from":"1093721784","to":"1093721824","type":"load","field":"<java.io.PipedInputStream: byte[] buffer>"},{"step":42,"from":"1093721784","to":"1093721784.<java.io.PipedInputStream: int in>","type":"load","field":"<java.io.PipedInputStream: int in>"},{"step":43,"from":"sdaReg27","to":"1093619504","type":"store","field":"<java.io.ObjectInputStream: byte pushbackTC>"},{"step":44,"from":"1093619504","to":"sdaReg29","type":"create","field":"<java.io.ObjectInputStream: boolean hasPushbackTC>"},{"step":45,"from":"1093619504","to":"1093230200","type":"load","field":"<java.io.ObjectInputStream: java.io.InputStream primitiveData>"},{"step":46,"from":"1093230200","to":"1093230200.<java.io.ByteArrayInputStream: int count>","type":"load","field":"<java.io.ByteArrayInputStream: int count>"},{"step":47,"from":"1093230200","to":"1093230200.<java.io.ByteArrayInputStream: int pos>","type":"load","field":"<java.io.ByteArrayInputStream: int pos>"},{"step":48,"from":"1093619504","to":"sdaReg33","type":"create","field":"<java.io.ObjectInputStream: boolean hasPushbackTC>"},{"step":49,"from":"1093619504","to":"1093551856","type":"load","field":"<java.io.ObjectInputStream: java.io.DataInputStream input>"},{"step":50,"from":"1093551856","to":"1093721784","type":"load","field":"<java.io.FilterInputStream: java.io.InputStream in>"},{"step":51,"from":"1093551856","to":"1093329040","type":"load","field":"<java.io.DataInputStream: byte[] scratch>"},{"step":52,"from":"1093721784","to":"1093329040","type":"model"},{"step":53,"from":"1093551856","to":"1093329040","type":"load","field":"<java.io.DataInputStream: byte[] scratch>"},{"step":54,"from":"static.<java.nio.ByteOrder: java.nio.ByteOrder BIG_ENDIAN>","to":"1084339448","type":"load","field":"<java.nio.ByteOrder: java.nio.ByteOrder BIG_ENDIAN>"},{"step":55,"from":"1093329040","to":"sdaReg39","type":"model"},{"step":56,"from":"1093551856","to":"1093721784","type":"load","field":"<java.io.FilterInputStream: java.io.InputStream in>"},{"step":57,"from":"1093721784","to":"1095457864","type":"model"},{"step":58,"from":"1095457864","to":"1095457864.arrayIdx_int:0","type":"load","field":"arrayIdx_int:0"},{"step":59,"from":"sdaReg53","to":"1093382816","type":"store","field":"arrayIdx_int:0"},{"step":60,"from":"1095457864","to":"1095457864.arrayIdx_int:1","type":"load","field":"arrayIdx_int:1"},{"step":61,"from":"sdaReg53","to":"1093382816","type":"store","field":"arrayIdx_int:1"},{"step":62,"from":"1095457864","to":"1095457864.arrayIdx_int:2","type":"load","field":"arrayIdx_int:2"},{"step":63,"from":"sdaReg53","to":"1093382816","type":"store","field":"arrayIdx_int:2"},{"step":64,"from":"1095457864","to":"1095457864.arrayIdx_int:3","type":"load","field":"arrayIdx_int:3"},{"step":65,"from":"sdaReg53","to":"1093382816","type":"store","field":"arrayIdx_int:3"},{"step":66,"from":"1093382816","to":"sdaReg54","type":"model"},{"step":67,"from":"1093619504","to":"1093619504.<java.io.ObjectInputStream: boolean enableResolve>","type":"load","field":"<java.io.ObjectInputStream: boolean enableResolve>"},{"step":68,"from":"1093619504","to":"1093619504.<java.io.ObjectInputStream: int nextHandle>","type":"load","field":"<java.io.ObjectInputStream: int nextHandle>"},{"step":69,"from":"sdaReg57","to":"1093619504","type":"store","field":"<java.io.ObjectInputStream: int nextHandle>"},{"step":70,"from":"1093619504","to":"1093548816","type":"load","field":"<java.io.ObjectInputStream: java.util.ArrayList objectsRead>"},{"step":71,"from":"1093548816","to":"1093548816.<java.util.ArrayList: int size>","type":"load","field":"<java.util.ArrayList: int size>"},{"step":72,"from":"1093619504","to":"1093548816","type":"load","field":"<java.io.ObjectInputStream: java.util.ArrayList objectsRead>"},{"step":73,"from":"1093548816","to":"1093700752","type":"load","field":"<java.util.ArrayList: java.lang.Object[] array>"},{"step":74,"from":"1093548816","to":"1093548816.<java.util.ArrayList: int size>","type":"load","field":"<java.util.ArrayList: int size>"},{"step":75,"from":"1095286968","to":"1093700752","type":"store","field":"arrayIdx_int:2"},{"step":76,"from":"sdaReg65","to":"1093548816","type":"store","field":"<java.util.ArrayList: int size>"},{"step":77,"from":"1093548816","to":"1093548816.<java.util.AbstractList: int modCount>","type":"load","field":"<java.util.AbstractList: int modCount>"},{"step":78,"from":"sdaReg66","to":"1093548816","type":"store","field":"<java.util.AbstractList: int modCount>"},{"step":79,"from":"sdaReg70","to":"1093619504","type":"store","field":"<java.io.ObjectInputStream: int nestedLevels>"},{"step":80,"from":"1093619504","to":"sdaReg71","type":"create","field":"<java.io.ObjectInputStream: java.lang.ClassLoader callerClassLoader>"}],"parameters":[{"id":"1093619504","name":"this","klass":"java.io.ObjectInputStream"},{"id":"sdaReg0","name":"arg#1","klass":"boolean"}],"returns":[{"id":"1095286968","name":"return","klass":"java.lang.Object"}],"colors":{"heapLocToColor":{"sdaReg60":[0],"sdaReg61":[0],"1093619504.<java.io.ObjectInputStream: boolean enableResolve>":[0],"1093475720":[7],"static.<java.io.ObjectInputStream: java.lang.ClassLoader bootstrapLoader>":[2, 3, 4],"sdaReg66":[0],"1093382816":[11],"1094882336":[2],"sdaReg65":[0],"sdaReg62":[0],"1093619504.<java.io.ObjectInputStream: int nextHandle>":[0],"1093619504.<java.io.ObjectInputStream: java.util.ArrayList objectsRead>":[0],"sdaReg13":[2, 5],"sdaReg14":[2, 5],"sdaReg11":[2, 3, 4],"sdaReg12":[2, 3, 4],"sdaReg10":[2, 3, 4],"sdaReg58":[0],"sdaReg57":[0],"sdaReg56":[0],"sdaReg54":[12],"static.<java.nio.ByteOrder: java.nio.ByteOrder BIG_ENDIAN>":[8],"sdaReg17":[0],"sdaReg53":[10],"sdaReg18":[0],"1093329040":[0],"sdaReg15":[0],"sdaReg16":[0],"1093721824":[0],"1093230200":[0],"1095457864.arrayIdx_int:3":[10],"1094882336.arrayIdx_int:4":[2],"1083999760":[6],"1094882336.arrayIdx_int:2":[2],"1094882336.arrayIdx_int:3":[2],"1094882336.arrayIdx_int:1":[2],"1093721784.<java.io.PipedInputStream: int in>":[0],"1093340104":[2],"1093619504.<java.io.ObjectInputStream: java.io.InputStream primitiveData>":[0],"1093721784":[0],"1093548816.<java.util.ArrayList: int size>":[0],"sdaReg44":[10],"sdaReg47":[11],"sdaReg46":[10],"1093619504.<java.io.ObjectInputStream: int nestedLevels>":[0],"sdaReg41":[0],"sdaReg40":[9],"sdaReg43":[0],"sdaReg42":[0],"sdaReg39":[9],"1093551856.<java.io.FilterInputStream: java.io.InputStream in>":[0],"sdaReg38":[0],"sdaReg37":[0],"static.<java.io.ObjectInputStream: java.lang.ClassLoader systemLoader>":[6],"1093230200.<java.io.ByteArrayInputStream: int pos>":[0],"1093230200.<java.io.ByteArrayInputStream: int count>":[0],"sdaReg32":[0],"1093619504":[0],"1093548816":[0],"1095457864.arrayIdx_int:0":[10],"sdaReg31":[0],"1083999984":[2, 3, 4],"1095457864.arrayIdx_int:1":[10],"sdaReg30":[0],"1093291256":[2, 5],"1095457864.arrayIdx_int:2":[10],"sdaReg36":[0],"sdaReg35":[0],"1093721784.<java.io.PipedInputStream: byte[] buffer>":[0],"1093548816.<java.util.AbstractList: int modCount>":[0],"sdaReg8":[2, 3],"sdaReg9":[2, 3, 4],"1093619504.<java.io.ObjectInputStream: java.io.DataInputStream input>":[0],"1093721784.<java.io.PipedInputStream: int out>":[0],"sdaReg4":[2],"1085582952":[2],"sdaReg5":[2],"1093619504.<java.io.ObjectInputStream: boolean hasPushbackTC>":[0],"1093551856":[0],"1095457864":[10],"1093721784.<java.io.PipedInputStream: boolean isConnected>":[0],"sdaReg27":[0],"sdaReg28":[0],"1084339448":[8],"1093721824.arrayIdx_int:15":[0],"sdaReg3":[0],"1093551856.<java.io.DataInputStream: byte[] scratch>":[0],"1093619504.<java.io.ObjectInputStream: boolean subclassOverridingImplementation>":[0],"sdaReg21":[0],"1093700752":[0],"sdaReg0":[1],"sdaReg20":[0],"sdaReg22":[7],"sdaReg25":[0],"sdaReg24":[0]},"colorToColor":{"0":[0, 9, 10],"2":[0],"5":[0],"7":[0],"10":[11],"11":[12]},"colorToLabel":{"0":"this","1":"arg#1","4":"<java.io.ObjectInputStream: java.lang.ClassLoader bootstrapLoader>","6":"<java.io.ObjectInputStream: java.lang.ClassLoader systemLoader>","8":"<java.nio.ByteOrder: java.nio.ByteOrder BIG_ENDIAN>","13":"return"}}}

Generated Model

