Scanning method <java.net.InetAddress: java.net.InetAddress getByName(java.lang.String)>

All seen event types: StoreArrayRecord, SimpleAssignmentRecord, MethodStartRecord, IfRecord, NewObjectRecord, StoreInstanceRecord, InstanceOfRecord, LoadStaticRecord, NewArrayRecord, MethodCallRecord, MethodReturnRecord, LoadArrayRecord, MethodEndRecord, 
Ignored event types: IfRecord, 

JSON Encoded Analysis Data (for visualization):{"heapEdges":[{"step":0,"from":"static.<libcore.io.OsConstants: int AI_NUMERICHOST>","to":"static.<libcore.io.OsConstants: int AI_NUMERICHOST>","type":"load","field":"<libcore.io.OsConstants: int AI_NUMERICHOST>"},{"step":1,"from":"static.<libcore.io.OsConstants: int AI_NUMERICHOST>","to":"1093667992","type":"store","field":"<libcore.io.StructAddrinfo: int ai_flags>"},{"step":2,"from":"static.<libcore.io.Libcore: libcore.io.Os os>","to":"1083982784","type":"load","field":"<libcore.io.Libcore: libcore.io.Os os>"},{"step":3,"from":"1093667992","to":"1093668240","type":"model"},{"step":4,"from":"sdaReg0","to":"1093668240","type":"model"},{"step":5,"from":"1093668240","to":"1093668328","type":"load","field":"arrayIdx_int:0"},{"step":6,"from":"static.<libcore.io.Libcore: libcore.io.Os os>","to":"1083982784","type":"load","field":"<libcore.io.Libcore: libcore.io.Os os>"},{"step":7,"from":"static.<libcore.io.OsConstants: int AF_INET>","to":"static.<libcore.io.OsConstants: int AF_INET>","type":"load","field":"<libcore.io.OsConstants: int AF_INET>"},{"step":8,"from":"sdaReg0","to":"1093679280","type":"model"},{"step":9,"from":"static.<libcore.io.OsConstants: int AF_INET>","to":"1093679280","type":"model"},{"step":10,"from":"1093679488","to":"1093679280","type":"create","field":"arrayIdx_int:0"}],"parameters":[{"id":"sdaReg0","name":"arg#0","klass":"string"}],"returns":[{"id":"1093679280","name":"return","klass":"java.net.InetAddress"}],"colors":{"heapLocToColor":{"sdaReg8":[6],"sdaReg6":[6],"sdaReg7":[6],"sdaReg4":[3],"1083982784":[5],"static.<libcore.io.Libcore: libcore.io.Os os>":[5],"sdaReg13":[10],"sdaReg11":[9],"1093679280":[9],"sdaReg12":[9],"static.<libcore.io.OsConstants: int AF_INET>":[8],"1093679488":[10],"sdaReg10":[7],"1093668328":[6],"sdaReg3":[3],"sdaReg2":[2],"sdaReg1":[1],"static.<libcore.io.OsConstants: int AI_NUMERICHOST>":[4],"sdaReg0":[0],"1093667992":[3],"1093668240":[6]},"colorToColor":{"0":[6, 9],"3":[6],"4":[3],"8":[9],"9":[10, 11]},"colorToLabel":{"0":"arg#0","4":"<libcore.io.OsConstants: int AI_NUMERICHOST>","5":"<libcore.io.Libcore: libcore.io.Os os>","8":"<libcore.io.OsConstants: int AF_INET>","11":"return"}}}

Generated Model
	arg#0->return

