Scanning method <android.os.Bundle: void putSerializable(java.lang.String,java.io.Serializable)>

All seen event types: StoreArrayRecord, SimpleAssignmentRecord, MethodStartRecord, LoadInstanceRecord, IfRecord, NewObjectRecord, StoreInstanceRecord, NewArrayRecord, BinaryOperationRecord, MethodCallRecord, MethodReturnRecord, ArrayLengthRecord, CastRecord, LoadArrayRecord, MethodEndRecord, 
Ignored event types: IfRecord, 

JSON Encoded Analysis Data (for visualization):{"heapEdges":[{"step":0,"from":"1093922664","to":"1093462216","type":"load","field":"<android.os.Bundle: java.util.Map mMap>"},{"step":1,"from":"1093462216","to":"1083997920","type":"load","field":"<java.util.HashMap: java.util.HashMap$HashMapEntry[] table>"},{"step":2,"from":"1093462216","to":"1093462216.<java.util.HashMap: int modCount>","type":"load","field":"<java.util.HashMap: int modCount>"},{"step":3,"from":"sdaReg16","to":"1093462216","type":"store","field":"<java.util.HashMap: int modCount>"},{"step":4,"from":"1093462216","to":"1093462216.<java.util.HashMap: int size>","type":"load","field":"<java.util.HashMap: int size>"},{"step":5,"from":"sdaReg17","to":"1093462216","type":"store","field":"<java.util.HashMap: int size>"},{"step":6,"from":"1093462216","to":"1093462216.<java.util.HashMap: int threshold>","type":"load","field":"<java.util.HashMap: int threshold>"},{"step":7,"from":"1093462216","to":"1083997920","type":"load","field":"<java.util.HashMap: java.util.HashMap$HashMapEntry[] table>"},{"step":8,"from":"1093462216","to":"1094009160","type":"create","field":"<java.util.HashMap: java.util.HashMap$HashMapEntry[] table>"},{"step":9,"from":"sdaReg25","to":"1093462216","type":"store","field":"<java.util.HashMap: int threshold>"},{"step":10,"from":"1093519632","to":"1094009200","type":"store","field":"<java.util.HashMap$HashMapEntry: java.lang.Object key>"},{"step":11,"from":"1093467856","to":"1094009200","type":"store","field":"<java.util.HashMap$HashMapEntry: java.lang.Object value>"},{"step":12,"from":"sdaReg12","to":"1094009200","type":"store","field":"<java.util.HashMap$HashMapEntry: int hash>"},{"step":13,"from":"1094009160","to":"1094009200","type":"create","field":"arrayIdx_int:2"}],"parameters":[{"id":"1093922664","name":"this","klass":"android.os.Bundle"},{"id":"sdaReg0","name":"arg#1","klass":"string"},{"id":"1093467856","name":"arg#2","klass":"java.io.Serializable"}],"returns":[{"id":null,"name":"return","klass":null}],"colors":{"heapLocToColor":{"1093462216.<java.util.HashMap: int threshold>":[0],"1093462216.<java.util.HashMap: int modCount>":[0],"sdaReg39":[5],"sdaReg38":[5],"1093462216":[0],"sdaReg11":[3],"sdaReg12":[3],"sdaReg10":[3],"sdaReg31":[0],"1083997920":[0],"1093462216.<java.util.HashMap: java.util.HashMap$HashMapEntry[] table>":[0],"sdaReg36":[2],"sdaReg17":[0],"sdaReg18":[0],"sdaReg34":[5],"sdaReg15":[3],"sdaReg33":[2],"sdaReg16":[0],"1093467856":[2],"sdaReg8":[3],"sdaReg9":[3],"sdaReg6":[3],"1093922664":[0],"sdaReg7":[3],"sdaReg4":[3],"sdaReg5":[3],"1093462216.<java.util.HashMap: int size>":[0],"1094009200":[5],"sdaReg26":[4],"sdaReg28":[4],"1094009160":[4],"sdaReg3":[2],"sdaReg2":[0],"sdaReg21":[0],"sdaReg1":[0],"sdaReg0":[1]},"colorToColor":{"0":[0],"2":[5],"3":[5],"4":[0],"5":[4]},"colorToLabel":{"0":"this","1":"arg#1","2":"arg#2","6":"return"}}}

Generated Model
	arg#2->this

