Scanning method <java.io.DataInputStream: void <init>(java.io.InputStream)>

All seen event types: NewArrayRecord, MethodReturnRecord, MethodCallRecord, MethodStartRecord, MethodEndRecord, StoreInstanceRecord, 
Ignored event types: 

JSON Encoded Analysis Data (for visualization):{"heapEdges":[{"step":0,"from":"1093674832","to":"1093674696","type":"store","field":"<java.io.FilterInputStream: java.io.InputStream in>"},{"step":1,"from":"1093674696","to":"1093675456","type":"create","field":"<java.io.DataInputStream: byte[] scratch>"}],"parameters":[{"id":"1093674696","name":"this","klass":"java.io.DataInputStream"},{"id":"1093674832","name":"arg#1","klass":"java.io.InputStream"}],"returns":[{"id":"1093674696","name":"return","klass":"java.io.DataInputStream"}],"colors":{"heapLocToColor":{"1093675456":[2],"sdaReg4":[0],"sdaReg5":[0],"1093674696":[0],"sdaReg3":[0],"sdaReg2":[0],"sdaReg1":[1],"1093674832":[1],"sdaReg0":[0]},"colorToColor":{"0":[3],"1":[0],"2":[0]},"colorToLabel":{"0":"this","1":"arg#1","3":"return"}}}

Generated Model
	this->return
	arg#1->this
	arg#1->return

