Scanning method <java.util.ArrayList: java.lang.Object remove(int)>

All seen event types: BinaryOperationRecord, StoreArrayRecord, MethodReturnRecord, MethodCallRecord, LoadInstanceRecord, LoadArrayRecord, IfRecord, StoreInstanceRecord, 
Ignored event types: IfRecord, 

JSON Encoded Analysis Data (for visualization):{"heapEdges":[{"step":0,"from":"1093509864","to":"1093382936","type":"load","field":"<java.util.ArrayList: java.lang.Object[] array>"},{"step":1,"from":"1093509864","to":"1093509864.<java.util.ArrayList: int size>","type":"load","field":"<java.util.ArrayList: int size>"},{"step":2,"from":"1093382936","to":"1084428816","type":"load","field":"arrayIdx_int:0"},{"step":3,"from":"1093382936","to":"sdaReg4","type":"create","field":"arrayIdx_int:1"},{"step":4,"from":"sdaReg2","to":"1093509864","type":"store","field":"<java.util.ArrayList: int size>"},{"step":5,"from":"1093509864","to":"1093509864.<java.util.AbstractList: int modCount>","type":"load","field":"<java.util.AbstractList: int modCount>"},{"step":6,"from":"sdaReg5","to":"1093509864","type":"store","field":"<java.util.AbstractList: int modCount>"}],"parameters":[{"id":"1093509864","name":"this","klass":"java.util.ArrayList"},{"id":"sdaReg0","name":"arg#1","klass":"int"}],"returns":[{"id":"1084428816","name":"return","klass":"java.lang.Object"}],"colors":{"heapLocToColor":{"1093509864":[0],"1093509864.<java.util.ArrayList: int size>":[0],"1093382936":[0],"sdaReg5":[0],"sdaReg3":[0, 1],"sdaReg2":[0],"sdaReg1":[1],"1084428816":[0],"sdaReg0":[1],"1093509864.<java.util.AbstractList: int modCount>":[0]},"colorToColor":{"0":[0, 2]},"colorToLabel":{"0":"this","1":"arg#1","2":"return"}}}

Generated Model
	this->return

