Scanning method <java.nio.CharBuffer: char charAt(int)>

All seen event types: BinaryOperationRecord, MethodReturnRecord, MethodCallRecord, LoadInstanceRecord, MethodStartRecord, LoadArrayRecord, MethodEndRecord, IfRecord, 
Ignored event types: IfRecord, 

JSON Encoded Analysis Data (for visualization):{"heapEdges":[{"step":0,"from":"1093610304","to":"1093610304.<java.nio.Buffer: int limit>","type":"load","field":"<java.nio.Buffer: int limit>"},{"step":1,"from":"1093610304","to":"1093610304.<java.nio.Buffer: int position>","type":"load","field":"<java.nio.Buffer: int position>"},{"step":2,"from":"1093610304","to":"1093610304.<java.nio.Buffer: int position>","type":"load","field":"<java.nio.Buffer: int position>"},{"step":3,"from":"1093610304","to":"1093610304.<java.nio.Buffer: int limit>","type":"load","field":"<java.nio.Buffer: int limit>"},{"step":4,"from":"1093610304","to":"1093610168","type":"load","field":"<java.nio.CharArrayBuffer: char[] backingArray>"},{"step":5,"from":"1093610304","to":"1093610304.<java.nio.CharArrayBuffer: int offset>","type":"load","field":"<java.nio.CharArrayBuffer: int offset>"},{"step":6,"from":"1093610168","to":"1093610168.arrayIdx_int:8","type":"load","field":"arrayIdx_int:8"}],"parameters":[{"id":"1093610304","name":"this","klass":"java.nio.CharBuffer"},{"id":"sdaReg0","name":"arg#1","klass":"int"}],"returns":[{"id":"1093610168.arrayIdx_int:8","name":"return","klass":"char"}],"colors":{"heapLocToColor":{"1093610304":[0],"1093610304.<java.nio.Buffer: int limit>":[0],"sdaReg6":[0, 1],"sdaReg4":[0],"sdaReg5":[0],"1093610168":[0],"1093610304.<java.nio.CharArrayBuffer: int offset>":[0],"1093610304.<java.nio.Buffer: int position>":[0],"sdaReg3":[0, 1],"sdaReg2":[0],"sdaReg1":[0],"sdaReg0":[1],"1093610168.arrayIdx_int:8":[0]},"colorToColor":{"0":[2]},"colorToLabel":{"0":"this","1":"arg#1","2":"return"}}}

Generated Model
	this->return

