Scanning method <java.util.ArrayList: java.lang.Object get(int)>

All seen event types: LoadInstanceRecord, LoadArrayRecord, IfRecord, 
Ignored event types: IfRecord, 

JSON Encoded Analysis Data (for visualization):{"heapEdges":[{"step":0,"from":"1093682704","to":"1093682704.<java.util.ArrayList: int size>","type":"load","field":"<java.util.ArrayList: int size>"},{"step":1,"from":"1093682704","to":"1093876104","type":"load","field":"<java.util.ArrayList: java.lang.Object[] array>"},{"step":2,"from":"1093876104","to":"1093295920","type":"load","field":"arrayIdx_int:86"}],"parameters":[{"id":"1093682704","name":"this","klass":"java.util.ArrayList"},{"id":"sdaReg0","name":"arg#1","klass":"int"}],"returns":[{"id":"1093295920","name":"return","klass":"java.lang.Object"}],"colors":{"heapLocToColor":{"1093682704":[0],"1093295920":[0],"1093682704.<java.util.ArrayList: int size>":[0],"1093876104":[0],"sdaReg0":[1]},"colorToColor":{"0":[2]},"colorToLabel":{"0":"this","1":"arg#1","2":"return"}}}

Generated Model
	this->return

