Scanning method <java.util.ArrayList: java.lang.Object get(int)>

All seen event types: LoadInstanceRecord, LoadArrayRecord, IfRecord, 
Ignored event types: IfRecord, 

JSON Encoded Analysis Data (for visualization):{"heapEdges":[{"step":0,"from":"1093512688","to":"1093512688.<java.util.ArrayList: int size>","type":"load","field":"<java.util.ArrayList: int size>"},{"step":1,"from":"1093512688","to":"1093711224","type":"load","field":"<java.util.ArrayList: java.lang.Object[] array>"},{"step":2,"from":"1093711224","to":"1093317976","type":"load","field":"arrayIdx_int:91"}],"parameters":[{"id":"1093512688","name":"this","klass":"java.util.ArrayList"},{"id":"sdaReg0","name":"arg#1","klass":"int"}],"returns":[{"id":"1093317976","name":"return","klass":"java.lang.Object"}],"colors":{"heapLocToColor":{"1093317976":[0],"1093512688.<java.util.ArrayList: int size>":[0],"1093512688":[0],"1093711224":[0],"sdaReg0":[1]},"colorToColor":{"0":[2]},"colorToLabel":{"0":"this","1":"arg#1","2":"return"}}}

Generated Model
	this->return

