Scanning method <android.text.SpannableStringBuilder: int length()>

All seen event types: BinaryOperationRecord, ArrayLengthRecord, LoadInstanceRecord, 
Ignored event types: 

JSON Encoded Analysis Data (for visualization):{"heapEdges":[{"step":0,"from":"1094118416","to":"1093909104","type":"load","field":"<android.text.SpannableStringBuilder: char[] mText>"},{"step":1,"from":"1094118416","to":"1094118416.<android.text.SpannableStringBuilder: int mGapLength>","type":"load","field":"<android.text.SpannableStringBuilder: int mGapLength>"}],"parameters":[{"id":"1094118416","name":"this","klass":"android.text.SpannableStringBuilder"}],"returns":[{"id":"sdaReg1","name":"return","klass":"int"}],"colors":{"heapLocToColor":{"1093909104":[0],"1094118416.<android.text.SpannableStringBuilder: int mGapLength>":[0],"sdaReg1":[0],"1094118416":[0]},"colorToColor":{"0":[1]},"colorToLabel":{"0":"this","1":"return"}}}

Generated Model
	this->return

