Scanning method <java.util.HashMap$HashIterator: java.util.HashMap$HashMapEntry nextEntry()>

All seen event types: ArrayLengthRecord, LoadInstanceRecord, IfRecord, StoreInstanceRecord, 
Ignored event types: IfRecord, 

JSON Encoded Analysis Data (for visualization):{"heapEdges":[{"step":0,"from":"1093648464","to":"1093569584","type":"load","field":"<java.util.HashMap$HashIterator: java.util.HashMap this$0>"},{"step":1,"from":"1093569584","to":"1093569584.<java.util.HashMap: int modCount>","type":"load","field":"<java.util.HashMap: int modCount>"},{"step":2,"from":"1093648464","to":"1093648464.<java.util.HashMap$HashIterator: int expectedModCount>","type":"load","field":"<java.util.HashMap$HashIterator: int expectedModCount>"},{"step":3,"from":"1093648464","to":"1093626920","type":"load","field":"<java.util.HashMap$HashIterator: java.util.HashMap$HashMapEntry nextEntry>"},{"step":4,"from":"1093648464","to":"1093626920","type":"load","field":"<java.util.HashMap$HashIterator: java.util.HashMap$HashMapEntry nextEntry>"},{"step":5,"from":"1093648464","to":"1093569584","type":"load","field":"<java.util.HashMap$HashIterator: java.util.HashMap this$0>"},{"step":6,"from":"1093569584","to":"1093576776","type":"load","field":"<java.util.HashMap: java.util.HashMap$HashMapEntry[] table>"},{"step":7,"from":"1093648464","to":"1093648464.<java.util.HashMap$HashIterator: int nextIndex>","type":"load","field":"<java.util.HashMap$HashIterator: int nextIndex>"},{"step":8,"from":"1093626920","to":"1093648464","type":"store","field":"<java.util.HashMap$HashIterator: java.util.HashMap$HashMapEntry lastEntryReturned>"}],"parameters":[{"id":"1093648464","name":"this","klass":"java.util.HashMap$HashIterator"}],"returns":[{"id":"1093626920","name":"return","klass":"java.util.HashMap$HashMapEntry"}],"colors":{"heapLocToColor":{"1093569584.<java.util.HashMap: int modCount>":[0],"1093648464.<java.util.HashMap$HashIterator: int nextIndex>":[0],"1093576776":[0],"1093648464":[0],"1093648464.<java.util.HashMap$HashIterator: java.util.HashMap this$0>":[0],"1093648464.<java.util.HashMap$HashIterator: java.util.HashMap$HashMapEntry nextEntry>":[0],"1093569584":[0],"1093648464.<java.util.HashMap$HashIterator: int expectedModCount>":[0],"1093626920":[0]},"colorToColor":{"0":[0, 1]},"colorToLabel":{"0":"this","1":"return"}}}

Generated Model
	this->return

