Scanning method <java.util.AbstractCollection: boolean addAll(java.util.Collection)>

All seen event types: StoreArrayRecord, SimpleAssignmentRecord, MethodStartRecord, LoadInstanceRecord, IfRecord, NewObjectRecord, StoreInstanceRecord, BinaryOperationRecord, MethodCallRecord, MethodReturnRecord, ArrayLengthRecord, LoadArrayRecord, MethodEndRecord, 
Ignored event types: IfRecord, 

JSON Encoded Analysis Data (for visualization):{"heapEdges":[{"step":0,"from":"1093636376","to":"1093636608","type":"store","field":"<java.util.ArrayList$ArrayListIterator: java.util.ArrayList this$0>"},{"step":1,"from":"1093636376","to":"1093636376.<java.util.ArrayList: int size>","type":"load","field":"<java.util.ArrayList: int size>"},{"step":2,"from":"1093636376.<java.util.ArrayList: int size>","to":"1093636608","type":"store","field":"<java.util.ArrayList$ArrayListIterator: int remaining>"},{"step":3,"from":"1093636608","to":"sdaReg7","type":"create","field":"<java.util.ArrayList$ArrayListIterator: int removalIndex>"},{"step":4,"from":"1093636376","to":"1093636376.<java.util.AbstractList: int modCount>","type":"load","field":"<java.util.AbstractList: int modCount>"},{"step":5,"from":"1093636376.<java.util.AbstractList: int modCount>","to":"1093636608","type":"store","field":"<java.util.ArrayList$ArrayListIterator: int expectedModCount>"},{"step":6,"from":"1093636376","to":"1093636376.<java.util.AbstractList: int modCount>","type":"load","field":"<java.util.AbstractList: int modCount>"},{"step":7,"from":"sdaReg14","to":"1093636608","type":"store","field":"<java.util.ArrayList$ArrayListIterator: int remaining>"},{"step":8,"from":"1093636376","to":"1093636536","type":"load","field":"<java.util.ArrayList: java.lang.Object[] array>"},{"step":9,"from":"1093636376","to":"1093636376.<java.util.ArrayList: int size>","type":"load","field":"<java.util.ArrayList: int size>"},{"step":10,"from":"sdaReg15","to":"1093636608","type":"store","field":"<java.util.ArrayList$ArrayListIterator: int removalIndex>"},{"step":11,"from":"1093636536","to":"1093636520","type":"load","field":"arrayIdx_int:0"},{"step":12,"from":"1093579256","to":"1093579272","type":"load","field":"<java.util.HashSet: java.util.HashMap backingMap>"},{"step":13,"from":"1093579272","to":"1093586464","type":"load","field":"<java.util.HashMap: java.util.HashMap$HashMapEntry[] table>"},{"step":14,"from":"1093586464","to":"1093586504","type":"load","field":"arrayIdx_int:1"},{"step":15,"from":"1093586504","to":"1093586504.<java.util.HashMap$HashMapEntry: int hash>","type":"load","field":"<java.util.HashMap$HashMapEntry: int hash>"},{"step":16,"from":"1093579272","to":"1093579272.<java.util.HashMap: int modCount>","type":"load","field":"<java.util.HashMap: int modCount>"},{"step":17,"from":"sdaReg34","to":"1093579272","type":"store","field":"<java.util.HashMap: int modCount>"},{"step":18,"from":"1093579272","to":"1093579272.<java.util.HashMap: int size>","type":"load","field":"<java.util.HashMap: int size>"},{"step":19,"from":"sdaReg35","to":"1093579272","type":"store","field":"<java.util.HashMap: int size>"},{"step":20,"from":"1093579272","to":"1093579272.<java.util.HashMap: int threshold>","type":"load","field":"<java.util.HashMap: int threshold>"},{"step":21,"from":"1093579272","to":"1093586464","type":"load","field":"<java.util.HashMap: java.util.HashMap$HashMapEntry[] table>"},{"step":22,"from":"1093579272","to":"1093586464","type":"load","field":"<java.util.HashMap: java.util.HashMap$HashMapEntry[] table>"},{"step":23,"from":"1093586464","to":"1093586504","type":"load","field":"arrayIdx_int:1"},{"step":24,"from":"1093636520","to":"1093636640","type":"store","field":"<java.util.HashMap$HashMapEntry: java.lang.Object key>"},{"step":25,"from":"1093579256","to":"1093636640","type":"store","field":"<java.util.HashMap$HashMapEntry: java.lang.Object value>"},{"step":26,"from":"sdaReg30","to":"1093636640","type":"store","field":"<java.util.HashMap$HashMapEntry: int hash>"},{"step":27,"from":"1093586504","to":"1093636640","type":"store","field":"<java.util.HashMap$HashMapEntry: java.util.HashMap$HashMapEntry next>"},{"step":28,"from":"1093586464","to":"1093636640","type":"create","field":"arrayIdx_int:1"}],"parameters":[{"id":"1093579256","name":"this","klass":"java.util.AbstractCollection"},{"id":"1093636376","name":"arg#1","klass":"java.util.Collection"}],"returns":[{"id":"sdaReg0","name":"return","klass":"boolean"}],"colors":{"heapLocToColor":{"sdaReg13":[2],"1093636536":[1],"sdaReg11":[2],"sdaReg10":[2],"1093636376.<java.util.ArrayList: int size>":[1],"1093636376":[1],"1093636376.<java.util.AbstractList: int modCount>":[1],"1093586464":[0],"sdaReg19":[0],"sdaReg17":[0],"sdaReg18":[1],"sdaReg15":[1],"sdaReg16":[1],"1093579272.<java.util.HashMap: int threshold>":[0],"1093586504.<java.util.HashMap$HashMapEntry: int hash>":[0],"sdaReg44":[4],"sdaReg47":[2],"sdaReg41":[0],"sdaReg40":[1],"sdaReg43":[4],"sdaReg42":[0],"1093579256":[0],"1093636608":[2],"1093579272.<java.util.HashMap: int modCount>":[0],"sdaReg39":[4],"sdaReg38":[0],"sdaReg37":[1],"1093586504":[0],"sdaReg30":[3],"sdaReg36":[0],"sdaReg35":[0],"sdaReg34":[0],"1093579272.<java.util.HashMap: int size>":[0],"sdaReg33":[3],"1093579272":[0],"sdaReg8":[2],"sdaReg9":[2],"sdaReg6":[2],"sdaReg4":[2],"sdaReg5":[1],"1093579272.<java.util.HashMap: java.util.HashMap$HashMapEntry[] table>":[0],"sdaReg27":[3],"sdaReg26":[3],"sdaReg29":[3],"sdaReg28":[3],"1093586464.arrayIdx_int:1":[0],"sdaReg3":[1],"sdaReg2":[2],"1093636640":[4],"sdaReg1":[1],"sdaReg21":[0],"sdaReg20":[1],"1093636520":[1],"sdaReg23":[3],"sdaReg22":[3],"sdaReg25":[3],"sdaReg24":[3]},"colorToColor":{"0":[0, 4],"1":[2, 4],"3":[4],"4":[0]},"colorToLabel":{"0":"this","1":"arg#1","5":"return"}}}

Generated Model
	arg#1->this

