Scanning method <java.util.AbstractCollection: boolean addAll(java.util.Collection)>

All seen event types: StoreArrayRecord, SimpleAssignmentRecord, MethodStartRecord, LoadInstanceRecord, IfRecord, NewObjectRecord, StoreInstanceRecord, BinaryOperationRecord, MethodCallRecord, MethodReturnRecord, ArrayLengthRecord, LoadArrayRecord, MethodEndRecord, 
Ignored event types: IfRecord, 

JSON Encoded Analysis Data (for visualization):{"heapEdges":[{"step":0,"from":"1093321888","to":"1093548816","type":"store","field":"<java.util.ArrayList$ArrayListIterator: java.util.ArrayList this$0>"},{"step":1,"from":"1093321888","to":"1093321888.<java.util.ArrayList: int size>","type":"load","field":"<java.util.ArrayList: int size>"},{"step":2,"from":"1093321888.<java.util.ArrayList: int size>","to":"1093548816","type":"store","field":"<java.util.ArrayList$ArrayListIterator: int remaining>"},{"step":3,"from":"1093548816","to":"sdaReg7","type":"create","field":"<java.util.ArrayList$ArrayListIterator: int removalIndex>"},{"step":4,"from":"1093321888","to":"1093321888.<java.util.AbstractList: int modCount>","type":"load","field":"<java.util.AbstractList: int modCount>"},{"step":5,"from":"1093321888.<java.util.AbstractList: int modCount>","to":"1093548816","type":"store","field":"<java.util.ArrayList$ArrayListIterator: int expectedModCount>"},{"step":6,"from":"1093321888","to":"1093321888.<java.util.AbstractList: int modCount>","type":"load","field":"<java.util.AbstractList: int modCount>"},{"step":7,"from":"sdaReg14","to":"1093548816","type":"store","field":"<java.util.ArrayList$ArrayListIterator: int remaining>"},{"step":8,"from":"1093321888","to":"1093548744","type":"load","field":"<java.util.ArrayList: java.lang.Object[] array>"},{"step":9,"from":"1093321888","to":"1093321888.<java.util.ArrayList: int size>","type":"load","field":"<java.util.ArrayList: int size>"},{"step":10,"from":"sdaReg15","to":"1093548816","type":"store","field":"<java.util.ArrayList$ArrayListIterator: int removalIndex>"},{"step":11,"from":"1093548744","to":"1093457472","type":"load","field":"arrayIdx_int:0"},{"step":12,"from":"1093555984","to":"1093556000","type":"load","field":"<java.util.HashSet: java.util.HashMap backingMap>"},{"step":13,"from":"1093556000","to":"1093563192","type":"load","field":"<java.util.HashMap: java.util.HashMap$HashMapEntry[] table>"},{"step":14,"from":"1093556000","to":"1093556000.<java.util.HashMap: int modCount>","type":"load","field":"<java.util.HashMap: int modCount>"},{"step":15,"from":"sdaReg34","to":"1093556000","type":"store","field":"<java.util.HashMap: int modCount>"},{"step":16,"from":"1093556000","to":"1093556000.<java.util.HashMap: int size>","type":"load","field":"<java.util.HashMap: int size>"},{"step":17,"from":"sdaReg35","to":"1093556000","type":"store","field":"<java.util.HashMap: int size>"},{"step":18,"from":"1093556000","to":"1093556000.<java.util.HashMap: int threshold>","type":"load","field":"<java.util.HashMap: int threshold>"},{"step":19,"from":"1093556000","to":"1093563192","type":"load","field":"<java.util.HashMap: java.util.HashMap$HashMapEntry[] table>"},{"step":20,"from":"1093556000","to":"1093563192","type":"load","field":"<java.util.HashMap: java.util.HashMap$HashMapEntry[] table>"},{"step":21,"from":"1093457472","to":"1093548848","type":"store","field":"<java.util.HashMap$HashMapEntry: java.lang.Object key>"},{"step":22,"from":"1093555984","to":"1093548848","type":"store","field":"<java.util.HashMap$HashMapEntry: java.lang.Object value>"},{"step":23,"from":"sdaReg30","to":"1093548848","type":"store","field":"<java.util.HashMap$HashMapEntry: int hash>"},{"step":24,"from":"1093563192","to":"1093548848","type":"create","field":"arrayIdx_int:3"},{"step":25,"from":"1093321888","to":"1093321888.<java.util.AbstractList: int modCount>","type":"load","field":"<java.util.AbstractList: int modCount>"},{"step":26,"from":"sdaReg50","to":"1093548816","type":"store","field":"<java.util.ArrayList$ArrayListIterator: int remaining>"},{"step":27,"from":"1093321888","to":"1093548744","type":"load","field":"<java.util.ArrayList: java.lang.Object[] array>"},{"step":28,"from":"1093321888","to":"1093321888.<java.util.ArrayList: int size>","type":"load","field":"<java.util.ArrayList: int size>"},{"step":29,"from":"sdaReg51","to":"1093548816","type":"store","field":"<java.util.ArrayList$ArrayListIterator: int removalIndex>"},{"step":30,"from":"1093548744","to":"1093479528","type":"load","field":"arrayIdx_int:1"},{"step":31,"from":"1093555984","to":"1093556000","type":"load","field":"<java.util.HashSet: java.util.HashMap backingMap>"},{"step":32,"from":"1093556000","to":"1093563192","type":"load","field":"<java.util.HashMap: java.util.HashMap$HashMapEntry[] table>"},{"step":33,"from":"sdaReg70","to":"1093556000","type":"store","field":"<java.util.HashMap: int modCount>"},{"step":34,"from":"sdaReg71","to":"1093556000","type":"store","field":"<java.util.HashMap: int size>"},{"step":35,"from":"1093556000","to":"1093556000.<java.util.HashMap: int threshold>","type":"load","field":"<java.util.HashMap: int threshold>"},{"step":36,"from":"1093556000","to":"1093563192","type":"load","field":"<java.util.HashMap: java.util.HashMap$HashMapEntry[] table>"},{"step":37,"from":"1093556000","to":"1093563192","type":"load","field":"<java.util.HashMap: java.util.HashMap$HashMapEntry[] table>"},{"step":38,"from":"1093479528","to":"1093311384","type":"store","field":"<java.util.HashMap$HashMapEntry: java.lang.Object key>"},{"step":39,"from":"1093555984","to":"1093311384","type":"store","field":"<java.util.HashMap$HashMapEntry: java.lang.Object value>"},{"step":40,"from":"sdaReg66","to":"1093311384","type":"store","field":"<java.util.HashMap$HashMapEntry: int hash>"},{"step":41,"from":"1093548848","to":"1093311384","type":"store","field":"<java.util.HashMap$HashMapEntry: java.util.HashMap$HashMapEntry next>"},{"step":42,"from":"1093563192","to":"1093311384","type":"create","field":"arrayIdx_int:3"}],"parameters":[{"id":"1093555984","name":"this","klass":"java.util.AbstractCollection"},{"id":"1093321888","name":"arg#1","klass":"java.util.Collection"}],"returns":[{"id":"sdaReg0","name":"return","klass":"boolean"}],"colors":{"heapLocToColor":{"sdaReg60":[5],"sdaReg61":[5],"1093311384":[6],"1093321888":[1],"1093556000.<java.util.HashMap: int size>":[0],"sdaReg69":[5],"sdaReg66":[5],"1093556000.<java.util.HashMap: int threshold>":[0],"sdaReg64":[5],"sdaReg65":[5],"sdaReg62":[5],"sdaReg63":[5],"sdaReg72":[0],"sdaReg13":[2],"sdaReg11":[2],"sdaReg10":[2],"sdaReg59":[5],"sdaReg58":[5],"sdaReg57":[0],"sdaReg56":[1],"sdaReg19":[0],"sdaReg55":[0],"sdaReg54":[1],"sdaReg17":[0],"sdaReg53":[0],"sdaReg18":[1],"sdaReg52":[1],"sdaReg15":[1],"sdaReg51":[1],"sdaReg16":[1],"1093321888.<java.util.AbstractList: int modCount>":[1],"sdaReg77":[0],"1093321888.<java.util.ArrayList: int size>":[1],"sdaReg78":[4],"sdaReg79":[6],"sdaReg73":[1],"sdaReg74":[0],"sdaReg75":[6],"sdaReg76":[1],"1093555984":[0],"sdaReg80":[6],"sdaReg83":[2],"sdaReg49":[2],"sdaReg44":[4],"sdaReg47":[2],"sdaReg41":[0],"sdaReg40":[1],"sdaReg43":[4],"1093556000.<java.util.HashMap: int modCount>":[0],"1093556000":[0],"sdaReg39":[4],"sdaReg38":[0],"sdaReg37":[1],"1093457472":[1],"1093548816":[2],"sdaReg30":[3],"1093555984.<java.util.HashSet: java.util.HashMap backingMap>":[0],"sdaReg36":[0],"sdaReg35":[0],"sdaReg34":[0],"sdaReg33":[3],"1093556000.<java.util.HashMap: java.util.HashMap$HashMapEntry[] table>":[0],"1093548848":[4],"sdaReg8":[2],"sdaReg9":[2],"sdaReg6":[2],"1093563192":[0],"sdaReg4":[2],"sdaReg5":[1],"1093548744":[1],"sdaReg27":[3],"sdaReg26":[3],"1093479528":[1],"sdaReg29":[3],"sdaReg28":[3],"sdaReg3":[1],"sdaReg2":[2],"sdaReg1":[1],"sdaReg21":[0],"sdaReg20":[1],"sdaReg23":[3],"sdaReg22":[3],"1093321888.<java.util.ArrayList: java.lang.Object[] array>":[1],"sdaReg25":[3],"sdaReg24":[3]},"colorToColor":{"0":[0, 4, 6],"1":[2, 4, 6],"3":[4],"4":[0, 6],"5":[6],"6":[0]},"colorToLabel":{"0":"this","1":"arg#1","7":"return"}}}

Generated Model
	arg#1->this

