Scanning method <java.util.ArrayList: java.lang.Object[] toArray(java.lang.Object[])>

All seen event types: StoreArrayRecord, MethodReturnRecord, MethodCallRecord, ArrayLengthRecord, LoadInstanceRecord, IfRecord, 
Ignored event types: IfRecord, 

JSON Encoded Analysis Data (for visualization):{"heapEdges":[{"step":0,"from":"1093505184","to":"1093505184.<java.util.ArrayList: int size>","type":"load","field":"<java.util.ArrayList: int size>"},{"step":1,"from":"1093505184","to":"1093240704","type":"load","field":"<java.util.ArrayList: java.lang.Object[] array>"},{"step":2,"from":"1093240704","to":"1093705008","type":"model"},{"step":3,"from":"1093705008","to":"sdaReg2","type":"create","field":"arrayIdx_int:100"}],"parameters":[{"id":"1093505184","name":"this","klass":"java.util.ArrayList"},{"id":"1093705008","name":"arg#1","klass":"java.lang.Object[]"}],"returns":[{"id":"1093705008","name":"return","klass":"java.lang.Object[]"}],"colors":{"heapLocToColor":{"1093505184.<java.util.ArrayList: int size>":[0],"1093705008":[1],"1093240704":[0],"1093505184":[0]},"colorToColor":{"0":[1],"1":[2]},"colorToLabel":{"0":"this","1":"arg#1","2":"return"}}}

Generated Model
	this->return
	this->arg#1
	arg#1->return

