Scanning method <java.util.ArrayList: java.lang.Object[] toArray(java.lang.Object[])>

All seen event types: MethodReturnRecord, MethodCallRecord, ArrayLengthRecord, LoadInstanceRecord, IfRecord, 
Ignored event types: IfRecord, 

JSON Encoded Analysis Data (for visualization):{"heapEdges":[{"step":0,"from":"1093566584","to":"1093566584.<java.util.ArrayList: int size>","type":"load","field":"<java.util.ArrayList: int size>"},{"step":1,"from":"1093566584","to":"1093724992","type":"load","field":"<java.util.ArrayList: java.lang.Object[] array>"},{"step":2,"from":"1093724992","to":"1093733296","type":"model"}],"parameters":[{"id":"1093566584","name":"this","klass":"java.util.ArrayList"},{"id":"1093733296","name":"arg#1","klass":"java.lang.Object[]"}],"returns":[{"id":"1093733296","name":"return","klass":"java.lang.Object[]"}],"colors":{"heapLocToColor":{"1093566584":[0],"1093566584.<java.util.ArrayList: int size>":[0],"1093724992":[0],"1093733296":[1]},"colorToColor":{"0":[1],"1":[2]},"colorToLabel":{"0":"this","1":"arg#1","2":"return"}}}

Generated Model
	this->return
	this->arg#1
	arg#1->return

