Scanning method <android.os.Bundle: byte[] getByteArray(java.lang.String)>

All seen event types: BinaryOperationRecord, MethodReturnRecord, MethodCallRecord, CastRecord, ArrayLengthRecord, LoadInstanceRecord, MethodStartRecord, LoadArrayRecord, MethodEndRecord, IfRecord, 
Ignored event types: IfRecord, 

JSON Encoded Analysis Data (for visualization):{"heapEdges":[{"step":0,"from":"1093973552","to":"1093980520","type":"load","field":"<android.os.Bundle: java.util.Map mMap>"},{"step":1,"from":"1093980520","to":"1093665816","type":"load","field":"<java.util.HashMap: java.util.HashMap$HashMapEntry[] table>"},{"step":2,"from":"1093665816","to":"1093665856","type":"load","field":"arrayIdx_int:2"},{"step":3,"from":"1093665856","to":"1093536896","type":"load","field":"<java.util.HashMap$HashMapEntry: java.lang.Object key>"},{"step":4,"from":"1093665856","to":"1093593976","type":"load","field":"<java.util.HashMap$HashMapEntry: java.lang.Object value>"}],"parameters":[{"id":"1093973552","name":"this","klass":"android.os.Bundle"},{"id":"sdaReg0","name":"arg#1","klass":"string"}],"returns":[{"id":"1093593976","name":"return","klass":"byte[]"}],"colors":{"heapLocToColor":{"sdaReg8":[2],"sdaReg9":[2],"sdaReg6":[2],"sdaReg7":[2],"sdaReg4":[2],"sdaReg5":[2],"1093536896":[0],"1093593976":[0],"1093665856":[0],"sdaReg14":[2],"sdaReg11":[2],"1093973552":[0],"1093665816":[0],"sdaReg10":[2],"sdaReg3":[2],"sdaReg2":[0],"sdaReg1":[0],"sdaReg0":[1],"sdaReg17":[0],"sdaReg15":[0],"1093980520":[0],"sdaReg16":[0]},"colorToColor":{"0":[3]},"colorToLabel":{"0":"this","1":"arg#1","3":"return"}}}

Generated Model
	this->return

