Scanning method <java.util.HashMap$KeySet: void <init>(java.util.HashMap)>

All seen event types: MethodReturnRecord, MethodCallRecord, MethodStartRecord, MethodEndRecord, StoreInstanceRecord, 
Ignored event types: 

JSON Encoded Analysis Data (for visualization):{"heapEdges":[{"step":0,"from":"1093562800","to":"1093641664","type":"store","field":"<java.util.HashMap$KeySet: java.util.HashMap this$0>"}],"parameters":[{"id":"1093641664","name":"this","klass":"java.util.HashMap$KeySet"},{"id":"1093562800","name":"arg#1","klass":"java.util.HashMap"}],"returns":[{"id":"1093641664","name":"return","klass":"java.util.HashMap$KeySet"}],"colors":{"heapLocToColor":{"1093641664":[0],"sdaReg4":[0],"sdaReg3":[0],"sdaReg2":[0],"sdaReg1":[0],"sdaReg0":[0],"1093562800":[1]},"colorToColor":{"0":[2],"1":[0]},"colorToLabel":{"0":"this","1":"arg#1","2":"return"}}}

Generated Model
	this->return
	arg#1->this
	arg#1->return

