Scanning method <java.util.AbstractList$SubAbstractList$SubAbstractListIterator: boolean hasNext()>

All seen event types: BinaryOperationRecord, SimpleAssignmentRecord, MethodReturnRecord, MethodCallRecord, MethodStartRecord, LoadInstanceRecord, IfRecord, MethodEndRecord, 
Ignored event types: IfRecord, 

JSON Encoded Analysis Data (for visualization):{"heapEdges":[{"step":0,"from":"1093246504","to":"1093246536","type":"load","field":"<java.util.AbstractList$SubAbstractList$SubAbstractListIterator: java.util.ListIterator iterator>"},{"step":1,"from":"1093246536","to":"1093246536.<java.util.AbstractList$SimpleListIterator: int pos>","type":"load","field":"<java.util.AbstractList$SimpleListIterator: int pos>"},{"step":2,"from":"1093246504","to":"1093246504.<java.util.AbstractList$SubAbstractList$SubAbstractListIterator: int end>","type":"load","field":"<java.util.AbstractList$SubAbstractList$SubAbstractListIterator: int end>"}],"parameters":[{"id":"1093246504","name":"this","klass":"java.util.AbstractList$SubAbstractList$SubAbstractListIterator"}],"returns":[{"id":"sdaReg2","name":"return","klass":"boolean"}],"colors":{"heapLocToColor":{"1093246504":[0],"sdaReg1":[0],"1093246536":[0],"sdaReg0":[0],"1093246504.<java.util.AbstractList$SubAbstractList$SubAbstractListIterator: int end>":[0],"1093246536.<java.util.AbstractList$SimpleListIterator: int pos>":[0]},"colorToColor":{},"colorToLabel":{"0":"this","1":"return"}}}

Generated Model

