Scanning method <java.net.InetAddress: java.lang.String toString()>

All seen event types: LoadStaticRecord, SimpleAssignmentRecord, MethodReturnRecord, MethodCallRecord, MethodStartRecord, LoadInstanceRecord, MethodEndRecord, IfRecord, NewObjectRecord, 
Ignored event types: IfRecord, 

JSON Encoded Analysis Data (for visualization):{"heapEdges":[{"step":0,"from":"1093661560","to":"1093661560.<java.net.InetAddress: java.lang.String hostName>","type":"load","field":"<java.net.InetAddress: java.lang.String hostName>"},{"step":1,"from":"sdaReg1","to":"1093661864","type":"model"},{"step":2,"from":"sdaReg1","to":"1093661864","type":"model"},{"step":3,"from":"static.<libcore.io.Libcore: libcore.io.Os os>","to":"1083982784","type":"load","field":"<libcore.io.Libcore: libcore.io.Os os>"},{"step":4,"from":"static.<libcore.io.OsConstants: int NI_NUMERICHOST>","to":"static.<libcore.io.OsConstants: int NI_NUMERICHOST>","type":"load","field":"<libcore.io.OsConstants: int NI_NUMERICHOST>"},{"step":5,"from":"static.<libcore.io.OsConstants: int NI_NUMERICHOST>","to":"sdaReg5","type":"model"},{"step":6,"from":"1093661560","to":"sdaReg5","type":"model"},{"step":7,"from":"sdaReg5","to":"1093661864","type":"model"},{"step":8,"from":"sdaReg5","to":"1093661864","type":"model"},{"step":9,"from":"1093661864","to":"sdaReg7","type":"model"}],"parameters":[{"id":"1093661560","name":"this","klass":"java.net.InetAddress"}],"returns":[{"id":"sdaReg7","name":"return","klass":"string"}],"colors":{"heapLocToColor":{"1093661560.<java.net.InetAddress: java.lang.String hostName>":[0],"1093661864":[1],"sdaReg6":[1],"sdaReg7":[1, 5],"1093661560":[0],"sdaReg4":[0],"sdaReg5":[4],"1083982784":[2],"static.<libcore.io.OsConstants: int NI_NUMERICHOST>":[3],"static.<libcore.io.Libcore: libcore.io.Os os>":[2],"sdaReg3":[1],"sdaReg2":[1],"sdaReg0":[1]},"colorToColor":{"0":[4],"1":[6],"3":[4],"4":[1],"5":[6]},"colorToLabel":{"0":"this","2":"<libcore.io.Libcore: libcore.io.Os os>","3":"<libcore.io.OsConstants: int NI_NUMERICHOST>","6":"return"}}}

Generated Model
	this->return

