Scanning method <java.util.Vector: void <init>(int)>

All seen event types: NewArrayRecord, MethodReturnRecord, MethodCallRecord, CastRecord, MethodStartRecord, IfRecord, MethodEndRecord, StoreInstanceRecord, 
Ignored event types: IfRecord, 

JSON Encoded Analysis Data (for visualization):{"heapEdges":[{"step":0,"from":"1093647256","to":"1093647288","type":"create","field":"<java.util.Vector: java.lang.Object[] elementData>"},{"step":1,"from":"1093647256","to":"sdaReg11","type":"create","field":"<java.util.Vector: int elementCount>"},{"step":2,"from":"1093647256","to":"sdaReg2","type":"create","field":"<java.util.Vector: int capacityIncrement>"}],"parameters":[{"id":"1093647256","name":"this","klass":"java.util.Vector"},{"id":"sdaReg0","name":"arg#1","klass":"int"}],"returns":[{"id":"1093647256","name":"return","klass":"java.util.Vector"}],"colors":{"heapLocToColor":{"sdaReg8":[0],"sdaReg12":[0],"sdaReg6":[0],"sdaReg10":[2],"sdaReg7":[0],"sdaReg4":[0],"sdaReg5":[0],"1093647256":[0],"sdaReg3":[0],"sdaReg1":[0],"sdaReg0":[1],"1093647288":[2]},"colorToColor":{"0":[3],"2":[0]},"colorToLabel":{"0":"this","1":"arg#1","3":"return"}}}

Generated Model
	this->return

