Scanning method <java.util.HashMap$EntryIterator: java.lang.Object next()>

All seen event types: BinaryOperationRecord, MethodReturnRecord, MethodCallRecord, ArrayLengthRecord, LoadInstanceRecord, MethodStartRecord, LoadArrayRecord, MethodEndRecord, IfRecord, StoreInstanceRecord, 
Ignored event types: IfRecord, 

JSON Encoded Analysis Data (for visualization):{"heapEdges":[{"step":0,"from":"1093589120","to":"1093641744","type":"load","field":"<java.util.HashMap$HashIterator: java.util.HashMap this$0>"},{"step":1,"from":"1093641744","to":"1093641744.<java.util.HashMap: int modCount>","type":"load","field":"<java.util.HashMap: int modCount>"},{"step":2,"from":"1093589120","to":"1093589120.<java.util.HashMap$HashIterator: int expectedModCount>","type":"load","field":"<java.util.HashMap$HashIterator: int expectedModCount>"},{"step":3,"from":"1093589120","to":"1093627088","type":"load","field":"<java.util.HashMap$HashIterator: java.util.HashMap$HashMapEntry nextEntry>"},{"step":4,"from":"1093589120","to":"1093627088","type":"load","field":"<java.util.HashMap$HashIterator: java.util.HashMap$HashMapEntry nextEntry>"},{"step":5,"from":"1093589120","to":"1093641744","type":"load","field":"<java.util.HashMap$HashIterator: java.util.HashMap this$0>"},{"step":6,"from":"1093641744","to":"1093627152","type":"load","field":"<java.util.HashMap: java.util.HashMap$HashMapEntry[] table>"},{"step":7,"from":"1093589120","to":"1093589120.<java.util.HashMap$HashIterator: int nextIndex>","type":"load","field":"<java.util.HashMap$HashIterator: int nextIndex>"},{"step":8,"from":"1093589120","to":"1093589120.<java.util.HashMap$HashIterator: int nextIndex>","type":"load","field":"<java.util.HashMap$HashIterator: int nextIndex>"},{"step":9,"from":"sdaReg3","to":"1093589120","type":"store","field":"<java.util.HashMap$HashIterator: int nextIndex>"},{"step":10,"from":"1093627152","to":"1093458832","type":"load","field":"arrayIdx_int:2"},{"step":11,"from":"1093458832","to":"1093589120","type":"store","field":"<java.util.HashMap$HashIterator: java.util.HashMap$HashMapEntry nextEntry>"},{"step":12,"from":"1093627088","to":"1093589120","type":"store","field":"<java.util.HashMap$HashIterator: java.util.HashMap$HashMapEntry lastEntryReturned>"}],"parameters":[{"id":"1093589120","name":"this","klass":"java.util.HashMap$EntryIterator"}],"returns":[{"id":"1093627088","name":"return","klass":"java.lang.Object"}],"colors":{"heapLocToColor":{"sdaReg4":[0],"sdaReg5":[0],"1093627152":[0],"1093589120":[0],"1093627088":[0],"1093641744":[0],"1093641744.<java.util.HashMap: int modCount>":[0],"1093589120.<java.util.HashMap$HashIterator: java.util.HashMap this$0>":[0],"1093589120.<java.util.HashMap$HashIterator: int expectedModCount>":[0],"sdaReg3":[0],"1093589120.<java.util.HashMap$HashIterator: java.util.HashMap$HashMapEntry nextEntry>":[0],"sdaReg1":[0],"sdaReg0":[0],"1093589120.<java.util.HashMap$HashIterator: int nextIndex>":[0],"1093458832":[0]},"colorToColor":{"0":[0, 1]},"colorToLabel":{"0":"this","1":"return"}}}

Generated Model
	this->return

