Scanning method <java.util.HashMap$EntryIterator: java.lang.Object next()>

All seen event types: BinaryOperationRecord, MethodReturnRecord, MethodCallRecord, ArrayLengthRecord, LoadInstanceRecord, MethodStartRecord, LoadArrayRecord, MethodEndRecord, IfRecord, StoreInstanceRecord, 
Ignored event types: IfRecord, 

JSON Encoded Analysis Data (for visualization):{"heapEdges":[{"step":0,"from":"1093583952","to":"1093277256","type":"load","field":"<java.util.HashMap$HashIterator: java.util.HashMap this$0>"},{"step":1,"from":"1093277256","to":"1093277256.<java.util.HashMap: int modCount>","type":"load","field":"<java.util.HashMap: int modCount>"},{"step":2,"from":"1093583952","to":"1093583952.<java.util.HashMap$HashIterator: int expectedModCount>","type":"load","field":"<java.util.HashMap$HashIterator: int expectedModCount>"},{"step":3,"from":"1093583952","to":"1093229088","type":"load","field":"<java.util.HashMap$HashIterator: java.util.HashMap$HashMapEntry nextEntry>"},{"step":4,"from":"1093583952","to":"1093229088","type":"load","field":"<java.util.HashMap$HashIterator: java.util.HashMap$HashMapEntry nextEntry>"},{"step":5,"from":"1093583952","to":"1093277256","type":"load","field":"<java.util.HashMap$HashIterator: java.util.HashMap this$0>"},{"step":6,"from":"1093277256","to":"1093229216","type":"load","field":"<java.util.HashMap: java.util.HashMap$HashMapEntry[] table>"},{"step":7,"from":"1093583952","to":"1093583952.<java.util.HashMap$HashIterator: int nextIndex>","type":"load","field":"<java.util.HashMap$HashIterator: int nextIndex>"},{"step":8,"from":"1093583952","to":"1093583952.<java.util.HashMap$HashIterator: int nextIndex>","type":"load","field":"<java.util.HashMap$HashIterator: int nextIndex>"},{"step":9,"from":"sdaReg3","to":"1093583952","type":"store","field":"<java.util.HashMap$HashIterator: int nextIndex>"},{"step":10,"from":"1093229216","to":"1093229152","type":"load","field":"arrayIdx_int:1"},{"step":11,"from":"1093229152","to":"1093583952","type":"store","field":"<java.util.HashMap$HashIterator: java.util.HashMap$HashMapEntry nextEntry>"},{"step":12,"from":"1093229088","to":"1093583952","type":"store","field":"<java.util.HashMap$HashIterator: java.util.HashMap$HashMapEntry lastEntryReturned>"}],"parameters":[{"id":"1093583952","name":"this","klass":"java.util.HashMap$EntryIterator"}],"returns":[{"id":"1093229088","name":"return","klass":"java.lang.Object"}],"colors":{"heapLocToColor":{"1093229216":[0],"1093583952.<java.util.HashMap$HashIterator: int expectedModCount>":[0],"1093277256":[0],"sdaReg4":[0],"sdaReg5":[0],"1093229152":[0],"1093583952.<java.util.HashMap$HashIterator: int nextIndex>":[0],"1093229088":[0],"1093583952":[0],"sdaReg3":[0],"sdaReg1":[0],"1093277256.<java.util.HashMap: int modCount>":[0],"sdaReg0":[0],"1093583952.<java.util.HashMap$HashIterator: java.util.HashMap this$0>":[0],"1093583952.<java.util.HashMap$HashIterator: java.util.HashMap$HashMapEntry nextEntry>":[0]},"colorToColor":{"0":[0, 1]},"colorToLabel":{"0":"this","1":"return"}}}

Generated Model
	this->return

