Scanning method <java.io.PrintWriter: void doWrite(char[],int,int)>

All seen event types: SimpleAssignmentRecord, ExitMonitorRecord, LoadInstanceRecord, MethodStartRecord, IfRecord, NewObjectRecord, StoreInstanceRecord, BinaryOperationRecord, MethodCallRecord, MethodReturnRecord, EnterMonitorRecord, ArrayLengthRecord, MethodEndRecord, 
Ignored event types: ExitMonitorRecord, EnterMonitorRecord, IfRecord, 

JSON Encoded Analysis Data (for visualization):{"heapEdges":[{"step":0,"from":"1093290680","to":"1093268792","type":"load","field":"<java.io.Writer: java.lang.Object lock>"},{"step":1,"from":"1093290680","to":"1093268792","type":"load","field":"<java.io.PrintWriter: java.io.Writer out>"},{"step":2,"from":"1093290680","to":"1093268792","type":"load","field":"<java.io.PrintWriter: java.io.Writer out>"},{"step":3,"from":"1093268792","to":"1093707656","type":"load","field":"<java.io.Writer: java.lang.Object lock>"},{"step":4,"from":"1093268792","to":"1093306464","type":"load","field":"<java.io.OutputStreamWriter: java.nio.charset.CharsetEncoder encoder>"},{"step":5,"from":"1093495784","to":"sdaReg26","type":"create","field":"<java.nio.Buffer: int mark>"},{"step":6,"from":"1093495784","to":"sdaReg27","type":"create","field":"<java.nio.Buffer: int position>"},{"step":7,"from":"1093495784","to":"sdaReg24","type":"create","field":"<java.nio.Buffer: int _elementSizeShift>"},{"step":8,"from":"sdaReg18","to":"1093495784","type":"store","field":"<java.nio.Buffer: int limit>"},{"step":9,"from":"sdaReg18","to":"1093495784","type":"store","field":"<java.nio.Buffer: int capacity>"},{"step":10,"from":"1093557720","to":"1093495784","type":"store","field":"<java.nio.CharArrayBuffer: char[] backingArray>"},{"step":11,"from":"1093495784","to":"sdaReg21","type":"create","field":"<java.nio.CharArrayBuffer: int offset>"},{"step":12,"from":"sdaReg0","to":"1093495784","type":"store","field":"<java.nio.Buffer: int position>"},{"step":13,"from":"sdaReg34","to":"1093495784","type":"store","field":"<java.nio.Buffer: int limit>"},{"step":14,"from":"1093268792","to":"1093306464","type":"load","field":"<java.io.OutputStreamWriter: java.nio.charset.CharsetEncoder encoder>"},{"step":15,"from":"1093268792","to":"1093305376","type":"load","field":"<java.io.OutputStreamWriter: java.nio.ByteBuffer bytes>"},{"step":16,"from":"1093306464","to":"1093495784","type":"model"},{"step":17,"from":"1093306464","to":"1093305376","type":"model"},{"step":18,"from":"1093306464","to":"1084215096","type":"model"},{"step":19,"from":"1093495784","to":"1093306464","type":"model"},{"step":20,"from":"1093495784","to":"1093305376","type":"model"},{"step":21,"from":"1093495784","to":"1084215096","type":"model"},{"step":22,"from":"1093305376","to":"1093306464","type":"model"},{"step":23,"from":"1093305376","to":"1093495784","type":"model"},{"step":24,"from":"1093305376","to":"1084215096","type":"model"},{"step":25,"from":"1084215096","to":"1084215096.<java.nio.charset.CoderResult: int type>","type":"load","field":"<java.nio.charset.CoderResult: int type>"},{"step":26,"from":"1084215096","to":"1084215096.<java.nio.charset.CoderResult: int type>","type":"load","field":"<java.nio.charset.CoderResult: int type>"},{"step":27,"from":"1084215096","to":"1084215096.<java.nio.charset.CoderResult: int type>","type":"load","field":"<java.nio.charset.CoderResult: int type>"}],"parameters":[{"id":"1093290680","name":"this","klass":"java.io.PrintWriter"},{"id":"1093557720","name":"arg#1","klass":"char[]"},{"id":"sdaReg0","name":"arg#2","klass":"int"},{"id":"sdaReg1","name":"arg#3","klass":"int"}],"returns":[{"id":null,"name":"return","klass":null}],"colors":{"heapLocToColor":{"1093268792.<java.io.OutputStreamWriter: java.nio.charset.CharsetEncoder encoder>":[0],"1093290680.<java.io.PrintWriter: java.io.Writer out>":[0],"1093495784":[0, 4],"1093290680":[0],"sdaReg13":[2],"sdaReg39":[0, 5],"sdaReg14":[4],"sdaReg38":[0, 5],"1093557720":[1],"sdaReg37":[4],"sdaReg12":[2, 3],"sdaReg10":[1],"1093305376":[0],"sdaReg32":[4],"sdaReg31":[4],"sdaReg30":[4],"sdaReg19":[4],"1084215096.<java.nio.charset.CoderResult: int type>":[0, 5],"1093268792":[0],"sdaReg36":[0],"sdaReg17":[1],"sdaReg35":[4],"sdaReg34":[2, 3],"sdaReg15":[1],"sdaReg33":[4],"sdaReg16":[4],"sdaReg8":[2, 3],"sdaReg9":[2],"sdaReg6":[0],"sdaReg4":[1],"sdaReg29":[4],"sdaReg28":[4],"1084215096":[0, 5],"sdaReg3":[0],"sdaReg1":[3],"sdaReg0":[2],"sdaReg20":[1],"sdaReg41":[0, 5],"sdaReg23":[4],"sdaReg22":[4],"sdaReg25":[4],"1093707656":[0],"1093306464":[0]},"colorToColor":{"0":[0, 4, 5],"1":[4],"2":[4],"3":[4],"4":[0, 5]},"colorToLabel":{"0":"this","1":"arg#1","2":"arg#2","3":"arg#3","6":"return"}}}

Generated Model
	arg#3->this
	arg#2->this
	arg#1->this

