Scanning method <android.os.Bundle: java.lang.String toString()>

All seen event types: SimpleAssignmentRecord, MethodReturnRecord, MethodCallRecord, MethodStartRecord, LoadInstanceRecord, MethodEndRecord, IfRecord, NewObjectRecord, 
Ignored event types: IfRecord, 

JSON Encoded Analysis Data (for visualization):{"heapEdges":[{"step":0,"from":"1093416176","to":"1093793104","type":"load","field":"<android.os.Bundle: java.util.Map mMap>"},{"step":1,"from":"1093793104","to":"1093793104.<java.util.HashMap: int size>","type":"load","field":"<java.util.HashMap: int size>"},{"step":2,"from":"sdaReg5","to":"1093552872","type":"model"},{"step":3,"from":"sdaReg5","to":"1093552872","type":"model"},{"step":4,"from":"1093552872","to":"sdaReg8","type":"model"}],"parameters":[{"id":"1093416176","name":"this","klass":"android.os.Bundle"}],"returns":[{"id":"sdaReg8","name":"return","klass":"string"}],"colors":{"heapLocToColor":{"sdaReg8":[1, 2],"1093416176":[0],"sdaReg6":[1],"sdaReg7":[1],"sdaReg3":[0],"sdaReg2":[0],"1093552872":[1],"sdaReg1":[1],"sdaReg0":[1],"1093793104.<java.util.HashMap: int size>":[0],"1093793104":[0]},"colorToColor":{"1":[3],"2":[3]},"colorToLabel":{"0":"this","3":"return"}}}

Generated Model

