Scanning method <android.os.Bundle: java.lang.String toString()>

All seen event types: SimpleAssignmentRecord, LoadInstanceRecord, MethodStartRecord, IfRecord, NewObjectRecord, StoreInstanceRecord, BinaryOperationRecord, MethodCallRecord, MethodReturnRecord, ArrayLengthRecord, CastRecord, LoadArrayRecord, MethodEndRecord, 
Ignored event types: IfRecord, 

JSON Encoded Analysis Data (for visualization):{"heapEdges":[{"step":0,"from":"1093416176","to":"1093793104","type":"load","field":"<android.os.Bundle: java.util.Map mMap>"},{"step":1,"from":"1093793104","to":"1093793104.<java.util.HashMap: int size>","type":"load","field":"<java.util.HashMap: int size>"},{"step":2,"from":"1093793104","to":"1093793104.<java.util.HashMap: int size>","type":"load","field":"<java.util.HashMap: int size>"},{"step":3,"from":"1093793104","to":"1093638640","type":"store","field":"<java.util.HashMap$EntrySet: java.util.HashMap this$0>"},{"step":4,"from":"1093793104","to":"1093638640","type":"create","field":"<java.util.HashMap: java.util.Set entrySet>"},{"step":5,"from":"1093793104","to":"1094041032","type":"store","field":"<java.util.HashMap$EntryIterator: java.util.HashMap this$0>"},{"step":6,"from":"1093793104","to":"1094041032","type":"store","field":"<java.util.HashMap$HashIterator: java.util.HashMap this$0>"},{"step":7,"from":"1093793104","to":"1093793104.<java.util.HashMap: int modCount>","type":"load","field":"<java.util.HashMap: int modCount>"},{"step":8,"from":"1093793104.<java.util.HashMap: int modCount>","to":"1094041032","type":"store","field":"<java.util.HashMap$HashIterator: int expectedModCount>"},{"step":9,"from":"1093793104","to":"1094022504","type":"load","field":"<java.util.HashMap: java.util.HashMap$HashMapEntry[] table>"},{"step":10,"from":"1094041032","to":"1094041032.<java.util.HashMap$HashIterator: int nextIndex>","type":"load","field":"<java.util.HashMap$HashIterator: int nextIndex>"},{"step":11,"from":"1094041032","to":"1094041032.<java.util.HashMap$HashIterator: int nextIndex>","type":"load","field":"<java.util.HashMap$HashIterator: int nextIndex>"},{"step":12,"from":"sdaReg34","to":"1094041032","type":"store","field":"<java.util.HashMap$HashIterator: int nextIndex>"},{"step":13,"from":"sdaReg34","to":"1094041032","type":"store","field":"<java.util.HashMap$HashIterator: int nextIndex>"},{"step":14,"from":"sdaReg34","to":"1094041032","type":"store","field":"<java.util.HashMap$HashIterator: int nextIndex>"},{"step":15,"from":"1094022504","to":"1094022544","type":"load","field":"arrayIdx_int:2"},{"step":16,"from":"1094022544","to":"1094041032","type":"store","field":"<java.util.HashMap$HashIterator: java.util.HashMap$HashMapEntry nextEntry>"},{"step":17,"from":"1093793104","to":"1093793104.<java.util.HashMap: int modCount>","type":"load","field":"<java.util.HashMap: int modCount>"},{"step":18,"from":"1093793104","to":"1094022504","type":"load","field":"<java.util.HashMap: java.util.HashMap$HashMapEntry[] table>"},{"step":19,"from":"sdaReg48","to":"1094041032","type":"store","field":"<java.util.HashMap$HashIterator: int nextIndex>"},{"step":20,"from":"1094022544","to":"1094041032","type":"store","field":"<java.util.HashMap$HashIterator: java.util.HashMap$HashMapEntry lastEntryReturned>"},{"step":21,"from":"1094022544","to":"1093996328","type":"load","field":"<java.util.HashMap$HashMapEntry: java.lang.Object key>"},{"step":22,"from":"1093996328","to":"1094040928","type":"model"},{"step":23,"from":"1094022544","to":"1093996424","type":"load","field":"<java.util.HashMap$HashMapEntry: java.lang.Object value>"},{"step":24,"from":"1093996424","to":"1094040928","type":"model"},{"step":25,"from":"1094040928","to":"sdaReg62","type":"model"},{"step":26,"from":"sdaReg62","to":"1094040816","type":"model"},{"step":27,"from":"sdaReg62","to":"1094040816","type":"model"},{"step":28,"from":"1094040816","to":"sdaReg65","type":"model"}],"parameters":[{"id":"1093416176","name":"this","klass":"android.os.Bundle"}],"returns":[{"id":"sdaReg65","name":"return","klass":"string"}],"colors":{"heapLocToColor":{"sdaReg60":[4],"1093416176":[0],"sdaReg64":[1],"sdaReg65":[1, 6],"sdaReg62":[2, 5],"sdaReg63":[1],"1094041032":[4],"1094022544":[0],"sdaReg13":[0],"sdaReg14":[3],"sdaReg11":[0],"sdaReg12":[3],"sdaReg10":[3],"sdaReg58":[4],"sdaReg57":[0],"sdaReg56":[0],"sdaReg19":[3],"sdaReg55":[0],"sdaReg54":[0],"sdaReg17":[3],"sdaReg53":[0],"sdaReg18":[3],"sdaReg52":[0],"sdaReg15":[3],"sdaReg51":[0],"sdaReg16":[3],"1093996424":[0],"1093996328":[0],"sdaReg50":[0],"1094040816":[1],"1093793104.<java.util.HashMap: java.util.HashMap$HashMapEntry[] table>":[0],"sdaReg45":[4],"sdaReg44":[4],"sdaReg46":[4],"1094041032.<java.util.HashMap$HashIterator: int nextIndex>":[4],"sdaReg41":[4],"sdaReg40":[4],"sdaReg42":[4],"1093793104.<java.util.HashMap: int modCount>":[0],"sdaReg39":[4],"sdaReg38":[4],"sdaReg37":[4],"sdaReg31":[4],"sdaReg30":[0],"sdaReg34":[4],"1093793104":[0],"sdaReg8":[2],"sdaReg9":[0],"sdaReg6":[0],"sdaReg7":[2],"sdaReg5":[0],"1093638640":[3],"sdaReg27":[4],"sdaReg26":[0],"sdaReg29":[4],"sdaReg28":[0],"1094022504":[0],"1094040928":[2],"sdaReg3":[0],"sdaReg2":[0],"sdaReg1":[1],"sdaReg21":[3],"sdaReg0":[1],"sdaReg20":[3],"sdaReg23":[3],"1093793104.<java.util.HashMap: int size>":[0],"sdaReg22":[3],"sdaReg25":[4],"sdaReg24":[0]},"colorToColor":{"0":[2, 3, 4],"1":[7],"2":[1],"3":[0],"4":[4],"5":[1],"6":[7]},"colorToLabel":{"0":"this","7":"return"}}}

Generated Model
	this->return

