Scanning method <java.io.PrintWriter: void write(java.lang.String)>

All seen event types: SimpleAssignmentRecord, ExitMonitorRecord, MethodStartRecord, LoadInstanceRecord, IfRecord, NewObjectRecord, StoreInstanceRecord, BinaryOperationRecord, MethodCallRecord, MethodReturnRecord, EnterMonitorRecord, ArrayLengthRecord, MethodEndRecord, 
Ignored event types: ExitMonitorRecord, EnterMonitorRecord, IfRecord, 

JSON Encoded Analysis Data (for visualization):{"heapEdges":[{"step":0,"from":"sdaReg0","to":"1093300928","type":"model"},{"step":1,"from":"1093290680","to":"1093268792","type":"load","field":"<java.io.Writer: java.lang.Object lock>"},{"step":2,"from":"1093290680","to":"1093268792","type":"load","field":"<java.io.PrintWriter: java.io.Writer out>"},{"step":3,"from":"1093290680","to":"1093268792","type":"load","field":"<java.io.PrintWriter: java.io.Writer out>"},{"step":4,"from":"1093268792","to":"1093707656","type":"load","field":"<java.io.Writer: java.lang.Object lock>"},{"step":5,"from":"1093268792","to":"1093306464","type":"load","field":"<java.io.OutputStreamWriter: java.nio.charset.CharsetEncoder encoder>"},{"step":6,"from":"1093300952","to":"sdaReg34","type":"create","field":"<java.nio.Buffer: int mark>"},{"step":7,"from":"1093300952","to":"sdaReg35","type":"create","field":"<java.nio.Buffer: int position>"},{"step":8,"from":"1093300952","to":"sdaReg32","type":"create","field":"<java.nio.Buffer: int _elementSizeShift>"},{"step":9,"from":"sdaReg26","to":"1093300952","type":"store","field":"<java.nio.Buffer: int limit>"},{"step":10,"from":"sdaReg26","to":"1093300952","type":"store","field":"<java.nio.Buffer: int capacity>"},{"step":11,"from":"1093300952","to":"1093300928","type":"create","field":"<java.nio.CharArrayBuffer: char[] backingArray>"},{"step":12,"from":"1093300952","to":"sdaReg29","type":"create","field":"<java.nio.CharArrayBuffer: int offset>"},{"step":13,"from":"1093300952","to":"sdaReg7","type":"create","field":"<java.nio.Buffer: int position>"},{"step":14,"from":"sdaReg42","to":"1093300952","type":"store","field":"<java.nio.Buffer: int limit>"},{"step":15,"from":"1093268792","to":"1093306464","type":"load","field":"<java.io.OutputStreamWriter: java.nio.charset.CharsetEncoder encoder>"},{"step":16,"from":"1093268792","to":"1093305376","type":"load","field":"<java.io.OutputStreamWriter: java.nio.ByteBuffer bytes>"},{"step":17,"from":"1093306464","to":"1093300952","type":"model"},{"step":18,"from":"1093306464","to":"1093305376","type":"model"},{"step":19,"from":"1093306464","to":"1084215096","type":"model"},{"step":20,"from":"1093300952","to":"1093306464","type":"model"},{"step":21,"from":"1093300952","to":"1093305376","type":"model"},{"step":22,"from":"1093300952","to":"1084215096","type":"model"},{"step":23,"from":"1093305376","to":"1093306464","type":"model"},{"step":24,"from":"1093305376","to":"1093300952","type":"model"},{"step":25,"from":"1093305376","to":"1084215096","type":"model"},{"step":26,"from":"1084215096","to":"1084215096.<java.nio.charset.CoderResult: int type>","type":"load","field":"<java.nio.charset.CoderResult: int type>"},{"step":27,"from":"1084215096","to":"1084215096.<java.nio.charset.CoderResult: int type>","type":"load","field":"<java.nio.charset.CoderResult: int type>"},{"step":28,"from":"1084215096","to":"1084215096.<java.nio.charset.CoderResult: int type>","type":"load","field":"<java.nio.charset.CoderResult: int type>"}],"parameters":[{"id":"1093290680","name":"this","klass":"java.io.PrintWriter"},{"id":"sdaReg0","name":"arg#1","klass":"string"}],"returns":[{"id":null,"name":"return","klass":null}],"colors":{"heapLocToColor":{"1093268792.<java.io.OutputStreamWriter: java.nio.charset.CharsetEncoder encoder>":[0],"1093290680.<java.io.PrintWriter: java.io.Writer out>":[0],"1093290680":[0],"sdaReg39":[3],"sdaReg14":[0],"sdaReg38":[3],"sdaReg11":[0],"sdaReg37":[3],"sdaReg12":[1, 2],"1093305376":[0],"sdaReg31":[3],"sdaReg30":[3],"1084215096.<java.nio.charset.CoderResult: int type>":[0, 4],"1093268792":[0],"sdaReg36":[3],"sdaReg18":[1, 2],"sdaReg33":[3],"sdaReg8":[0],"sdaReg9":[1, 2],"sdaReg6":[1, 2],"sdaReg5":[0],"1093300928":[1, 2],"sdaReg27":[3],"1093300952":[0, 3],"sdaReg28":[1, 2],"sdaReg49":[0, 4],"1084215096":[0, 4],"sdaReg45":[3],"sdaReg3":[1, 2],"sdaReg44":[0],"sdaReg2":[0],"sdaReg47":[0, 4],"sdaReg1":[1, 2],"sdaReg46":[0, 4],"sdaReg0":[1],"sdaReg41":[3],"sdaReg23":[1, 2],"sdaReg40":[3],"sdaReg22":[3],"sdaReg43":[3],"1093707656":[0],"sdaReg25":[1, 2],"1093306464":[0],"sdaReg24":[3]},"colorToColor":{"0":[0, 3, 4],"1":[3],"2":[3],"3":[0, 4]},"colorToLabel":{"0":"this","1":"arg#1","5":"return"}}}

Generated Model
	arg#1->this

