Scanning method <java.io.PrintWriter: void write(java.lang.String)>

All seen event types: SimpleAssignmentRecord, ExitMonitorRecord, MethodReturnRecord, MethodCallRecord, EnterMonitorRecord, LoadInstanceRecord, ArrayLengthRecord, MethodStartRecord, MethodEndRecord, IfRecord, StoreInstanceRecord, 
Ignored event types: ExitMonitorRecord, EnterMonitorRecord, IfRecord, 

JSON Encoded Analysis Data (for visualization):{"heapEdges":[{"step":0,"from":"sdaReg0","to":"1093313120","type":"model"},{"step":1,"from":"1093692904","to":"1093701048","type":"load","field":"<java.io.Writer: java.lang.Object lock>"},{"step":2,"from":"1093692904","to":"1093701048","type":"load","field":"<java.io.Writer: java.lang.Object lock>"},{"step":3,"from":"1093692904","to":"sdaReg13","type":"create","field":"<java.io.PrintWriter: boolean ioError>"}],"parameters":[{"id":"1093692904","name":"this","klass":"java.io.PrintWriter"},{"id":"sdaReg0","name":"arg#1","klass":"string"}],"returns":[{"id":null,"name":"return","klass":null}],"colors":{"heapLocToColor":{"sdaReg8":[0],"sdaReg9":[1, 2],"sdaReg6":[1, 2],"sdaReg5":[0],"1093313120":[1, 2],"1093692904.<java.io.Writer: java.lang.Object lock>":[0],"sdaReg11":[0],"sdaReg12":[0],"sdaReg3":[1, 2],"sdaReg2":[0],"1093701048":[0],"sdaReg1":[1, 2],"sdaReg0":[1],"1093692904":[0]},"colorToColor":{},"colorToLabel":{"0":"this","1":"arg#1","3":"return"}}}

Generated Model

