Scanning method <java.nio.CharBuffer: java.nio.CharBuffer wrap(char[],int,int)>

All seen event types: BinaryOperationRecord, SimpleAssignmentRecord, MethodReturnRecord, MethodCallRecord, MethodStartRecord, ArrayLengthRecord, MethodEndRecord, IfRecord, StoreInstanceRecord, NewObjectRecord, 
Ignored event types: IfRecord, 

JSON Encoded Analysis Data (for visualization):{"heapEdges":[{"step":0,"from":"1093596392","to":"sdaReg17","type":"create","field":"<java.nio.Buffer: int mark>"},{"step":1,"from":"1093596392","to":"sdaReg18","type":"create","field":"<java.nio.Buffer: int position>"},{"step":2,"from":"1093596392","to":"sdaReg15","type":"create","field":"<java.nio.Buffer: int _elementSizeShift>"},{"step":3,"from":"sdaReg9","to":"1093596392","type":"store","field":"<java.nio.Buffer: int limit>"},{"step":4,"from":"sdaReg9","to":"1093596392","type":"store","field":"<java.nio.Buffer: int capacity>"},{"step":5,"from":"1093596256","to":"1093596392","type":"store","field":"<java.nio.CharArrayBuffer: char[] backingArray>"},{"step":6,"from":"1093596392","to":"sdaReg12","type":"create","field":"<java.nio.CharArrayBuffer: int offset>"},{"step":7,"from":"sdaReg0","to":"1093596392","type":"store","field":"<java.nio.Buffer: int position>"},{"step":8,"from":"sdaReg25","to":"1093596392","type":"store","field":"<java.nio.Buffer: int limit>"}],"parameters":[{"id":"1093596256","name":"arg#0","klass":"char[]"},{"id":"sdaReg0","name":"arg#1","klass":"int"},{"id":"sdaReg1","name":"arg#2","klass":"int"}],"returns":[{"id":"1093596392","name":"return","klass":"java.nio.CharBuffer"}],"colors":{"heapLocToColor":{"sdaReg8":[0],"sdaReg6":[0],"sdaReg7":[3],"sdaReg4":[1],"sdaReg5":[3],"1093596256":[0],"sdaReg13":[3],"sdaReg14":[3],"sdaReg11":[0],"sdaReg10":[3],"sdaReg3":[1, 2],"sdaReg21":[3],"sdaReg19":[3],"sdaReg1":[2],"1093596392":[3],"sdaReg20":[3],"sdaReg0":[1],"sdaReg23":[3],"sdaReg22":[3],"sdaReg25":[1, 2],"sdaReg24":[3],"sdaReg16":[3]},"colorToColor":{"0":[3],"1":[3],"2":[3],"3":[4]},"colorToLabel":{"0":"arg#0","1":"arg#1","2":"arg#2","4":"return"}}}

Generated Model
	arg#2->return
	arg#1->return
	arg#0->return

