Scanning method <android.os.Bundle: void unparcel()>

All seen event types: StoreArrayRecord, SimpleAssignmentRecord, ExitMonitorRecord, LoadInstanceRecord, MethodStartRecord, IfRecord, InstanceOfRecord, NewObjectRecord, StoreInstanceRecord, NewArrayRecord, LoadStaticRecord, BinaryOperationRecord, MethodCallRecord, MethodReturnRecord, SwitchRecord, EnterMonitorRecord, CastRecord, ArrayLengthRecord, LoadArrayRecord, MethodEndRecord, 
Ignored event types: ExitMonitorRecord, SwitchRecord, EnterMonitorRecord, IfRecord, 

JSON Encoded Analysis Data (for visualization):{"heapEdges":[{"step":0,"from":"1093769184","to":"1093478240","type":"load","field":"<android.os.Bundle: android.os.Parcel mParcelledData>"},{"step":1,"from":"1093769184","to":"1093478240","type":"load","field":"<android.os.Bundle: android.os.Parcel mParcelledData>"},{"step":2,"from":"1093478240","to":"sdaReg0","type":"model"},{"step":3,"from":"static.<java.util.HashMap: java.util.Map$Entry[] EMPTY_TABLE>","to":"1083997920","type":"load","field":"<java.util.HashMap: java.util.Map$Entry[] EMPTY_TABLE>"},{"step":4,"from":"1083997920","to":"1093945336","type":"store","field":"<java.util.HashMap: java.util.HashMap$HashMapEntry[] table>"},{"step":5,"from":"1093945336","to":"sdaReg7","type":"create","field":"<java.util.HashMap: int threshold>"},{"step":6,"from":"1093769184","to":"1093945336","type":"create","field":"<android.os.Bundle: java.util.Map mMap>"},{"step":7,"from":"1093769184","to":"1093478240","type":"load","field":"<android.os.Bundle: android.os.Parcel mParcelledData>"},{"step":8,"from":"1093478240","to":"sdaReg14","type":"model"},{"step":9,"from":"1093478240","to":"sdaReg15","type":"model"},{"step":10,"from":"1093478240","to":"sdaReg19","type":"model"},{"step":11,"from":"1093478240","to":"sdaReg21","type":"model"},{"step":12,"from":"1093478240","to":"1093917168","type":"model"},{"step":13,"from":"1093917240","to":"sdaReg28","type":"create","field":"<java.io.ByteArrayInputStream: int mark>"},{"step":14,"from":"1093917240","to":"1093917168","type":"create","field":"<java.io.ByteArrayInputStream: byte[] buf>"},{"step":15,"from":"sdaReg29","to":"1093917240","type":"store","field":"<java.io.ByteArrayInputStream: int count>"},{"step":16,"from":"static.<libcore.util.EmptyArray: byte[] BYTE>","to":"1083993968","type":"load","field":"<libcore.util.EmptyArray: byte[] BYTE>"},{"step":17,"from":"1093783616","to":"sdaReg42","type":"create","field":"<java.io.ByteArrayInputStream: int mark>"},{"step":18,"from":"1083993968","to":"1093783616","type":"store","field":"<java.io.ByteArrayInputStream: byte[] buf>"},{"step":19,"from":"sdaReg43","to":"1093783616","type":"store","field":"<java.io.ByteArrayInputStream: int count>"},{"step":20,"from":"1093783528","to":"1093783616","type":"create","field":"<java.io.ObjectInputStream: java.io.InputStream emptyStream>"},{"step":21,"from":"1093783616","to":"1093783528","type":"store","field":"<java.io.ObjectInputStream: java.io.InputStream primitiveData>"},{"step":22,"from":"1093783528","to":"sdaReg45","type":"create","field":"<java.io.ObjectInputStream: boolean mustResolve>"},{"step":23,"from":"1093783528","to":"sdaReg46","type":"create","field":"<java.io.ObjectInputStream: int descriptorHandle>"},{"step":24,"from":"static.<java.util.HashMap: java.util.Map$Entry[] EMPTY_TABLE>","to":"1083997920","type":"load","field":"<java.util.HashMap: java.util.Map$Entry[] EMPTY_TABLE>"},{"step":25,"from":"1083997920","to":"1093888328","type":"store","field":"<java.util.HashMap: java.util.HashMap$HashMapEntry[] table>"},{"step":26,"from":"1093888328","to":"sdaReg53","type":"create","field":"<java.util.HashMap: int threshold>"},{"step":27,"from":"1093783528","to":"1093888328","type":"create","field":"<java.io.ObjectInputStream: java.util.HashMap cachedSuperclasses>"},{"step":28,"from":"1093888384","to":"1093917240","type":"create","field":"<java.io.FilterInputStream: java.io.InputStream in>"},{"step":29,"from":"1093888384","to":"1093890272","type":"create","field":"<java.io.DataInputStream: byte[] scratch>"},{"step":30,"from":"1093783528","to":"1093888384","type":"create","field":"<java.io.ObjectInputStream: java.io.DataInputStream input>"},{"step":31,"from":"1093890304","to":"1093783528","type":"create","field":"<java.io.FilterInputStream: java.io.InputStream in>"},{"step":32,"from":"1093890304","to":"1093890328","type":"create","field":"<java.io.DataInputStream: byte[] scratch>"},{"step":33,"from":"1093783528","to":"1093890304","type":"create","field":"<java.io.ObjectInputStream: java.io.DataInputStream primitiveTypes>"},{"step":34,"from":"1093783528","to":"sdaReg74","type":"create","field":"<java.io.ObjectInputStream: boolean enableResolve>"},{"step":35,"from":"1093783528","to":"sdaReg75","type":"create","field":"<java.io.ObjectInputStream: boolean subclassOverridingImplementation>"},{"step":36,"from":"static.<libcore.util.EmptyArray: java.lang.Object[] OBJECT>","to":"1083994088","type":"load","field":"<libcore.util.EmptyArray: java.lang.Object[] OBJECT>"},{"step":37,"from":"1083994088","to":"1093890360","type":"store","field":"<java.util.ArrayList: java.lang.Object[] array>"},{"step":38,"from":"1093783528","to":"1093890360","type":"create","field":"<java.io.ObjectInputStream: java.util.ArrayList objectsRead>"},{"step":39,"from":"1093783528","to":"sdaReg85","type":"create","field":"<java.io.ObjectInputStream: int nextHandle>"},{"step":40,"from":"1093783616","to":"1093783528","type":"store","field":"<java.io.ObjectInputStream: java.io.InputStream primitiveData>"},{"step":41,"from":"1093783528","to":"sdaReg86","type":"create","field":"<java.io.ObjectInputStream: boolean hasPushbackTC>"},{"step":42,"from":"1093783528","to":"sdaReg87","type":"create","field":"<java.io.ObjectInputStream: byte pushbackTC>"},{"step":43,"from":"1093783528","to":"sdaReg88","type":"create","field":"<java.io.ObjectInputStream: int nestedLevels>"},{"step":44,"from":"1093888384","to":"1093783528","type":"store","field":"<java.io.ObjectInputStream: java.io.InputStream primitiveData>"},{"step":45,"from":"1093917240","to":"1093890272","type":"model"},{"step":46,"from":"static.<java.nio.ByteOrder: java.nio.ByteOrder BIG_ENDIAN>","to":"1084439336","type":"load","field":"<java.nio.ByteOrder: java.nio.ByteOrder BIG_ENDIAN>"},{"step":47,"from":"1093890272","to":"sdaReg91","type":"model"},{"step":48,"from":"1093917240","to":"1093890272","type":"model"},{"step":49,"from":"static.<java.nio.ByteOrder: java.nio.ByteOrder BIG_ENDIAN>","to":"1084439336","type":"load","field":"<java.nio.ByteOrder: java.nio.ByteOrder BIG_ENDIAN>"},{"step":50,"from":"1093890272","to":"sdaReg93","type":"model"},{"step":51,"from":"1093783616","to":"1093783528","type":"store","field":"<java.io.ObjectInputStream: java.io.InputStream primitiveData>"},{"step":52,"from":"sdaReg101","to":"1093783528","type":"store","field":"<java.io.ObjectInputStream: int nestedLevels>"},{"step":53,"from":"1093676392","to":"1085809544","type":"load","field":"arrayIdx_int:0"},{"step":54,"from":"1085809544","to":"1083999984","type":"model"},{"step":55,"from":"static.<java.io.ObjectInputStream: java.lang.ClassLoader bootstrapLoader>","to":"1083999984","type":"load","field":"<java.io.ObjectInputStream: java.lang.ClassLoader bootstrapLoader>"},{"step":56,"from":"1093676392","to":"1085809544","type":"load","field":"arrayIdx_int:1"},{"step":57,"from":"1085809544","to":"1083999984","type":"model"},{"step":58,"from":"static.<java.io.ObjectInputStream: java.lang.ClassLoader bootstrapLoader>","to":"1083999984","type":"load","field":"<java.io.ObjectInputStream: java.lang.ClassLoader bootstrapLoader>"},{"step":59,"from":"1093676392","to":"1085809544","type":"load","field":"arrayIdx_int:2"},{"step":60,"from":"1085809544","to":"1083999984","type":"model"},{"step":61,"from":"static.<java.io.ObjectInputStream: java.lang.ClassLoader bootstrapLoader>","to":"1083999984","type":"load","field":"<java.io.ObjectInputStream: java.lang.ClassLoader bootstrapLoader>"},{"step":62,"from":"1093676392","to":"1085809544","type":"load","field":"arrayIdx_int:3"},{"step":63,"from":"1085809544","to":"1083999984","type":"model"},{"step":64,"from":"static.<java.io.ObjectInputStream: java.lang.ClassLoader bootstrapLoader>","to":"1083999984","type":"load","field":"<java.io.ObjectInputStream: java.lang.ClassLoader bootstrapLoader>"},{"step":65,"from":"1093676392","to":"1085809544","type":"load","field":"arrayIdx_int:4"},{"step":66,"from":"1085809544","to":"1083999984","type":"model"},{"step":67,"from":"static.<java.io.ObjectInputStream: java.lang.ClassLoader bootstrapLoader>","to":"1083999984","type":"load","field":"<java.io.ObjectInputStream: java.lang.ClassLoader bootstrapLoader>"},{"step":68,"from":"1093676392","to":"1084021776","type":"load","field":"arrayIdx_int:5"},{"step":69,"from":"1084021776","to":"1083999984","type":"model"},{"step":70,"from":"static.<java.io.ObjectInputStream: java.lang.ClassLoader bootstrapLoader>","to":"1083999984","type":"load","field":"<java.io.ObjectInputStream: java.lang.ClassLoader bootstrapLoader>"},{"step":71,"from":"1093676392","to":"1084021776","type":"load","field":"arrayIdx_int:6"},{"step":72,"from":"1084021776","to":"1083999984","type":"model"},{"step":73,"from":"static.<java.io.ObjectInputStream: java.lang.ClassLoader bootstrapLoader>","to":"1083999984","type":"load","field":"<java.io.ObjectInputStream: java.lang.ClassLoader bootstrapLoader>"},{"step":74,"from":"1093676392","to":"1084021776","type":"load","field":"arrayIdx_int:7"},{"step":75,"from":"1084021776","to":"1083999984","type":"model"},{"step":76,"from":"static.<java.io.ObjectInputStream: java.lang.ClassLoader bootstrapLoader>","to":"1083999984","type":"load","field":"<java.io.ObjectInputStream: java.lang.ClassLoader bootstrapLoader>"},{"step":77,"from":"1093676392","to":"1084021776","type":"load","field":"arrayIdx_int:8"},{"step":78,"from":"1084021776","to":"1083999984","type":"model"},{"step":79,"from":"static.<java.io.ObjectInputStream: java.lang.ClassLoader bootstrapLoader>","to":"1083999984","type":"load","field":"<java.io.ObjectInputStream: java.lang.ClassLoader bootstrapLoader>"},{"step":80,"from":"1093676392","to":"1084021776","type":"load","field":"arrayIdx_int:9"},{"step":81,"from":"1084021776","to":"1083999984","type":"model"},{"step":82,"from":"static.<java.io.ObjectInputStream: java.lang.ClassLoader bootstrapLoader>","to":"1083999984","type":"load","field":"<java.io.ObjectInputStream: java.lang.ClassLoader bootstrapLoader>"},{"step":83,"from":"1093676392","to":"1084021776","type":"load","field":"arrayIdx_int:10"},{"step":84,"from":"1084021776","to":"1083999984","type":"model"},{"step":85,"from":"static.<java.io.ObjectInputStream: java.lang.ClassLoader bootstrapLoader>","to":"1083999984","type":"load","field":"<java.io.ObjectInputStream: java.lang.ClassLoader bootstrapLoader>"},{"step":86,"from":"1093676392","to":"1084342632","type":"load","field":"arrayIdx_int:11"},{"step":87,"from":"1084342632","to":"1083999984","type":"model"},{"step":88,"from":"static.<java.io.ObjectInputStream: java.lang.ClassLoader bootstrapLoader>","to":"1083999984","type":"load","field":"<java.io.ObjectInputStream: java.lang.ClassLoader bootstrapLoader>"},{"step":89,"from":"1093676392","to":"1084342632","type":"load","field":"arrayIdx_int:12"},{"step":90,"from":"1084342632","to":"1083999984","type":"model"},{"step":91,"from":"static.<java.io.ObjectInputStream: java.lang.ClassLoader bootstrapLoader>","to":"1083999984","type":"load","field":"<java.io.ObjectInputStream: java.lang.ClassLoader bootstrapLoader>"},{"step":92,"from":"1093676392","to":"1084342632","type":"load","field":"arrayIdx_int:13"},{"step":93,"from":"1084342632","to":"1083999984","type":"model"},{"step":94,"from":"static.<java.io.ObjectInputStream: java.lang.ClassLoader bootstrapLoader>","to":"1083999984","type":"load","field":"<java.io.ObjectInputStream: java.lang.ClassLoader bootstrapLoader>"},{"step":95,"from":"1093676392","to":"1084342632","type":"load","field":"arrayIdx_int:14"},{"step":96,"from":"1084342632","to":"1083999984","type":"model"},{"step":97,"from":"static.<java.io.ObjectInputStream: java.lang.ClassLoader bootstrapLoader>","to":"1083999984","type":"load","field":"<java.io.ObjectInputStream: java.lang.ClassLoader bootstrapLoader>"},{"step":98,"from":"1093676392","to":"1093539352","type":"load","field":"arrayIdx_int:15"},{"step":99,"from":"1093539352","to":"1093490896","type":"model"},{"step":100,"from":"static.<java.io.ObjectInputStream: java.lang.ClassLoader bootstrapLoader>","to":"1083999984","type":"load","field":"<java.io.ObjectInputStream: java.lang.ClassLoader bootstrapLoader>"},{"step":101,"from":"static.<java.io.ObjectInputStream: java.lang.ClassLoader systemLoader>","to":"1083999760","type":"load","field":"<java.io.ObjectInputStream: java.lang.ClassLoader systemLoader>"},{"step":102,"from":"1093783528","to":"1093490896","type":"create","field":"<java.io.ObjectInputStream: java.lang.ClassLoader callerClassLoader>"},{"step":103,"from":"1093783616","to":"1093783616.<java.io.ByteArrayInputStream: int pos>","type":"load","field":"<java.io.ByteArrayInputStream: int pos>"},{"step":104,"from":"1093917240","to":"1093917240.<java.io.ByteArrayInputStream: int pos>","type":"load","field":"<java.io.ByteArrayInputStream: int pos>"},{"step":105,"from":"1093917240","to":"1093917240.<java.io.ByteArrayInputStream: int pos>","type":"load","field":"<java.io.ByteArrayInputStream: int pos>"},{"step":106,"from":"sdaReg130","to":"1093917240","type":"store","field":"<java.io.ByteArrayInputStream: int pos>"},{"step":107,"from":"1093917168","to":"1093917168.arrayIdx_int:4","type":"load","field":"arrayIdx_int:4"},{"step":108,"from":"sdaReg132","to":"1093783528","type":"store","field":"<java.io.ObjectInputStream: byte pushbackTC>"},{"step":109,"from":"1093783528","to":"sdaReg134","type":"create","field":"<java.io.ObjectInputStream: boolean hasPushbackTC>"},{"step":110,"from":"1093783616","to":"1093783616.<java.io.ByteArrayInputStream: int pos>","type":"load","field":"<java.io.ByteArrayInputStream: int pos>"},{"step":111,"from":"1093783528","to":"sdaReg138","type":"create","field":"<java.io.ObjectInputStream: boolean hasPushbackTC>"},{"step":112,"from":"sdaReg145","to":"1093917240","type":"store","field":"<java.io.ByteArrayInputStream: int pos>"},{"step":113,"from":"1093917168","to":"1093917168.arrayIdx_int:5","type":"load","field":"arrayIdx_int:5"},{"step":114,"from":"sdaReg147","to":"1093783528","type":"store","field":"<java.io.ObjectInputStream: byte pushbackTC>"},{"step":115,"from":"1093888384","to":"1093783528","type":"store","field":"<java.io.ObjectInputStream: java.io.InputStream primitiveData>"},{"step":116,"from":"sdaReg152","to":"1093783528","type":"store","field":"<java.io.ObjectInputStream: int nextHandle>"},{"step":117,"from":"sdaReg153","to":"1093783528","type":"store","field":"<java.io.ObjectInputStream: int descriptorHandle>"},{"step":118,"from":"1093917240","to":"1093890272","type":"model"},{"step":119,"from":"static.<java.nio.ByteOrder: java.nio.ByteOrder BIG_ENDIAN>","to":"1084439336","type":"load","field":"<java.nio.ByteOrder: java.nio.ByteOrder BIG_ENDIAN>"},{"step":120,"from":"1093890272","to":"sdaReg160","type":"model"},{"step":121,"from":"1093917240","to":"1093778352","type":"model"},{"step":122,"from":"1093778352","to":"1093778352.arrayIdx_int:0","type":"load","field":"arrayIdx_int:0"},{"step":123,"from":"sdaReg174","to":"1093934024","type":"store","field":"arrayIdx_int:0"},{"step":124,"from":"1093778352","to":"1093778352.arrayIdx_int:1","type":"load","field":"arrayIdx_int:1"},{"step":125,"from":"sdaReg174","to":"1093934024","type":"store","field":"arrayIdx_int:1"},{"step":126,"from":"1093778352","to":"1093778352.arrayIdx_int:2","type":"load","field":"arrayIdx_int:2"},{"step":127,"from":"sdaReg174","to":"1093934024","type":"store","field":"arrayIdx_int:2"},{"step":128,"from":"1093778352","to":"1093778352.arrayIdx_int:3","type":"load","field":"arrayIdx_int:3"},{"step":129,"from":"sdaReg174","to":"1093934024","type":"store","field":"arrayIdx_int:3"},{"step":130,"from":"1093778352","to":"1093778352.arrayIdx_int:4","type":"load","field":"arrayIdx_int:4"},{"step":131,"from":"sdaReg174","to":"1093934024","type":"store","field":"arrayIdx_int:4"},{"step":132,"from":"1093778352","to":"1093778352.arrayIdx_int:5","type":"load","field":"arrayIdx_int:5"},{"step":133,"from":"sdaReg174","to":"1093934024","type":"store","field":"arrayIdx_int:5"},{"step":134,"from":"1093778352","to":"1093778352.arrayIdx_int:6","type":"load","field":"arrayIdx_int:6"},{"step":135,"from":"sdaReg174","to":"1093934024","type":"store","field":"arrayIdx_int:6"},{"step":136,"from":"1093778352","to":"1093778352.arrayIdx_int:7","type":"load","field":"arrayIdx_int:7"},{"step":137,"from":"sdaReg174","to":"1093934024","type":"store","field":"arrayIdx_int:7"},{"step":138,"from":"1093778352","to":"1093778352.arrayIdx_int:8","type":"load","field":"arrayIdx_int:8"},{"step":139,"from":"sdaReg174","to":"1093934024","type":"store","field":"arrayIdx_int:8"},{"step":140,"from":"1093778352","to":"1093778352.arrayIdx_int:9","type":"load","field":"arrayIdx_int:9"},{"step":141,"from":"sdaReg174","to":"1093934024","type":"store","field":"arrayIdx_int:9"},{"step":142,"from":"1093778352","to":"1093778352.arrayIdx_int:10","type":"load","field":"arrayIdx_int:10"},{"step":143,"from":"sdaReg174","to":"1093934024","type":"store","field":"arrayIdx_int:10"},{"step":144,"from":"1093778352","to":"1093778352.arrayIdx_int:11","type":"load","field":"arrayIdx_int:11"},{"step":145,"from":"sdaReg174","to":"1093934024","type":"store","field":"arrayIdx_int:11"},{"step":146,"from":"1093778352","to":"1093778352.arrayIdx_int:12","type":"load","field":"arrayIdx_int:12"},{"step":147,"from":"sdaReg174","to":"1093934024","type":"store","field":"arrayIdx_int:12"},{"step":148,"from":"1093778352","to":"1093778352.arrayIdx_int:13","type":"load","field":"arrayIdx_int:13"},{"step":149,"from":"sdaReg174","to":"1093934024","type":"store","field":"arrayIdx_int:13"},{"step":150,"from":"1093778352","to":"1093778352.arrayIdx_int:14","type":"load","field":"arrayIdx_int:14"},{"step":151,"from":"sdaReg174","to":"1093934024","type":"store","field":"arrayIdx_int:14"},{"step":152,"from":"1093778352","to":"1093778352.arrayIdx_int:15","type":"load","field":"arrayIdx_int:15"},{"step":153,"from":"sdaReg174","to":"1093934024","type":"store","field":"arrayIdx_int:15"},{"step":154,"from":"1093778352","to":"1093778352.arrayIdx_int:16","type":"load","field":"arrayIdx_int:16"},{"step":155,"from":"sdaReg174","to":"1093934024","type":"store","field":"arrayIdx_int:16"},{"step":156,"from":"1093778352","to":"1093778352.arrayIdx_int:17","type":"load","field":"arrayIdx_int:17"},{"step":157,"from":"sdaReg174","to":"1093934024","type":"store","field":"arrayIdx_int:17"},{"step":158,"from":"1093778352","to":"1093778352.arrayIdx_int:18","type":"load","field":"arrayIdx_int:18"},{"step":159,"from":"sdaReg174","to":"1093934024","type":"store","field":"arrayIdx_int:18"},{"step":160,"from":"1093934024","to":"sdaReg175","type":"model"},{"step":161,"from":"1093648688","to":"sdaReg175","type":"model"},{"step":162,"from":"sdaReg175","to":"1093648688","type":"model"},{"step":163,"from":"1093917240","to":"1093890272","type":"model"},{"step":164,"from":"static.<java.nio.ByteOrder: java.nio.ByteOrder BIG_ENDIAN>","to":"1084439336","type":"load","field":"<java.nio.ByteOrder: java.nio.ByteOrder BIG_ENDIAN>"},{"step":165,"from":"1093890272","to":"sdaReg178","type":"model"},{"step":166,"from":"1093648688","to":"sdaReg178","type":"model"},{"step":167,"from":"sdaReg178","to":"1093648688","type":"model"},{"step":168,"from":"sdaReg181","to":"1093917240","type":"store","field":"<java.io.ByteArrayInputStream: int pos>"},{"step":169,"from":"1093917168","to":"1093917168.arrayIdx_int:35","type":"load","field":"arrayIdx_int:35"},{"step":170,"from":"1093648688","to":"sdaReg183","type":"model"},{"step":171,"from":"sdaReg183","to":"1093648688","type":"model"},{"step":172,"from":"1093890360","to":"1093890360.<java.util.ArrayList: int size>","type":"load","field":"<java.util.ArrayList: int size>"},{"step":173,"from":"1093890360","to":"1093890360.<java.util.ArrayList: int size>","type":"load","field":"<java.util.ArrayList: int size>"},{"step":174,"from":"1083994088","to":"1093498776","type":"model"},{"step":175,"from":"1093890360","to":"1093498776","type":"create","field":"<java.util.ArrayList: java.lang.Object[] array>"},{"step":176,"from":"1093498776","to":"1093648688","type":"create","field":"arrayIdx_int:0"},{"step":177,"from":"sdaReg196","to":"1093890360","type":"store","field":"<java.util.ArrayList: int size>"},{"step":178,"from":"1093890360","to":"1093890360.<java.util.AbstractList: int modCount>","type":"load","field":"<java.util.AbstractList: int modCount>"},{"step":179,"from":"sdaReg197","to":"1093890360","type":"store","field":"<java.util.AbstractList: int modCount>"},{"step":180,"from":"1093917240","to":"1093890272","type":"model"},{"step":181,"from":"static.<java.nio.ByteOrder: java.nio.ByteOrder BIG_ENDIAN>","to":"1084439336","type":"load","field":"<java.nio.ByteOrder: java.nio.ByteOrder BIG_ENDIAN>"},{"step":182,"from":"1093890272","to":"sdaReg202","type":"model"},{"step":183,"from":"1093648688","to":"1093507768","type":"model"},{"step":184,"from":"1093507768","to":"1093648688","type":"model"},{"step":185,"from":"sdaReg206","to":"1093917240","type":"store","field":"<java.io.ByteArrayInputStream: int pos>"},{"step":186,"from":"1093917168","to":"1093917168.arrayIdx_int:38","type":"load","field":"arrayIdx_int:38"},{"step":187,"from":"1093917240","to":"1093890272","type":"model"},{"step":188,"from":"static.<java.nio.ByteOrder: java.nio.ByteOrder BIG_ENDIAN>","to":"1084439336","type":"load","field":"<java.nio.ByteOrder: java.nio.ByteOrder BIG_ENDIAN>"},{"step":189,"from":"1093890272","to":"sdaReg213","type":"model"},{"step":190,"from":"1093917240","to":"1093907624","type":"model"},{"step":191,"from":"1093907624","to":"1093907624.arrayIdx_int:0","type":"load","field":"arrayIdx_int:0"},{"step":192,"from":"sdaReg227","to":"1093782216","type":"store","field":"arrayIdx_int:0"},{"step":193,"from":"1093907624","to":"1093907624.arrayIdx_int:1","type":"load","field":"arrayIdx_int:1"},{"step":194,"from":"sdaReg227","to":"1093782216","type":"store","field":"arrayIdx_int:1"},{"step":195,"from":"1093907624","to":"1093907624.arrayIdx_int:2","type":"load","field":"arrayIdx_int:2"},{"step":196,"from":"sdaReg227","to":"1093782216","type":"store","field":"arrayIdx_int:2"},{"step":197,"from":"1093907624","to":"1093907624.arrayIdx_int:3","type":"load","field":"arrayIdx_int:3"},{"step":198,"from":"sdaReg227","to":"1093782216","type":"store","field":"arrayIdx_int:3"},{"step":199,"from":"1093907624","to":"1093907624.arrayIdx_int:4","type":"load","field":"arrayIdx_int:4"},{"step":200,"from":"sdaReg227","to":"1093782216","type":"store","field":"arrayIdx_int:4"},{"step":201,"from":"1093782216","to":"sdaReg228","type":"model"},{"step":202,"from":"sdaReg209","to":"sdaReg229","type":"model"},{"step":203,"from":"sdaReg209","to":"sdaReg230","type":"model"},{"step":204,"from":"sdaReg230","to":"sdaReg231","type":"model"},{"step":205,"from":"sdaReg230","to":"sdaReg233","type":"model"},{"step":206,"from":"sdaReg231","to":"sdaReg230","type":"model"},{"step":207,"from":"sdaReg231","to":"sdaReg233","type":"model"},{"step":208,"from":"sdaReg228","to":"1093851600","type":"store","field":"<java.io.ObjectStreamField: java.lang.String name>"},{"step":209,"from":"sdaReg230","to":"sdaReg236","type":"model"},{"step":210,"from":"sdaReg236","to":"sdaReg237","type":"model"},{"step":211,"from":"sdaReg237","to":"1093851600","type":"store","field":"<java.io.ObjectStreamField: java.lang.String typeString>"},{"step":212,"from":"static.<java.lang.Character: java.lang.Class TYPE>","to":"1083909448","type":"load","field":"<java.lang.Character: java.lang.Class TYPE>"},{"step":213,"from":"1083909448","to":"1093851600","type":"store","field":"<java.io.ObjectStreamField: java.lang.Object type>"},{"step":214,"from":"1093851600","to":"sdaReg241","type":"create","field":"<java.io.ObjectStreamField: boolean isDeserialized>"},{"step":215,"from":"1093507768","to":"1093851600","type":"create","field":"arrayIdx_int:0"},{"step":216,"from":"1093648688","to":"1093498776","type":"store","field":"arrayIdx_int:0"},{"step":217,"from":"sdaReg254","to":"1093783528","type":"store","field":"<java.io.ObjectInputStream: int descriptorHandle>"},{"step":218,"from":"1093783616","to":"1093783528","type":"store","field":"<java.io.ObjectInputStream: java.io.InputStream primitiveData>"},{"step":219,"from":"1093648688","to":"0","type":"model"},{"step":220,"from":"1093648688","to":"sdaReg258","type":"model"},{"step":221,"from":"static.<java.io.ObjectInputStream: java.util.HashMap PRIMITIVE_CLASSES>","to":"1093917272","type":"load","field":"<java.io.ObjectInputStream: java.util.HashMap PRIMITIVE_CLASSES>"},{"step":222,"from":"1093917272","to":"1093782760","type":"load","field":"<java.util.HashMap: java.util.HashMap$HashMapEntry[] table>"},{"step":223,"from":"sdaReg258","to":"1093490896","type":"model"},{"step":224,"from":"sdaReg258","to":"1083932144","type":"model"},{"step":225,"from":"1093490896","to":"sdaReg258","type":"model"},{"step":226,"from":"1093490896","to":"1083932144","type":"model"},{"step":227,"from":"1093648688","to":"1083932144","type":"model"},{"step":228,"from":"1083932144","to":"1093648688","type":"model"},{"step":229,"from":"1093648688","to":"1083932144","type":"model"},{"step":230,"from":"1083932144","to":"1093910152","type":"model"},{"step":231,"from":"1093648688","to":"sdaReg279","type":"model"},{"step":232,"from":"1093910152","to":"sdaReg280","type":"model"},{"step":233,"from":"1093648688","to":"sdaReg282","type":"model"},{"step":234,"from":"sdaReg282","to":"sdaReg283","type":"model"},{"step":235,"from":"sdaReg282","to":"sdaReg287","type":"model"},{"step":236,"from":"1093910152","to":"sdaReg288","type":"model"},{"step":237,"from":"sdaReg288","to":"sdaReg289","type":"model"},{"step":238,"from":"sdaReg288","to":"sdaReg293","type":"model"},{"step":239,"from":"1093648688","to":"1093910152","type":"model"},{"step":240,"from":"1093910152","to":"1093648688","type":"model"},{"step":241,"from":"1093648688","to":"1093507768","type":"model"},{"step":242,"from":"1093648688","to":"1083932144","type":"model"},{"step":243,"from":"1093648688","to":"1083932144","type":"model"},{"step":244,"from":"1083932144","to":"1083999984","type":"model"},{"step":245,"from":"static.<java.lang.Character: java.lang.Class TYPE>","to":"1083909448","type":"load","field":"<java.lang.Character: java.lang.Class TYPE>"},{"step":246,"from":"1083909448","to":"1093851600","type":"store","field":"<java.io.ObjectStreamField: java.lang.Object type>"},{"step":247,"from":"1093783616","to":"1093783528","type":"store","field":"<java.io.ObjectInputStream: java.io.InputStream primitiveData>"},{"step":248,"from":"1093783528","to":"sdaReg312","type":"create","field":"<java.io.ObjectInputStream: boolean mustResolve>"},{"step":249,"from":"sdaReg316","to":"1093917240","type":"store","field":"<java.io.ByteArrayInputStream: int pos>"},{"step":250,"from":"1093917168","to":"1093917168.arrayIdx_int:46","type":"load","field":"arrayIdx_int:46"},{"step":251,"from":"sdaReg318","to":"1093783528","type":"store","field":"<java.io.ObjectInputStream: byte pushbackTC>"},{"step":252,"from":"sdaReg320","to":"1093783528","type":"store","field":"<java.io.ObjectInputStream: boolean mustResolve>"},{"step":253,"from":"sdaReg325","to":"1093917240","type":"store","field":"<java.io.ByteArrayInputStream: int pos>"},{"step":254,"from":"1093917168","to":"1093917168.arrayIdx_int:47","type":"load","field":"arrayIdx_int:47"},{"step":255,"from":"sdaReg327","to":"1093783528","type":"store","field":"<java.io.ObjectInputStream: byte pushbackTC>"},{"step":256,"from":"sdaReg336","to":"1093783528","type":"store","field":"<java.io.ObjectInputStream: int nextHandle>"},{"step":257,"from":"1093648688","to":"1083932144","type":"model"},{"step":258,"from":"1093648688","to":"1083932144","type":"model"},{"step":259,"from":"1093648688","to":"1093718528","type":"model"},{"step":260,"from":"1083932144","to":"1093648688","type":"model"},{"step":261,"from":"1083932144","to":"1093718528","type":"model"},{"step":262,"from":"1093498776","to":"1093718528","type":"create","field":"arrayIdx_int:1"},{"step":263,"from":"sdaReg350","to":"1093890360","type":"store","field":"<java.util.ArrayList: int size>"},{"step":264,"from":"sdaReg351","to":"1093890360","type":"store","field":"<java.util.AbstractList: int modCount>"},{"step":265,"from":"1093718528","to":"1093783528","type":"store","field":"<java.io.ObjectInputStream: java.lang.Object currentObject>"},{"step":266,"from":"1093648688","to":"1093783528","type":"store","field":"<java.io.ObjectInputStream: java.io.ObjectStreamClass currentClass>"},{"step":267,"from":"1093648688","to":"sdaReg353","type":"model"},{"step":268,"from":"1093648688","to":"1093506392","type":"model"},{"step":269,"from":"1093718528","to":"1083932144","type":"model"},{"step":270,"from":"1093718528","to":"1083932144","type":"model"},{"step":271,"from":"static.<libcore.util.EmptyArray: java.lang.Object[] OBJECT>","to":"1083994088","type":"load","field":"<libcore.util.EmptyArray: java.lang.Object[] OBJECT>"},{"step":272,"from":"1083994088","to":"1093717944","type":"store","field":"<java.util.ArrayList: java.lang.Object[] array>"},{"step":273,"from":"1083932144","to":"1083910288","type":"model"},{"step":274,"from":"1093717944","to":"1093717944.<java.util.ArrayList: int size>","type":"load","field":"<java.util.ArrayList: int size>"},{"step":275,"from":"1083994088","to":"1093728168","type":"model"},{"step":276,"from":"1083994088","to":"1093728168","type":"model"},{"step":277,"from":"1093717944","to":"1093728168","type":"create","field":"<java.util.ArrayList: java.lang.Object[] array>"},{"step":278,"from":"1093728168","to":"1083932144","type":"create","field":"arrayIdx_int:0"},{"step":279,"from":"sdaReg401","to":"1093717944","type":"store","field":"<java.util.ArrayList: int size>"},{"step":280,"from":"1093717944","to":"1093717944.<java.util.AbstractList: int modCount>","type":"load","field":"<java.util.AbstractList: int modCount>"},{"step":281,"from":"sdaReg402","to":"1093717944","type":"store","field":"<java.util.AbstractList: int modCount>"},{"step":282,"from":"1083910288","to":"0","type":"model"},{"step":283,"from":"1093888328","to":"1093888328.<java.util.HashMap: int modCount>","type":"load","field":"<java.util.HashMap: int modCount>"},{"step":284,"from":"sdaReg419","to":"1093888328","type":"store","field":"<java.util.HashMap: int modCount>"},{"step":285,"from":"1093888328","to":"1093888328.<java.util.HashMap: int size>","type":"load","field":"<java.util.HashMap: int size>"},{"step":286,"from":"sdaReg420","to":"1093888328","type":"store","field":"<java.util.HashMap: int size>"},{"step":287,"from":"1093888328","to":"1093503176","type":"create","field":"<java.util.HashMap: java.util.HashMap$HashMapEntry[] table>"},{"step":288,"from":"sdaReg428","to":"1093888328","type":"store","field":"<java.util.HashMap: int threshold>"},{"step":289,"from":"1083932144","to":"1093503216","type":"store","field":"<java.util.HashMap$HashMapEntry: java.lang.Object key>"},{"step":290,"from":"1093503216","to":"1093717944","type":"create","field":"<java.util.HashMap$HashMapEntry: java.lang.Object value>"},{"step":291,"from":"sdaReg415","to":"1093503216","type":"store","field":"<java.util.HashMap$HashMapEntry: int hash>"},{"step":292,"from":"1093503176","to":"1093503216","type":"create","field":"arrayIdx_int:2"},{"step":293,"from":"1093506392","to":"1093506392.<java.util.ArrayList: int size>","type":"load","field":"<java.util.ArrayList: int size>"},{"step":294,"from":"1093506392","to":"1093506392.<java.util.ArrayList: int size>","type":"load","field":"<java.util.ArrayList: int size>"},{"step":295,"from":"1093506392","to":"1093914168","type":"load","field":"<java.util.ArrayList: java.lang.Object[] array>"},{"step":296,"from":"1093914168","to":"1093648688","type":"load","field":"arrayIdx_int:0"},{"step":297,"from":"1093648688","to":"1083932144","type":"model"},{"step":298,"from":"1083932144","to":"sdaReg460","type":"model"},{"step":299,"from":"1093648688","to":"sdaReg461","type":"model"},{"step":300,"from":"1083932144","to":"sdaReg463","type":"model"},{"step":301,"from":"1093648688","to":"sdaReg464","type":"model"},{"step":302,"from":"1093506392","to":"1093506392.<java.util.ArrayList: int size>","type":"load","field":"<java.util.ArrayList: int size>"},{"step":303,"from":"1093506392","to":"1093914168","type":"load","field":"<java.util.ArrayList: java.lang.Object[] array>"},{"step":304,"from":"1093914168","to":"1093648688","type":"load","field":"arrayIdx_int:0"},{"step":305,"from":"1093718528","to":"1093783528","type":"store","field":"<java.io.ObjectInputStream: java.lang.Object currentObject>"},{"step":306,"from":"1093648688","to":"1093783528","type":"store","field":"<java.io.ObjectInputStream: java.io.ObjectStreamClass currentClass>"},{"step":307,"from":"1093648688","to":"sdaReg473","type":"model"},{"step":308,"from":"1093648688","to":"1083932144","type":"model"},{"step":309,"from":"1093648688","to":"0","type":"model"},{"step":310,"from":"1093648688","to":"1093507768","type":"model"},{"step":311,"from":"1093648688","to":"1083932144","type":"model"},{"step":312,"from":"1093648688","to":"1093851600","type":"model"},{"step":313,"from":"1093648688","to":"1093494776","type":"model"},{"step":314,"from":"1093851600","to":"1093648688","type":"model"},{"step":315,"from":"1093851600","to":"1093494776","type":"model"},{"step":316,"from":"static.<java.lang.Byte: java.lang.Class TYPE>","to":"1083909112","type":"load","field":"<java.lang.Byte: java.lang.Class TYPE>"},{"step":317,"from":"static.<java.lang.Character: java.lang.Class TYPE>","to":"1083909448","type":"load","field":"<java.lang.Character: java.lang.Class TYPE>"},{"step":318,"from":"1093917240","to":"1093890272","type":"model"},{"step":319,"from":"static.<java.nio.ByteOrder: java.nio.ByteOrder BIG_ENDIAN>","to":"1084439336","type":"load","field":"<java.nio.ByteOrder: java.nio.ByteOrder BIG_ENDIAN>"},{"step":320,"from":"1093890272","to":"sdaReg497","type":"model"},{"step":321,"from":"1093494776","to":"1093718528","type":"model"},{"step":322,"from":"1093494776","to":"sdaReg498","type":"model"},{"step":323,"from":"1093718528","to":"1093494776","type":"model"},{"step":324,"from":"1093718528","to":"sdaReg498","type":"model"},{"step":325,"from":"sdaReg498","to":"1093494776","type":"model"},{"step":326,"from":"sdaReg498","to":"1093718528","type":"model"},{"step":327,"from":"1093783528","to":"sdaReg499","type":"create","field":"<java.io.ObjectInputStream: java.lang.Object currentObject>"},{"step":328,"from":"1093783528","to":"sdaReg500","type":"create","field":"<java.io.ObjectInputStream: java.io.ObjectStreamClass currentClass>"},{"step":329,"from":"1093783528","to":"sdaReg501","type":"create","field":"<java.io.ObjectInputStream: java.lang.Object currentObject>"},{"step":330,"from":"1093783528","to":"sdaReg502","type":"create","field":"<java.io.ObjectInputStream: java.io.ObjectStreamClass currentClass>"},{"step":331,"from":"1093648688","to":"sdaReg503","type":"model"},{"step":332,"from":"sdaReg506","to":"1093783528","type":"store","field":"<java.io.ObjectInputStream: int nestedLevels>"},{"step":333,"from":"1093783528","to":"sdaReg507","type":"create","field":"<java.io.ObjectInputStream: java.lang.ClassLoader callerClassLoader>"},{"step":334,"from":"1093945336","to":"1093945336.<java.util.HashMap: int modCount>","type":"load","field":"<java.util.HashMap: int modCount>"},{"step":335,"from":"sdaReg528","to":"1093945336","type":"store","field":"<java.util.HashMap: int modCount>"},{"step":336,"from":"1093945336","to":"1093945336.<java.util.HashMap: int size>","type":"load","field":"<java.util.HashMap: int size>"},{"step":337,"from":"sdaReg529","to":"1093945336","type":"store","field":"<java.util.HashMap: int size>"},{"step":338,"from":"1093945336","to":"1093872008","type":"create","field":"<java.util.HashMap: java.util.HashMap$HashMapEntry[] table>"},{"step":339,"from":"sdaReg537","to":"1093945336","type":"store","field":"<java.util.HashMap: int threshold>"},{"step":340,"from":"1093776288","to":"1093820536","type":"store","field":"<java.util.HashMap$HashMapEntry: java.lang.Object key>"},{"step":341,"from":"1093718528","to":"1093820536","type":"store","field":"<java.util.HashMap$HashMapEntry: java.lang.Object value>"},{"step":342,"from":"sdaReg524","to":"1093820536","type":"store","field":"<java.util.HashMap$HashMapEntry: int hash>"},{"step":343,"from":"1093872008","to":"1093820536","type":"create","field":"arrayIdx_int:2"},{"step":344,"from":"1093769184","to":"1093478240","type":"load","field":"<android.os.Bundle: android.os.Parcel mParcelledData>"},{"step":345,"from":"1093478240","to":"1093478240.<android.os.Parcel: int mOwnObject>","type":"load","field":"<android.os.Parcel: int mOwnObject>"},{"step":346,"from":"static.<android.os.Parcel: android.os.Parcel[] sOwnedPool>","to":"1084044960","type":"load","field":"<android.os.Parcel: android.os.Parcel[] sOwnedPool>"},{"step":347,"from":"1093478240","to":"1084044960","type":"store","field":"arrayIdx_int:0"},{"step":348,"from":"1093769184","to":"sdaReg556","type":"create","field":"<android.os.Bundle: android.os.Parcel mParcelledData>"}],"parameters":[{"id":"1093769184","name":"this","klass":"android.os.Bundle"}],"returns":[{"id":null,"name":"return","klass":null}],"colors":{"heapLocToColor":{"sdaReg191":[28],"sdaReg294":[67],"sdaReg190":[18],"sdaReg293":[66, 56, 63],"sdaReg296":[37, 28],"sdaReg295":[37, 28],"sdaReg298":[55, 28],"sdaReg297":[37, 28],"sdaReg299":[55, 28],"static.<java.io.ObjectInputStream: java.lang.ClassLoader bootstrapLoader>":[23, 25, 24],"sdaReg199":[10],"sdaReg290":[65],"sdaReg194":[18],"sdaReg197":[18],"sdaReg292":[64, 56, 63],"sdaReg196":[18],"sdaReg291":[65],"1093503216":[80],"0":[51, 71, 55, 76, 73, 28],"1093490896":[23, 26],"static.<java.lang.Character: java.lang.Class TYPE>":[50],"sdaReg175":[32, 28],"sdaReg174":[30],"sdaReg177":[14],"sdaReg176":[33],"sdaReg179":[14],"sdaReg178":[34, 28],"1093783616.<java.io.ByteArrayInputStream: int pos>":[11],"static.<java.util.HashMap: java.util.Map$Entry[] EMPTY_TABLE>":[3],"sdaReg182":[0, 8],"1085809544":[23],"sdaReg180":[9],"sdaReg185":[28],"sdaReg184":[10],"sdaReg183":[0, 8, 28],"sdaReg189":[18],"1093676392.arrayIdx_int:6":[23],"1093676392.arrayIdx_int:7":[23],"1093676392.arrayIdx_int:4":[23],"1093676392.arrayIdx_int:2":[23],"1093676392.arrayIdx_int:3":[23],"1093917168.arrayIdx_int:4":[0, 8],"1093676392.arrayIdx_int:1":[23],"1093890272":[15],"1093917168.arrayIdx_int:5":[0, 8],"1093676392.arrayIdx_int:9":[23],"1093676392.arrayIdx_int:8":[23],"1083997920":[3],"1093498776":[35],"1093506392.<java.util.ArrayList: java.lang.Object[] array>":[28, 73],"1093728168":[77],"1093914168":[73, 28],"1093907624":[39],"1084439336":[20],"1093478240.<android.os.Parcel: int mOwnObject>":[0],"1083932144":[71, 55, 73, 28],"1093890360":[18],"1093494776":[28, 73, 88],"1093890360.<java.util.AbstractList: int modCount>":[18],"1093907624.arrayIdx_int:0":[39],"1084044960":[95],"sdaReg68":[10],"1093907624.arrayIdx_int:4":[39],"sdaReg69":[16],"1093907624.arrayIdx_int:3":[39],"sdaReg66":[10],"1093907624.arrayIdx_int:2":[39],"sdaReg67":[16],"1093907624.arrayIdx_int:1":[39],"sdaReg64":[14],"sdaReg65":[16],"sdaReg62":[14],"sdaReg63":[14],"sdaReg72":[16],"sdaReg71":[16],"sdaReg70":[16],"1093890328":[17],"1093917272":[53],"1093718528":[71, 88, 73, 28],"1093506392.<java.util.ArrayList: int size>":[73, 28],"sdaReg77":[10],"sdaReg78":[18],"sdaReg79":[18],"sdaReg73":[16],"1093539352":[23],"sdaReg76":[10],"sdaReg504":[71, 28, 73, 88],"sdaReg81":[18],"sdaReg503":[28, 73, 91],"sdaReg80":[18],"sdaReg83":[18],"sdaReg505":[71, 28, 73, 88],"sdaReg82":[18],"sdaReg508":[71, 28, 73, 88],"sdaReg509":[71, 28, 73, 88],"sdaReg84":[18],"sdaReg89":[10],"sdaReg513":[2],"sdaReg90":[14],"1093917168.arrayIdx_int:47":[0, 8],"sdaReg512":[71, 28, 73, 88],"sdaReg511":[71, 28, 73, 88],"1093890304":[16],"sdaReg510":[71, 88, 73, 28],"sdaReg517":[92],"sdaReg94":[10],"sdaReg516":[92],"sdaReg93":[22],"sdaReg515":[71, 28, 73, 88],"sdaReg92":[14],"sdaReg91":[21],"1093717944.<java.util.ArrayList: int size>":[75],"sdaReg519":[92],"sdaReg518":[92],"1093917168.arrayIdx_int:46":[0, 8],"1093851600":[46, 28, 73],"sdaReg95":[10],"sdaReg96":[10],"sdaReg97":[10],"1083910288":[71, 55, 76, 28],"sdaReg520":[92],"sdaReg522":[92],"1093917168.arrayIdx_int:38":[0, 8],"sdaReg521":[92],"sdaReg524":[92],"sdaReg523":[92],"sdaReg528":[2],"1093934024":[31],"sdaReg527":[92],"sdaReg529":[2],"1093503176":[79],"1093917168.arrayIdx_int:35":[0, 8],"sdaReg530":[2],"static.<java.lang.Byte: java.lang.Class TYPE>":[89],"1083909112":[89],"1093917240.<java.io.ByteArrayInputStream: int pos>":[9],"sdaReg538":[93],"sdaReg533":[2],"sdaReg540":[93],"static.<libcore.util.EmptyArray: byte[] BYTE>":[12],"sdaReg548":[71, 28, 73, 88],"1093917240":[9],"sdaReg549":[51, 71, 55, 76, 28, 73],"sdaReg543":[2],"1083909448":[50],"sdaReg545":[71, 28, 73, 88],"sdaReg546":[94],"sdaReg553":[95],"sdaReg552":[0],"sdaReg551":[94],"sdaReg550":[94],"1093648688":[73, 28],"1093769184":[0],"1093945336.<java.util.HashMap: int modCount>":[2],"1093910152":[56, 28],"sdaReg554":[95],"static.<java.io.ObjectInputStream: java.util.HashMap PRIMITIVE_CLASSES>":[53],"1093820536":[94],"1093945336.<java.util.HashMap: int size>":[2],"1093717944":[75],"1093782760":[53],"sdaReg429":[79],"sdaReg424":[13],"sdaReg326":[0, 8],"1093917168":[0, 8],"sdaReg324":[9],"sdaReg323":[14],"sdaReg329":[51, 28],"sdaReg327":[0, 8],"sdaReg14":[0, 4],"sdaReg12":[0],"sdaReg321":[10],"sdaReg10":[2],"sdaReg322":[10],"sdaReg420":[13],"sdaReg421":[13],"sdaReg19":[0, 6],"sdaReg17":[0],"sdaReg15":[0, 5],"sdaReg415":[78],"sdaReg418":[78],"1093783616":[11],"sdaReg412":[78],"sdaReg411":[78],"sdaReg414":[78],"sdaReg413":[78],"1083999760":[27],"sdaReg313":[10],"sdaReg315":[9],"sdaReg314":[14],"sdaReg317":[0, 8],"sdaReg419":[13],"sdaReg318":[0, 8],"1093888328":[13],"sdaReg311":[10],"sdaReg410":[78],"sdaReg446":[75],"sdaReg449":[71, 55, 28],"sdaReg448":[75],"sdaReg309":[69],"sdaReg308":[46],"sdaReg307":[68],"sdaReg306":[55, 23, 25, 24, 28],"sdaReg305":[46],"sdaReg302":[37, 28],"sdaReg301":[55, 23, 25, 24, 28],"sdaReg300":[55, 23, 25, 24, 28],"sdaReg442":[80],"sdaReg443":[75],"sdaReg440":[51, 71, 55, 76, 28],"sdaReg441":[80],"sdaReg434":[13],"sdaReg436":[75],"sdaReg435":[71, 55, 28],"1093783528":[10],"sdaReg438":[71, 55, 28],"sdaReg437":[80],"sdaReg439":[75],"sdaReg431":[79],"sdaReg60":[14],"sdaReg61":[14],"static.<libcore.util.EmptyArray: java.lang.Object[] OBJECT>":[19],"sdaReg59":[9],"sdaReg58":[14],"sdaReg57":[9],"sdaReg56":[14],"sdaReg54":[13],"1093890360.<java.util.ArrayList: int size>":[18],"sdaReg52":[3],"sdaReg51":[3],"sdaReg50":[13],"sdaReg49":[13],"sdaReg48":[13],"sdaReg44":[11],"sdaReg47":[13],"sdaReg41":[11],"sdaReg40":[11],"sdaReg408":[78],"sdaReg409":[78],"sdaReg402":[75],"sdaReg403":[51, 71, 55, 76, 28],"sdaReg401":[75],"sdaReg406":[75],"sdaReg200":[28],"sdaReg407":[78],"sdaReg201":[14],"sdaReg404":[13],"sdaReg405":[71, 55, 28],"sdaReg205":[9],"sdaReg39":[11],"sdaReg204":[14],"sdaReg38":[12],"sdaReg37":[11],"sdaReg202":[36],"sdaReg209":[0, 8],"sdaReg208":[0, 8],"sdaReg207":[0, 8],"sdaReg32":[10],"1093945336":[2],"sdaReg31":[9],"sdaReg30":[9],"sdaReg36":[10],"sdaReg35":[10],"sdaReg34":[10],"sdaReg33":[9],"1093778352.arrayIdx_int:6":[30],"1093717944.<java.util.AbstractList: int modCount>":[75],"1093778352.arrayIdx_int:5":[30],"sdaReg8":[2],"1093778352.arrayIdx_int:8":[30],"sdaReg9":[0],"1093778352.arrayIdx_int:7":[30],"1093778352.arrayIdx_int:2":[30],"sdaReg6":[3],"1093778352.arrayIdx_int:1":[30],"1093778352.arrayIdx_int:4":[30],"sdaReg4":[2],"1093778352.arrayIdx_int:3":[30],"sdaReg5":[3],"1093778352.arrayIdx_int:0":[30],"sdaReg27":[9],"sdaReg26":[9],"1093888384":[14],"1093676392.arrayIdx_int:12":[23],"1093676392.arrayIdx_int:13":[23],"1093676392.arrayIdx_int:14":[23],"sdaReg3":[2],"sdaReg2":[2],"sdaReg1":[2],"sdaReg21":[0, 7],"1093676392.arrayIdx_int:10":[23],"sdaReg0":[0, 1],"sdaReg20":[0],"sdaReg23":[9],"1093778352.arrayIdx_int:9":[30],"sdaReg22":[0, 8],"sdaReg25":[9],"sdaReg24":[0, 8],"sdaReg125":[11],"sdaReg126":[11],"sdaReg128":[14],"sdaReg129":[9],"sdaReg228":[41],"sdaReg229":[42],"sdaReg227":[39],"sdaReg221":[40],"sdaReg220":[39],"1093888328.<java.util.HashMap: int size>":[13],"sdaReg120":[23, 25, 24],"sdaReg122":[23, 26],"sdaReg121":[23, 26],"sdaReg124":[10],"sdaReg123":[10],"sdaReg116":[23, 25, 24],"sdaReg490":[88, 73, 28],"sdaReg117":[23, 25, 24],"sdaReg114":[23, 25, 24],"sdaReg393":[71, 55, 28],"sdaReg115":[23, 25, 24],"sdaReg399":[75],"sdaReg118":[23, 25, 24],"sdaReg397":[75],"sdaReg119":[23, 25, 24],"sdaReg497":[90],"sdaReg498":[88, 73, 28, 90],"sdaReg495":[14],"sdaReg217":[14],"sdaReg496":[14],"sdaReg218":[39],"sdaReg390":[71, 55, 76, 28],"sdaReg215":[14],"sdaReg494":[50],"sdaReg391":[75],"sdaReg216":[14],"sdaReg491":[46, 73, 28],"sdaReg213":[38],"sdaReg214":[38],"sdaReg212":[14],"sdaReg211":[14],"sdaReg210":[14],"1083994088":[19],"1083993968":[12],"sdaReg113":[23, 25, 24],"sdaReg112":[23, 25, 24],"sdaReg111":[23, 25, 24],"sdaReg110":[23, 25, 24],"sdaReg385":[75],"sdaReg107":[23, 25, 24],"sdaReg386":[75],"sdaReg108":[23, 25, 24],"sdaReg387":[75],"sdaReg109":[23, 25, 24],"sdaReg388":[75],"sdaReg381":[75],"sdaReg103":[23],"sdaReg382":[75],"sdaReg383":[75],"sdaReg384":[75],"sdaReg106":[23, 24],"sdaReg246":[10],"sdaReg247":[28],"sdaReg380":[71, 55, 28],"sdaReg243":[46],"1093782216":[40],"sdaReg242":[46],"sdaReg245":[28],"1084021776":[23],"sdaReg102":[23],"sdaReg389":[51, 71, 55, 76, 28],"sdaReg376":[51, 28],"sdaReg377":[51, 28],"1093507768":[37, 73, 28],"sdaReg375":[74],"sdaReg372":[74],"sdaReg370":[74],"sdaReg371":[74],"sdaReg237":[48, 43, 47],"sdaReg238":[46],"sdaReg235":[46],"sdaReg236":[43, 47],"1093478240":[0],"sdaReg239":[49],"sdaReg230":[43],"sdaReg234":[46],"1084342632":[23],"sdaReg233":[43, 45],"sdaReg232":[44],"sdaReg231":[43],"1093914168.arrayIdx_int:0":[73, 28],"sdaReg379":[10],"sdaReg378":[71, 55, 28],"sdaReg463":[84, 71, 55, 28, 73],"1093778352.arrayIdx_int:10":[30],"sdaReg462":[83],"1093778352.arrayIdx_int:11":[30],"sdaReg465":[86],"1093778352.arrayIdx_int:12":[30],"sdaReg464":[85, 28, 73],"1093778352.arrayIdx_int:13":[30],"1093778352":[30],"1093778352.arrayIdx_int:14":[30],"1093778352.arrayIdx_int:15":[30],"sdaReg268":[54],"sdaReg461":[82, 28, 73],"1093778352.arrayIdx_int:16":[30],"sdaReg460":[71, 55, 81, 28, 73],"1093778352.arrayIdx_int:17":[30],"sdaReg360":[73, 28],"1093506392":[28, 73],"sdaReg362":[13],"1093888328.<java.util.HashMap: int modCount>":[13],"sdaReg361":[71, 55, 28],"sdaReg364":[74],"sdaReg363":[71, 55, 28],"sdaReg366":[74],"sdaReg365":[74],"sdaReg161":[29],"sdaReg367":[74],"sdaReg162":[14],"sdaReg368":[74],"sdaReg163":[14],"sdaReg369":[74],"sdaReg164":[14],"sdaReg165":[30],"sdaReg167":[30],"sdaReg168":[31],"sdaReg264":[54],"1093778352.arrayIdx_int:18":[30],"sdaReg265":[54],"sdaReg266":[54],"sdaReg267":[54],"static.<java.nio.ByteOrder: java.nio.ByteOrder BIG_ENDIAN>":[20],"sdaReg260":[54],"sdaReg467":[73, 28],"sdaReg261":[54],"sdaReg468":[28, 73],"sdaReg262":[54],"sdaReg469":[73, 28],"sdaReg160":[29],"sdaReg263":[54],"sdaReg453":[73, 28],"sdaReg452":[71, 55, 28],"sdaReg451":[10],"sdaReg450":[71, 55, 28],"sdaReg259":[53],"sdaReg258":[52, 28],"sdaReg257":[51, 28],"sdaReg159":[14],"sdaReg158":[14],"sdaReg354":[72, 28],"sdaReg353":[72, 28],"sdaReg358":[71, 28],"sdaReg359":[28],"sdaReg151":[10],"sdaReg357":[10],"sdaReg156":[28],"sdaReg157":[14],"sdaReg154":[10],"sdaReg155":[28],"1093872008":[93],"sdaReg255":[10],"sdaReg256":[28],"sdaReg459":[71, 55, 28, 73],"sdaReg253":[28],"sdaReg457":[28, 73],"1093676392":[23],"sdaReg458":[73, 28],"sdaReg252":[18],"sdaReg455":[73, 28],"1093769184.<android.os.Bundle: android.os.Parcel mParcelledData>":[0],"sdaReg456":[73, 28],"sdaReg250":[18],"sdaReg481":[71, 28],"sdaReg480":[10],"sdaReg483":[37, 28, 73],"sdaReg482":[28, 73],"sdaReg485":[37, 28, 73],"static.<android.os.Parcel: android.os.Parcel[] sOwnedPool>":[95],"sdaReg484":[37, 73, 28],"sdaReg487":[37, 73, 28],"sdaReg486":[71, 55, 28, 73],"sdaReg342":[10],"sdaReg341":[71, 28],"sdaReg343":[71, 28],"sdaReg147":[0, 8],"sdaReg340":[71, 28],"sdaReg149":[10],"sdaReg143":[14],"sdaReg144":[9],"sdaReg146":[0, 8],"sdaReg345":[18],"sdaReg140":[10],"sdaReg141":[10],"static.<java.io.ObjectInputStream: java.lang.ClassLoader systemLoader>":[27],"sdaReg280":[58, 56],"sdaReg347":[18],"sdaReg142":[10],"sdaReg281":[58, 57, 56, 28],"sdaReg348":[71, 28],"sdaReg282":[59, 28],"1083999984":[55, 23, 25, 24, 28],"sdaReg283":[59, 28, 60],"sdaReg284":[61],"sdaReg285":[61],"sdaReg286":[59, 28, 60],"sdaReg287":[59, 28, 62],"sdaReg288":[56, 63],"sdaReg289":[64, 56, 63],"sdaReg472":[28, 73],"sdaReg471":[71, 28],"sdaReg470":[10],"sdaReg279":[57, 28],"sdaReg474":[87, 73, 28],"sdaReg473":[87, 28, 73],"sdaReg333":[28],"sdaReg332":[70],"sdaReg331":[51, 28],"sdaReg330":[28],"sdaReg137":[10],"sdaReg136":[11],"sdaReg135":[11],"sdaReg132":[0, 8],"sdaReg338":[55, 28],"sdaReg133":[10],"sdaReg130":[9],"sdaReg131":[0, 8],"sdaReg334":[28],"sdaReg335":[10],"sdaReg479":[10],"sdaReg273":[55],"sdaReg274":[55],"sdaReg477":[71, 55, 28, 73],"sdaReg271":[54],"sdaReg478":[51, 71, 55, 76, 28, 73],"sdaReg272":[51, 28],"sdaReg277":[55, 28],"sdaReg278":[56],"sdaReg275":[10],"sdaReg276":[28]},"colorToColor":{"0":[42, 43, 9, 95, 10, 28],"2":[0, 2],"71":[35, 80, 77, 10, 94, 88, 73, 28, 90],"3":[2, 13],"8":[42, 43, 9, 10, 28],"77":[75],"9":[39, 9, 14, 30, 15],"78":[80],"10":[16],"79":[13],"11":[10],"12":[11],"73":[71, 10, 94, 88, 28, 73, 90],"13":[10, 13],"14":[10],"75":[80, 75],"15":[34, 38, 21, 36, 22, 29, 14, 90],"17":[16],"16":[10],"19":[35, 18, 77, 75],"18":[18, 10],"80":[79],"23":[55, 52, 10, 28],"93":[2],"92":[94],"94":[93],"26":[55, 52, 10, 28],"88":[71, 94, 88, 73, 28, 90],"28":[35, 71, 77, 10, 73, 55, 80, 23, 94, 26, 56, 28, 88, 90],"31":[32],"90":[71, 88, 73, 28],"30":[31],"34":[28],"35":[18],"32":[28],"39":[40],"37":[28],"43":[43, 46, 45],"40":[41],"41":[46],"46":[37, 88, 73, 28],"47":[46],"50":[46],"48":[46],"55":[71, 80, 77, 56, 28],"52":[55, 23, 26],"56":[28]},"colorToLabel":{"0":"this","3":"<java.util.HashMap: java.util.Map$Entry[] EMPTY_TABLE>","12":"<libcore.util.EmptyArray: byte[] BYTE>","19":"<libcore.util.EmptyArray: java.lang.Object[] OBJECT>","20":"<java.nio.ByteOrder: java.nio.ByteOrder BIG_ENDIAN>","25":"<java.io.ObjectInputStream: java.lang.ClassLoader bootstrapLoader>","27":"<java.io.ObjectInputStream: java.lang.ClassLoader systemLoader>","50":"<java.lang.Character: java.lang.Class TYPE>","53":"<java.io.ObjectInputStream: java.util.HashMap PRIMITIVE_CLASSES>","89":"<java.lang.Byte: java.lang.Class TYPE>","95":"<android.os.Parcel: android.os.Parcel[] sOwnedPool>","96":"return"}}}

Generated Model
	this-><android.os.Parcel: android.os.Parcel[] sOwnedPool>

