Scanning method <android.os.Bundle: void unparcel()>

All seen event types: StoreArrayRecord, SimpleAssignmentRecord, ExitMonitorRecord, LoadInstanceRecord, MethodStartRecord, IfRecord, NewObjectRecord, StoreInstanceRecord, NewArrayRecord, LoadStaticRecord, BinaryOperationRecord, MethodCallRecord, MethodReturnRecord, SwitchRecord, EnterMonitorRecord, ArrayLengthRecord, CastRecord, LoadArrayRecord, MethodEndRecord, 
Ignored event types: ExitMonitorRecord, SwitchRecord, EnterMonitorRecord, IfRecord, 

JSON Encoded Analysis Data (for visualization):{"heapEdges":[{"step":0,"from":"1094080328","to":"1093464416","type":"load","field":"<android.os.Bundle: android.os.Parcel mParcelledData>"},{"step":1,"from":"1094080328","to":"1093464416","type":"load","field":"<android.os.Bundle: android.os.Parcel mParcelledData>"},{"step":2,"from":"1093464416","to":"sdaReg0","type":"model"},{"step":3,"from":"static.<java.util.HashMap: java.util.Map$Entry[] EMPTY_TABLE>","to":"1083997920","type":"load","field":"<java.util.HashMap: java.util.Map$Entry[] EMPTY_TABLE>"},{"step":4,"from":"1083997920","to":"1093468952","type":"store","field":"<java.util.HashMap: java.util.HashMap$HashMapEntry[] table>"},{"step":5,"from":"1093468952","to":"sdaReg7","type":"create","field":"<java.util.HashMap: int threshold>"},{"step":6,"from":"1094080328","to":"1093468952","type":"create","field":"<android.os.Bundle: java.util.Map mMap>"},{"step":7,"from":"1094080328","to":"1093464416","type":"load","field":"<android.os.Bundle: android.os.Parcel mParcelledData>"},{"step":8,"from":"1093464416","to":"sdaReg14","type":"model"},{"step":9,"from":"1093464416","to":"sdaReg15","type":"model"},{"step":10,"from":"1093464416","to":"sdaReg19","type":"model"},{"step":11,"from":"1093464416","to":"sdaReg22","type":"model"},{"step":12,"from":"1093691568","to":"sdaReg26","type":"create","field":"<android.os.Bundle: java.util.Map mMap>"},{"step":13,"from":"1093691568","to":"sdaReg27","type":"create","field":"<android.os.Bundle: android.os.Parcel mParcelledData>"},{"step":14,"from":"1093691568","to":"sdaReg28","type":"create","field":"<android.os.Bundle: boolean mHasFds>"},{"step":15,"from":"1093691568","to":"sdaReg29","type":"create","field":"<android.os.Bundle: boolean mFdsKnown>"},{"step":16,"from":"1093691568","to":"sdaReg30","type":"create","field":"<android.os.Bundle: boolean mAllowFds>"},{"step":17,"from":"1093464416","to":"sdaReg33","type":"model"},{"step":18,"from":"1093464416","to":"sdaReg34","type":"model"},{"step":19,"from":"1093464416","to":"sdaReg35","type":"model"},{"step":20,"from":"sdaReg35","to":"1093464416","type":"model"},{"step":21,"from":"static.<android.os.Parcel: android.os.Parcel[] sOwnedPool>","to":"1084044960","type":"load","field":"<android.os.Parcel: android.os.Parcel[] sOwnedPool>"},{"step":22,"from":"1093794176","to":"sdaReg39","type":"model"},{"step":23,"from":"sdaReg39","to":"1093794176","type":"model"},{"step":24,"from":"1093794176","to":"1093464416","type":"model"},{"step":25,"from":"1093794176","to":"sdaReg34","type":"model"},{"step":26,"from":"1093794176","to":"sdaReg22","type":"model"},{"step":27,"from":"1093464416","to":"1093794176","type":"model"},{"step":28,"from":"1093464416","to":"sdaReg34","type":"model"},{"step":29,"from":"1093464416","to":"sdaReg22","type":"model"},{"step":30,"from":"sdaReg34","to":"1093794176","type":"model"},{"step":31,"from":"sdaReg34","to":"1093464416","type":"model"},{"step":32,"from":"sdaReg34","to":"sdaReg22","type":"model"},{"step":33,"from":"sdaReg22","to":"1093794176","type":"model"},{"step":34,"from":"sdaReg22","to":"1093464416","type":"model"},{"step":35,"from":"sdaReg22","to":"sdaReg34","type":"model"},{"step":36,"from":"1093691568","to":"1093794176","type":"create","field":"<android.os.Bundle: android.os.Parcel mParcelledData>"},{"step":37,"from":"1093794176","to":"sdaReg43","type":"model"},{"step":38,"from":"sdaReg43","to":"1093691568","type":"store","field":"<android.os.Bundle: boolean mHasFds>"},{"step":39,"from":"1093691568","to":"sdaReg44","type":"create","field":"<android.os.Bundle: boolean mFdsKnown>"},{"step":40,"from":"1093468952","to":"1093468952.<java.util.HashMap: int modCount>","type":"load","field":"<java.util.HashMap: int modCount>"},{"step":41,"from":"sdaReg64","to":"1093468952","type":"store","field":"<java.util.HashMap: int modCount>"},{"step":42,"from":"1093468952","to":"1093468952.<java.util.HashMap: int size>","type":"load","field":"<java.util.HashMap: int size>"},{"step":43,"from":"sdaReg65","to":"1093468952","type":"store","field":"<java.util.HashMap: int size>"},{"step":44,"from":"1093468952","to":"1093696936","type":"create","field":"<java.util.HashMap: java.util.HashMap$HashMapEntry[] table>"},{"step":45,"from":"sdaReg73","to":"1093468952","type":"store","field":"<java.util.HashMap: int threshold>"},{"step":46,"from":"1093907048","to":"1093775328","type":"store","field":"<java.util.HashMap$HashMapEntry: java.lang.Object key>"},{"step":47,"from":"1093775328","to":"1093691568","type":"create","field":"<java.util.HashMap$HashMapEntry: java.lang.Object value>"},{"step":48,"from":"sdaReg60","to":"1093775328","type":"store","field":"<java.util.HashMap$HashMapEntry: int hash>"},{"step":49,"from":"1093696936","to":"1093775328","type":"create","field":"arrayIdx_int:2"},{"step":50,"from":"1094080328","to":"1093464416","type":"load","field":"<android.os.Bundle: android.os.Parcel mParcelledData>"},{"step":51,"from":"1093464416","to":"1093464416.<android.os.Parcel: int mOwnObject>","type":"load","field":"<android.os.Parcel: int mOwnObject>"},{"step":52,"from":"static.<android.os.Parcel: android.os.Parcel[] sOwnedPool>","to":"1084044960","type":"load","field":"<android.os.Parcel: android.os.Parcel[] sOwnedPool>"},{"step":53,"from":"1093464416","to":"1084044960","type":"store","field":"arrayIdx_int:0"},{"step":54,"from":"1094080328","to":"sdaReg92","type":"create","field":"<android.os.Bundle: android.os.Parcel mParcelledData>"}],"parameters":[{"id":"1094080328","name":"this","klass":"android.os.Bundle"}],"returns":[{"id":null,"name":"return","klass":null}],"colors":{"heapLocToColor":{"sdaReg60":[14],"1084044960":[11],"1094080328.<android.os.Bundle: android.os.Parcel mParcelledData>":[0, 12],"sdaReg69":[2],"sdaReg66":[2],"sdaReg64":[2],"sdaReg65":[2],"sdaReg63":[14],"sdaReg14":[0, 4],"sdaReg12":[0],"sdaReg10":[2],"sdaReg59":[14],"sdaReg58":[14],"sdaReg57":[14],"sdaReg56":[14],"sdaReg19":[0, 6],"1083997920":[3],"sdaReg55":[14],"sdaReg54":[14],"sdaReg17":[0],"sdaReg53":[14],"sdaReg15":[0, 5],"sdaReg52":[14],"sdaReg51":[8],"1093464416.<android.os.Parcel: int mOwnObject>":[0, 12],"1093464416":[0, 12],"sdaReg79":[2],"sdaReg74":[15],"sdaReg76":[15],"sdaReg81":[8],"sdaReg82":[16],"sdaReg49":[2],"1093775328":[16],"sdaReg48":[8],"sdaReg45":[8],"sdaReg47":[8],"sdaReg46":[8],"sdaReg41":[12],"sdaReg40":[12],"sdaReg43":[12, 13],"sdaReg42":[12],"static.<android.os.Parcel: android.os.Parcel[] sOwnedPool>":[11],"sdaReg86":[16],"sdaReg87":[16],"sdaReg84":[8],"1093696936":[15],"sdaReg88":[0, 12],"sdaReg89":[11],"sdaReg90":[11],"sdaReg39":[12],"sdaReg38":[12],"sdaReg32":[0],"sdaReg31":[8],"static.<java.util.HashMap: java.util.Map$Entry[] EMPTY_TABLE>":[3],"sdaReg36":[11],"sdaReg35":[0, 7, 10],"sdaReg34":[0, 10, 12],"sdaReg33":[0, 9],"1093468952.<java.util.HashMap: int size>":[2],"sdaReg8":[2],"sdaReg9":[0],"sdaReg6":[3],"sdaReg4":[2],"sdaReg5":[3],"1093794176":[12],"1093691568":[8],"1094080328":[0],"1093468952":[2],"sdaReg3":[2],"sdaReg2":[2],"sdaReg1":[2],"sdaReg20":[0],"sdaReg0":[0, 1],"sdaReg23":[8],"1093468952.<java.util.HashMap: int modCount>":[2],"sdaReg22":[0, 7, 12],"sdaReg25":[8],"sdaReg24":[0]},"colorToColor":{"0":[0, 7, 10, 11, 12],"16":[15],"2":[0, 2],"3":[2],"7":[0, 10, 12],"8":[16],"10":[0, 7, 12],"12":[0, 7, 8, 10, 11, 12],"13":[8],"14":[16],"15":[2]},"colorToLabel":{"0":"this","3":"<java.util.HashMap: java.util.Map$Entry[] EMPTY_TABLE>","11":"<android.os.Parcel: android.os.Parcel[] sOwnedPool>","17":"return"}}}

Generated Model
	this-><android.os.Parcel: android.os.Parcel[] sOwnedPool>

