Scanning method <android.os.Bundle: void unparcel()>

All seen event types: StoreArrayRecord, SimpleAssignmentRecord, ExitMonitorRecord, LoadInstanceRecord, MethodStartRecord, IfRecord, NewObjectRecord, StoreInstanceRecord, NewArrayRecord, LoadStaticRecord, BinaryOperationRecord, MethodCallRecord, MethodReturnRecord, SwitchRecord, EnterMonitorRecord, ArrayLengthRecord, CastRecord, LoadArrayRecord, MethodEndRecord, 
Ignored event types: ExitMonitorRecord, SwitchRecord, EnterMonitorRecord, IfRecord, 

JSON Encoded Analysis Data (for visualization):{"heapEdges":[{"step":0,"from":"1093697624","to":"1093455336","type":"load","field":"<android.os.Bundle: android.os.Parcel mParcelledData>"},{"step":1,"from":"1093697624","to":"1093455336","type":"load","field":"<android.os.Bundle: android.os.Parcel mParcelledData>"},{"step":2,"from":"1093455336","to":"sdaReg0","type":"model"},{"step":3,"from":"static.<java.util.HashMap: java.util.Map$Entry[] EMPTY_TABLE>","to":"1083997920","type":"load","field":"<java.util.HashMap: java.util.Map$Entry[] EMPTY_TABLE>"},{"step":4,"from":"1083997920","to":"1093710064","type":"store","field":"<java.util.HashMap: java.util.HashMap$HashMapEntry[] table>"},{"step":5,"from":"1093710064","to":"sdaReg7","type":"create","field":"<java.util.HashMap: int threshold>"},{"step":6,"from":"1093697624","to":"1093710064","type":"create","field":"<android.os.Bundle: java.util.Map mMap>"},{"step":7,"from":"1093697624","to":"1093455336","type":"load","field":"<android.os.Bundle: android.os.Parcel mParcelledData>"},{"step":8,"from":"1093455336","to":"sdaReg14","type":"model"},{"step":9,"from":"1093455336","to":"sdaReg15","type":"model"},{"step":10,"from":"1093455336","to":"sdaReg19","type":"model"},{"step":11,"from":"1093455336","to":"sdaReg20","type":"model"},{"step":12,"from":"sdaReg21","to":"1085837760","type":"model"},{"step":13,"from":"1093710064","to":"1093710064.<java.util.HashMap: int modCount>","type":"load","field":"<java.util.HashMap: int modCount>"},{"step":14,"from":"sdaReg39","to":"1093710064","type":"store","field":"<java.util.HashMap: int modCount>"},{"step":15,"from":"1093710064","to":"1093710064.<java.util.HashMap: int size>","type":"load","field":"<java.util.HashMap: int size>"},{"step":16,"from":"sdaReg40","to":"1093710064","type":"store","field":"<java.util.HashMap: int size>"},{"step":17,"from":"1093710064","to":"1093814696","type":"create","field":"<java.util.HashMap: java.util.HashMap$HashMapEntry[] table>"},{"step":18,"from":"sdaReg48","to":"1093710064","type":"store","field":"<java.util.HashMap: int threshold>"},{"step":19,"from":"1093818048","to":"1093814736","type":"store","field":"<java.util.HashMap$HashMapEntry: java.lang.Object key>"},{"step":20,"from":"1093814736","to":"1085837760","type":"create","field":"<java.util.HashMap$HashMapEntry: java.lang.Object value>"},{"step":21,"from":"sdaReg35","to":"1093814736","type":"store","field":"<java.util.HashMap$HashMapEntry: int hash>"},{"step":22,"from":"1093814696","to":"1093814736","type":"create","field":"arrayIdx_int:2"},{"step":23,"from":"1093697624","to":"1093455336","type":"load","field":"<android.os.Bundle: android.os.Parcel mParcelledData>"},{"step":24,"from":"1093455336","to":"1093455336.<android.os.Parcel: int mOwnObject>","type":"load","field":"<android.os.Parcel: int mOwnObject>"},{"step":25,"from":"static.<android.os.Parcel: android.os.Parcel[] sOwnedPool>","to":"1084044960","type":"load","field":"<android.os.Parcel: android.os.Parcel[] sOwnedPool>"},{"step":26,"from":"1093455336","to":"1084044960","type":"store","field":"arrayIdx_int:0"},{"step":27,"from":"1093697624","to":"sdaReg67","type":"create","field":"<android.os.Bundle: android.os.Parcel mParcelledData>"}],"parameters":[{"id":"1093697624","name":"this","klass":"android.os.Bundle"}],"returns":[{"id":null,"name":"return","klass":null}],"colors":{"heapLocToColor":{"sdaReg61":[11],"1084044960":[12],"sdaReg64":[12],"sdaReg65":[12],"sdaReg62":[11],"sdaReg63":[0],"sdaReg14":[0, 4],"sdaReg12":[0],"sdaReg10":[2],"sdaReg59":[8],"sdaReg57":[11],"sdaReg19":[0, 6],"1083997920":[3],"sdaReg56":[8],"sdaReg17":[0],"sdaReg54":[2],"sdaReg15":[0, 5],"sdaReg51":[10],"1093710064.<java.util.HashMap: int modCount>":[2],"1093814736":[11],"1093455336.<android.os.Parcel: int mOwnObject>":[0],"1085837760":[8],"sdaReg49":[10],"sdaReg44":[2],"sdaReg41":[2],"sdaReg40":[2],"1093710064.<java.util.HashMap: int size>":[2],"static.<android.os.Parcel: android.os.Parcel[] sOwnedPool>":[12],"1093697624":[0],"1093455336":[0],"sdaReg39":[2],"sdaReg38":[9],"sdaReg32":[9],"sdaReg31":[9],"static.<java.util.HashMap: java.util.Map$Entry[] EMPTY_TABLE>":[3],"sdaReg30":[9],"1093814696":[10],"sdaReg35":[9],"sdaReg34":[9],"sdaReg33":[9],"sdaReg8":[2],"sdaReg9":[0],"sdaReg6":[3],"sdaReg4":[2],"sdaReg5":[3],"sdaReg27":[9],"sdaReg26":[8],"sdaReg29":[9],"sdaReg28":[9],"sdaReg3":[2],"sdaReg2":[2],"sdaReg1":[2],"sdaReg20":[0, 7],"sdaReg0":[0, 1],"sdaReg23":[8],"sdaReg22":[8],"1093710064":[2],"1093697624.<android.os.Bundle: android.os.Parcel mParcelledData>":[0],"sdaReg24":[2]},"colorToColor":{"0":[12],"2":[0, 2],"3":[2],"8":[11],"9":[11],"10":[2],"11":[10]},"colorToLabel":{"0":"this","3":"<java.util.HashMap: java.util.Map$Entry[] EMPTY_TABLE>","12":"<android.os.Parcel: android.os.Parcel[] sOwnedPool>","13":"return"}}}

Generated Model
	this-><android.os.Parcel: android.os.Parcel[] sOwnedPool>

