Scanning method <android.os.Bundle: void unparcel()>

All seen event types: StoreArrayRecord, SimpleAssignmentRecord, ExitMonitorRecord, LoadInstanceRecord, MethodStartRecord, IfRecord, InstanceOfRecord, NewObjectRecord, StoreInstanceRecord, NewArrayRecord, LoadStaticRecord, BinaryOperationRecord, MethodCallRecord, MethodReturnRecord, SwitchRecord, EnterMonitorRecord, CastRecord, ArrayLengthRecord, LoadArrayRecord, MethodEndRecord, 
Ignored event types: ExitMonitorRecord, SwitchRecord, EnterMonitorRecord, IfRecord, 

JSON Encoded Analysis Data (for visualization):{"heapEdges":[{"step":0,"from":"1093742888","to":"1093467872","type":"load","field":"<android.os.Bundle: android.os.Parcel mParcelledData>"},{"step":1,"from":"1093742888","to":"1093467872","type":"load","field":"<android.os.Bundle: android.os.Parcel mParcelledData>"},{"step":2,"from":"1093467872","to":"sdaReg0","type":"model"},{"step":3,"from":"static.<java.util.HashMap: java.util.Map$Entry[] EMPTY_TABLE>","to":"1083997920","type":"load","field":"<java.util.HashMap: java.util.Map$Entry[] EMPTY_TABLE>"},{"step":4,"from":"1083997920","to":"1093899400","type":"store","field":"<java.util.HashMap: java.util.HashMap$HashMapEntry[] table>"},{"step":5,"from":"1093899400","to":"sdaReg7","type":"create","field":"<java.util.HashMap: int threshold>"},{"step":6,"from":"1093742888","to":"1093899400","type":"create","field":"<android.os.Bundle: java.util.Map mMap>"},{"step":7,"from":"1093742888","to":"1093467872","type":"load","field":"<android.os.Bundle: android.os.Parcel mParcelledData>"},{"step":8,"from":"1093467872","to":"sdaReg14","type":"model"},{"step":9,"from":"1093467872","to":"sdaReg15","type":"model"},{"step":10,"from":"1093467872","to":"sdaReg19","type":"model"},{"step":11,"from":"1093467872","to":"sdaReg21","type":"model"},{"step":12,"from":"1093467872","to":"1093536392","type":"model"},{"step":13,"from":"1093536448","to":"sdaReg28","type":"create","field":"<java.io.ByteArrayInputStream: int mark>"},{"step":14,"from":"1093536448","to":"1093536392","type":"create","field":"<java.io.ByteArrayInputStream: byte[] buf>"},{"step":15,"from":"sdaReg29","to":"1093536448","type":"store","field":"<java.io.ByteArrayInputStream: int count>"},{"step":16,"from":"static.<libcore.util.EmptyArray: byte[] BYTE>","to":"1083993968","type":"load","field":"<libcore.util.EmptyArray: byte[] BYTE>"},{"step":17,"from":"1093513504","to":"sdaReg42","type":"create","field":"<java.io.ByteArrayInputStream: int mark>"},{"step":18,"from":"1083993968","to":"1093513504","type":"store","field":"<java.io.ByteArrayInputStream: byte[] buf>"},{"step":19,"from":"sdaReg43","to":"1093513504","type":"store","field":"<java.io.ByteArrayInputStream: int count>"},{"step":20,"from":"1093501864","to":"1093513504","type":"create","field":"<java.io.ObjectInputStream: java.io.InputStream emptyStream>"},{"step":21,"from":"1093513504","to":"1093501864","type":"store","field":"<java.io.ObjectInputStream: java.io.InputStream primitiveData>"},{"step":22,"from":"1093501864","to":"sdaReg45","type":"create","field":"<java.io.ObjectInputStream: boolean mustResolve>"},{"step":23,"from":"1093501864","to":"sdaReg46","type":"create","field":"<java.io.ObjectInputStream: int descriptorHandle>"},{"step":24,"from":"static.<java.util.HashMap: java.util.Map$Entry[] EMPTY_TABLE>","to":"1083997920","type":"load","field":"<java.util.HashMap: java.util.Map$Entry[] EMPTY_TABLE>"},{"step":25,"from":"1083997920","to":"1093969240","type":"store","field":"<java.util.HashMap: java.util.HashMap$HashMapEntry[] table>"},{"step":26,"from":"1093969240","to":"sdaReg53","type":"create","field":"<java.util.HashMap: int threshold>"},{"step":27,"from":"1093501864","to":"1093969240","type":"create","field":"<java.io.ObjectInputStream: java.util.HashMap cachedSuperclasses>"},{"step":28,"from":"1093489544","to":"1093536448","type":"create","field":"<java.io.FilterInputStream: java.io.InputStream in>"},{"step":29,"from":"1093489544","to":"1093737328","type":"create","field":"<java.io.DataInputStream: byte[] scratch>"},{"step":30,"from":"1093501864","to":"1093489544","type":"create","field":"<java.io.ObjectInputStream: java.io.DataInputStream input>"},{"step":31,"from":"1093432272","to":"1093501864","type":"create","field":"<java.io.FilterInputStream: java.io.InputStream in>"},{"step":32,"from":"1093432272","to":"1093484824","type":"create","field":"<java.io.DataInputStream: byte[] scratch>"},{"step":33,"from":"1093501864","to":"1093432272","type":"create","field":"<java.io.ObjectInputStream: java.io.DataInputStream primitiveTypes>"},{"step":34,"from":"1093501864","to":"sdaReg74","type":"create","field":"<java.io.ObjectInputStream: boolean enableResolve>"},{"step":35,"from":"1093501864","to":"sdaReg75","type":"create","field":"<java.io.ObjectInputStream: boolean subclassOverridingImplementation>"},{"step":36,"from":"static.<libcore.util.EmptyArray: java.lang.Object[] OBJECT>","to":"1083994088","type":"load","field":"<libcore.util.EmptyArray: java.lang.Object[] OBJECT>"},{"step":37,"from":"1083994088","to":"1093432024","type":"store","field":"<java.util.ArrayList: java.lang.Object[] array>"},{"step":38,"from":"1093501864","to":"1093432024","type":"create","field":"<java.io.ObjectInputStream: java.util.ArrayList objectsRead>"},{"step":39,"from":"1093501864","to":"sdaReg85","type":"create","field":"<java.io.ObjectInputStream: int nextHandle>"},{"step":40,"from":"1093513504","to":"1093501864","type":"store","field":"<java.io.ObjectInputStream: java.io.InputStream primitiveData>"},{"step":41,"from":"1093501864","to":"sdaReg86","type":"create","field":"<java.io.ObjectInputStream: boolean hasPushbackTC>"},{"step":42,"from":"1093501864","to":"sdaReg87","type":"create","field":"<java.io.ObjectInputStream: byte pushbackTC>"},{"step":43,"from":"1093501864","to":"sdaReg88","type":"create","field":"<java.io.ObjectInputStream: int nestedLevels>"},{"step":44,"from":"1093489544","to":"1093501864","type":"store","field":"<java.io.ObjectInputStream: java.io.InputStream primitiveData>"},{"step":45,"from":"1093536448","to":"1093737328","type":"model"},{"step":46,"from":"static.<java.nio.ByteOrder: java.nio.ByteOrder BIG_ENDIAN>","to":"1084439336","type":"load","field":"<java.nio.ByteOrder: java.nio.ByteOrder BIG_ENDIAN>"},{"step":47,"from":"1093737328","to":"sdaReg91","type":"model"},{"step":48,"from":"1093536448","to":"1093737328","type":"model"},{"step":49,"from":"static.<java.nio.ByteOrder: java.nio.ByteOrder BIG_ENDIAN>","to":"1084439336","type":"load","field":"<java.nio.ByteOrder: java.nio.ByteOrder BIG_ENDIAN>"},{"step":50,"from":"1093737328","to":"sdaReg93","type":"model"},{"step":51,"from":"1093513504","to":"1093501864","type":"store","field":"<java.io.ObjectInputStream: java.io.InputStream primitiveData>"},{"step":52,"from":"sdaReg101","to":"1093501864","type":"store","field":"<java.io.ObjectInputStream: int nestedLevels>"},{"step":53,"from":"1093995728","to":"1085809544","type":"load","field":"arrayIdx_int:0"},{"step":54,"from":"1085809544","to":"1083999984","type":"model"},{"step":55,"from":"static.<java.io.ObjectInputStream: java.lang.ClassLoader bootstrapLoader>","to":"1083999984","type":"load","field":"<java.io.ObjectInputStream: java.lang.ClassLoader bootstrapLoader>"},{"step":56,"from":"1093995728","to":"1085809544","type":"load","field":"arrayIdx_int:1"},{"step":57,"from":"1085809544","to":"1083999984","type":"model"},{"step":58,"from":"static.<java.io.ObjectInputStream: java.lang.ClassLoader bootstrapLoader>","to":"1083999984","type":"load","field":"<java.io.ObjectInputStream: java.lang.ClassLoader bootstrapLoader>"},{"step":59,"from":"1093995728","to":"1085809544","type":"load","field":"arrayIdx_int:2"},{"step":60,"from":"1085809544","to":"1083999984","type":"model"},{"step":61,"from":"static.<java.io.ObjectInputStream: java.lang.ClassLoader bootstrapLoader>","to":"1083999984","type":"load","field":"<java.io.ObjectInputStream: java.lang.ClassLoader bootstrapLoader>"},{"step":62,"from":"1093995728","to":"1085809544","type":"load","field":"arrayIdx_int:3"},{"step":63,"from":"1085809544","to":"1083999984","type":"model"},{"step":64,"from":"static.<java.io.ObjectInputStream: java.lang.ClassLoader bootstrapLoader>","to":"1083999984","type":"load","field":"<java.io.ObjectInputStream: java.lang.ClassLoader bootstrapLoader>"},{"step":65,"from":"1093995728","to":"1085809544","type":"load","field":"arrayIdx_int:4"},{"step":66,"from":"1085809544","to":"1083999984","type":"model"},{"step":67,"from":"static.<java.io.ObjectInputStream: java.lang.ClassLoader bootstrapLoader>","to":"1083999984","type":"load","field":"<java.io.ObjectInputStream: java.lang.ClassLoader bootstrapLoader>"},{"step":68,"from":"1093995728","to":"1084021776","type":"load","field":"arrayIdx_int:5"},{"step":69,"from":"1084021776","to":"1083999984","type":"model"},{"step":70,"from":"static.<java.io.ObjectInputStream: java.lang.ClassLoader bootstrapLoader>","to":"1083999984","type":"load","field":"<java.io.ObjectInputStream: java.lang.ClassLoader bootstrapLoader>"},{"step":71,"from":"1093995728","to":"1084021776","type":"load","field":"arrayIdx_int:6"},{"step":72,"from":"1084021776","to":"1083999984","type":"model"},{"step":73,"from":"static.<java.io.ObjectInputStream: java.lang.ClassLoader bootstrapLoader>","to":"1083999984","type":"load","field":"<java.io.ObjectInputStream: java.lang.ClassLoader bootstrapLoader>"},{"step":74,"from":"1093995728","to":"1084021776","type":"load","field":"arrayIdx_int:7"},{"step":75,"from":"1084021776","to":"1083999984","type":"model"},{"step":76,"from":"static.<java.io.ObjectInputStream: java.lang.ClassLoader bootstrapLoader>","to":"1083999984","type":"load","field":"<java.io.ObjectInputStream: java.lang.ClassLoader bootstrapLoader>"},{"step":77,"from":"1093995728","to":"1084021776","type":"load","field":"arrayIdx_int:8"},{"step":78,"from":"1084021776","to":"1083999984","type":"model"},{"step":79,"from":"static.<java.io.ObjectInputStream: java.lang.ClassLoader bootstrapLoader>","to":"1083999984","type":"load","field":"<java.io.ObjectInputStream: java.lang.ClassLoader bootstrapLoader>"},{"step":80,"from":"1093995728","to":"1084021776","type":"load","field":"arrayIdx_int:9"},{"step":81,"from":"1084021776","to":"1083999984","type":"model"},{"step":82,"from":"static.<java.io.ObjectInputStream: java.lang.ClassLoader bootstrapLoader>","to":"1083999984","type":"load","field":"<java.io.ObjectInputStream: java.lang.ClassLoader bootstrapLoader>"},{"step":83,"from":"1093995728","to":"1084021776","type":"load","field":"arrayIdx_int:10"},{"step":84,"from":"1084021776","to":"1083999984","type":"model"},{"step":85,"from":"static.<java.io.ObjectInputStream: java.lang.ClassLoader bootstrapLoader>","to":"1083999984","type":"load","field":"<java.io.ObjectInputStream: java.lang.ClassLoader bootstrapLoader>"},{"step":86,"from":"1093995728","to":"1084342632","type":"load","field":"arrayIdx_int:11"},{"step":87,"from":"1084342632","to":"1083999984","type":"model"},{"step":88,"from":"static.<java.io.ObjectInputStream: java.lang.ClassLoader bootstrapLoader>","to":"1083999984","type":"load","field":"<java.io.ObjectInputStream: java.lang.ClassLoader bootstrapLoader>"},{"step":89,"from":"1093995728","to":"1084342632","type":"load","field":"arrayIdx_int:12"},{"step":90,"from":"1084342632","to":"1083999984","type":"model"},{"step":91,"from":"static.<java.io.ObjectInputStream: java.lang.ClassLoader bootstrapLoader>","to":"1083999984","type":"load","field":"<java.io.ObjectInputStream: java.lang.ClassLoader bootstrapLoader>"},{"step":92,"from":"1093995728","to":"1084342632","type":"load","field":"arrayIdx_int:13"},{"step":93,"from":"1084342632","to":"1083999984","type":"model"},{"step":94,"from":"static.<java.io.ObjectInputStream: java.lang.ClassLoader bootstrapLoader>","to":"1083999984","type":"load","field":"<java.io.ObjectInputStream: java.lang.ClassLoader bootstrapLoader>"},{"step":95,"from":"1093995728","to":"1084342632","type":"load","field":"arrayIdx_int:14"},{"step":96,"from":"1084342632","to":"1083999984","type":"model"},{"step":97,"from":"static.<java.io.ObjectInputStream: java.lang.ClassLoader bootstrapLoader>","to":"1083999984","type":"load","field":"<java.io.ObjectInputStream: java.lang.ClassLoader bootstrapLoader>"},{"step":98,"from":"1093995728","to":"1093528992","type":"load","field":"arrayIdx_int:15"},{"step":99,"from":"1093528992","to":"1093480528","type":"model"},{"step":100,"from":"static.<java.io.ObjectInputStream: java.lang.ClassLoader bootstrapLoader>","to":"1083999984","type":"load","field":"<java.io.ObjectInputStream: java.lang.ClassLoader bootstrapLoader>"},{"step":101,"from":"static.<java.io.ObjectInputStream: java.lang.ClassLoader systemLoader>","to":"1083999760","type":"load","field":"<java.io.ObjectInputStream: java.lang.ClassLoader systemLoader>"},{"step":102,"from":"1093501864","to":"1093480528","type":"create","field":"<java.io.ObjectInputStream: java.lang.ClassLoader callerClassLoader>"},{"step":103,"from":"1093513504","to":"1093513504.<java.io.ByteArrayInputStream: int pos>","type":"load","field":"<java.io.ByteArrayInputStream: int pos>"},{"step":104,"from":"1093536448","to":"1093536448.<java.io.ByteArrayInputStream: int pos>","type":"load","field":"<java.io.ByteArrayInputStream: int pos>"},{"step":105,"from":"1093536448","to":"1093536448.<java.io.ByteArrayInputStream: int pos>","type":"load","field":"<java.io.ByteArrayInputStream: int pos>"},{"step":106,"from":"sdaReg130","to":"1093536448","type":"store","field":"<java.io.ByteArrayInputStream: int pos>"},{"step":107,"from":"1093536392","to":"1093536392.arrayIdx_int:4","type":"load","field":"arrayIdx_int:4"},{"step":108,"from":"sdaReg132","to":"1093501864","type":"store","field":"<java.io.ObjectInputStream: byte pushbackTC>"},{"step":109,"from":"1093501864","to":"sdaReg134","type":"create","field":"<java.io.ObjectInputStream: boolean hasPushbackTC>"},{"step":110,"from":"1093513504","to":"1093513504.<java.io.ByteArrayInputStream: int pos>","type":"load","field":"<java.io.ByteArrayInputStream: int pos>"},{"step":111,"from":"1093501864","to":"sdaReg138","type":"create","field":"<java.io.ObjectInputStream: boolean hasPushbackTC>"},{"step":112,"from":"sdaReg145","to":"1093536448","type":"store","field":"<java.io.ByteArrayInputStream: int pos>"},{"step":113,"from":"1093536392","to":"1093536392.arrayIdx_int:5","type":"load","field":"arrayIdx_int:5"},{"step":114,"from":"sdaReg147","to":"1093501864","type":"store","field":"<java.io.ObjectInputStream: byte pushbackTC>"},{"step":115,"from":"1093489544","to":"1093501864","type":"store","field":"<java.io.ObjectInputStream: java.io.InputStream primitiveData>"},{"step":116,"from":"sdaReg152","to":"1093501864","type":"store","field":"<java.io.ObjectInputStream: int nextHandle>"},{"step":117,"from":"sdaReg153","to":"1093501864","type":"store","field":"<java.io.ObjectInputStream: int descriptorHandle>"},{"step":118,"from":"1093536448","to":"1093737328","type":"model"},{"step":119,"from":"static.<java.nio.ByteOrder: java.nio.ByteOrder BIG_ENDIAN>","to":"1084439336","type":"load","field":"<java.nio.ByteOrder: java.nio.ByteOrder BIG_ENDIAN>"},{"step":120,"from":"1093737328","to":"sdaReg160","type":"model"},{"step":121,"from":"1093536448","to":"1094495712","type":"model"},{"step":122,"from":"1094495712","to":"1094495712.arrayIdx_int:0","type":"load","field":"arrayIdx_int:0"},{"step":123,"from":"sdaReg174","to":"1093516368","type":"store","field":"arrayIdx_int:0"},{"step":124,"from":"1094495712","to":"1094495712.arrayIdx_int:1","type":"load","field":"arrayIdx_int:1"},{"step":125,"from":"sdaReg174","to":"1093516368","type":"store","field":"arrayIdx_int:1"},{"step":126,"from":"1093516368","to":"sdaReg175","type":"model"},{"step":127,"from":"1093957080","to":"sdaReg175","type":"model"},{"step":128,"from":"sdaReg175","to":"1093957080","type":"model"},{"step":129,"from":"1093536448","to":"1093737328","type":"model"},{"step":130,"from":"static.<java.nio.ByteOrder: java.nio.ByteOrder BIG_ENDIAN>","to":"1084439336","type":"load","field":"<java.nio.ByteOrder: java.nio.ByteOrder BIG_ENDIAN>"},{"step":131,"from":"1093737328","to":"sdaReg178","type":"model"},{"step":132,"from":"1093957080","to":"sdaReg178","type":"model"},{"step":133,"from":"sdaReg178","to":"1093957080","type":"model"},{"step":134,"from":"sdaReg181","to":"1093536448","type":"store","field":"<java.io.ByteArrayInputStream: int pos>"},{"step":135,"from":"1093536392","to":"1093536392.arrayIdx_int:18","type":"load","field":"arrayIdx_int:18"},{"step":136,"from":"1093957080","to":"sdaReg183","type":"model"},{"step":137,"from":"sdaReg183","to":"1093957080","type":"model"},{"step":138,"from":"1093432024","to":"1093432024.<java.util.ArrayList: int size>","type":"load","field":"<java.util.ArrayList: int size>"},{"step":139,"from":"1093432024","to":"1093432024.<java.util.ArrayList: int size>","type":"load","field":"<java.util.ArrayList: int size>"},{"step":140,"from":"1083994088","to":"1093876328","type":"model"},{"step":141,"from":"1093432024","to":"1093876328","type":"create","field":"<java.util.ArrayList: java.lang.Object[] array>"},{"step":142,"from":"1093876328","to":"1093957080","type":"create","field":"arrayIdx_int:0"},{"step":143,"from":"sdaReg196","to":"1093432024","type":"store","field":"<java.util.ArrayList: int size>"},{"step":144,"from":"1093432024","to":"1093432024.<java.util.AbstractList: int modCount>","type":"load","field":"<java.util.AbstractList: int modCount>"},{"step":145,"from":"sdaReg197","to":"1093432024","type":"store","field":"<java.util.AbstractList: int modCount>"},{"step":146,"from":"1093536448","to":"1093737328","type":"model"},{"step":147,"from":"static.<java.nio.ByteOrder: java.nio.ByteOrder BIG_ENDIAN>","to":"1084439336","type":"load","field":"<java.nio.ByteOrder: java.nio.ByteOrder BIG_ENDIAN>"},{"step":148,"from":"1093737328","to":"sdaReg202","type":"model"},{"step":149,"from":"1093957080","to":"1093607672","type":"model"},{"step":150,"from":"1093607672","to":"1093957080","type":"model"},{"step":151,"from":"1093957080","to":"1093876328","type":"store","field":"arrayIdx_int:0"},{"step":152,"from":"sdaReg213","to":"1093501864","type":"store","field":"<java.io.ObjectInputStream: int descriptorHandle>"},{"step":153,"from":"1093513504","to":"1093501864","type":"store","field":"<java.io.ObjectInputStream: java.io.InputStream primitiveData>"},{"step":154,"from":"1093957080","to":"0","type":"model"},{"step":155,"from":"1093957080","to":"sdaReg217","type":"model"},{"step":156,"from":"static.<java.io.ObjectInputStream: java.util.HashMap PRIMITIVE_CLASSES>","to":"1093536480","type":"load","field":"<java.io.ObjectInputStream: java.util.HashMap PRIMITIVE_CLASSES>"},{"step":157,"from":"1093536480","to":"1093745400","type":"load","field":"<java.util.HashMap: java.util.HashMap$HashMapEntry[] table>"},{"step":158,"from":"sdaReg217","to":"1093480528","type":"model"},{"step":159,"from":"sdaReg217","to":"1083914368","type":"model"},{"step":160,"from":"1093480528","to":"sdaReg217","type":"model"},{"step":161,"from":"1093480528","to":"1083914368","type":"model"},{"step":162,"from":"1093957080","to":"1083914368","type":"model"},{"step":163,"from":"1083914368","to":"1093957080","type":"model"},{"step":164,"from":"1093957080","to":"1083914368","type":"model"},{"step":165,"from":"1083914368","to":"1093872984","type":"model"},{"step":166,"from":"1093957080","to":"sdaReg238","type":"model"},{"step":167,"from":"1093872984","to":"sdaReg239","type":"model"},{"step":168,"from":"1093957080","to":"sdaReg241","type":"model"},{"step":169,"from":"sdaReg241","to":"sdaReg242","type":"model"},{"step":170,"from":"1093872984","to":"sdaReg243","type":"model"},{"step":171,"from":"sdaReg243","to":"sdaReg244","type":"model"},{"step":172,"from":"1093957080","to":"1093872984","type":"model"},{"step":173,"from":"1093872984","to":"1093957080","type":"model"},{"step":174,"from":"1093957080","to":"1093607672","type":"model"},{"step":175,"from":"1093957080","to":"1083914368","type":"model"},{"step":176,"from":"1093957080","to":"1083914368","type":"model"},{"step":177,"from":"1083914368","to":"1083999984","type":"model"},{"step":178,"from":"1093513504","to":"1093501864","type":"store","field":"<java.io.ObjectInputStream: java.io.InputStream primitiveData>"},{"step":179,"from":"1093501864","to":"sdaReg257","type":"create","field":"<java.io.ObjectInputStream: boolean mustResolve>"},{"step":180,"from":"sdaReg261","to":"1093536448","type":"store","field":"<java.io.ByteArrayInputStream: int pos>"},{"step":181,"from":"1093536392","to":"1093536392.arrayIdx_int:21","type":"load","field":"arrayIdx_int:21"},{"step":182,"from":"sdaReg263","to":"1093501864","type":"store","field":"<java.io.ObjectInputStream: byte pushbackTC>"},{"step":183,"from":"sdaReg265","to":"1093501864","type":"store","field":"<java.io.ObjectInputStream: boolean mustResolve>"},{"step":184,"from":"sdaReg270","to":"1093536448","type":"store","field":"<java.io.ByteArrayInputStream: int pos>"},{"step":185,"from":"1093536392","to":"1093536392.arrayIdx_int:22","type":"load","field":"arrayIdx_int:22"},{"step":186,"from":"sdaReg272","to":"1093501864","type":"store","field":"<java.io.ObjectInputStream: byte pushbackTC>"},{"step":187,"from":"sdaReg281","to":"1093501864","type":"store","field":"<java.io.ObjectInputStream: int nextHandle>"},{"step":188,"from":"1093536448","to":"1093737328","type":"model"},{"step":189,"from":"static.<java.nio.ByteOrder: java.nio.ByteOrder BIG_ENDIAN>","to":"1084439336","type":"load","field":"<java.nio.ByteOrder: java.nio.ByteOrder BIG_ENDIAN>"},{"step":190,"from":"1093737328","to":"sdaReg284","type":"model"},{"step":191,"from":"1093957080","to":"1083914368","type":"model"},{"step":192,"from":"1083914368","to":"1083909280","type":"model"},{"step":193,"from":"1093876328","to":"1093878304","type":"create","field":"arrayIdx_int:1"},{"step":194,"from":"sdaReg296","to":"1093432024","type":"store","field":"<java.util.ArrayList: int size>"},{"step":195,"from":"sdaReg297","to":"1093432024","type":"store","field":"<java.util.AbstractList: int modCount>"},{"step":196,"from":"1083909280","to":"sdaReg299","type":"model"},{"step":197,"from":"static.<java.lang.Integer: java.lang.Class TYPE>","to":"1083909616","type":"load","field":"<java.lang.Integer: java.lang.Class TYPE>"},{"step":198,"from":"static.<java.lang.Byte: java.lang.Class TYPE>","to":"1083909112","type":"load","field":"<java.lang.Byte: java.lang.Class TYPE>"},{"step":199,"from":"static.<java.lang.Character: java.lang.Class TYPE>","to":"1083909448","type":"load","field":"<java.lang.Character: java.lang.Class TYPE>"},{"step":200,"from":"static.<java.lang.Short: java.lang.Class TYPE>","to":"1083909280","type":"load","field":"<java.lang.Short: java.lang.Class TYPE>"},{"step":201,"from":"1093536448","to":"1093737328","type":"model"},{"step":202,"from":"static.<java.nio.ByteOrder: java.nio.ByteOrder BIG_ENDIAN>","to":"1084439336","type":"load","field":"<java.nio.ByteOrder: java.nio.ByteOrder BIG_ENDIAN>"},{"step":203,"from":"1093737328","to":"sdaReg304","type":"model"},{"step":204,"from":"sdaReg304","to":"1093878304","type":"store","field":"arrayIdx_int:0"},{"step":205,"from":"1093536448","to":"1093737328","type":"model"},{"step":206,"from":"static.<java.nio.ByteOrder: java.nio.ByteOrder BIG_ENDIAN>","to":"1084439336","type":"load","field":"<java.nio.ByteOrder: java.nio.ByteOrder BIG_ENDIAN>"},{"step":207,"from":"1093737328","to":"sdaReg306","type":"model"},{"step":208,"from":"sdaReg306","to":"1093878304","type":"store","field":"arrayIdx_int:1"},{"step":209,"from":"sdaReg309","to":"1093501864","type":"store","field":"<java.io.ObjectInputStream: int nestedLevels>"},{"step":210,"from":"1093501864","to":"sdaReg310","type":"create","field":"<java.io.ObjectInputStream: java.lang.ClassLoader callerClassLoader>"},{"step":211,"from":"1093899400","to":"1093899400.<java.util.HashMap: int modCount>","type":"load","field":"<java.util.HashMap: int modCount>"},{"step":212,"from":"sdaReg331","to":"1093899400","type":"store","field":"<java.util.HashMap: int modCount>"},{"step":213,"from":"1093899400","to":"1093899400.<java.util.HashMap: int size>","type":"load","field":"<java.util.HashMap: int size>"},{"step":214,"from":"sdaReg332","to":"1093899400","type":"store","field":"<java.util.HashMap: int size>"},{"step":215,"from":"1093899400","to":"1093743584","type":"create","field":"<java.util.HashMap: java.util.HashMap$HashMapEntry[] table>"},{"step":216,"from":"sdaReg340","to":"1093899400","type":"store","field":"<java.util.HashMap: int threshold>"},{"step":217,"from":"1093900704","to":"1093849104","type":"store","field":"<java.util.HashMap$HashMapEntry: java.lang.Object key>"},{"step":218,"from":"1093878304","to":"1093849104","type":"store","field":"<java.util.HashMap$HashMapEntry: java.lang.Object value>"},{"step":219,"from":"sdaReg327","to":"1093849104","type":"store","field":"<java.util.HashMap$HashMapEntry: int hash>"},{"step":220,"from":"1093743584","to":"1093849104","type":"create","field":"arrayIdx_int:2"},{"step":221,"from":"1093742888","to":"1093467872","type":"load","field":"<android.os.Bundle: android.os.Parcel mParcelledData>"},{"step":222,"from":"1093467872","to":"1093467872.<android.os.Parcel: int mOwnObject>","type":"load","field":"<android.os.Parcel: int mOwnObject>"},{"step":223,"from":"static.<android.os.Parcel: android.os.Parcel[] sOwnedPool>","to":"1084044960","type":"load","field":"<android.os.Parcel: android.os.Parcel[] sOwnedPool>"},{"step":224,"from":"1093467872","to":"1084044960","type":"store","field":"arrayIdx_int:0"},{"step":225,"from":"1093742888","to":"sdaReg359","type":"create","field":"<android.os.Bundle: android.os.Parcel mParcelledData>"}],"parameters":[{"id":"1093742888","name":"this","klass":"android.os.Bundle"}],"returns":[{"id":null,"name":"return","klass":null}],"colors":{"heapLocToColor":{"sdaReg294":[54],"sdaReg191":[28],"1093995728.arrayIdx_int:10":[23],"sdaReg293":[18],"sdaReg190":[18],"1093742888.<android.os.Bundle: android.os.Parcel mParcelledData>":[0],"1093995728.arrayIdx_int:12":[23],"1093995728.arrayIdx_int:13":[23],"1093995728.arrayIdx_int:14":[23],"sdaReg299":[55, 53, 42, 28],"sdaReg326":[62],"sdaReg199":[10],"static.<java.io.ObjectInputStream: java.lang.ClassLoader bootstrapLoader>":[23, 25, 24],"sdaReg325":[62],"sdaReg324":[62],"sdaReg323":[62],"sdaReg194":[18],"sdaReg197":[18],"sdaReg327":[62],"sdaReg291":[18],"sdaReg196":[18],"sdaReg14":[0, 4],"sdaReg12":[0],"sdaReg321":[62],"sdaReg322":[62],"sdaReg10":[2],"sdaReg320":[62],"sdaReg19":[0, 6],"sdaReg17":[0],"sdaReg15":[0, 5],"1093513504.<java.io.ByteArrayInputStream: int pos>":[11],"sdaReg313":[54],"1093969240":[13],"1083999760":[27],"sdaReg312":[54],"sdaReg315":[54],"sdaReg314":[54],"1083909280":[53, 59, 42, 28],"sdaReg316":[2],"sdaReg319":[62],"sdaReg318":[54],"0":[38, 28],"sdaReg311":[54],"static.<java.lang.Character: java.lang.Class TYPE>":[58],"sdaReg308":[54],"sdaReg307":[54],"sdaReg306":[61],"sdaReg175":[32, 28],"sdaReg305":[14],"sdaReg174":[30],"sdaReg304":[60],"sdaReg177":[14],"sdaReg303":[14],"sdaReg176":[33],"1093480528":[23, 26],"sdaReg179":[14],"sdaReg301":[54],"sdaReg178":[34, 28],"sdaReg300":[54],"1093536392.arrayIdx_int:18":[0, 8],"static.<java.util.HashMap: java.util.Map$Entry[] EMPTY_TABLE>":[3],"sdaReg182":[0, 8],"1085809544":[23],"1093878304":[54],"sdaReg180":[9],"1093957080":[28],"sdaReg185":[28],"sdaReg184":[10],"sdaReg183":[0, 8, 28],"1093432272":[16],"sdaReg189":[18],"1093536392.arrayIdx_int:22":[0, 8],"1093536392.arrayIdx_int:21":[0, 8],"sdaReg60":[14],"sdaReg61":[14],"1093607672":[37, 28],"1093484824":[17],"static.<libcore.util.EmptyArray: java.lang.Object[] OBJECT>":[19],"1093432024":[18],"sdaReg59":[9],"1093513504":[11],"sdaReg58":[14],"sdaReg57":[9],"sdaReg56":[14],"1083997920":[3],"sdaReg54":[13],"sdaReg52":[3],"sdaReg51":[3],"1093501864":[10],"sdaReg50":[13],"1094495712":[30],"1093516368":[31],"sdaReg49":[13],"sdaReg48":[13],"sdaReg44":[11],"sdaReg47":[13],"sdaReg41":[11],"sdaReg40":[11],"1093876328":[35],"1084439336":[20],"sdaReg200":[28],"sdaReg201":[14],"sdaReg205":[10],"1093872984":[43, 28],"sdaReg204":[28],"sdaReg39":[11],"sdaReg38":[12],"1094495712.arrayIdx_int:0":[30],"sdaReg202":[36],"sdaReg37":[11],"1094495712.arrayIdx_int:1":[30],"sdaReg209":[18],"sdaReg206":[28],"sdaReg32":[10],"sdaReg31":[9],"sdaReg30":[9],"sdaReg36":[10],"sdaReg35":[10],"sdaReg34":[10],"sdaReg33":[9],"sdaReg8":[2],"sdaReg9":[0],"sdaReg6":[3],"1093432024.<java.util.AbstractList: int modCount>":[18],"sdaReg4":[2],"1093536392":[0, 8],"sdaReg5":[3],"static.<java.lang.Short: java.lang.Class TYPE>":[53, 42, 59, 28],"sdaReg27":[9],"1093899400":[2],"sdaReg26":[9],"sdaReg3":[2],"sdaReg2":[2],"sdaReg21":[0, 7],"sdaReg1":[2],"sdaReg20":[0],"sdaReg0":[0, 1],"sdaReg23":[9],"sdaReg22":[0, 8],"sdaReg25":[9],"sdaReg24":[0, 8],"sdaReg125":[11],"sdaReg126":[11],"1083914368":[42, 28],"sdaReg128":[14],"1093432024.<java.util.ArrayList: int size>":[18],"sdaReg129":[9],"1084044960":[65],"sdaReg68":[10],"sdaReg69":[16],"1093742888":[0],"sdaReg66":[10],"sdaReg67":[16],"sdaReg224":[41],"sdaReg64":[14],"sdaReg225":[41],"sdaReg65":[16],"sdaReg226":[41],"sdaReg62":[14],"sdaReg227":[41],"sdaReg63":[14],"sdaReg221":[41],"sdaReg72":[16],"sdaReg220":[41],"sdaReg71":[16],"sdaReg223":[41],"sdaReg70":[16],"sdaReg222":[41],"sdaReg120":[23, 25, 24],"sdaReg122":[23, 26],"sdaReg121":[23, 26],"sdaReg124":[10],"sdaReg123":[10],"sdaReg116":[23, 25, 24],"sdaReg117":[23, 25, 24],"sdaReg114":[23, 25, 24],"sdaReg115":[23, 25, 24],"sdaReg118":[23, 25, 24],"sdaReg119":[23, 25, 24],"sdaReg219":[41],"sdaReg77":[10],"sdaReg78":[18],"sdaReg217":[39, 28],"sdaReg79":[18],"sdaReg218":[40],"sdaReg215":[28],"sdaReg73":[16],"sdaReg216":[38, 28],"sdaReg214":[10],"sdaReg76":[10],"sdaReg212":[28],"sdaReg81":[18],"sdaReg211":[18],"sdaReg80":[18],"sdaReg83":[18],"1083994088":[19],"sdaReg82":[18],"1093536480":[40],"1083993968":[12],"sdaReg113":[23, 25, 24],"sdaReg112":[23, 25, 24],"sdaReg111":[23, 25, 24],"sdaReg110":[23, 25, 24],"sdaReg107":[23, 25, 24],"sdaReg108":[23, 25, 24],"sdaReg109":[23, 25, 24],"sdaReg103":[23],"sdaReg106":[23, 24],"sdaReg246":[37, 28],"sdaReg247":[37, 28],"sdaReg248":[37, 28],"sdaReg84":[18],"sdaReg249":[42, 28],"1093536392.arrayIdx_int:5":[0, 8],"1093899400.<java.util.HashMap: int modCount>":[2],"sdaReg89":[10],"sdaReg90":[14],"sdaReg241":[46, 28],"1083909616":[56],"sdaReg240":[43, 28, 44, 45],"sdaReg243":[48, 43],"sdaReg94":[10],"sdaReg242":[46, 28, 47],"sdaReg93":[22],"1093536392.arrayIdx_int:4":[0, 8],"sdaReg245":[50],"sdaReg92":[14],"sdaReg244":[49, 48, 43],"sdaReg91":[21],"1084021776":[23],"sdaReg102":[23],"1093467872":[0],"sdaReg237":[43],"sdaReg95":[10],"sdaReg238":[28, 44],"sdaReg96":[10],"sdaReg235":[28],"sdaReg97":[10],"sdaReg236":[42, 28],"sdaReg239":[43, 45],"sdaReg230":[41],"sdaReg234":[10],"sdaReg233":[42],"1084342632":[23],"sdaReg232":[42],"sdaReg231":[38, 28],"sdaReg269":[9],"sdaReg268":[14],"1093467872.<android.os.Parcel: int mOwnObject>":[0],"1093737328":[15],"static.<java.lang.Byte: java.lang.Class TYPE>":[57],"1093489544":[14],"sdaReg161":[29],"1083909112":[57],"sdaReg162":[14],"sdaReg163":[14],"sdaReg164":[14],"sdaReg165":[30],"sdaReg167":[30],"sdaReg168":[31],"1093536448.<java.io.ByteArrayInputStream: int pos>":[9],"sdaReg266":[10],"sdaReg267":[10],"sdaReg260":[9],"static.<java.nio.ByteOrder: java.nio.ByteOrder BIG_ENDIAN>":[20],"sdaReg262":[0, 8],"sdaReg263":[0, 8],"sdaReg160":[29],"1093899400.<java.util.HashMap: int size>":[2],"sdaReg259":[14],"sdaReg258":[10],"1093536448":[9],"sdaReg351":[54],"1093745400":[40],"sdaReg159":[14],"static.<libcore.util.EmptyArray: byte[] BYTE>":[12],"sdaReg158":[14],"sdaReg355":[0],"sdaReg354":[64],"sdaReg353":[64],"sdaReg352":[38, 28],"sdaReg356":[65],"sdaReg357":[65],"sdaReg151":[10],"sdaReg156":[28],"sdaReg157":[14],"sdaReg154":[10],"sdaReg155":[28],"sdaReg256":[10],"sdaReg253":[37, 28],"sdaReg251":[23, 25, 42, 24, 28],"1083909448":[58],"sdaReg252":[23, 42, 25, 24, 28],"sdaReg250":[42, 28],"static.<android.os.Parcel: android.os.Parcel[] sOwnedPool>":[65],"1093849104":[64],"sdaReg341":[63],"sdaReg343":[63],"sdaReg147":[0, 8],"sdaReg149":[10],"sdaReg349":[64],"sdaReg143":[14],"sdaReg144":[9],"1093528992":[23],"sdaReg146":[0, 8],"sdaReg346":[2],"1093995728.arrayIdx_int:9":[23],"sdaReg140":[10],"sdaReg280":[10],"static.<java.io.ObjectInputStream: java.lang.ClassLoader systemLoader>":[27],"sdaReg141":[10],"sdaReg348":[54],"sdaReg142":[10],"sdaReg283":[14],"1083999984":[23, 42, 25, 24, 28],"sdaReg284":[52],"sdaReg285":[42, 28],"sdaReg286":[53, 42, 28],"sdaReg287":[54],"sdaReg288":[10],"sdaReg289":[54],"1093995728":[23],"sdaReg279":[28],"sdaReg333":[2],"1093995728.arrayIdx_int:7":[23],"sdaReg332":[2],"1093995728.arrayIdx_int:8":[23],"sdaReg331":[2],"1093743584":[63],"sdaReg330":[62],"1093995728.arrayIdx_int:6":[23],"1093995728.arrayIdx_int:3":[23],"1093995728.arrayIdx_int:4":[23],"1093995728.arrayIdx_int:1":[23],"sdaReg137":[10],"static.<java.io.ObjectInputStream: java.util.HashMap PRIMITIVE_CLASSES>":[40],"1093995728.arrayIdx_int:2":[23],"sdaReg136":[11],"sdaReg135":[11],"sdaReg132":[0, 8],"sdaReg133":[10],"sdaReg336":[2],"sdaReg130":[9],"sdaReg131":[0, 8],"static.<java.lang.Integer: java.lang.Class TYPE>":[56],"sdaReg274":[38, 28],"sdaReg271":[0, 8],"sdaReg272":[0, 8],"sdaReg277":[51],"sdaReg278":[28],"sdaReg275":[28],"sdaReg276":[38, 28]},"colorToColor":{"0":[65, 9, 10, 28],"2":[0, 2],"3":[2, 13],"64":[63],"8":[9, 10, 28],"9":[9, 14, 30, 15],"10":[16],"11":[10],"12":[11],"13":[10],"14":[10],"15":[34, 21, 36, 52, 22, 29, 61, 14, 60],"17":[16],"16":[10],"19":[35, 18],"18":[18, 10],"23":[39, 42, 10, 28],"26":[39, 42, 10, 28],"28":[35, 23, 42, 43, 26, 28],"31":[32],"30":[31],"34":[28],"35":[18],"32":[28],"39":[23, 42, 26],"37":[28],"42":[43, 28],"43":[28],"54":[35, 64],"63":[2],"62":[64],"61":[54],"60":[54]},"colorToLabel":{"0":"this","3":"<java.util.HashMap: java.util.Map$Entry[] EMPTY_TABLE>","12":"<libcore.util.EmptyArray: byte[] BYTE>","19":"<libcore.util.EmptyArray: java.lang.Object[] OBJECT>","20":"<java.nio.ByteOrder: java.nio.ByteOrder BIG_ENDIAN>","25":"<java.io.ObjectInputStream: java.lang.ClassLoader bootstrapLoader>","27":"<java.io.ObjectInputStream: java.lang.ClassLoader systemLoader>","40":"<java.io.ObjectInputStream: java.util.HashMap PRIMITIVE_CLASSES>","56":"<java.lang.Integer: java.lang.Class TYPE>","57":"<java.lang.Byte: java.lang.Class TYPE>","58":"<java.lang.Character: java.lang.Class TYPE>","59":"<java.lang.Short: java.lang.Class TYPE>","65":"<android.os.Parcel: android.os.Parcel[] sOwnedPool>","66":"return"}}}

Generated Model
	this-><android.os.Parcel: android.os.Parcel[] sOwnedPool>

