Scanning method <android.os.Bundle: void unparcel()>

All seen event types: StoreArrayRecord, SimpleAssignmentRecord, ExitMonitorRecord, LoadInstanceRecord, MethodStartRecord, IfRecord, NewObjectRecord, StoreInstanceRecord, NewArrayRecord, LoadStaticRecord, BinaryOperationRecord, MethodCallRecord, MethodReturnRecord, SwitchRecord, EnterMonitorRecord, CastRecord, ArrayLengthRecord, LoadArrayRecord, MethodEndRecord, 
Ignored event types: ExitMonitorRecord, SwitchRecord, EnterMonitorRecord, IfRecord, 

JSON Encoded Analysis Data (for visualization):{"heapEdges":[{"step":0,"from":"1094053664","to":"1093448424","type":"load","field":"<android.os.Bundle: android.os.Parcel mParcelledData>"},{"step":1,"from":"1094053664","to":"1093448424","type":"load","field":"<android.os.Bundle: android.os.Parcel mParcelledData>"},{"step":2,"from":"1093448424","to":"sdaReg0","type":"model"},{"step":3,"from":"static.<java.util.HashMap: java.util.Map$Entry[] EMPTY_TABLE>","to":"1083997920","type":"load","field":"<java.util.HashMap: java.util.Map$Entry[] EMPTY_TABLE>"},{"step":4,"from":"1083997920","to":"1094112520","type":"store","field":"<java.util.HashMap: java.util.HashMap$HashMapEntry[] table>"},{"step":5,"from":"1094112520","to":"sdaReg7","type":"create","field":"<java.util.HashMap: int threshold>"},{"step":6,"from":"1094053664","to":"1094112520","type":"create","field":"<android.os.Bundle: java.util.Map mMap>"},{"step":7,"from":"1094053664","to":"1093448424","type":"load","field":"<android.os.Bundle: android.os.Parcel mParcelledData>"},{"step":8,"from":"1093448424","to":"sdaReg14","type":"model"},{"step":9,"from":"1093448424","to":"sdaReg15","type":"model"},{"step":10,"from":"1093448424","to":"sdaReg19","type":"model"},{"step":11,"from":"1093448424","to":"sdaReg20","type":"model"},{"step":12,"from":"1094112520","to":"1094112520.<java.util.HashMap: int modCount>","type":"load","field":"<java.util.HashMap: int modCount>"},{"step":13,"from":"sdaReg37","to":"1094112520","type":"store","field":"<java.util.HashMap: int modCount>"},{"step":14,"from":"1094112520","to":"1094112520.<java.util.HashMap: int size>","type":"load","field":"<java.util.HashMap: int size>"},{"step":15,"from":"sdaReg38","to":"1094112520","type":"store","field":"<java.util.HashMap: int size>"},{"step":16,"from":"1094112520","to":"1094153344","type":"create","field":"<java.util.HashMap: java.util.HashMap$HashMapEntry[] table>"},{"step":17,"from":"sdaReg46","to":"1094112520","type":"store","field":"<java.util.HashMap: int threshold>"},{"step":18,"from":"1094141840","to":"1094151888","type":"store","field":"<java.util.HashMap$HashMapEntry: java.lang.Object key>"},{"step":19,"from":"1094151816","to":"1094151888","type":"store","field":"<java.util.HashMap$HashMapEntry: java.lang.Object value>"},{"step":20,"from":"sdaReg33","to":"1094151888","type":"store","field":"<java.util.HashMap$HashMapEntry: int hash>"},{"step":21,"from":"1094153344","to":"1094151888","type":"create","field":"arrayIdx_int:2"},{"step":22,"from":"1094053664","to":"1093448424","type":"load","field":"<android.os.Bundle: android.os.Parcel mParcelledData>"},{"step":23,"from":"1093448424","to":"1093448424.<android.os.Parcel: int mOwnObject>","type":"load","field":"<android.os.Parcel: int mOwnObject>"},{"step":24,"from":"static.<android.os.Parcel: android.os.Parcel[] sOwnedPool>","to":"1084044960","type":"load","field":"<android.os.Parcel: android.os.Parcel[] sOwnedPool>"},{"step":25,"from":"1093448424","to":"1084044960","type":"store","field":"arrayIdx_int:0"},{"step":26,"from":"1094053664","to":"sdaReg65","type":"create","field":"<android.os.Bundle: android.os.Parcel mParcelledData>"}],"parameters":[{"id":"1094053664","name":"this","klass":"android.os.Bundle"}],"returns":[{"id":null,"name":"return","klass":null}],"colors":{"heapLocToColor":{"sdaReg60":[10],"1093448424":[0],"sdaReg61":[0],"1084044960":[11],"1094053664.<android.os.Bundle: android.os.Parcel mParcelledData>":[0],"sdaReg62":[11],"sdaReg63":[11],"sdaReg14":[0, 4],"sdaReg12":[0],"sdaReg10":[2],"1094112520":[2],"sdaReg59":[10],"sdaReg19":[0, 6],"1083997920":[3],"sdaReg55":[10],"sdaReg17":[0],"sdaReg15":[0, 5],"sdaReg52":[2],"1093448424.<android.os.Parcel: int mOwnObject>":[0],"1094151888":[10],"sdaReg49":[9],"sdaReg47":[9],"sdaReg42":[2],"static.<android.os.Parcel: android.os.Parcel[] sOwnedPool>":[11],"sdaReg39":[2],"sdaReg38":[2],"sdaReg37":[2],"sdaReg32":[8],"sdaReg31":[8],"static.<java.util.HashMap: java.util.Map$Entry[] EMPTY_TABLE>":[3],"sdaReg30":[8],"sdaReg36":[8],"sdaReg33":[8],"1094112520.<java.util.HashMap: int modCount>":[2],"sdaReg8":[2],"sdaReg9":[0],"sdaReg6":[3],"sdaReg4":[2],"sdaReg5":[3],"sdaReg27":[8],"sdaReg26":[8],"1094053664":[0],"1094112520.<java.util.HashMap: int size>":[2],"sdaReg29":[8],"sdaReg28":[8],"sdaReg3":[2],"sdaReg2":[2],"sdaReg1":[2],"sdaReg20":[0, 7],"sdaReg0":[0, 1],"1094153344":[9],"sdaReg22":[2],"sdaReg25":[8]},"colorToColor":{"0":[11],"2":[0, 2],"3":[2],"8":[10],"9":[2],"10":[9]},"colorToLabel":{"0":"this","3":"<java.util.HashMap: java.util.Map$Entry[] EMPTY_TABLE>","11":"<android.os.Parcel: android.os.Parcel[] sOwnedPool>","12":"return"}}}

Generated Model
	this-><android.os.Parcel: android.os.Parcel[] sOwnedPool>

