Scanning method <android.os.Bundle: void unparcel()>

All seen event types: StoreArrayRecord, SimpleAssignmentRecord, ExitMonitorRecord, LoadInstanceRecord, MethodStartRecord, IfRecord, InstanceOfRecord, NewObjectRecord, StoreInstanceRecord, LoadStaticRecord, NewArrayRecord, BinaryOperationRecord, MethodCallRecord, MethodReturnRecord, SwitchRecord, EnterMonitorRecord, ArrayLengthRecord, CastRecord, LoadArrayRecord, MethodEndRecord, 
Ignored event types: ExitMonitorRecord, SwitchRecord, EnterMonitorRecord, IfRecord, 

JSON Encoded Analysis Data (for visualization):{"heapEdges":[{"step":0,"from":"1093732488","to":"1093447448","type":"load","field":"<android.os.Bundle: android.os.Parcel mParcelledData>"},{"step":1,"from":"1093732488","to":"1093447448","type":"load","field":"<android.os.Bundle: android.os.Parcel mParcelledData>"},{"step":2,"from":"1093447448","to":"sdaReg0","type":"model"},{"step":3,"from":"static.<java.util.HashMap: java.util.Map$Entry[] EMPTY_TABLE>","to":"1083997920","type":"load","field":"<java.util.HashMap: java.util.Map$Entry[] EMPTY_TABLE>"},{"step":4,"from":"1083997920","to":"1093718328","type":"store","field":"<java.util.HashMap: java.util.HashMap$HashMapEntry[] table>"},{"step":5,"from":"1093718328","to":"sdaReg7","type":"create","field":"<java.util.HashMap: int threshold>"},{"step":6,"from":"1093732488","to":"1093718328","type":"create","field":"<android.os.Bundle: java.util.Map mMap>"},{"step":7,"from":"1093732488","to":"1093447448","type":"load","field":"<android.os.Bundle: android.os.Parcel mParcelledData>"},{"step":8,"from":"1093447448","to":"sdaReg14","type":"model"},{"step":9,"from":"1093447448","to":"sdaReg15","type":"model"},{"step":10,"from":"1093447448","to":"sdaReg19","type":"model"},{"step":11,"from":"1093447448","to":"sdaReg22","type":"model"},{"step":12,"from":"1093447448","to":"sdaReg26","type":"model"},{"step":13,"from":"static.<android.os.Parcel: java.util.HashMap mCreators>","to":"1084045240","type":"load","field":"<android.os.Parcel: java.util.HashMap mCreators>"},{"step":14,"from":"static.<android.os.Parcel: java.util.HashMap mCreators>","to":"1084045240","type":"load","field":"<android.os.Parcel: java.util.HashMap mCreators>"},{"step":15,"from":"static.<java.util.HashMap: java.util.Map$Entry[] EMPTY_TABLE>","to":"1083997920","type":"load","field":"<java.util.HashMap: java.util.Map$Entry[] EMPTY_TABLE>"},{"step":16,"from":"1083997920","to":"1093705416","type":"store","field":"<java.util.HashMap: java.util.HashMap$HashMapEntry[] table>"},{"step":17,"from":"1093705416","to":"sdaReg39","type":"create","field":"<java.util.HashMap: int threshold>"},{"step":18,"from":"static.<android.os.Parcel: java.util.HashMap mCreators>","to":"1084045240","type":"load","field":"<android.os.Parcel: java.util.HashMap mCreators>"},{"step":19,"from":"1093705472","to":"1093705416","type":"create","field":"<java.util.HashMap$HashMapEntry: java.lang.Object value>"},{"step":20,"from":"1093705472","to":"sdaReg50","type":"create","field":"<java.util.HashMap$HashMapEntry: int hash>"},{"step":21,"from":"1084045240","to":"1093705472","type":"create","field":"<java.util.HashMap: java.util.HashMap$HashMapEntry entryForNullKey>"},{"step":22,"from":"1084045240","to":"1084045240.<java.util.HashMap: int size>","type":"load","field":"<java.util.HashMap: int size>"},{"step":23,"from":"sdaReg53","to":"1084045240","type":"store","field":"<java.util.HashMap: int size>"},{"step":24,"from":"1084045240","to":"1084045240.<java.util.HashMap: int modCount>","type":"load","field":"<java.util.HashMap: int modCount>"},{"step":25,"from":"sdaReg54","to":"1084045240","type":"store","field":"<java.util.HashMap: int modCount>"},{"step":26,"from":"sdaReg26","to":"1084342632","type":"model"},{"step":27,"from":"1084342632","to":"1093707800","type":"model"},{"step":28,"from":"1093707800","to":"1084917792","type":"model"},{"step":29,"from":"1093705416","to":"1093705416.<java.util.HashMap: int modCount>","type":"load","field":"<java.util.HashMap: int modCount>"},{"step":30,"from":"sdaReg89","to":"1093705416","type":"store","field":"<java.util.HashMap: int modCount>"},{"step":31,"from":"1093705416","to":"1093705416.<java.util.HashMap: int size>","type":"load","field":"<java.util.HashMap: int size>"},{"step":32,"from":"sdaReg90","to":"1093705416","type":"store","field":"<java.util.HashMap: int size>"},{"step":33,"from":"1093705416","to":"1093707952","type":"create","field":"<java.util.HashMap: java.util.HashMap$HashMapEntry[] table>"},{"step":34,"from":"sdaReg98","to":"1093705416","type":"store","field":"<java.util.HashMap: int threshold>"},{"step":35,"from":"1093705288","to":"1093707992","type":"store","field":"<java.util.HashMap$HashMapEntry: java.lang.Object key>"},{"step":36,"from":"1093707992","to":"1084917792","type":"create","field":"<java.util.HashMap$HashMapEntry: java.lang.Object value>"},{"step":37,"from":"sdaReg85","to":"1093707992","type":"store","field":"<java.util.HashMap$HashMapEntry: int hash>"},{"step":38,"from":"1093707952","to":"1093707992","type":"create","field":"arrayIdx_int:3"},{"step":39,"from":"1093447448","to":"sdaReg120","type":"model"},{"step":40,"from":"1093759688","to":"sdaReg124","type":"create","field":"<android.os.Bundle: java.util.Map mMap>"},{"step":41,"from":"1093759688","to":"sdaReg125","type":"create","field":"<android.os.Bundle: android.os.Parcel mParcelledData>"},{"step":42,"from":"1093759688","to":"sdaReg126","type":"create","field":"<android.os.Bundle: boolean mHasFds>"},{"step":43,"from":"1093759688","to":"sdaReg127","type":"create","field":"<android.os.Bundle: boolean mFdsKnown>"},{"step":44,"from":"1093759688","to":"sdaReg128","type":"create","field":"<android.os.Bundle: boolean mAllowFds>"},{"step":45,"from":"1093447448","to":"sdaReg131","type":"model"},{"step":46,"from":"1093447448","to":"sdaReg132","type":"model"},{"step":47,"from":"1093447448","to":"sdaReg133","type":"model"},{"step":48,"from":"sdaReg133","to":"1093447448","type":"model"},{"step":49,"from":"static.<android.os.Parcel: android.os.Parcel[] sOwnedPool>","to":"1084044960","type":"load","field":"<android.os.Parcel: android.os.Parcel[] sOwnedPool>"},{"step":50,"from":"1093563352","to":"sdaReg137","type":"model"},{"step":51,"from":"sdaReg137","to":"1093563352","type":"model"},{"step":52,"from":"1093563352","to":"1093447448","type":"model"},{"step":53,"from":"1093563352","to":"sdaReg132","type":"model"},{"step":54,"from":"1093563352","to":"sdaReg120","type":"model"},{"step":55,"from":"1093447448","to":"1093563352","type":"model"},{"step":56,"from":"1093447448","to":"sdaReg132","type":"model"},{"step":57,"from":"1093447448","to":"sdaReg120","type":"model"},{"step":58,"from":"sdaReg132","to":"1093563352","type":"model"},{"step":59,"from":"sdaReg132","to":"1093447448","type":"model"},{"step":60,"from":"sdaReg132","to":"sdaReg120","type":"model"},{"step":61,"from":"sdaReg120","to":"1093563352","type":"model"},{"step":62,"from":"sdaReg120","to":"1093447448","type":"model"},{"step":63,"from":"sdaReg120","to":"sdaReg132","type":"model"},{"step":64,"from":"1093759688","to":"1093563352","type":"create","field":"<android.os.Bundle: android.os.Parcel mParcelledData>"},{"step":65,"from":"1093563352","to":"sdaReg141","type":"model"},{"step":66,"from":"sdaReg141","to":"1093759688","type":"store","field":"<android.os.Bundle: boolean mHasFds>"},{"step":67,"from":"1093759688","to":"sdaReg142","type":"create","field":"<android.os.Bundle: boolean mFdsKnown>"},{"step":68,"from":"1093907280","to":"1093759688","type":"create","field":"arrayIdx_int:0"},{"step":69,"from":"1093447448","to":"sdaReg153","type":"model"},{"step":70,"from":"static.<android.os.Parcel: java.util.HashMap mCreators>","to":"1084045240","type":"load","field":"<android.os.Parcel: java.util.HashMap mCreators>"},{"step":71,"from":"static.<android.os.Parcel: java.util.HashMap mCreators>","to":"1084045240","type":"load","field":"<android.os.Parcel: java.util.HashMap mCreators>"},{"step":72,"from":"1093447448","to":"sdaReg182","type":"model"},{"step":73,"from":"1094074264","to":"sdaReg186","type":"create","field":"<android.os.Bundle: java.util.Map mMap>"},{"step":74,"from":"1094074264","to":"sdaReg187","type":"create","field":"<android.os.Bundle: android.os.Parcel mParcelledData>"},{"step":75,"from":"1094074264","to":"sdaReg188","type":"create","field":"<android.os.Bundle: boolean mHasFds>"},{"step":76,"from":"1094074264","to":"sdaReg189","type":"create","field":"<android.os.Bundle: boolean mFdsKnown>"},{"step":77,"from":"1094074264","to":"sdaReg190","type":"create","field":"<android.os.Bundle: boolean mAllowFds>"},{"step":78,"from":"1093447448","to":"sdaReg193","type":"model"},{"step":79,"from":"1093447448","to":"sdaReg194","type":"model"},{"step":80,"from":"1093447448","to":"sdaReg195","type":"model"},{"step":81,"from":"sdaReg195","to":"1093447448","type":"model"},{"step":82,"from":"static.<android.os.Parcel: android.os.Parcel[] sOwnedPool>","to":"1084044960","type":"load","field":"<android.os.Parcel: android.os.Parcel[] sOwnedPool>"},{"step":83,"from":"1094128248","to":"sdaReg199","type":"model"},{"step":84,"from":"sdaReg199","to":"1094128248","type":"model"},{"step":85,"from":"1094128248","to":"1093447448","type":"model"},{"step":86,"from":"1094128248","to":"sdaReg194","type":"model"},{"step":87,"from":"1094128248","to":"sdaReg182","type":"model"},{"step":88,"from":"1093447448","to":"1094128248","type":"model"},{"step":89,"from":"1093447448","to":"sdaReg194","type":"model"},{"step":90,"from":"1093447448","to":"sdaReg182","type":"model"},{"step":91,"from":"sdaReg194","to":"1094128248","type":"model"},{"step":92,"from":"sdaReg194","to":"1093447448","type":"model"},{"step":93,"from":"sdaReg194","to":"sdaReg182","type":"model"},{"step":94,"from":"sdaReg182","to":"1094128248","type":"model"},{"step":95,"from":"sdaReg182","to":"1093447448","type":"model"},{"step":96,"from":"sdaReg182","to":"sdaReg194","type":"model"},{"step":97,"from":"1094074264","to":"1094128248","type":"create","field":"<android.os.Bundle: android.os.Parcel mParcelledData>"},{"step":98,"from":"1094128248","to":"sdaReg203","type":"model"},{"step":99,"from":"sdaReg203","to":"1094074264","type":"store","field":"<android.os.Bundle: boolean mHasFds>"},{"step":100,"from":"1094074264","to":"sdaReg204","type":"create","field":"<android.os.Bundle: boolean mFdsKnown>"},{"step":101,"from":"1093907280","to":"1094074264","type":"create","field":"arrayIdx_int:1"},{"step":102,"from":"1093718328","to":"1093718328.<java.util.HashMap: int modCount>","type":"load","field":"<java.util.HashMap: int modCount>"},{"step":103,"from":"sdaReg230","to":"1093718328","type":"store","field":"<java.util.HashMap: int modCount>"},{"step":104,"from":"1093718328","to":"1093718328.<java.util.HashMap: int size>","type":"load","field":"<java.util.HashMap: int size>"},{"step":105,"from":"sdaReg231","to":"1093718328","type":"store","field":"<java.util.HashMap: int size>"},{"step":106,"from":"1093718328","to":"1094154360","type":"create","field":"<java.util.HashMap: java.util.HashMap$HashMapEntry[] table>"},{"step":107,"from":"sdaReg239","to":"1093718328","type":"store","field":"<java.util.HashMap: int threshold>"},{"step":108,"from":"1093939696","to":"1094154400","type":"store","field":"<java.util.HashMap$HashMapEntry: java.lang.Object key>"},{"step":109,"from":"1094154400","to":"1093907280","type":"create","field":"<java.util.HashMap$HashMapEntry: java.lang.Object value>"},{"step":110,"from":"sdaReg226","to":"1094154400","type":"store","field":"<java.util.HashMap$HashMapEntry: int hash>"},{"step":111,"from":"1094154360","to":"1094154400","type":"create","field":"arrayIdx_int:2"},{"step":112,"from":"1093732488","to":"1093447448","type":"load","field":"<android.os.Bundle: android.os.Parcel mParcelledData>"},{"step":113,"from":"1093447448","to":"1093447448.<android.os.Parcel: int mOwnObject>","type":"load","field":"<android.os.Parcel: int mOwnObject>"},{"step":114,"from":"static.<android.os.Parcel: android.os.Parcel[] sOwnedPool>","to":"1084044960","type":"load","field":"<android.os.Parcel: android.os.Parcel[] sOwnedPool>"},{"step":115,"from":"1093447448","to":"1084044960","type":"store","field":"arrayIdx_int:0"},{"step":116,"from":"1093732488","to":"sdaReg258","type":"create","field":"<android.os.Bundle: android.os.Parcel mParcelledData>"}],"parameters":[{"id":"1093732488","name":"this","klass":"android.os.Bundle"}],"returns":[{"id":null,"name":"return","klass":null}],"colors":{"heapLocToColor":{"sdaReg191":[31],"sdaReg193":[0, 32, 25],"sdaReg192":[0, 25],"1084045240.<java.util.HashMap: int modCount>":[10],"sdaReg199":[34],"sdaReg198":[34],"sdaReg195":[0, 33, 25, 30],"sdaReg194":[34, 0, 33, 25],"sdaReg196":[24],"sdaReg14":[0, 4],"sdaReg12":[0],"sdaReg10":[2],"sdaReg19":[0, 6],"sdaReg17":[0],"sdaReg15":[0, 5],"1084045240":[10],"1093718328":[2],"sdaReg171":[28],"sdaReg173":[16, 14, 15],"sdaReg172":[29],"sdaReg174":[16, 14, 15],"sdaReg177":[0, 25],"1093707992":[19],"sdaReg176":[16, 14, 15],"sdaReg179":[0, 25],"sdaReg178":[16, 14, 15],"1093705472":[12],"1093718328.<java.util.HashMap: int modCount>":[2],"static.<java.util.HashMap: java.util.Map$Entry[] EMPTY_TABLE>":[3],"1093447448":[34, 0, 25],"sdaReg182":[34, 0, 25, 30],"sdaReg181":[0, 25],"sdaReg180":[0, 25],"sdaReg185":[31],"sdaReg184":[0, 25],"sdaReg183":[31],"1094128248":[34],"sdaReg60":[13],"sdaReg61":[13],"1093705416":[11],"sdaReg59":[13],"sdaReg58":[13],"sdaReg57":[13],"sdaReg56":[11],"1083997920":[3],"sdaReg54":[10],"sdaReg53":[10],"1084045240.<java.util.HashMap: int size>":[10],"sdaReg52":[12],"sdaReg51":[12],"sdaReg49":[11],"sdaReg48":[12],"sdaReg45":[11],"sdaReg44":[10],"sdaReg47":[11],"sdaReg46":[10],"sdaReg41":[10],"sdaReg40":[11],"sdaReg43":[11],"1093707800":[14, 15],"sdaReg200":[34],"sdaReg201":[34],"1093732488":[0],"sdaReg205":[31],"sdaReg38":[3],"sdaReg203":[34, 35],"sdaReg37":[3],"sdaReg202":[34],"sdaReg209":[31],"sdaReg208":[31],"sdaReg207":[31],"sdaReg206":[31],"sdaReg32":[11],"1093707952":[18],"sdaReg36":[11],"sdaReg35":[11],"sdaReg34":[11],"sdaReg33":[11],"sdaReg8":[2],"sdaReg9":[0],"sdaReg6":[3],"sdaReg4":[2],"sdaReg5":[3],"sdaReg27":[10],"sdaReg26":[0, 9],"sdaReg28":[10],"1094154400":[38],"sdaReg3":[2],"sdaReg2":[2],"sdaReg1":[2],"sdaReg20":[0],"sdaReg0":[0, 1],"sdaReg22":[0, 7],"sdaReg24":[0],"sdaReg129":[21],"1084044960":[24],"sdaReg68":[13],"sdaReg229":[36],"sdaReg224":[36],"sdaReg64":[13],"sdaReg225":[36],"sdaReg65":[13],"sdaReg226":[36],"sdaReg62":[13],"sdaReg63":[13],"sdaReg221":[36],"sdaReg72":[14],"sdaReg220":[36],"sdaReg71":[14],"sdaReg223":[36],"sdaReg70":[16, 14, 15],"sdaReg222":[36],"1093759688":[21],"sdaReg120":[0, 20, 25],"sdaReg122":[0],"sdaReg121":[21],"sdaReg123":[21],"1093705416.<java.util.HashMap: int size>":[11],"sdaReg116":[16, 14, 15],"sdaReg117":[0],"sdaReg114":[16, 14, 15],"sdaReg115":[0],"1093718328.<java.util.HashMap: int size>":[2],"sdaReg118":[0],"sdaReg119":[0],"sdaReg77":[17],"sdaReg219":[36],"sdaReg78":[17],"sdaReg79":[17],"sdaReg217":[8],"sdaReg218":[36],"sdaReg73":[14, 15],"sdaReg215":[2],"sdaReg74":[16, 14, 15],"sdaReg75":[11],"sdaReg213":[8],"sdaReg76":[16, 14, 15],"sdaReg214":[8],"sdaReg81":[17],"sdaReg212":[31],"sdaReg80":[17],"sdaReg211":[31],"sdaReg83":[17],"sdaReg210":[31],"sdaReg82":[17],"1084917792":[16, 14, 15],"sdaReg112":[19],"sdaReg111":[19],"sdaReg107":[19],"sdaReg109":[16, 14, 15],"static.<android.os.Parcel: java.util.HashMap mCreators>":[10],"sdaReg104":[11],"sdaReg106":[16, 14, 15],"sdaReg247":[8],"sdaReg248":[38],"sdaReg84":[17],"sdaReg85":[17],"sdaReg88":[17],"sdaReg89":[11],"sdaReg90":[11],"sdaReg240":[37],"sdaReg94":[11],"sdaReg242":[37],"sdaReg245":[2],"sdaReg91":[11],"sdaReg101":[18],"1093447448.<android.os.Parcel: int mOwnObject>":[0, 34, 25],"sdaReg235":[2],"sdaReg99":[18],"sdaReg230":[2],"1084342632":[14],"sdaReg232":[2],"sdaReg231":[2],"1093705416.<java.util.HashMap: int modCount>":[11],"sdaReg161":[28],"sdaReg162":[28],"sdaReg163":[28],"sdaReg164":[28],"sdaReg165":[28],"sdaReg166":[28],"sdaReg167":[28],"sdaReg168":[28],"1093563352":[25],"sdaReg160":[28],"1094074264":[31],"1094154360":[37],"sdaReg159":[11],"sdaReg158":[11],"sdaReg153":[0, 25, 27],"sdaReg150":[21],"sdaReg151":[0, 25],"sdaReg157":[11],"sdaReg154":[10],"sdaReg155":[10],"sdaReg255":[24],"sdaReg256":[24],"sdaReg253":[38],"sdaReg254":[0, 34, 25],"sdaReg252":[38],"sdaReg250":[8],"static.<android.os.Parcel: android.os.Parcel[] sOwnedPool>":[24],"1093907280":[8],"1093732488.<android.os.Bundle: android.os.Parcel mParcelledData>":[34, 0, 25],"sdaReg148":[21],"sdaReg147":[21],"sdaReg149":[21],"sdaReg143":[21],"sdaReg144":[21],"sdaReg145":[21],"sdaReg146":[21],"sdaReg140":[25],"sdaReg141":[25, 26],"sdaReg139":[25],"sdaReg138":[25],"sdaReg137":[25],"sdaReg136":[25],"sdaReg134":[24],"sdaReg132":[0, 23, 25],"sdaReg133":[0, 20, 23],"sdaReg130":[0],"sdaReg131":[0, 22]},"colorToColor":{"0":[34, 0, 33, 20, 23, 25, 24, 14, 30],"2":[0, 2],"3":[2, 11],"8":[38],"9":[14],"10":[10],"11":[11, 12],"12":[10],"14":[19],"15":[19],"17":[19],"16":[19],"19":[18],"18":[11],"21":[8],"20":[0, 23, 25],"23":[0, 20, 25],"25":[34, 0, 33, 21, 20, 23, 25, 24, 30],"26":[21],"31":[8],"30":[34, 0, 33, 25],"34":[0, 34, 33, 25, 24, 31, 30],"35":[31],"33":[34, 0, 25, 30],"38":[37],"36":[38],"37":[2]},"colorToLabel":{"0":"this","3":"<java.util.HashMap: java.util.Map$Entry[] EMPTY_TABLE>","10":"<android.os.Parcel: java.util.HashMap mCreators>","24":"<android.os.Parcel: android.os.Parcel[] sOwnedPool>","39":"return"}}}

Generated Model
	this-><android.os.Parcel: java.util.HashMap mCreators>
	this-><android.os.Parcel: android.os.Parcel[] sOwnedPool>

