Scanning method <android.os.Bundle: void unparcel()>

All seen event types: StoreArrayRecord, SimpleAssignmentRecord, ExitMonitorRecord, LoadInstanceRecord, MethodStartRecord, IfRecord, InstanceOfRecord, NewObjectRecord, StoreInstanceRecord, LoadStaticRecord, NewArrayRecord, BinaryOperationRecord, MethodCallRecord, MethodReturnRecord, SwitchRecord, EnterMonitorRecord, ArrayLengthRecord, CastRecord, LoadArrayRecord, MethodEndRecord, 
Ignored event types: ExitMonitorRecord, SwitchRecord, EnterMonitorRecord, IfRecord, 

JSON Encoded Analysis Data (for visualization):{"heapEdges":[{"step":0,"from":"1094175112","to":"1093449512","type":"load","field":"<android.os.Bundle: android.os.Parcel mParcelledData>"},{"step":1,"from":"1094175112","to":"1093449512","type":"load","field":"<android.os.Bundle: android.os.Parcel mParcelledData>"},{"step":2,"from":"1093449512","to":"sdaReg0","type":"model"},{"step":3,"from":"static.<java.util.HashMap: java.util.Map$Entry[] EMPTY_TABLE>","to":"1083997920","type":"load","field":"<java.util.HashMap: java.util.Map$Entry[] EMPTY_TABLE>"},{"step":4,"from":"1083997920","to":"1093722504","type":"store","field":"<java.util.HashMap: java.util.HashMap$HashMapEntry[] table>"},{"step":5,"from":"1093722504","to":"sdaReg7","type":"create","field":"<java.util.HashMap: int threshold>"},{"step":6,"from":"1094175112","to":"1093722504","type":"create","field":"<android.os.Bundle: java.util.Map mMap>"},{"step":7,"from":"1094175112","to":"1093449512","type":"load","field":"<android.os.Bundle: android.os.Parcel mParcelledData>"},{"step":8,"from":"1093449512","to":"sdaReg14","type":"model"},{"step":9,"from":"1093449512","to":"sdaReg15","type":"model"},{"step":10,"from":"1093449512","to":"sdaReg19","type":"model"},{"step":11,"from":"1093449512","to":"sdaReg22","type":"model"},{"step":12,"from":"static.<android.text.TextUtils: android.os.Parcelable$Creator CHAR_SEQUENCE_CREATOR>","to":"1084850936","type":"load","field":"<android.text.TextUtils: android.os.Parcelable$Creator CHAR_SEQUENCE_CREATOR>"},{"step":13,"from":"1093449512","to":"sdaReg29","type":"model"},{"step":14,"from":"1093449512","to":"sdaReg30","type":"model"},{"step":15,"from":"1093941408","to":"1093457536","type":"store","field":"arrayIdx_int:0"},{"step":16,"from":"static.<android.text.TextUtils: android.os.Parcelable$Creator CHAR_SEQUENCE_CREATOR>","to":"1084850936","type":"load","field":"<android.text.TextUtils: android.os.Parcelable$Creator CHAR_SEQUENCE_CREATOR>"},{"step":17,"from":"1093449512","to":"sdaReg40","type":"model"},{"step":18,"from":"1093449512","to":"sdaReg41","type":"model"},{"step":19,"from":"1093892808","to":"1093457536","type":"store","field":"arrayIdx_int:1"},{"step":20,"from":"static.<android.text.TextUtils: android.os.Parcelable$Creator CHAR_SEQUENCE_CREATOR>","to":"1084850936","type":"load","field":"<android.text.TextUtils: android.os.Parcelable$Creator CHAR_SEQUENCE_CREATOR>"},{"step":21,"from":"1093449512","to":"sdaReg51","type":"model"},{"step":22,"from":"1093449512","to":"sdaReg52","type":"model"},{"step":23,"from":"1093896360","to":"1093457536","type":"store","field":"arrayIdx_int:2"},{"step":24,"from":"static.<android.text.TextUtils: android.os.Parcelable$Creator CHAR_SEQUENCE_CREATOR>","to":"1084850936","type":"load","field":"<android.text.TextUtils: android.os.Parcelable$Creator CHAR_SEQUENCE_CREATOR>"},{"step":25,"from":"1093449512","to":"sdaReg62","type":"model"},{"step":26,"from":"1093449512","to":"sdaReg63","type":"model"},{"step":27,"from":"1093871216","to":"sdaReg71","type":"model"},{"step":28,"from":"sdaReg71","to":"1093871320","type":"store","field":"<android.text.SpannableStringInternal: java.lang.String mText>"},{"step":29,"from":"1093871320","to":"1093563360","type":"create","field":"<android.text.SpannableStringInternal: java.lang.Object[] mSpans>"},{"step":30,"from":"1093871320","to":"1093599696","type":"create","field":"<android.text.SpannableStringInternal: int[] mSpanData>"},{"step":31,"from":"1093449512","to":"sdaReg85","type":"model"},{"step":32,"from":"1093449512","to":"sdaReg91","type":"model"},{"step":33,"from":"sdaReg91","to":"1093642376","type":"store","field":"<android.text.style.ForegroundColorSpan: int mColor>"},{"step":34,"from":"1093449512","to":"sdaReg99","type":"model"},{"step":35,"from":"1093449512","to":"sdaReg100","type":"model"},{"step":36,"from":"1093449512","to":"sdaReg101","type":"model"},{"step":37,"from":"1093871320","to":"1093871320.<android.text.SpannableStringInternal: int mSpanCount>","type":"load","field":"<android.text.SpannableStringInternal: int mSpanCount>"},{"step":38,"from":"1093871320","to":"1093871320.<android.text.SpannableStringInternal: int mSpanCount>","type":"load","field":"<android.text.SpannableStringInternal: int mSpanCount>"},{"step":39,"from":"1093871320","to":"1093871320.<android.text.SpannableStringInternal: int mSpanCount>","type":"load","field":"<android.text.SpannableStringInternal: int mSpanCount>"},{"step":40,"from":"1093871320","to":"1093871320.<android.text.SpannableStringInternal: int mSpanCount>","type":"load","field":"<android.text.SpannableStringInternal: int mSpanCount>"},{"step":41,"from":"1093563360","to":"1093564696","type":"model"},{"step":42,"from":"1093871320","to":"1093871320.<android.text.SpannableStringInternal: int mSpanCount>","type":"load","field":"<android.text.SpannableStringInternal: int mSpanCount>"},{"step":43,"from":"1093599696","to":"1094212392","type":"model"},{"step":44,"from":"1093871320","to":"1093564696","type":"create","field":"<android.text.SpannableStringInternal: java.lang.Object[] mSpans>"},{"step":45,"from":"1093871320","to":"1094212392","type":"create","field":"<android.text.SpannableStringInternal: int[] mSpanData>"},{"step":46,"from":"1093871320","to":"1093871320.<android.text.SpannableStringInternal: int mSpanCount>","type":"load","field":"<android.text.SpannableStringInternal: int mSpanCount>"},{"step":47,"from":"1093564696","to":"1093642376","type":"create","field":"arrayIdx_int:0"},{"step":48,"from":"1093871320","to":"1093871320.<android.text.SpannableStringInternal: int mSpanCount>","type":"load","field":"<android.text.SpannableStringInternal: int mSpanCount>"},{"step":49,"from":"sdaReg99","to":"1094212392","type":"store","field":"arrayIdx_int:0"},{"step":50,"from":"1093871320","to":"1093871320.<android.text.SpannableStringInternal: int mSpanCount>","type":"load","field":"<android.text.SpannableStringInternal: int mSpanCount>"},{"step":51,"from":"sdaReg100","to":"1094212392","type":"store","field":"arrayIdx_int:1"},{"step":52,"from":"1093871320","to":"1093871320.<android.text.SpannableStringInternal: int mSpanCount>","type":"load","field":"<android.text.SpannableStringInternal: int mSpanCount>"},{"step":53,"from":"sdaReg101","to":"1094212392","type":"store","field":"arrayIdx_int:2"},{"step":54,"from":"1093871320","to":"1093871320.<android.text.SpannableStringInternal: int mSpanCount>","type":"load","field":"<android.text.SpannableStringInternal: int mSpanCount>"},{"step":55,"from":"sdaReg132","to":"1093871320","type":"store","field":"<android.text.SpannableStringInternal: int mSpanCount>"},{"step":56,"from":"1084365888","to":"sdaReg146","type":"model"},{"step":57,"from":"static.<com.android.internal.util.ArrayUtils: java.lang.Object[] sCache>","to":"1084375760","type":"load","field":"<com.android.internal.util.ArrayUtils: java.lang.Object[] sCache>"},{"step":58,"from":"1084375760","to":"1093554688","type":"load","field":"arrayIdx_int:66"},{"step":59,"from":"1093554688","to":"1084732504","type":"model"},{"step":60,"from":"1084732504","to":"1084365888","type":"model"},{"step":61,"from":"1093449512","to":"sdaReg161","type":"model"},{"step":62,"from":"1093457536","to":"1093871320","type":"create","field":"arrayIdx_int:3"},{"step":63,"from":"1093722504","to":"1093722504.<java.util.HashMap: int modCount>","type":"load","field":"<java.util.HashMap: int modCount>"},{"step":64,"from":"sdaReg183","to":"1093722504","type":"store","field":"<java.util.HashMap: int modCount>"},{"step":65,"from":"1093722504","to":"1093722504.<java.util.HashMap: int size>","type":"load","field":"<java.util.HashMap: int size>"},{"step":66,"from":"sdaReg184","to":"1093722504","type":"store","field":"<java.util.HashMap: int size>"},{"step":67,"from":"1093722504","to":"1094183432","type":"create","field":"<java.util.HashMap: java.util.HashMap$HashMapEntry[] table>"},{"step":68,"from":"sdaReg192","to":"1093722504","type":"store","field":"<java.util.HashMap: int threshold>"},{"step":69,"from":"1093494176","to":"1093892776","type":"store","field":"<java.util.HashMap$HashMapEntry: java.lang.Object key>"},{"step":70,"from":"1093892776","to":"1093457536","type":"create","field":"<java.util.HashMap$HashMapEntry: java.lang.Object value>"},{"step":71,"from":"sdaReg179","to":"1093892776","type":"store","field":"<java.util.HashMap$HashMapEntry: int hash>"},{"step":72,"from":"1094183432","to":"1093892776","type":"create","field":"arrayIdx_int:2"},{"step":73,"from":"1094175112","to":"1093449512","type":"load","field":"<android.os.Bundle: android.os.Parcel mParcelledData>"},{"step":74,"from":"1093449512","to":"1093449512.<android.os.Parcel: int mOwnObject>","type":"load","field":"<android.os.Parcel: int mOwnObject>"},{"step":75,"from":"static.<android.os.Parcel: android.os.Parcel[] sOwnedPool>","to":"1084044960","type":"load","field":"<android.os.Parcel: android.os.Parcel[] sOwnedPool>"},{"step":76,"from":"1093449512","to":"1084044960","type":"store","field":"arrayIdx_int:0"},{"step":77,"from":"1094175112","to":"sdaReg211","type":"create","field":"<android.os.Bundle: android.os.Parcel mParcelledData>"}],"parameters":[{"id":"1094175112","name":"this","klass":"android.os.Bundle"}],"returns":[{"id":null,"name":"return","klass":null}],"colors":{"heapLocToColor":{"sdaReg125":[18],"sdaReg126":[18],"sdaReg193":[40],"sdaReg127":[18],"sdaReg128":[18],"sdaReg129":[18],"1084044960":[42],"sdaReg198":[2],"sdaReg69":[18],"sdaReg66":[18],"sdaReg195":[40],"sdaReg64":[18],"sdaReg65":[19],"sdaReg62":[0, 16],"sdaReg63":[0, 17],"sdaReg14":[0, 4],"sdaReg71":[21],"sdaReg70":[20],"sdaReg12":[0],"sdaReg10":[2],"sdaReg19":[0, 6],"1093722504.<java.util.HashMap: int modCount>":[2],"sdaReg17":[0],"sdaReg15":[0, 5],"sdaReg116":[18],"sdaReg117":[18],"sdaReg114":[18],"1093722504.<java.util.HashMap: int size>":[2],"sdaReg83":[18],"sdaReg82":[18],"sdaReg112":[0, 29],"sdaReg111":[30],"sdaReg110":[18],"sdaReg107":[0, 28],"sdaReg108":[18],"1084850936":[9],"sdaReg103":[25],"sdaReg104":[18],"sdaReg171":[39],"sdaReg105":[25],"sdaReg170":[8],"sdaReg106":[0, 27],"sdaReg173":[39],"static.<com.android.internal.util.ArrayUtils: java.lang.Object[] sCache>":[35],"sdaReg86":[25],"sdaReg172":[39],"sdaReg87":[0],"sdaReg175":[39],"sdaReg84":[18],"sdaReg174":[39],"sdaReg85":[0, 24],"sdaReg177":[39],"sdaReg176":[39],"sdaReg179":[39],"sdaReg88":[25],"sdaReg178":[39],"sdaReg89":[25],"sdaReg90":[25],"sdaReg94":[18],"sdaReg93":[0],"sdaReg92":[25],"sdaReg91":[0, 26],"sdaReg100":[0, 28],"static.<java.util.HashMap: java.util.Map$Entry[] EMPTY_TABLE>":[3],"sdaReg102":[18],"sdaReg101":[0, 29],"sdaReg182":[39],"sdaReg95":[25],"sdaReg185":[2],"sdaReg96":[0],"sdaReg184":[2],"sdaReg97":[18],"sdaReg183":[2],"sdaReg98":[25],"sdaReg99":[0, 27],"sdaReg188":[2],"1094212392":[32],"1093892776":[41],"1093722504":[2],"1093449512":[0],"sdaReg60":[9],"sdaReg61":[0],"sdaReg161":[0, 38],"sdaReg162":[18],"sdaReg163":[18],"1093642376":[25],"sdaReg164":[18],"sdaReg165":[18],"sdaReg166":[8],"sdaReg167":[8],"sdaReg168":[2],"sdaReg59":[0],"sdaReg58":[9],"sdaReg57":[0],"1083997920":[3],"1094175112.<android.os.Bundle: android.os.Parcel mParcelledData>":[0],"sdaReg52":[0, 15],"sdaReg51":[0, 14],"sdaReg50":[0],"1084732504":[35, 36],"1093554688":[35],"sdaReg158":[35],"sdaReg150":[35, 36],"sdaReg151":[35, 36, 37],"sdaReg156":[35],"sdaReg49":[9],"sdaReg157":[35],"sdaReg48":[0],"sdaReg154":[35],"sdaReg155":[35],"1093563360":[22],"sdaReg47":[9],"sdaReg46":[0],"1093871320.<android.text.SpannableStringInternal: int mSpanCount>":[18],"1093564696":[31],"sdaReg41":[0, 13],"sdaReg40":[0, 12],"static.<android.text.TextUtils: android.os.Parcelable$Creator CHAR_SEQUENCE_CREATOR>":[9],"1093457536":[8],"static.<android.os.Parcel: android.os.Parcel[] sOwnedPool>":[42],"1084365888":[35, 36, 37],"sdaReg200":[8],"sdaReg148":[34],"sdaReg201":[41],"sdaReg147":[34],"sdaReg149":[34],"sdaReg205":[41],"sdaReg144":[33],"sdaReg39":[0],"sdaReg203":[8],"sdaReg38":[9],"1094175112":[0],"1084375760":[35],"sdaReg146":[34],"sdaReg37":[0],"sdaReg209":[42],"sdaReg208":[42],"sdaReg207":[0],"sdaReg206":[41],"sdaReg30":[0, 11],"1093871320":[18],"sdaReg36":[9],"sdaReg35":[0],"sdaReg8":[2],"1094183432":[40],"sdaReg9":[0],"sdaReg6":[3],"sdaReg4":[2],"sdaReg5":[3],"sdaReg138":[18],"sdaReg136":[18],"sdaReg134":[18],"sdaReg27":[9],"sdaReg135":[25],"sdaReg26":[0],"sdaReg132":[18],"sdaReg29":[0, 10],"sdaReg28":[0],"1093449512.<android.os.Parcel: int mOwnObject>":[0],"sdaReg130":[18],"sdaReg131":[18],"sdaReg3":[2],"sdaReg2":[2],"sdaReg1":[2],"1093599696":[23],"sdaReg0":[0, 1],"sdaReg20":[0],"sdaReg22":[0, 7],"sdaReg25":[9],"sdaReg24":[0]},"colorToColor":{"0":[32, 42, 25],"2":[0, 2],"32":[18],"3":[2],"39":[41],"8":[41],"40":[2],"41":[40],"18":[18, 8],"21":[18],"23":[32, 18],"22":[18, 31],"25":[31],"27":[32],"26":[25],"29":[32],"28":[32],"31":[18]},"colorToLabel":{"0":"this","3":"<java.util.HashMap: java.util.Map$Entry[] EMPTY_TABLE>","9":"<android.text.TextUtils: android.os.Parcelable$Creator CHAR_SEQUENCE_CREATOR>","35":"<com.android.internal.util.ArrayUtils: java.lang.Object[] sCache>","42":"<android.os.Parcel: android.os.Parcel[] sOwnedPool>","43":"return"}}}

Generated Model
	this-><android.os.Parcel: android.os.Parcel[] sOwnedPool>

