Scanning method <android.os.Bundle: void unparcel()>

All seen event types: StoreArrayRecord, SimpleAssignmentRecord, ExitMonitorRecord, LoadInstanceRecord, MethodStartRecord, IfRecord, NewObjectRecord, StoreInstanceRecord, LoadStaticRecord, NewArrayRecord, BinaryOperationRecord, MethodCallRecord, MethodReturnRecord, SwitchRecord, EnterMonitorRecord, ArrayLengthRecord, CastRecord, LoadArrayRecord, MethodEndRecord, 
Ignored event types: ExitMonitorRecord, SwitchRecord, EnterMonitorRecord, IfRecord, 

JSON Encoded Analysis Data (for visualization):{"heapEdges":[{"step":0,"from":"1093744952","to":"1093467240","type":"load","field":"<android.os.Bundle: android.os.Parcel mParcelledData>"},{"step":1,"from":"1093744952","to":"1093467240","type":"load","field":"<android.os.Bundle: android.os.Parcel mParcelledData>"},{"step":2,"from":"1093467240","to":"sdaReg0","type":"model"},{"step":3,"from":"static.<java.util.HashMap: java.util.Map$Entry[] EMPTY_TABLE>","to":"1083997920","type":"load","field":"<java.util.HashMap: java.util.Map$Entry[] EMPTY_TABLE>"},{"step":4,"from":"1083997920","to":"1093727448","type":"store","field":"<java.util.HashMap: java.util.HashMap$HashMapEntry[] table>"},{"step":5,"from":"1093727448","to":"sdaReg7","type":"create","field":"<java.util.HashMap: int threshold>"},{"step":6,"from":"1093744952","to":"1093727448","type":"create","field":"<android.os.Bundle: java.util.Map mMap>"},{"step":7,"from":"1093744952","to":"1093467240","type":"load","field":"<android.os.Bundle: android.os.Parcel mParcelledData>"},{"step":8,"from":"1093467240","to":"sdaReg14","type":"model"},{"step":9,"from":"1093467240","to":"sdaReg15","type":"model"},{"step":10,"from":"1093467240","to":"sdaReg19","type":"model"},{"step":11,"from":"1093467240","to":"sdaReg21","type":"model"},{"step":12,"from":"1093467240","to":"sdaReg22","type":"model"},{"step":13,"from":"1093467240","to":"sdaReg25","type":"model"},{"step":14,"from":"sdaReg25","to":"1093589184","type":"store","field":"arrayIdx_int:0"},{"step":15,"from":"1093467240","to":"sdaReg26","type":"model"},{"step":16,"from":"sdaReg26","to":"1093589184","type":"store","field":"arrayIdx_int:1"},{"step":17,"from":"1093727448","to":"1093727448.<java.util.HashMap: int modCount>","type":"load","field":"<java.util.HashMap: int modCount>"},{"step":18,"from":"sdaReg44","to":"1093727448","type":"store","field":"<java.util.HashMap: int modCount>"},{"step":19,"from":"1093727448","to":"1093727448.<java.util.HashMap: int size>","type":"load","field":"<java.util.HashMap: int size>"},{"step":20,"from":"sdaReg45","to":"1093727448","type":"store","field":"<java.util.HashMap: int size>"},{"step":21,"from":"1093727448","to":"1093589216","type":"create","field":"<java.util.HashMap: java.util.HashMap$HashMapEntry[] table>"},{"step":22,"from":"sdaReg53","to":"1093727448","type":"store","field":"<java.util.HashMap: int threshold>"},{"step":23,"from":"1093809952","to":"1093589256","type":"store","field":"<java.util.HashMap$HashMapEntry: java.lang.Object key>"},{"step":24,"from":"1093589256","to":"1093589184","type":"create","field":"<java.util.HashMap$HashMapEntry: java.lang.Object value>"},{"step":25,"from":"sdaReg40","to":"1093589256","type":"store","field":"<java.util.HashMap$HashMapEntry: int hash>"},{"step":26,"from":"1093589216","to":"1093589256","type":"create","field":"arrayIdx_int:2"},{"step":27,"from":"1093744952","to":"1093467240","type":"load","field":"<android.os.Bundle: android.os.Parcel mParcelledData>"},{"step":28,"from":"1093467240","to":"1093467240.<android.os.Parcel: int mOwnObject>","type":"load","field":"<android.os.Parcel: int mOwnObject>"},{"step":29,"from":"static.<android.os.Parcel: android.os.Parcel[] sOwnedPool>","to":"1084044960","type":"load","field":"<android.os.Parcel: android.os.Parcel[] sOwnedPool>"},{"step":30,"from":"1093467240","to":"1084044960","type":"store","field":"arrayIdx_int:0"},{"step":31,"from":"1093744952","to":"sdaReg72","type":"create","field":"<android.os.Bundle: android.os.Parcel mParcelledData>"}],"parameters":[{"id":"1093744952","name":"this","klass":"android.os.Bundle"}],"returns":[{"id":null,"name":"return","klass":null}],"colors":{"heapLocToColor":{"sdaReg61":[9],"1084044960":[15],"1093589184":[9],"sdaReg68":[0],"sdaReg69":[15],"sdaReg66":[14],"sdaReg67":[14],"sdaReg64":[9],"sdaReg62":[14],"sdaReg14":[0, 4],"sdaReg70":[15],"sdaReg12":[0],"sdaReg10":[2],"sdaReg59":[2],"sdaReg56":[13],"sdaReg19":[0, 6],"1083997920":[3],"sdaReg54":[13],"sdaReg17":[0],"sdaReg15":[0, 5],"1093744952.<android.os.Bundle: android.os.Parcel mParcelledData>":[0],"1093727448.<java.util.HashMap: int modCount>":[2],"1093467240.<android.os.Parcel: int mOwnObject>":[0],"sdaReg49":[2],"sdaReg45":[2],"sdaReg44":[2],"sdaReg46":[2],"sdaReg40":[12],"sdaReg43":[12],"static.<android.os.Parcel: android.os.Parcel[] sOwnedPool>":[15],"1093727448.<java.util.HashMap: int size>":[2],"sdaReg39":[12],"sdaReg38":[12],"sdaReg37":[12],"sdaReg32":[12],"sdaReg31":[9],"static.<java.util.HashMap: java.util.Map$Entry[] EMPTY_TABLE>":[3],"sdaReg36":[12],"sdaReg35":[12],"sdaReg34":[12],"sdaReg33":[12],"sdaReg8":[2],"sdaReg9":[0],"sdaReg6":[3],"1093589216":[13],"sdaReg4":[2],"sdaReg5":[3],"sdaReg27":[9],"sdaReg26":[0, 11],"1093589256":[14],"1093727448":[2],"sdaReg29":[2],"1093744952":[0],"sdaReg28":[9],"sdaReg3":[2],"sdaReg2":[2],"sdaReg21":[0, 7],"sdaReg1":[2],"sdaReg20":[0],"sdaReg0":[0, 1],"sdaReg23":[0, 8],"sdaReg22":[0, 8],"1093467240":[0],"sdaReg25":[0, 10]},"colorToColor":{"0":[9, 15],"2":[0, 2],"3":[2],"9":[14],"10":[9],"11":[9],"12":[14],"13":[2],"14":[13]},"colorToLabel":{"0":"this","3":"<java.util.HashMap: java.util.Map$Entry[] EMPTY_TABLE>","15":"<android.os.Parcel: android.os.Parcel[] sOwnedPool>","16":"return"}}}

Generated Model
	this-><android.os.Parcel: android.os.Parcel[] sOwnedPool>

