Scanning method <android.text.Html: void withinParagraph(java.lang.StringBuilder,android.text.Spanned,int,int,int,boolean)>

All seen event types: StoreArrayRecord, SimpleAssignmentRecord, MethodStartRecord, LoadInstanceRecord, IfRecord, LoadStaticRecord, BinaryOperationRecord, MethodCallRecord, MethodReturnRecord, CastRecord, ArrayLengthRecord, LoadArrayRecord, MethodEndRecord, 
Ignored event types: IfRecord, 

JSON Encoded Analysis Data (for visualization):{"heapEdges":[{"step":0,"from":"1093498320","to":"1093498320.<android.text.SpannableStringInternal: int mSpanCount>","type":"load","field":"<android.text.SpannableStringInternal: int mSpanCount>"},{"step":1,"from":"1093498320","to":"1093835088","type":"load","field":"<android.text.SpannableStringInternal: java.lang.Object[] mSpans>"},{"step":2,"from":"1093498320","to":"1093668608","type":"load","field":"<android.text.SpannableStringInternal: int[] mSpanData>"},{"step":3,"from":"1093498320","to":"1093498320.<android.text.SpannableStringInternal: int mSpanCount>","type":"load","field":"<android.text.SpannableStringInternal: int mSpanCount>"},{"step":4,"from":"1093498320","to":"1093835088","type":"load","field":"<android.text.SpannableStringInternal: java.lang.Object[] mSpans>"},{"step":5,"from":"1093498320","to":"1093668608","type":"load","field":"<android.text.SpannableStringInternal: int[] mSpanData>"},{"step":6,"from":"1084661656","to":"sdaReg19","type":"model"},{"step":7,"from":"static.<com.android.internal.util.ArrayUtils: java.lang.Object[] sCache>","to":"1084375760","type":"load","field":"<com.android.internal.util.ArrayUtils: java.lang.Object[] sCache>"},{"step":8,"from":"static.<com.android.internal.util.ArrayUtils: java.lang.Object[] sCache>","to":"1084375760","type":"load","field":"<com.android.internal.util.ArrayUtils: java.lang.Object[] sCache>"},{"step":9,"from":"1084375760","to":"1093528904","type":"create","field":"arrayIdx_int:26"},{"step":10,"from":"1093498320","to":"1093498320.<android.text.SpannableStringInternal: java.lang.String mText>","type":"load","field":"<android.text.SpannableStringInternal: java.lang.String mText>"},{"step":11,"from":"1093498320.<android.text.SpannableStringInternal: java.lang.String mText>","to":"sdaReg37","type":"model"},{"step":12,"from":"sdaReg37","to":"1093514304","type":"model"},{"step":13,"from":"1093498320","to":"1093498320.<android.text.SpannableStringInternal: java.lang.String mText>","type":"load","field":"<android.text.SpannableStringInternal: java.lang.String mText>"},{"step":14,"from":"1093498320.<android.text.SpannableStringInternal: java.lang.String mText>","to":"sdaReg39","type":"model"},{"step":15,"from":"sdaReg39","to":"1093514304","type":"model"},{"step":16,"from":"1093498320","to":"1093498320.<android.text.SpannableStringInternal: java.lang.String mText>","type":"load","field":"<android.text.SpannableStringInternal: java.lang.String mText>"},{"step":17,"from":"1093498320.<android.text.SpannableStringInternal: java.lang.String mText>","to":"sdaReg41","type":"model"},{"step":18,"from":"sdaReg41","to":"1093514304","type":"model"},{"step":19,"from":"1093498320","to":"1093498320.<android.text.SpannableStringInternal: java.lang.String mText>","type":"load","field":"<android.text.SpannableStringInternal: java.lang.String mText>"},{"step":20,"from":"1093498320.<android.text.SpannableStringInternal: java.lang.String mText>","to":"sdaReg43","type":"model"},{"step":21,"from":"sdaReg43","to":"1093514304","type":"model"},{"step":22,"from":"1093498320","to":"1093498320.<android.text.SpannableStringInternal: java.lang.String mText>","type":"load","field":"<android.text.SpannableStringInternal: java.lang.String mText>"},{"step":23,"from":"1093498320.<android.text.SpannableStringInternal: java.lang.String mText>","to":"sdaReg45","type":"model"},{"step":24,"from":"sdaReg45","to":"1093514304","type":"model"},{"step":25,"from":"1093498320","to":"1093498320.<android.text.SpannableStringInternal: java.lang.String mText>","type":"load","field":"<android.text.SpannableStringInternal: java.lang.String mText>"},{"step":26,"from":"1093498320.<android.text.SpannableStringInternal: java.lang.String mText>","to":"sdaReg47","type":"model"},{"step":27,"from":"1093498320","to":"1093498320.<android.text.SpannableStringInternal: java.lang.String mText>","type":"load","field":"<android.text.SpannableStringInternal: java.lang.String mText>"},{"step":28,"from":"1093498320.<android.text.SpannableStringInternal: java.lang.String mText>","to":"sdaReg51","type":"model"},{"step":29,"from":"1093498320","to":"1093498320.<android.text.SpannableStringInternal: java.lang.String mText>","type":"load","field":"<android.text.SpannableStringInternal: java.lang.String mText>"},{"step":30,"from":"1093498320.<android.text.SpannableStringInternal: java.lang.String mText>","to":"sdaReg53","type":"model"},{"step":31,"from":"sdaReg53","to":"1093514304","type":"model"},{"step":32,"from":"1093498320","to":"1093498320.<android.text.SpannableStringInternal: java.lang.String mText>","type":"load","field":"<android.text.SpannableStringInternal: java.lang.String mText>"},{"step":33,"from":"1093498320.<android.text.SpannableStringInternal: java.lang.String mText>","to":"sdaReg55","type":"model"},{"step":34,"from":"sdaReg55","to":"1093514304","type":"model"},{"step":35,"from":"1093498320","to":"1093498320.<android.text.SpannableStringInternal: java.lang.String mText>","type":"load","field":"<android.text.SpannableStringInternal: java.lang.String mText>"},{"step":36,"from":"1093498320.<android.text.SpannableStringInternal: java.lang.String mText>","to":"sdaReg57","type":"model"},{"step":37,"from":"sdaReg57","to":"1093514304","type":"model"},{"step":38,"from":"1093498320","to":"1093498320.<android.text.SpannableStringInternal: java.lang.String mText>","type":"load","field":"<android.text.SpannableStringInternal: java.lang.String mText>"},{"step":39,"from":"1093498320.<android.text.SpannableStringInternal: java.lang.String mText>","to":"sdaReg59","type":"model"},{"step":40,"from":"sdaReg59","to":"1093514304","type":"model"},{"step":41,"from":"1093498320","to":"1093498320.<android.text.SpannableStringInternal: java.lang.String mText>","type":"load","field":"<android.text.SpannableStringInternal: java.lang.String mText>"},{"step":42,"from":"1093498320.<android.text.SpannableStringInternal: java.lang.String mText>","to":"sdaReg61","type":"model"},{"step":43,"from":"sdaReg61","to":"1093514304","type":"model"},{"step":44,"from":"sdaReg65","to":"1093514304","type":"model"}],"parameters":[{"id":"1093514304","name":"arg#0","klass":"java.lang.StringBuilder"},{"id":"1093498320","name":"arg#1","klass":"android.text.Spanned"},{"id":"sdaReg0","name":"arg#2","klass":"int"},{"id":"sdaReg1","name":"arg#3","klass":"int"},{"id":"sdaReg2","name":"arg#4","klass":"int"},{"id":"sdaReg3","name":"arg#5","klass":"boolean"}],"returns":[{"id":null,"name":"return","klass":null}],"colors":{"heapLocToColor":{"sdaReg60":[1],"sdaReg61":[1, 20],"1093528904":[8],"sdaReg12":[1],"sdaReg10":[1],"sdaReg59":[1, 19],"sdaReg58":[1],"sdaReg57":[1, 18],"1093835088":[1],"sdaReg56":[1],"sdaReg19":[6],"1093498320.<android.text.SpannableStringInternal: int[] mSpanData>":[1],"sdaReg55":[17, 1],"sdaReg54":[1],"sdaReg53":[1, 16],"sdaReg52":[1],"sdaReg51":[1, 15],"1093498320.<android.text.SpannableStringInternal: java.lang.Object[] mSpans>":[1],"sdaReg50":[1],"1093498320":[1],"sdaReg49":[2],"sdaReg48":[2],"sdaReg45":[1, 13],"sdaReg44":[1],"1093668608":[1],"sdaReg47":[1, 14],"sdaReg46":[1],"sdaReg41":[1, 11],"sdaReg40":[1],"sdaReg43":[1, 12],"sdaReg42":[1],"static.<com.android.internal.util.ArrayUtils: java.lang.Object[] sCache>":[7],"sdaReg39":[1, 10],"1093498320.<android.text.SpannableStringInternal: java.lang.String mText>":[1],"sdaReg38":[1],"1084375760":[7],"sdaReg37":[1, 9],"sdaReg30":[8],"sdaReg36":[1],"sdaReg35":[2],"sdaReg34":[1],"sdaReg33":[0],"1093514304":[0],"sdaReg7":[1],"sdaReg4":[2, 3],"sdaReg5":[1],"1093498320.<android.text.SpannableStringInternal: int mSpanCount>":[1],"sdaReg27":[8],"sdaReg26":[8],"sdaReg29":[8],"sdaReg28":[8],"sdaReg3":[5],"sdaReg2":[4],"sdaReg21":[6],"sdaReg1":[3],"sdaReg20":[6],"sdaReg0":[2],"sdaReg23":[8],"sdaReg22":[6],"sdaReg25":[8],"sdaReg24":[8]},"colorToColor":{"17":[0],"16":[0],"1":[0],"19":[0],"18":[0],"20":[0],"8":[7],"9":[0],"10":[0],"11":[0],"12":[0],"13":[0]},"colorToLabel":{"0":"arg#0","1":"arg#1","2":"arg#2","3":"arg#3","4":"arg#4","5":"arg#5","7":"<com.android.internal.util.ArrayUtils: java.lang.Object[] sCache>","21":"return"}}}

Generated Model
	arg#1->arg#0

