Scanning method <android.text.Html: void withinParagraph(java.lang.StringBuilder,android.text.Spanned,int,int,int,boolean)>

All seen event types: LoadStaticRecord, BinaryOperationRecord, SimpleAssignmentRecord, MethodReturnRecord, MethodCallRecord, ArrayLengthRecord, CastRecord, LoadInstanceRecord, MethodStartRecord, LoadArrayRecord, MethodEndRecord, IfRecord, 
Ignored event types: IfRecord, 

JSON Encoded Analysis Data (for visualization):{"heapEdges":[{"step":0,"from":"1094159864","to":"1094159864.<android.text.SpannableStringInternal: int mSpanCount>","type":"load","field":"<android.text.SpannableStringInternal: int mSpanCount>"},{"step":1,"from":"1094159864","to":"1093445856","type":"load","field":"<android.text.SpannableStringInternal: java.lang.Object[] mSpans>"},{"step":2,"from":"1094159864","to":"1093794952","type":"load","field":"<android.text.SpannableStringInternal: int[] mSpanData>"},{"step":3,"from":"1094159864","to":"1094159864.<android.text.SpannableStringInternal: int mSpanCount>","type":"load","field":"<android.text.SpannableStringInternal: int mSpanCount>"},{"step":4,"from":"1094159864","to":"1093445856","type":"load","field":"<android.text.SpannableStringInternal: java.lang.Object[] mSpans>"},{"step":5,"from":"1094159864","to":"1093794952","type":"load","field":"<android.text.SpannableStringInternal: int[] mSpanData>"},{"step":6,"from":"1084661656","to":"sdaReg19","type":"model"},{"step":7,"from":"static.<com.android.internal.util.ArrayUtils: java.lang.Object[] sCache>","to":"1084375760","type":"load","field":"<com.android.internal.util.ArrayUtils: java.lang.Object[] sCache>"},{"step":8,"from":"1084375760","to":"1093528904","type":"load","field":"arrayIdx_int:26"},{"step":9,"from":"1093528904","to":"1085374624","type":"model"},{"step":10,"from":"1085374624","to":"1084661656","type":"model"},{"step":11,"from":"1094159864","to":"1094159864.<android.text.SpannableStringInternal: java.lang.String mText>","type":"load","field":"<android.text.SpannableStringInternal: java.lang.String mText>"},{"step":12,"from":"1094159864.<android.text.SpannableStringInternal: java.lang.String mText>","to":"sdaReg38","type":"model"},{"step":13,"from":"sdaReg38","to":"1093463656","type":"model"},{"step":14,"from":"1094159864","to":"1094159864.<android.text.SpannableStringInternal: java.lang.String mText>","type":"load","field":"<android.text.SpannableStringInternal: java.lang.String mText>"},{"step":15,"from":"1094159864.<android.text.SpannableStringInternal: java.lang.String mText>","to":"sdaReg40","type":"model"},{"step":16,"from":"sdaReg40","to":"1093463656","type":"model"},{"step":17,"from":"1094159864","to":"1094159864.<android.text.SpannableStringInternal: java.lang.String mText>","type":"load","field":"<android.text.SpannableStringInternal: java.lang.String mText>"},{"step":18,"from":"1094159864.<android.text.SpannableStringInternal: java.lang.String mText>","to":"sdaReg42","type":"model"},{"step":19,"from":"1094159864","to":"1094159864.<android.text.SpannableStringInternal: java.lang.String mText>","type":"load","field":"<android.text.SpannableStringInternal: java.lang.String mText>"},{"step":20,"from":"1094159864.<android.text.SpannableStringInternal: java.lang.String mText>","to":"sdaReg46","type":"model"},{"step":21,"from":"1094159864","to":"1094159864.<android.text.SpannableStringInternal: java.lang.String mText>","type":"load","field":"<android.text.SpannableStringInternal: java.lang.String mText>"},{"step":22,"from":"1094159864.<android.text.SpannableStringInternal: java.lang.String mText>","to":"sdaReg48","type":"model"},{"step":23,"from":"sdaReg48","to":"1093463656","type":"model"},{"step":24,"from":"1094159864","to":"1094159864.<android.text.SpannableStringInternal: java.lang.String mText>","type":"load","field":"<android.text.SpannableStringInternal: java.lang.String mText>"},{"step":25,"from":"1094159864.<android.text.SpannableStringInternal: java.lang.String mText>","to":"sdaReg50","type":"model"},{"step":26,"from":"sdaReg50","to":"1093463656","type":"model"},{"step":27,"from":"1094159864","to":"1094159864.<android.text.SpannableStringInternal: java.lang.String mText>","type":"load","field":"<android.text.SpannableStringInternal: java.lang.String mText>"},{"step":28,"from":"1094159864.<android.text.SpannableStringInternal: java.lang.String mText>","to":"sdaReg52","type":"model"},{"step":29,"from":"sdaReg52","to":"1093463656","type":"model"},{"step":30,"from":"1094159864","to":"1094159864.<android.text.SpannableStringInternal: java.lang.String mText>","type":"load","field":"<android.text.SpannableStringInternal: java.lang.String mText>"},{"step":31,"from":"1094159864.<android.text.SpannableStringInternal: java.lang.String mText>","to":"sdaReg54","type":"model"},{"step":32,"from":"sdaReg54","to":"1093463656","type":"model"},{"step":33,"from":"1094159864","to":"1094159864.<android.text.SpannableStringInternal: java.lang.String mText>","type":"load","field":"<android.text.SpannableStringInternal: java.lang.String mText>"},{"step":34,"from":"1094159864.<android.text.SpannableStringInternal: java.lang.String mText>","to":"sdaReg56","type":"model"},{"step":35,"from":"sdaReg56","to":"1093463656","type":"model"},{"step":36,"from":"1094159864","to":"1094159864.<android.text.SpannableStringInternal: java.lang.String mText>","type":"load","field":"<android.text.SpannableStringInternal: java.lang.String mText>"},{"step":37,"from":"1094159864.<android.text.SpannableStringInternal: java.lang.String mText>","to":"sdaReg58","type":"model"},{"step":38,"from":"sdaReg58","to":"1093463656","type":"model"},{"step":39,"from":"1094159864","to":"1094159864.<android.text.SpannableStringInternal: java.lang.String mText>","type":"load","field":"<android.text.SpannableStringInternal: java.lang.String mText>"},{"step":40,"from":"1094159864.<android.text.SpannableStringInternal: java.lang.String mText>","to":"sdaReg60","type":"model"},{"step":41,"from":"sdaReg60","to":"1093463656","type":"model"},{"step":42,"from":"1094159864","to":"1094159864.<android.text.SpannableStringInternal: java.lang.String mText>","type":"load","field":"<android.text.SpannableStringInternal: java.lang.String mText>"},{"step":43,"from":"1094159864.<android.text.SpannableStringInternal: java.lang.String mText>","to":"sdaReg62","type":"model"},{"step":44,"from":"sdaReg62","to":"1093463656","type":"model"},{"step":45,"from":"1094159864","to":"1094159864.<android.text.SpannableStringInternal: java.lang.String mText>","type":"load","field":"<android.text.SpannableStringInternal: java.lang.String mText>"},{"step":46,"from":"1094159864.<android.text.SpannableStringInternal: java.lang.String mText>","to":"sdaReg64","type":"model"},{"step":47,"from":"sdaReg64","to":"1093463656","type":"model"},{"step":48,"from":"sdaReg68","to":"1093463656","type":"model"}],"parameters":[{"id":"1093463656","name":"arg#0","klass":"java.lang.StringBuilder"},{"id":"1094159864","name":"arg#1","klass":"android.text.Spanned"},{"id":"sdaReg0","name":"arg#2","klass":"int"},{"id":"sdaReg1","name":"arg#3","klass":"int"},{"id":"sdaReg2","name":"arg#4","klass":"int"},{"id":"sdaReg3","name":"arg#5","klass":"boolean"}],"returns":[{"id":null,"name":"return","klass":null}],"colors":{"heapLocToColor":{"sdaReg60":[1, 20],"sdaReg61":[1],"1093528904":[7],"sdaReg64":[1, 22],"sdaReg62":[1, 21],"sdaReg63":[1],"sdaReg12":[1],"sdaReg10":[1],"sdaReg59":[1],"sdaReg58":[1, 19],"1094159864.<android.text.SpannableStringInternal: java.lang.String mText>":[1],"sdaReg57":[1],"sdaReg56":[1, 18],"sdaReg19":[6],"sdaReg55":[1],"sdaReg54":[17, 1],"sdaReg53":[1],"sdaReg52":[1, 16],"sdaReg51":[1],"sdaReg50":[1, 15],"1084661656":[7, 8, 9],"1094159864.<android.text.SpannableStringInternal: java.lang.Object[] mSpans>":[1],"sdaReg49":[1],"sdaReg48":[1, 14],"sdaReg45":[1],"sdaReg44":[2],"sdaReg47":[1],"sdaReg46":[1, 13],"sdaReg41":[1],"sdaReg40":[1, 11],"sdaReg43":[2],"sdaReg42":[1, 12],"1093463656":[0],"1093794952":[1],"1094159864":[1],"1094159864.<android.text.SpannableStringInternal: int[] mSpanData>":[1],"static.<com.android.internal.util.ArrayUtils: java.lang.Object[] sCache>":[7],"1085374624":[7, 8],"sdaReg39":[1],"sdaReg38":[1, 10],"1084375760":[7],"sdaReg37":[1],"sdaReg31":[7],"sdaReg30":[7],"sdaReg36":[2],"sdaReg35":[1],"sdaReg34":[0],"sdaReg7":[1],"sdaReg4":[2, 3],"sdaReg5":[1],"1094159864.<android.text.SpannableStringInternal: int mSpanCount>":[1],"sdaReg27":[7],"sdaReg29":[7],"1093445856":[1],"sdaReg28":[7],"sdaReg3":[5],"sdaReg2":[4],"sdaReg21":[6],"sdaReg1":[3],"sdaReg20":[6],"sdaReg0":[2],"sdaReg23":[7, 8],"sdaReg22":[6],"sdaReg24":[7, 8, 9]},"colorToColor":{"17":[0],"16":[0],"1":[0],"19":[0],"18":[0],"21":[0],"20":[0],"22":[0],"10":[0],"11":[0],"14":[0],"15":[0]},"colorToLabel":{"0":"arg#0","1":"arg#1","2":"arg#2","3":"arg#3","4":"arg#4","5":"arg#5","7":"<com.android.internal.util.ArrayUtils: java.lang.Object[] sCache>","23":"return"}}}

Generated Model
	arg#1->arg#0

