Scanning method <java.io.RandomAccessFile: int read()>

All seen event types: BinaryOperationRecord, MethodReturnRecord, MethodCallRecord, MethodStartRecord, LoadInstanceRecord, LoadArrayRecord, IfRecord, MethodEndRecord, 
Ignored event types: IfRecord, 

JSON Encoded Analysis Data (for visualization):{"heapEdges":[{"step":0,"from":"1093470880","to":"1093471088","type":"load","field":"<java.io.RandomAccessFile: byte[] scratch>"},{"step":1,"from":"1093470880","to":"1093470800","type":"load","field":"<java.io.RandomAccessFile: java.io.FileDescriptor fd>"},{"step":2,"from":"1093470800","to":"1093471088","type":"model"},{"step":3,"from":"1093470880","to":"1093471088","type":"load","field":"<java.io.RandomAccessFile: byte[] scratch>"},{"step":4,"from":"1093471088","to":"1093471088.arrayIdx_int:0","type":"load","field":"arrayIdx_int:0"}],"parameters":[{"id":"1093470880","name":"this","klass":"java.io.RandomAccessFile"}],"returns":[{"id":"sdaReg5","name":"return","klass":"int"}],"colors":{"heapLocToColor":{"1093470880.<java.io.RandomAccessFile: byte[] scratch>":[0],"1093470800":[0],"sdaReg4":[1],"sdaReg5":[0],"1093471088":[0],"sdaReg1":[0],"sdaReg0":[0],"1093470880":[0],"1093471088.arrayIdx_int:0":[0]},"colorToColor":{"0":[0, 2]},"colorToLabel":{"0":"this","2":"return"}}}

Generated Model
	this->return

