Scanning method <java.io.RandomAccessFile: void write(byte[],int,int)>

All seen event types: MethodReturnRecord, MethodCallRecord, LoadInstanceRecord, IfRecord, 
Ignored event types: IfRecord, 

JSON Encoded Analysis Data (for visualization):{"heapEdges":[{"step":0,"from":"1093697712","to":"1093644376","type":"load","field":"<java.io.RandomAccessFile: java.io.FileDescriptor fd>"},{"step":1,"from":"1093697712","to":"1093697712.<java.io.RandomAccessFile: boolean syncMetadata>","type":"load","field":"<java.io.RandomAccessFile: boolean syncMetadata>"}],"parameters":[{"id":"1093697712","name":"this","klass":"java.io.RandomAccessFile"},{"id":"1093541016","name":"arg#1","klass":"byte[]"},{"id":"sdaReg0","name":"arg#2","klass":"int"},{"id":"sdaReg1","name":"arg#3","klass":"int"}],"returns":[{"id":null,"name":"return","klass":null}],"colors":{"heapLocToColor":{"1093541016":[1],"1093697712.<java.io.RandomAccessFile: boolean syncMetadata>":[0],"1093644376":[0],"sdaReg1":[3],"1093697712":[0],"sdaReg0":[2]},"colorToColor":{},"colorToLabel":{"0":"this","1":"arg#1","2":"arg#2","3":"arg#3","4":"return"}}}

Generated Model

