Scanning method <java.io.ObjectInputStream: java.lang.Object readObject()>

All seen event types: StoreArrayRecord, SimpleAssignmentRecord, MethodStartRecord, LoadInstanceRecord, IfRecord, NewObjectRecord, StoreInstanceRecord, NewArrayRecord, LoadStaticRecord, BinaryOperationRecord, SwitchRecord, MethodCallRecord, MethodReturnRecord, ArrayLengthRecord, CastRecord, LoadArrayRecord, MethodEndRecord, 
Ignored event types: SwitchRecord, IfRecord, 

JSON Encoded Analysis Data (for visualization):{"heapEdges":[{"step":0,"from":"1093619504","to":"1093230200","type":"load","field":"<java.io.ObjectInputStream: java.io.InputStream primitiveData>"},{"step":1,"from":"1093619504","to":"1093551856","type":"load","field":"<java.io.ObjectInputStream: java.io.DataInputStream input>"},{"step":2,"from":"1093619504","to":"1093619504.<java.io.ObjectInputStream: boolean subclassOverridingImplementation>","type":"load","field":"<java.io.ObjectInputStream: boolean subclassOverridingImplementation>"},{"step":3,"from":"1093619504","to":"1093619504.<java.io.ObjectInputStream: int nestedLevels>","type":"load","field":"<java.io.ObjectInputStream: int nestedLevels>"},{"step":4,"from":"sdaReg4","to":"1093619504","type":"store","field":"<java.io.ObjectInputStream: int nestedLevels>"},{"step":5,"from":"1094882336","to":"1085582952","type":"load","field":"arrayIdx_int:0"},{"step":6,"from":"1085582952","to":"1083999984","type":"model"},{"step":7,"from":"static.<java.io.ObjectInputStream: java.lang.ClassLoader bootstrapLoader>","to":"1083999984","type":"load","field":"<java.io.ObjectInputStream: java.lang.ClassLoader bootstrapLoader>"},{"step":8,"from":"1094882336","to":"1085582952","type":"load","field":"arrayIdx_int:1"},{"step":9,"from":"1085582952","to":"1083999984","type":"model"},{"step":10,"from":"static.<java.io.ObjectInputStream: java.lang.ClassLoader bootstrapLoader>","to":"1083999984","type":"load","field":"<java.io.ObjectInputStream: java.lang.ClassLoader bootstrapLoader>"},{"step":11,"from":"1094882336","to":"1085582952","type":"load","field":"arrayIdx_int:2"},{"step":12,"from":"1085582952","to":"1083999984","type":"model"},{"step":13,"from":"static.<java.io.ObjectInputStream: java.lang.ClassLoader bootstrapLoader>","to":"1083999984","type":"load","field":"<java.io.ObjectInputStream: java.lang.ClassLoader bootstrapLoader>"},{"step":14,"from":"1094882336","to":"1085582952","type":"load","field":"arrayIdx_int:3"},{"step":15,"from":"1085582952","to":"1083999984","type":"model"},{"step":16,"from":"static.<java.io.ObjectInputStream: java.lang.ClassLoader bootstrapLoader>","to":"1083999984","type":"load","field":"<java.io.ObjectInputStream: java.lang.ClassLoader bootstrapLoader>"},{"step":17,"from":"1094882336","to":"1085582952","type":"load","field":"arrayIdx_int:4"},{"step":18,"from":"1085582952","to":"1083999984","type":"model"},{"step":19,"from":"static.<java.io.ObjectInputStream: java.lang.ClassLoader bootstrapLoader>","to":"1083999984","type":"load","field":"<java.io.ObjectInputStream: java.lang.ClassLoader bootstrapLoader>"},{"step":20,"from":"1094882336","to":"1093340104","type":"load","field":"arrayIdx_int:5"},{"step":21,"from":"1093340104","to":"1093291256","type":"model"},{"step":22,"from":"static.<java.io.ObjectInputStream: java.lang.ClassLoader bootstrapLoader>","to":"1083999984","type":"load","field":"<java.io.ObjectInputStream: java.lang.ClassLoader bootstrapLoader>"},{"step":23,"from":"static.<java.io.ObjectInputStream: java.lang.ClassLoader systemLoader>","to":"1083999760","type":"load","field":"<java.io.ObjectInputStream: java.lang.ClassLoader systemLoader>"},{"step":24,"from":"1093619504","to":"1093291256","type":"create","field":"<java.io.ObjectInputStream: java.lang.ClassLoader callerClassLoader>"},{"step":25,"from":"1093619504","to":"1093230200","type":"load","field":"<java.io.ObjectInputStream: java.io.InputStream primitiveData>"},{"step":26,"from":"1093619504","to":"1093551856","type":"load","field":"<java.io.ObjectInputStream: java.io.DataInputStream input>"},{"step":27,"from":"1093619504","to":"1093230200","type":"load","field":"<java.io.ObjectInputStream: java.io.InputStream primitiveData>"},{"step":28,"from":"1093230200","to":"1093230200.<java.io.ByteArrayInputStream: int count>","type":"load","field":"<java.io.ByteArrayInputStream: int count>"},{"step":29,"from":"1093230200","to":"1093230200.<java.io.ByteArrayInputStream: int pos>","type":"load","field":"<java.io.ByteArrayInputStream: int pos>"},{"step":30,"from":"1093619504","to":"1093619504.<java.io.ObjectInputStream: boolean hasPushbackTC>","type":"load","field":"<java.io.ObjectInputStream: boolean hasPushbackTC>"},{"step":31,"from":"1093619504","to":"1093551856","type":"load","field":"<java.io.ObjectInputStream: java.io.DataInputStream input>"},{"step":32,"from":"1093551856","to":"1093721784","type":"load","field":"<java.io.FilterInputStream: java.io.InputStream in>"},{"step":33,"from":"1093721784","to":"1093721784.<java.io.PipedInputStream: boolean isConnected>","type":"load","field":"<java.io.PipedInputStream: boolean isConnected>"},{"step":34,"from":"1093721784","to":"1093721824","type":"load","field":"<java.io.PipedInputStream: byte[] buffer>"},{"step":35,"from":"1093721784","to":"1093475720","type":"create","field":"<java.io.PipedInputStream: java.lang.Thread lastReader>"},{"step":36,"from":"1093721784","to":"1093721784.<java.io.PipedInputStream: int in>","type":"load","field":"<java.io.PipedInputStream: int in>"},{"step":37,"from":"1093721784","to":"1093721824","type":"load","field":"<java.io.PipedInputStream: byte[] buffer>"},{"step":38,"from":"1093721784","to":"1093721784.<java.io.PipedInputStream: int out>","type":"load","field":"<java.io.PipedInputStream: int out>"},{"step":39,"from":"sdaReg25","to":"1093721784","type":"store","field":"<java.io.PipedInputStream: int out>"},{"step":40,"from":"1093721824","to":"1093721824.arrayIdx_int:15","type":"load","field":"arrayIdx_int:15"},{"step":41,"from":"1093721784","to":"1093721824","type":"load","field":"<java.io.PipedInputStream: byte[] buffer>"},{"step":42,"from":"1093721784","to":"1093721784.<java.io.PipedInputStream: int in>","type":"load","field":"<java.io.PipedInputStream: int in>"},{"step":43,"from":"sdaReg28","to":"1093619504","type":"store","field":"<java.io.ObjectInputStream: byte pushbackTC>"},{"step":44,"from":"1093619504","to":"sdaReg30","type":"create","field":"<java.io.ObjectInputStream: boolean hasPushbackTC>"},{"step":45,"from":"1093619504","to":"1093230200","type":"load","field":"<java.io.ObjectInputStream: java.io.InputStream primitiveData>"},{"step":46,"from":"1093230200","to":"1093230200.<java.io.ByteArrayInputStream: int count>","type":"load","field":"<java.io.ByteArrayInputStream: int count>"},{"step":47,"from":"1093230200","to":"1093230200.<java.io.ByteArrayInputStream: int pos>","type":"load","field":"<java.io.ByteArrayInputStream: int pos>"},{"step":48,"from":"1093619504","to":"sdaReg34","type":"create","field":"<java.io.ObjectInputStream: boolean hasPushbackTC>"},{"step":49,"from":"1093619504","to":"1093551856","type":"load","field":"<java.io.ObjectInputStream: java.io.DataInputStream input>"},{"step":50,"from":"1093551856","to":"1093721784","type":"load","field":"<java.io.FilterInputStream: java.io.InputStream in>"},{"step":51,"from":"1093551856","to":"1093329040","type":"load","field":"<java.io.DataInputStream: byte[] scratch>"},{"step":52,"from":"1093721784","to":"1093329040","type":"model"},{"step":53,"from":"1093551856","to":"1093329040","type":"load","field":"<java.io.DataInputStream: byte[] scratch>"},{"step":54,"from":"static.<java.nio.ByteOrder: java.nio.ByteOrder BIG_ENDIAN>","to":"1084339448","type":"load","field":"<java.nio.ByteOrder: java.nio.ByteOrder BIG_ENDIAN>"},{"step":55,"from":"1093329040","to":"sdaReg40","type":"model"},{"step":56,"from":"1093551856","to":"1093721784","type":"load","field":"<java.io.FilterInputStream: java.io.InputStream in>"},{"step":57,"from":"1093721784","to":"1095457864","type":"model"},{"step":58,"from":"1095457864","to":"1095457864.arrayIdx_int:0","type":"load","field":"arrayIdx_int:0"},{"step":59,"from":"sdaReg54","to":"1093382816","type":"store","field":"arrayIdx_int:0"},{"step":60,"from":"1095457864","to":"1095457864.arrayIdx_int:1","type":"load","field":"arrayIdx_int:1"},{"step":61,"from":"sdaReg54","to":"1093382816","type":"store","field":"arrayIdx_int:1"},{"step":62,"from":"1095457864","to":"1095457864.arrayIdx_int:2","type":"load","field":"arrayIdx_int:2"},{"step":63,"from":"sdaReg54","to":"1093382816","type":"store","field":"arrayIdx_int:2"},{"step":64,"from":"1095457864","to":"1095457864.arrayIdx_int:3","type":"load","field":"arrayIdx_int:3"},{"step":65,"from":"sdaReg54","to":"1093382816","type":"store","field":"arrayIdx_int:3"},{"step":66,"from":"1093382816","to":"sdaReg55","type":"model"},{"step":67,"from":"1093619504","to":"1093619504.<java.io.ObjectInputStream: boolean enableResolve>","type":"load","field":"<java.io.ObjectInputStream: boolean enableResolve>"},{"step":68,"from":"1093619504","to":"1093619504.<java.io.ObjectInputStream: int nextHandle>","type":"load","field":"<java.io.ObjectInputStream: int nextHandle>"},{"step":69,"from":"sdaReg58","to":"1093619504","type":"store","field":"<java.io.ObjectInputStream: int nextHandle>"},{"step":70,"from":"1093619504","to":"1093548816","type":"load","field":"<java.io.ObjectInputStream: java.util.ArrayList objectsRead>"},{"step":71,"from":"1093548816","to":"1093548816.<java.util.ArrayList: int size>","type":"load","field":"<java.util.ArrayList: int size>"},{"step":72,"from":"1093619504","to":"1093548816","type":"load","field":"<java.io.ObjectInputStream: java.util.ArrayList objectsRead>"},{"step":73,"from":"1093548816","to":"1093700752","type":"load","field":"<java.util.ArrayList: java.lang.Object[] array>"},{"step":74,"from":"1093548816","to":"1093548816.<java.util.ArrayList: int size>","type":"load","field":"<java.util.ArrayList: int size>"},{"step":75,"from":"1095286968","to":"1093700752","type":"store","field":"arrayIdx_int:2"},{"step":76,"from":"sdaReg66","to":"1093548816","type":"store","field":"<java.util.ArrayList: int size>"},{"step":77,"from":"1093548816","to":"1093548816.<java.util.AbstractList: int modCount>","type":"load","field":"<java.util.AbstractList: int modCount>"},{"step":78,"from":"sdaReg67","to":"1093548816","type":"store","field":"<java.util.AbstractList: int modCount>"},{"step":79,"from":"sdaReg71","to":"1093619504","type":"store","field":"<java.io.ObjectInputStream: int nestedLevels>"},{"step":80,"from":"1093619504","to":"sdaReg72","type":"create","field":"<java.io.ObjectInputStream: java.lang.ClassLoader callerClassLoader>"}],"parameters":[{"id":"1093619504","name":"this","klass":"java.io.ObjectInputStream"}],"returns":[{"id":"1095286968","name":"return","klass":"java.lang.Object"}],"colors":{"heapLocToColor":{"sdaReg61":[0],"1093619504.<java.io.ObjectInputStream: boolean enableResolve>":[0],"1093475720":[6],"static.<java.io.ObjectInputStream: java.lang.ClassLoader bootstrapLoader>":[1, 2, 3],"sdaReg66":[0],"sdaReg67":[0],"1093382816":[10],"1094882336":[1],"sdaReg62":[0],"1093619504.<java.io.ObjectInputStream: int nextHandle>":[0],"sdaReg63":[0],"1093619504.<java.io.ObjectInputStream: java.util.ArrayList objectsRead>":[0],"sdaReg13":[1, 2, 3],"sdaReg14":[1, 4],"sdaReg11":[1, 2, 3],"sdaReg12":[1, 2, 3],"sdaReg10":[1, 2, 3],"sdaReg59":[0],"sdaReg58":[0],"sdaReg57":[0],"sdaReg19":[0],"sdaReg55":[11],"sdaReg54":[9],"static.<java.nio.ByteOrder: java.nio.ByteOrder BIG_ENDIAN>":[7],"sdaReg17":[0],"sdaReg18":[0],"1093329040":[0],"sdaReg15":[1, 4],"sdaReg16":[0],"1093721824":[0],"1093230200":[0],"1095457864.arrayIdx_int:3":[9],"1094882336.arrayIdx_int:4":[1],"1083999760":[5],"1094882336.arrayIdx_int:2":[1],"1094882336.arrayIdx_int:3":[1],"1094882336.arrayIdx_int:1":[1],"1093721784.<java.io.PipedInputStream: int in>":[0],"1093340104":[1],"1093619504.<java.io.ObjectInputStream: java.io.InputStream primitiveData>":[0],"1093721784":[0],"sdaReg48":[10],"1093548816.<java.util.ArrayList: int size>":[0],"sdaReg45":[9],"sdaReg44":[0],"sdaReg47":[9],"1093619504.<java.io.ObjectInputStream: int nestedLevels>":[0],"sdaReg41":[8],"sdaReg40":[8],"sdaReg43":[0],"sdaReg42":[0],"sdaReg39":[0],"1093551856.<java.io.FilterInputStream: java.io.InputStream in>":[0],"sdaReg38":[0],"sdaReg37":[0],"static.<java.io.ObjectInputStream: java.lang.ClassLoader systemLoader>":[5],"1093230200.<java.io.ByteArrayInputStream: int pos>":[0],"1093230200.<java.io.ByteArrayInputStream: int count>":[0],"sdaReg32":[0],"1093619504":[0],"1093548816":[0],"1095457864.arrayIdx_int:0":[9],"sdaReg31":[0],"1083999984":[1, 2, 3],"1095457864.arrayIdx_int:1":[9],"1093291256":[1, 4],"1095457864.arrayIdx_int:2":[9],"sdaReg36":[0],"1093721784.<java.io.PipedInputStream: byte[] buffer>":[0],"sdaReg33":[0],"1093548816.<java.util.AbstractList: int modCount>":[0],"sdaReg9":[1, 2],"sdaReg6":[1],"1093619504.<java.io.ObjectInputStream: java.io.DataInputStream input>":[0],"1093721784.<java.io.PipedInputStream: int out>":[0],"sdaReg4":[0],"1085582952":[1],"sdaReg5":[1],"1093619504.<java.io.ObjectInputStream: boolean hasPushbackTC>":[0],"1093551856":[0],"1095457864":[9],"1093721784.<java.io.PipedInputStream: boolean isConnected>":[0],"sdaReg26":[0],"sdaReg29":[0],"sdaReg28":[0],"1084339448":[7],"1093721824.arrayIdx_int:15":[0],"1093551856.<java.io.DataInputStream: byte[] scratch>":[0],"1093619504.<java.io.ObjectInputStream: boolean subclassOverridingImplementation>":[0],"sdaReg21":[0],"1093700752":[0],"sdaReg0":[0],"sdaReg23":[6],"sdaReg22":[0],"sdaReg25":[0]},"colorToColor":{"0":[0, 8, 9],"1":[0],"4":[0],"6":[0],"9":[10],"10":[11]},"colorToLabel":{"0":"this","3":"<java.io.ObjectInputStream: java.lang.ClassLoader bootstrapLoader>","5":"<java.io.ObjectInputStream: java.lang.ClassLoader systemLoader>","7":"<java.nio.ByteOrder: java.nio.ByteOrder BIG_ENDIAN>","12":"return"}}}

Generated Model

