Scanning method <java.util.TreeSet: boolean add(java.lang.Object)>

All seen event types: SimpleAssignmentRecord, LoadInstanceRecord, MethodStartRecord, IfRecord, NewObjectRecord, StoreInstanceRecord, LoadStaticRecord, BinaryOperationRecord, MethodCallRecord, MethodReturnRecord, SwitchRecord, CastRecord, LoadArrayRecord, MethodEndRecord, 
Ignored event types: SwitchRecord, IfRecord, 

JSON Encoded Analysis Data (for visualization):{"heapEdges":[{"step":0,"from":"1094676392","to":"1093233072","type":"load","field":"<java.util.TreeSet: java.util.NavigableMap backingMap>"},{"step":1,"from":"static.<java.lang.Boolean: java.lang.Boolean TRUE>","to":"1085638584","type":"load","field":"<java.lang.Boolean: java.lang.Boolean TRUE>"},{"step":2,"from":"static.<java.util.TreeMap$Relation: java.util.TreeMap$Relation CREATE>","to":"1085707192","type":"load","field":"<java.util.TreeMap$Relation: java.util.TreeMap$Relation CREATE>"},{"step":3,"from":"1093233072","to":"1094753864","type":"load","field":"<java.util.TreeMap: java.util.TreeMap$Node root>"},{"step":4,"from":"1093233072","to":"1083970648","type":"load","field":"<java.util.TreeMap: java.util.Comparator comparator>"},{"step":5,"from":"static.<java.util.TreeMap: java.util.Comparator NATURAL_ORDER>","to":"1083970648","type":"load","field":"<java.util.TreeMap: java.util.Comparator NATURAL_ORDER>"},{"step":6,"from":"1093233072","to":"1094753864","type":"load","field":"<java.util.TreeMap: java.util.TreeMap$Node root>"},{"step":7,"from":"1094753864","to":"1094193096","type":"load","field":"<java.util.TreeMap$Node: java.lang.Object key>"},{"step":8,"from":"1093798120","to":"1094193096","type":"model"},{"step":9,"from":"1093798120","to":"sdaReg11","type":"model"},{"step":10,"from":"1094193096","to":"1093798120","type":"model"},{"step":11,"from":"1094193096","to":"sdaReg11","type":"model"},{"step":12,"from":"1094753864","to":"1093447784","type":"load","field":"<java.util.TreeMap$Node: java.util.TreeMap$Node right>"},{"step":13,"from":"1093447784","to":"1093229088","type":"load","field":"<java.util.TreeMap$Node: java.lang.Object key>"},{"step":14,"from":"1093798120","to":"1093229088","type":"model"},{"step":15,"from":"1093798120","to":"sdaReg14","type":"model"},{"step":16,"from":"1093229088","to":"1093798120","type":"model"},{"step":17,"from":"1093229088","to":"sdaReg14","type":"model"},{"step":18,"from":"1093447784","to":"1095218184","type":"load","field":"<java.util.TreeMap$Node: java.util.TreeMap$Node right>"},{"step":19,"from":"1095218184","to":"1094295272","type":"load","field":"<java.util.TreeMap$Node: java.lang.Object key>"},{"step":20,"from":"1093798120","to":"1094295272","type":"model"},{"step":21,"from":"1093798120","to":"sdaReg15","type":"model"},{"step":22,"from":"1094295272","to":"1093798120","type":"model"},{"step":23,"from":"1094295272","to":"sdaReg15","type":"model"},{"step":24,"from":"1095218184","to":"1095218224","type":"load","field":"<java.util.TreeMap$Node: java.util.TreeMap$Node right>"},{"step":25,"from":"1095218224","to":"1093748960","type":"load","field":"<java.util.TreeMap$Node: java.lang.Object key>"},{"step":26,"from":"1093798120","to":"1093748960","type":"model"},{"step":27,"from":"1093798120","to":"sdaReg16","type":"model"},{"step":28,"from":"1093748960","to":"1093798120","type":"model"},{"step":29,"from":"1093748960","to":"sdaReg16","type":"model"},{"step":30,"from":"static.<java.util.TreeMap$2: int[] $SwitchMap$java$util$TreeMap$Relation>","to":"1085752200","type":"load","field":"<java.util.TreeMap$2: int[] $SwitchMap$java$util$TreeMap$Relation>"},{"step":31,"from":"1085707192","to":"sdaReg17","type":"model"},{"step":32,"from":"1085752200","to":"1085752200.arrayIdx_int:3","type":"load","field":"arrayIdx_int:3"},{"step":33,"from":"1095218224","to":"1094630056","type":"store","field":"<java.util.TreeMap$Node: java.util.TreeMap$Node parent>"},{"step":34,"from":"1093798120","to":"1094630056","type":"store","field":"<java.util.TreeMap$Node: java.lang.Object key>"},{"step":35,"from":"1094630056","to":"sdaReg22","type":"create","field":"<java.util.TreeMap$Node: int height>"},{"step":36,"from":"1095218224","to":"1094630056","type":"create","field":"<java.util.TreeMap$Node: java.util.TreeMap$Node right>"},{"step":37,"from":"1093233072","to":"1093233072.<java.util.TreeMap: int size>","type":"load","field":"<java.util.TreeMap: int size>"},{"step":38,"from":"sdaReg25","to":"1093233072","type":"store","field":"<java.util.TreeMap: int size>"},{"step":39,"from":"1093233072","to":"1093233072.<java.util.TreeMap: int modCount>","type":"load","field":"<java.util.TreeMap: int modCount>"},{"step":40,"from":"sdaReg26","to":"1093233072","type":"store","field":"<java.util.TreeMap: int modCount>"},{"step":41,"from":"static.<java.util.TreeMap: boolean $assertionsDisabled>","to":"static.<java.util.TreeMap: boolean $assertionsDisabled>","type":"load","field":"<java.util.TreeMap: boolean $assertionsDisabled>"},{"step":42,"from":"sdaReg32","to":"sdaReg33","type":"model"},{"step":43,"from":"sdaReg32","to":"sdaReg35","type":"model"},{"step":44,"from":"sdaReg33","to":"sdaReg32","type":"model"},{"step":45,"from":"sdaReg33","to":"sdaReg35","type":"model"},{"step":46,"from":"sdaReg36","to":"1095218224","type":"store","field":"<java.util.TreeMap$Node: int height>"},{"step":47,"from":"1095218224","to":"1095218184","type":"load","field":"<java.util.TreeMap$Node: java.util.TreeMap$Node parent>"},{"step":48,"from":"1095218184","to":"1095218224","type":"load","field":"<java.util.TreeMap$Node: java.util.TreeMap$Node right>"},{"step":49,"from":"1095218184","to":"1095218224","type":"load","field":"<java.util.TreeMap$Node: java.util.TreeMap$Node right>"},{"step":50,"from":"1095218184","to":"1093447784","type":"load","field":"<java.util.TreeMap$Node: java.util.TreeMap$Node parent>"},{"step":51,"from":"1095218184","to":"sdaReg46","type":"create","field":"<java.util.TreeMap$Node: java.util.TreeMap$Node parent>"},{"step":52,"from":"1093447784","to":"1095218224","type":"store","field":"<java.util.TreeMap$Node: java.util.TreeMap$Node parent>"},{"step":53,"from":"1093447784","to":"1093686520","type":"load","field":"<java.util.TreeMap$Node: java.util.TreeMap$Node left>"},{"step":54,"from":"static.<java.util.TreeMap: boolean $assertionsDisabled>","to":"static.<java.util.TreeMap: boolean $assertionsDisabled>","type":"load","field":"<java.util.TreeMap: boolean $assertionsDisabled>"},{"step":55,"from":"1095218224","to":"1093447784","type":"store","field":"<java.util.TreeMap$Node: java.util.TreeMap$Node right>"},{"step":56,"from":"1095218184","to":"1095218224","type":"store","field":"<java.util.TreeMap$Node: java.util.TreeMap$Node left>"},{"step":57,"from":"1095218224","to":"1095218184","type":"store","field":"<java.util.TreeMap$Node: java.util.TreeMap$Node parent>"},{"step":58,"from":"sdaReg47","to":"sdaReg48","type":"model"},{"step":59,"from":"sdaReg47","to":"sdaReg49","type":"model"},{"step":60,"from":"sdaReg48","to":"sdaReg47","type":"model"},{"step":61,"from":"sdaReg48","to":"sdaReg49","type":"model"},{"step":62,"from":"sdaReg50","to":"1095218184","type":"store","field":"<java.util.TreeMap$Node: int height>"},{"step":63,"from":"sdaReg52","to":"1095218224","type":"store","field":"<java.util.TreeMap$Node: int height>"},{"step":64,"from":"1085638584","to":"1094630056","type":"store","field":"<java.util.TreeMap$Node: java.lang.Object value>"}],"parameters":[{"id":"1094676392","name":"this","klass":"java.util.TreeSet"},{"id":"1093798120","name":"arg#1","klass":"java.lang.Object"}],"returns":[{"id":"sdaReg56","name":"return","klass":"boolean"}],"colors":{"heapLocToColor":{"1094295272":[0, 1],"1093748960":[0, 1],"1094630056":[11],"1093233072.<java.util.TreeMap: int size>":[0],"sdaReg14":[1, 6],"1095218184.<java.util.TreeMap$Node: java.util.TreeMap$Node right>":[0],"sdaReg11":[1, 5],"sdaReg12":[1, 5, 6, 7, 8],"sdaReg10":[1],"static.<java.lang.Boolean: java.lang.Boolean TRUE>":[2],"1085707192":[3],"1093798120":[1],"sdaReg19":[0],"sdaReg17":[3, 10],"sdaReg53":[11],"sdaReg18":[11],"sdaReg52":[15],"sdaReg15":[1, 7],"sdaReg51":[15],"sdaReg16":[1, 8],"sdaReg50":[14],"1085752200":[9],"1093233072":[0],"static.<java.util.TreeMap$2: int[] $SwitchMap$java$util$TreeMap$Relation>":[9],"sdaReg49":[14],"1095218224":[0],"static.<java.util.TreeMap: boolean $assertionsDisabled>":[12],"sdaReg45":[0],"sdaReg44":[0],"1094753864":[0],"1085638584":[2],"sdaReg41":[0],"sdaReg43":[0],"sdaReg42":[0],"1083970648":[0, 4],"1093686520":[0],"1093233072.<java.util.TreeMap: java.util.TreeMap$Node root>":[0],"static.<java.util.TreeMap: java.util.Comparator NATURAL_ORDER>":[0, 4],"1094676392":[0],"1093447784":[0],"1095218224.<java.util.TreeMap$Node: java.util.TreeMap$Node parent>":[0],"1085752200.arrayIdx_int:3":[9],"1095218184.<java.util.TreeMap$Node: java.util.TreeMap$Node parent>":[0],"sdaReg30":[0],"sdaReg36":[13],"sdaReg35":[13],"sdaReg8":[3],"sdaReg9":[1],"sdaReg6":[0],"sdaReg7":[1],"sdaReg4":[1],"sdaReg5":[2],"static.<java.util.TreeMap$Relation: java.util.TreeMap$Relation CREATE>":[3],"1094193096":[0, 1],"1093233072.<java.util.TreeMap: int modCount>":[0],"sdaReg27":[0],"1093229088":[0, 1],"sdaReg26":[0],"sdaReg28":[0],"1095218184":[0],"sdaReg3":[0],"sdaReg2":[2],"sdaReg1":[1],"sdaReg21":[11],"sdaReg0":[0],"sdaReg20":[1],"sdaReg23":[11],"sdaReg25":[0],"sdaReg24":[11]},"colorToColor":{"0":[0, 1, 5, 6, 7, 8, 11],"1":[1, 5, 6, 7, 8, 11],"2":[11],"11":[0],"13":[0],"14":[0],"15":[0]},"colorToLabel":{"0":"this","1":"arg#1","2":"<java.lang.Boolean: java.lang.Boolean TRUE>","3":"<java.util.TreeMap$Relation: java.util.TreeMap$Relation CREATE>","4":"<java.util.TreeMap: java.util.Comparator NATURAL_ORDER>","9":"<java.util.TreeMap$2: int[] $SwitchMap$java$util$TreeMap$Relation>","12":"<java.util.TreeMap: boolean $assertionsDisabled>","16":"return"}}}

Generated Model
	this->arg#1
	arg#1->this

