Scanning method <java.util.TreeSet: boolean add(java.lang.Object)>

All seen event types: SimpleAssignmentRecord, LoadInstanceRecord, MethodStartRecord, IfRecord, NewObjectRecord, StoreInstanceRecord, LoadStaticRecord, BinaryOperationRecord, MethodCallRecord, MethodReturnRecord, SwitchRecord, CastRecord, LoadArrayRecord, MethodEndRecord, 
Ignored event types: SwitchRecord, IfRecord, 

JSON Encoded Analysis Data (for visualization):{"heapEdges":[{"step":0,"from":"1099705040","to":"1099705064","type":"load","field":"<java.util.TreeSet: java.util.NavigableMap backingMap>"},{"step":1,"from":"static.<java.lang.Boolean: java.lang.Boolean TRUE>","to":"1085638584","type":"load","field":"<java.lang.Boolean: java.lang.Boolean TRUE>"},{"step":2,"from":"static.<java.util.TreeMap$Relation: java.util.TreeMap$Relation CREATE>","to":"1085707192","type":"load","field":"<java.util.TreeMap$Relation: java.util.TreeMap$Relation CREATE>"},{"step":3,"from":"1099705064","to":"1099705112","type":"load","field":"<java.util.TreeMap: java.util.TreeMap$Node root>"},{"step":4,"from":"1099705064","to":"1083970648","type":"load","field":"<java.util.TreeMap: java.util.Comparator comparator>"},{"step":5,"from":"static.<java.util.TreeMap: java.util.Comparator NATURAL_ORDER>","to":"1083970648","type":"load","field":"<java.util.TreeMap: java.util.Comparator NATURAL_ORDER>"},{"step":6,"from":"1099705064","to":"1099705112","type":"load","field":"<java.util.TreeMap: java.util.TreeMap$Node root>"},{"step":7,"from":"1099705112","to":"1093301176","type":"load","field":"<java.util.TreeMap$Node: java.lang.Object key>"},{"step":8,"from":"1096113768","to":"1093301176","type":"model"},{"step":9,"from":"1096113768","to":"sdaReg11","type":"model"},{"step":10,"from":"1093301176","to":"1096113768","type":"model"},{"step":11,"from":"1093301176","to":"sdaReg11","type":"model"},{"step":12,"from":"1099705112","to":"1099725312","type":"load","field":"<java.util.TreeMap$Node: java.util.TreeMap$Node right>"},{"step":13,"from":"1099725312","to":"1096199648","type":"load","field":"<java.util.TreeMap$Node: java.lang.Object key>"},{"step":14,"from":"1096113768","to":"1096199648","type":"model"},{"step":15,"from":"1096113768","to":"sdaReg14","type":"model"},{"step":16,"from":"1096199648","to":"1096113768","type":"model"},{"step":17,"from":"1096199648","to":"sdaReg14","type":"model"},{"step":18,"from":"static.<java.util.TreeMap$2: int[] $SwitchMap$java$util$TreeMap$Relation>","to":"1085752200","type":"load","field":"<java.util.TreeMap$2: int[] $SwitchMap$java$util$TreeMap$Relation>"},{"step":19,"from":"1085707192","to":"sdaReg15","type":"model"},{"step":20,"from":"1085752200","to":"1085752200.arrayIdx_int:3","type":"load","field":"arrayIdx_int:3"},{"step":21,"from":"1099725312","to":"1099725352","type":"store","field":"<java.util.TreeMap$Node: java.util.TreeMap$Node parent>"},{"step":22,"from":"1096113768","to":"1099725352","type":"store","field":"<java.util.TreeMap$Node: java.lang.Object key>"},{"step":23,"from":"1099725352","to":"sdaReg20","type":"create","field":"<java.util.TreeMap$Node: int height>"},{"step":24,"from":"1099725312","to":"1099725352","type":"create","field":"<java.util.TreeMap$Node: java.util.TreeMap$Node right>"},{"step":25,"from":"1099705064","to":"1099705064.<java.util.TreeMap: int size>","type":"load","field":"<java.util.TreeMap: int size>"},{"step":26,"from":"sdaReg23","to":"1099705064","type":"store","field":"<java.util.TreeMap: int size>"},{"step":27,"from":"1099705064","to":"1099705064.<java.util.TreeMap: int modCount>","type":"load","field":"<java.util.TreeMap: int modCount>"},{"step":28,"from":"sdaReg24","to":"1099705064","type":"store","field":"<java.util.TreeMap: int modCount>"},{"step":29,"from":"static.<java.util.TreeMap: boolean $assertionsDisabled>","to":"static.<java.util.TreeMap: boolean $assertionsDisabled>","type":"load","field":"<java.util.TreeMap: boolean $assertionsDisabled>"},{"step":30,"from":"sdaReg30","to":"sdaReg31","type":"model"},{"step":31,"from":"sdaReg30","to":"sdaReg33","type":"model"},{"step":32,"from":"sdaReg31","to":"sdaReg30","type":"model"},{"step":33,"from":"sdaReg31","to":"sdaReg33","type":"model"},{"step":34,"from":"sdaReg34","to":"1099725312","type":"store","field":"<java.util.TreeMap$Node: int height>"},{"step":35,"from":"1099725312","to":"1099705112","type":"load","field":"<java.util.TreeMap$Node: java.util.TreeMap$Node parent>"},{"step":36,"from":"1099705112","to":"1099725312","type":"load","field":"<java.util.TreeMap$Node: java.util.TreeMap$Node right>"},{"step":37,"from":"1099705112","to":"1099725312","type":"load","field":"<java.util.TreeMap$Node: java.util.TreeMap$Node right>"},{"step":38,"from":"1099705112","to":"sdaReg44","type":"create","field":"<java.util.TreeMap$Node: java.util.TreeMap$Node parent>"},{"step":39,"from":"1099725312","to":"1099705064","type":"store","field":"<java.util.TreeMap: java.util.TreeMap$Node root>"},{"step":40,"from":"1099705112","to":"1099725312","type":"store","field":"<java.util.TreeMap$Node: java.util.TreeMap$Node left>"},{"step":41,"from":"1099725312","to":"1099705112","type":"store","field":"<java.util.TreeMap$Node: java.util.TreeMap$Node parent>"},{"step":42,"from":"sdaReg45","to":"sdaReg46","type":"model"},{"step":43,"from":"sdaReg45","to":"sdaReg47","type":"model"},{"step":44,"from":"sdaReg46","to":"sdaReg45","type":"model"},{"step":45,"from":"sdaReg46","to":"sdaReg47","type":"model"},{"step":46,"from":"sdaReg48","to":"1099705112","type":"store","field":"<java.util.TreeMap$Node: int height>"},{"step":47,"from":"sdaReg50","to":"1099725312","type":"store","field":"<java.util.TreeMap$Node: int height>"},{"step":48,"from":"1085638584","to":"1099725352","type":"store","field":"<java.util.TreeMap$Node: java.lang.Object value>"}],"parameters":[{"id":"1099705040","name":"this","klass":"java.util.TreeSet"},{"id":"1096113768","name":"arg#1","klass":"java.lang.Object"}],"returns":[{"id":"sdaReg54","name":"return","klass":"boolean"}],"colors":{"heapLocToColor":{"1099705112.<java.util.TreeMap$Node: java.util.TreeMap$Node right>":[0],"sdaReg14":[1, 6],"sdaReg11":[1, 5],"sdaReg12":[1, 5, 6],"sdaReg10":[1],"static.<java.lang.Boolean: java.lang.Boolean TRUE>":[2],"1085707192":[3],"sdaReg19":[9],"sdaReg17":[0],"sdaReg18":[1],"sdaReg15":[3, 8],"sdaReg51":[9],"sdaReg16":[9],"1099725352":[9],"sdaReg50":[13],"1099705064.<java.util.TreeMap: java.util.TreeMap$Node root>":[0],"1085752200":[7],"1099705040":[0],"1096199648":[0, 1],"static.<java.util.TreeMap$2: int[] $SwitchMap$java$util$TreeMap$Relation>":[7],"sdaReg49":[13],"sdaReg48":[12],"1099725312":[0],"static.<java.util.TreeMap: boolean $assertionsDisabled>":[10],"sdaReg47":[12],"1085638584":[2],"sdaReg41":[0],"sdaReg40":[0],"sdaReg43":[0],"sdaReg42":[0],"1083970648":[0, 4],"1093301176":[0, 1],"static.<java.util.TreeMap: java.util.Comparator NATURAL_ORDER>":[0, 4],"1085752200.arrayIdx_int:3":[7],"sdaReg39":[0],"1099705112":[0],"sdaReg34":[11],"sdaReg33":[11],"sdaReg8":[3],"sdaReg9":[1],"sdaReg6":[0],"sdaReg7":[1],"sdaReg4":[1],"sdaReg5":[2],"1099725312.<java.util.TreeMap$Node: java.util.TreeMap$Node parent>":[0],"static.<java.util.TreeMap$Relation: java.util.TreeMap$Relation CREATE>":[3],"1099705064":[0],"1099705064.<java.util.TreeMap: int size>":[0],"sdaReg26":[0],"1099705064.<java.util.TreeMap: int modCount>":[0],"sdaReg28":[0],"1096113768":[1],"sdaReg3":[0],"sdaReg2":[2],"sdaReg1":[1],"sdaReg21":[9],"sdaReg0":[0],"sdaReg23":[0],"sdaReg22":[9],"sdaReg25":[0],"sdaReg24":[0]},"colorToColor":{"0":[0, 1, 5, 6, 9],"1":[1, 5, 6, 9],"2":[9],"9":[0],"11":[0],"12":[0],"13":[0]},"colorToLabel":{"0":"this","1":"arg#1","2":"<java.lang.Boolean: java.lang.Boolean TRUE>","3":"<java.util.TreeMap$Relation: java.util.TreeMap$Relation CREATE>","4":"<java.util.TreeMap: java.util.Comparator NATURAL_ORDER>","7":"<java.util.TreeMap$2: int[] $SwitchMap$java$util$TreeMap$Relation>","10":"<java.util.TreeMap: boolean $assertionsDisabled>","14":"return"}}}

Generated Model
	this->arg#1
	arg#1->this

