Scanning method <java.util.TreeSet: boolean add(java.lang.Object)>

All seen event types: SimpleAssignmentRecord, LoadInstanceRecord, MethodStartRecord, IfRecord, NewObjectRecord, StoreInstanceRecord, LoadStaticRecord, BinaryOperationRecord, MethodCallRecord, MethodReturnRecord, SwitchRecord, CastRecord, LoadArrayRecord, MethodEndRecord, 
Ignored event types: SwitchRecord, IfRecord, 

JSON Encoded Analysis Data (for visualization):{"heapEdges":[{"step":0,"from":"1094676392","to":"1093233072","type":"load","field":"<java.util.TreeSet: java.util.NavigableMap backingMap>"},{"step":1,"from":"static.<java.lang.Boolean: java.lang.Boolean TRUE>","to":"1085638584","type":"load","field":"<java.lang.Boolean: java.lang.Boolean TRUE>"},{"step":2,"from":"static.<java.util.TreeMap$Relation: java.util.TreeMap$Relation CREATE>","to":"1085707192","type":"load","field":"<java.util.TreeMap$Relation: java.util.TreeMap$Relation CREATE>"},{"step":3,"from":"1093233072","to":"1096265440","type":"load","field":"<java.util.TreeMap: java.util.TreeMap$Node root>"},{"step":4,"from":"1093233072","to":"1083970648","type":"load","field":"<java.util.TreeMap: java.util.Comparator comparator>"},{"step":5,"from":"static.<java.util.TreeMap: java.util.Comparator NATURAL_ORDER>","to":"1083970648","type":"load","field":"<java.util.TreeMap: java.util.Comparator NATURAL_ORDER>"},{"step":6,"from":"1093233072","to":"1096265440","type":"load","field":"<java.util.TreeMap: java.util.TreeMap$Node root>"},{"step":7,"from":"1096265440","to":"1093351976","type":"load","field":"<java.util.TreeMap$Node: java.lang.Object key>"},{"step":8,"from":"1093370496","to":"1093351976","type":"model"},{"step":9,"from":"1093370496","to":"sdaReg11","type":"model"},{"step":10,"from":"1093351976","to":"1093370496","type":"model"},{"step":11,"from":"1093351976","to":"sdaReg11","type":"model"},{"step":12,"from":"1096265440","to":"1094845544","type":"load","field":"<java.util.TreeMap$Node: java.util.TreeMap$Node right>"},{"step":13,"from":"1094845544","to":"1093349608","type":"load","field":"<java.util.TreeMap$Node: java.lang.Object key>"},{"step":14,"from":"1093370496","to":"1093349608","type":"model"},{"step":15,"from":"1093370496","to":"sdaReg14","type":"model"},{"step":16,"from":"1093349608","to":"1093370496","type":"model"},{"step":17,"from":"1093349608","to":"sdaReg14","type":"model"},{"step":18,"from":"1094845544","to":"1096549800","type":"load","field":"<java.util.TreeMap$Node: java.util.TreeMap$Node right>"},{"step":19,"from":"1096549800","to":"1093256176","type":"load","field":"<java.util.TreeMap$Node: java.lang.Object key>"},{"step":20,"from":"1093370496","to":"1093256176","type":"model"},{"step":21,"from":"1093370496","to":"sdaReg15","type":"model"},{"step":22,"from":"1093256176","to":"1093370496","type":"model"},{"step":23,"from":"1093256176","to":"sdaReg15","type":"model"},{"step":24,"from":"1096549800","to":"1094259416","type":"load","field":"<java.util.TreeMap$Node: java.util.TreeMap$Node right>"},{"step":25,"from":"1094259416","to":"1093427368","type":"load","field":"<java.util.TreeMap$Node: java.lang.Object key>"},{"step":26,"from":"1093370496","to":"1093427368","type":"model"},{"step":27,"from":"1093370496","to":"sdaReg16","type":"model"},{"step":28,"from":"1093427368","to":"1093370496","type":"model"},{"step":29,"from":"1093427368","to":"sdaReg16","type":"model"},{"step":30,"from":"1094259416","to":"1094410752","type":"load","field":"<java.util.TreeMap$Node: java.util.TreeMap$Node right>"},{"step":31,"from":"1094410752","to":"1093292720","type":"load","field":"<java.util.TreeMap$Node: java.lang.Object key>"},{"step":32,"from":"1093370496","to":"1093292720","type":"model"},{"step":33,"from":"1093370496","to":"sdaReg17","type":"model"},{"step":34,"from":"1093292720","to":"1093370496","type":"model"},{"step":35,"from":"1093292720","to":"sdaReg17","type":"model"},{"step":36,"from":"1094410752","to":"1094410832","type":"load","field":"<java.util.TreeMap$Node: java.util.TreeMap$Node right>"},{"step":37,"from":"1094410832","to":"1093355232","type":"load","field":"<java.util.TreeMap$Node: java.lang.Object key>"},{"step":38,"from":"1093370496","to":"1093355232","type":"model"},{"step":39,"from":"1093370496","to":"sdaReg18","type":"model"},{"step":40,"from":"1093355232","to":"1093370496","type":"model"},{"step":41,"from":"1093355232","to":"sdaReg18","type":"model"},{"step":42,"from":"1094410832","to":"1094410872","type":"load","field":"<java.util.TreeMap$Node: java.util.TreeMap$Node right>"},{"step":43,"from":"1094410872","to":"1093363904","type":"load","field":"<java.util.TreeMap$Node: java.lang.Object key>"},{"step":44,"from":"1093370496","to":"1093363904","type":"model"},{"step":45,"from":"1093370496","to":"sdaReg19","type":"model"},{"step":46,"from":"1093363904","to":"1093370496","type":"model"},{"step":47,"from":"1093363904","to":"sdaReg19","type":"model"},{"step":48,"from":"static.<java.util.TreeMap$2: int[] $SwitchMap$java$util$TreeMap$Relation>","to":"1085752200","type":"load","field":"<java.util.TreeMap$2: int[] $SwitchMap$java$util$TreeMap$Relation>"},{"step":49,"from":"1085707192","to":"sdaReg20","type":"model"},{"step":50,"from":"1085752200","to":"1085752200.arrayIdx_int:3","type":"load","field":"arrayIdx_int:3"},{"step":51,"from":"1094410872","to":"1094410912","type":"store","field":"<java.util.TreeMap$Node: java.util.TreeMap$Node parent>"},{"step":52,"from":"1093370496","to":"1094410912","type":"store","field":"<java.util.TreeMap$Node: java.lang.Object key>"},{"step":53,"from":"1094410912","to":"sdaReg25","type":"create","field":"<java.util.TreeMap$Node: int height>"},{"step":54,"from":"1094410872","to":"1094410912","type":"create","field":"<java.util.TreeMap$Node: java.util.TreeMap$Node right>"},{"step":55,"from":"1093233072","to":"1093233072.<java.util.TreeMap: int size>","type":"load","field":"<java.util.TreeMap: int size>"},{"step":56,"from":"sdaReg28","to":"1093233072","type":"store","field":"<java.util.TreeMap: int size>"},{"step":57,"from":"1093233072","to":"1093233072.<java.util.TreeMap: int modCount>","type":"load","field":"<java.util.TreeMap: int modCount>"},{"step":58,"from":"sdaReg29","to":"1093233072","type":"store","field":"<java.util.TreeMap: int modCount>"},{"step":59,"from":"static.<java.util.TreeMap: boolean $assertionsDisabled>","to":"static.<java.util.TreeMap: boolean $assertionsDisabled>","type":"load","field":"<java.util.TreeMap: boolean $assertionsDisabled>"},{"step":60,"from":"sdaReg35","to":"sdaReg36","type":"model"},{"step":61,"from":"sdaReg35","to":"sdaReg38","type":"model"},{"step":62,"from":"sdaReg36","to":"sdaReg35","type":"model"},{"step":63,"from":"sdaReg36","to":"sdaReg38","type":"model"},{"step":64,"from":"sdaReg39","to":"1094410872","type":"store","field":"<java.util.TreeMap$Node: int height>"},{"step":65,"from":"1094410872","to":"1094410832","type":"load","field":"<java.util.TreeMap$Node: java.util.TreeMap$Node parent>"},{"step":66,"from":"1094410832","to":"1094410792","type":"load","field":"<java.util.TreeMap$Node: java.util.TreeMap$Node left>"},{"step":67,"from":"1094410832","to":"1094410872","type":"load","field":"<java.util.TreeMap$Node: java.util.TreeMap$Node right>"},{"step":68,"from":"1094410792","to":"1094410792.<java.util.TreeMap$Node: int height>","type":"load","field":"<java.util.TreeMap$Node: int height>"},{"step":69,"from":"static.<java.util.TreeMap: boolean $assertionsDisabled>","to":"static.<java.util.TreeMap: boolean $assertionsDisabled>","type":"load","field":"<java.util.TreeMap: boolean $assertionsDisabled>"},{"step":70,"from":"sdaReg35","to":"sdaReg36","type":"model"},{"step":71,"from":"sdaReg35","to":"sdaReg40","type":"model"},{"step":72,"from":"sdaReg36","to":"sdaReg35","type":"model"},{"step":73,"from":"sdaReg36","to":"sdaReg40","type":"model"},{"step":74,"from":"sdaReg39","to":"1094410832","type":"store","field":"<java.util.TreeMap$Node: int height>"},{"step":75,"from":"1094410832","to":"1094410752","type":"load","field":"<java.util.TreeMap$Node: java.util.TreeMap$Node parent>"},{"step":76,"from":"1094410752","to":"1094259496","type":"load","field":"<java.util.TreeMap$Node: java.util.TreeMap$Node left>"},{"step":77,"from":"1094410752","to":"1094410832","type":"load","field":"<java.util.TreeMap$Node: java.util.TreeMap$Node right>"},{"step":78,"from":"1094259496","to":"1094259496.<java.util.TreeMap$Node: int height>","type":"load","field":"<java.util.TreeMap$Node: int height>"},{"step":79,"from":"static.<java.util.TreeMap: boolean $assertionsDisabled>","to":"static.<java.util.TreeMap: boolean $assertionsDisabled>","type":"load","field":"<java.util.TreeMap: boolean $assertionsDisabled>"},{"step":80,"from":"sdaReg35","to":"sdaReg36","type":"model"},{"step":81,"from":"sdaReg35","to":"sdaReg41","type":"model"},{"step":82,"from":"sdaReg36","to":"sdaReg35","type":"model"},{"step":83,"from":"sdaReg36","to":"sdaReg41","type":"model"},{"step":84,"from":"sdaReg39","to":"1094410752","type":"store","field":"<java.util.TreeMap$Node: int height>"},{"step":85,"from":"1094410752","to":"1094259416","type":"load","field":"<java.util.TreeMap$Node: java.util.TreeMap$Node parent>"},{"step":86,"from":"1094259416","to":"1093627240","type":"load","field":"<java.util.TreeMap$Node: java.util.TreeMap$Node left>"},{"step":87,"from":"1094259416","to":"1094410752","type":"load","field":"<java.util.TreeMap$Node: java.util.TreeMap$Node right>"},{"step":88,"from":"1093627240","to":"1093627240.<java.util.TreeMap$Node: int height>","type":"load","field":"<java.util.TreeMap$Node: int height>"},{"step":89,"from":"static.<java.util.TreeMap: boolean $assertionsDisabled>","to":"static.<java.util.TreeMap: boolean $assertionsDisabled>","type":"load","field":"<java.util.TreeMap: boolean $assertionsDisabled>"},{"step":90,"from":"sdaReg35","to":"sdaReg36","type":"model"},{"step":91,"from":"sdaReg35","to":"sdaReg42","type":"model"},{"step":92,"from":"sdaReg36","to":"sdaReg35","type":"model"},{"step":93,"from":"sdaReg36","to":"sdaReg42","type":"model"},{"step":94,"from":"sdaReg39","to":"1094259416","type":"store","field":"<java.util.TreeMap$Node: int height>"},{"step":95,"from":"1094259416","to":"1096549800","type":"load","field":"<java.util.TreeMap$Node: java.util.TreeMap$Node parent>"},{"step":96,"from":"1096549800","to":"1096549640","type":"load","field":"<java.util.TreeMap$Node: java.util.TreeMap$Node left>"},{"step":97,"from":"1096549800","to":"1094259416","type":"load","field":"<java.util.TreeMap$Node: java.util.TreeMap$Node right>"},{"step":98,"from":"1096549640","to":"1096549640.<java.util.TreeMap$Node: int height>","type":"load","field":"<java.util.TreeMap$Node: int height>"},{"step":99,"from":"1094259416","to":"1093627240","type":"load","field":"<java.util.TreeMap$Node: java.util.TreeMap$Node left>"},{"step":100,"from":"1094259416","to":"1094410752","type":"load","field":"<java.util.TreeMap$Node: java.util.TreeMap$Node right>"},{"step":101,"from":"1093627240","to":"1093627240.<java.util.TreeMap$Node: int height>","type":"load","field":"<java.util.TreeMap$Node: int height>"},{"step":102,"from":"1096549800","to":"1096549640","type":"load","field":"<java.util.TreeMap$Node: java.util.TreeMap$Node left>"},{"step":103,"from":"1096549800","to":"1094259416","type":"load","field":"<java.util.TreeMap$Node: java.util.TreeMap$Node right>"},{"step":104,"from":"1094259416","to":"1093627240","type":"load","field":"<java.util.TreeMap$Node: java.util.TreeMap$Node left>"},{"step":105,"from":"1094259416","to":"1094410752","type":"load","field":"<java.util.TreeMap$Node: java.util.TreeMap$Node right>"},{"step":106,"from":"1093627240","to":"1096549800","type":"store","field":"<java.util.TreeMap$Node: java.util.TreeMap$Node right>"},{"step":107,"from":"1096549800","to":"1093627240","type":"store","field":"<java.util.TreeMap$Node: java.util.TreeMap$Node parent>"},{"step":108,"from":"1096549800","to":"1094845544","type":"load","field":"<java.util.TreeMap$Node: java.util.TreeMap$Node parent>"},{"step":109,"from":"1096549800","to":"sdaReg51","type":"create","field":"<java.util.TreeMap$Node: java.util.TreeMap$Node parent>"},{"step":110,"from":"1094845544","to":"1094259416","type":"store","field":"<java.util.TreeMap$Node: java.util.TreeMap$Node parent>"},{"step":111,"from":"1094845544","to":"1093944824","type":"load","field":"<java.util.TreeMap$Node: java.util.TreeMap$Node left>"},{"step":112,"from":"static.<java.util.TreeMap: boolean $assertionsDisabled>","to":"static.<java.util.TreeMap: boolean $assertionsDisabled>","type":"load","field":"<java.util.TreeMap: boolean $assertionsDisabled>"},{"step":113,"from":"1094259416","to":"1094845544","type":"store","field":"<java.util.TreeMap$Node: java.util.TreeMap$Node right>"},{"step":114,"from":"1096549800","to":"1094259416","type":"store","field":"<java.util.TreeMap$Node: java.util.TreeMap$Node left>"},{"step":115,"from":"1094259416","to":"1096549800","type":"store","field":"<java.util.TreeMap$Node: java.util.TreeMap$Node parent>"},{"step":116,"from":"1096549640","to":"1096549640.<java.util.TreeMap$Node: int height>","type":"load","field":"<java.util.TreeMap$Node: int height>"},{"step":117,"from":"1093627240","to":"1093627240.<java.util.TreeMap$Node: int height>","type":"load","field":"<java.util.TreeMap$Node: int height>"},{"step":118,"from":"1096549640.<java.util.TreeMap$Node: int height>","to":"1093627240.<java.util.TreeMap$Node: int height>","type":"model"},{"step":119,"from":"1096549640.<java.util.TreeMap$Node: int height>","to":"sdaReg52","type":"model"},{"step":120,"from":"1093627240.<java.util.TreeMap$Node: int height>","to":"1096549640.<java.util.TreeMap$Node: int height>","type":"model"},{"step":121,"from":"1093627240.<java.util.TreeMap$Node: int height>","to":"sdaReg52","type":"model"},{"step":122,"from":"sdaReg53","to":"1096549800","type":"store","field":"<java.util.TreeMap$Node: int height>"},{"step":123,"from":"sdaReg55","to":"1094259416","type":"store","field":"<java.util.TreeMap$Node: int height>"},{"step":124,"from":"1085638584","to":"1094410912","type":"store","field":"<java.util.TreeMap$Node: java.lang.Object value>"}],"parameters":[{"id":"1094676392","name":"this","klass":"java.util.TreeSet"},{"id":"1093370496","name":"arg#1","klass":"java.lang.Object"}],"returns":[{"id":"sdaReg59","name":"return","klass":"boolean"}],"colors":{"heapLocToColor":{"1093363904":[0, 1],"1094410832":[0],"1093349608":[0, 1],"1093233072.<java.util.TreeMap: int size>":[0],"sdaReg14":[1, 6],"sdaReg11":[1, 5],"sdaReg12":[1, 5, 6, 7, 8, 9, 10, 11],"1094410872.<java.util.TreeMap$Node: java.util.TreeMap$Node parent>":[0],"sdaReg10":[1],"sdaReg19":[1, 11],"1094259416":[0],"sdaReg17":[1, 9],"sdaReg18":[1, 10],"sdaReg15":[1, 7],"sdaReg16":[1, 8],"1094259496":[0],"1085752200":[12],"1093427368":[0, 1],"1093292720":[0, 1],"1093233072.<java.util.TreeMap: java.util.TreeMap$Node root>":[0],"static.<java.util.TreeMap: java.util.Comparator NATURAL_ORDER>":[0, 4],"1085752200.arrayIdx_int:3":[12],"1094410752":[0],"1093355232":[0, 1],"1094259416.<java.util.TreeMap$Node: java.util.TreeMap$Node right>":[0],"1096549800.<java.util.TreeMap$Node: java.util.TreeMap$Node left>":[0],"1094259496.<java.util.TreeMap$Node: int height>":[0],"1094259416.<java.util.TreeMap$Node: java.util.TreeMap$Node parent>":[0],"1096549640":[0],"1094410752.<java.util.TreeMap$Node: java.util.TreeMap$Node right>":[0],"1094410832.<java.util.TreeMap$Node: java.util.TreeMap$Node right>":[0],"1094410912":[14],"1094410872":[0],"1094845544":[0],"static.<java.lang.Boolean: java.lang.Boolean TRUE>":[2],"1085707192":[3],"sdaReg56":[14],"sdaReg55":[21],"sdaReg54":[21],"1096549800.<java.util.TreeMap$Node: java.util.TreeMap$Node parent>":[0],"sdaReg53":[20],"sdaReg52":[20],"sdaReg50":[0],"1093233072":[0],"static.<java.util.TreeMap$2: int[] $SwitchMap$java$util$TreeMap$Relation>":[12],"1094410752.<java.util.TreeMap$Node: java.util.TreeMap$Node parent>":[0],"1094410832.<java.util.TreeMap$Node: java.util.TreeMap$Node parent>":[0],"sdaReg49":[0],"sdaReg48":[0],"static.<java.util.TreeMap: boolean $assertionsDisabled>":[15],"sdaReg45":[0],"sdaReg44":[0],"1085638584":[2],"sdaReg47":[0],"sdaReg46":[0],"sdaReg41":[18],"sdaReg40":[17],"1083970648":[0, 4],"1093351976":[0, 1],"sdaReg42":[19],"1094410792.<java.util.TreeMap$Node: int height>":[0],"1094410792":[0],"1096549800":[0],"1093627240":[0],"1096549800.<java.util.TreeMap$Node: java.util.TreeMap$Node right>":[0],"1094676392":[0],"1093627240.<java.util.TreeMap$Node: int height>":[0],"sdaReg39":[17, 16, 19, 18],"sdaReg38":[16],"sdaReg37":[0],"1096549640.<java.util.TreeMap$Node: int height>":[0],"sdaReg31":[0],"sdaReg30":[0],"sdaReg35":[0],"sdaReg33":[0],"sdaReg8":[3],"1096265440":[0],"sdaReg9":[1],"sdaReg6":[0],"sdaReg7":[1],"sdaReg4":[1],"sdaReg5":[2],"static.<java.util.TreeMap$Relation: java.util.TreeMap$Relation CREATE>":[3],"1093233072.<java.util.TreeMap: int modCount>":[0],"sdaReg27":[14],"sdaReg26":[14],"1093256176":[0, 1],"sdaReg29":[0],"sdaReg28":[0],"1093370496":[1],"1094259416.<java.util.TreeMap$Node: java.util.TreeMap$Node left>":[0],"1093944824":[0],"sdaReg3":[0],"sdaReg2":[2],"sdaReg21":[14],"sdaReg1":[1],"sdaReg20":[3, 13],"sdaReg0":[0],"sdaReg23":[1],"sdaReg22":[0],"sdaReg24":[14]},"colorToColor":{"17":[0],"0":[0, 1, 5, 6, 7, 8, 9, 10, 11, 14, 17, 19, 18, 20],"16":[0],"1":[1, 5, 6, 7, 8, 9, 10, 11, 14],"2":[14],"19":[0],"18":[0],"21":[0],"20":[0],"14":[0]},"colorToLabel":{"0":"this","1":"arg#1","2":"<java.lang.Boolean: java.lang.Boolean TRUE>","3":"<java.util.TreeMap$Relation: java.util.TreeMap$Relation CREATE>","4":"<java.util.TreeMap: java.util.Comparator NATURAL_ORDER>","12":"<java.util.TreeMap$2: int[] $SwitchMap$java$util$TreeMap$Relation>","15":"<java.util.TreeMap: boolean $assertionsDisabled>","22":"return"}}}

Generated Model
	this->arg#1
	arg#1->this

