Scanning method <java.util.TreeSet: boolean add(java.lang.Object)>

All seen event types: SimpleAssignmentRecord, LoadInstanceRecord, MethodStartRecord, IfRecord, NewObjectRecord, StoreInstanceRecord, LoadStaticRecord, BinaryOperationRecord, MethodCallRecord, MethodReturnRecord, SwitchRecord, CastRecord, LoadArrayRecord, MethodEndRecord, 
Ignored event types: SwitchRecord, IfRecord, 

JSON Encoded Analysis Data (for visualization):{"heapEdges":[{"step":0,"from":"1094676392","to":"1093233072","type":"load","field":"<java.util.TreeSet: java.util.NavigableMap backingMap>"},{"step":1,"from":"static.<java.lang.Boolean: java.lang.Boolean TRUE>","to":"1085638584","type":"load","field":"<java.lang.Boolean: java.lang.Boolean TRUE>"},{"step":2,"from":"static.<java.util.TreeMap$Relation: java.util.TreeMap$Relation CREATE>","to":"1085707192","type":"load","field":"<java.util.TreeMap$Relation: java.util.TreeMap$Relation CREATE>"},{"step":3,"from":"1093233072","to":"1096265440","type":"load","field":"<java.util.TreeMap: java.util.TreeMap$Node root>"},{"step":4,"from":"1093233072","to":"1083970648","type":"load","field":"<java.util.TreeMap: java.util.Comparator comparator>"},{"step":5,"from":"static.<java.util.TreeMap: java.util.Comparator NATURAL_ORDER>","to":"1083970648","type":"load","field":"<java.util.TreeMap: java.util.Comparator NATURAL_ORDER>"},{"step":6,"from":"1093233072","to":"1096265440","type":"load","field":"<java.util.TreeMap: java.util.TreeMap$Node root>"},{"step":7,"from":"1096265440","to":"1093351976","type":"load","field":"<java.util.TreeMap$Node: java.lang.Object key>"},{"step":8,"from":"1093492424","to":"1093351976","type":"model"},{"step":9,"from":"1093492424","to":"sdaReg11","type":"model"},{"step":10,"from":"1093351976","to":"1093492424","type":"model"},{"step":11,"from":"1093351976","to":"sdaReg11","type":"model"},{"step":12,"from":"1096265440","to":"1094845544","type":"load","field":"<java.util.TreeMap$Node: java.util.TreeMap$Node right>"},{"step":13,"from":"1094845544","to":"1093349608","type":"load","field":"<java.util.TreeMap$Node: java.lang.Object key>"},{"step":14,"from":"1093492424","to":"1093349608","type":"model"},{"step":15,"from":"1093492424","to":"sdaReg14","type":"model"},{"step":16,"from":"1093349608","to":"1093492424","type":"model"},{"step":17,"from":"1093349608","to":"sdaReg14","type":"model"},{"step":18,"from":"1094845544","to":"1094259416","type":"load","field":"<java.util.TreeMap$Node: java.util.TreeMap$Node right>"},{"step":19,"from":"1094259416","to":"1093427368","type":"load","field":"<java.util.TreeMap$Node: java.lang.Object key>"},{"step":20,"from":"1093492424","to":"1093427368","type":"model"},{"step":21,"from":"1093492424","to":"sdaReg15","type":"model"},{"step":22,"from":"1093427368","to":"1093492424","type":"model"},{"step":23,"from":"1093427368","to":"sdaReg15","type":"model"},{"step":24,"from":"1094259416","to":"1094410912","type":"load","field":"<java.util.TreeMap$Node: java.util.TreeMap$Node right>"},{"step":25,"from":"1094410912","to":"1093370496","type":"load","field":"<java.util.TreeMap$Node: java.lang.Object key>"},{"step":26,"from":"1093492424","to":"1093370496","type":"model"},{"step":27,"from":"1093492424","to":"sdaReg16","type":"model"},{"step":28,"from":"1093370496","to":"1093492424","type":"model"},{"step":29,"from":"1093370496","to":"sdaReg16","type":"model"},{"step":30,"from":"1094410912","to":"1093232360","type":"load","field":"<java.util.TreeMap$Node: java.util.TreeMap$Node right>"},{"step":31,"from":"1093232360","to":"1093383784","type":"load","field":"<java.util.TreeMap$Node: java.lang.Object key>"},{"step":32,"from":"1093492424","to":"1093383784","type":"model"},{"step":33,"from":"1093492424","to":"sdaReg17","type":"model"},{"step":34,"from":"1093383784","to":"1093492424","type":"model"},{"step":35,"from":"1093383784","to":"sdaReg17","type":"model"},{"step":36,"from":"1093232360","to":"1093232440","type":"load","field":"<java.util.TreeMap$Node: java.util.TreeMap$Node right>"},{"step":37,"from":"1093232440","to":"1093400864","type":"load","field":"<java.util.TreeMap$Node: java.lang.Object key>"},{"step":38,"from":"1093492424","to":"1093400864","type":"model"},{"step":39,"from":"1093492424","to":"sdaReg18","type":"model"},{"step":40,"from":"1093400864","to":"1093492424","type":"model"},{"step":41,"from":"1093400864","to":"sdaReg18","type":"model"},{"step":42,"from":"1093232440","to":"1093788712","type":"load","field":"<java.util.TreeMap$Node: java.util.TreeMap$Node right>"},{"step":43,"from":"1093788712","to":"1093425680","type":"load","field":"<java.util.TreeMap$Node: java.lang.Object key>"},{"step":44,"from":"1093492424","to":"1093425680","type":"model"},{"step":45,"from":"1093492424","to":"sdaReg19","type":"model"},{"step":46,"from":"1093425680","to":"1093492424","type":"model"},{"step":47,"from":"1093425680","to":"sdaReg19","type":"model"},{"step":48,"from":"static.<java.util.TreeMap$2: int[] $SwitchMap$java$util$TreeMap$Relation>","to":"1085752200","type":"load","field":"<java.util.TreeMap$2: int[] $SwitchMap$java$util$TreeMap$Relation>"},{"step":49,"from":"1085707192","to":"sdaReg20","type":"model"},{"step":50,"from":"1085752200","to":"1085752200.arrayIdx_int:3","type":"load","field":"arrayIdx_int:3"},{"step":51,"from":"1093788712","to":"1095979048","type":"store","field":"<java.util.TreeMap$Node: java.util.TreeMap$Node parent>"},{"step":52,"from":"1093492424","to":"1095979048","type":"store","field":"<java.util.TreeMap$Node: java.lang.Object key>"},{"step":53,"from":"1095979048","to":"sdaReg25","type":"create","field":"<java.util.TreeMap$Node: int height>"},{"step":54,"from":"1093788712","to":"1095979048","type":"create","field":"<java.util.TreeMap$Node: java.util.TreeMap$Node right>"},{"step":55,"from":"1093233072","to":"1093233072.<java.util.TreeMap: int size>","type":"load","field":"<java.util.TreeMap: int size>"},{"step":56,"from":"sdaReg28","to":"1093233072","type":"store","field":"<java.util.TreeMap: int size>"},{"step":57,"from":"1093233072","to":"1093233072.<java.util.TreeMap: int modCount>","type":"load","field":"<java.util.TreeMap: int modCount>"},{"step":58,"from":"sdaReg29","to":"1093233072","type":"store","field":"<java.util.TreeMap: int modCount>"},{"step":59,"from":"static.<java.util.TreeMap: boolean $assertionsDisabled>","to":"static.<java.util.TreeMap: boolean $assertionsDisabled>","type":"load","field":"<java.util.TreeMap: boolean $assertionsDisabled>"},{"step":60,"from":"sdaReg35","to":"sdaReg36","type":"model"},{"step":61,"from":"sdaReg35","to":"sdaReg38","type":"model"},{"step":62,"from":"sdaReg36","to":"sdaReg35","type":"model"},{"step":63,"from":"sdaReg36","to":"sdaReg38","type":"model"},{"step":64,"from":"sdaReg39","to":"1093788712","type":"store","field":"<java.util.TreeMap$Node: int height>"},{"step":65,"from":"1093788712","to":"1093232440","type":"load","field":"<java.util.TreeMap$Node: java.util.TreeMap$Node parent>"},{"step":66,"from":"1093232440","to":"1093232400","type":"load","field":"<java.util.TreeMap$Node: java.util.TreeMap$Node left>"},{"step":67,"from":"1093232440","to":"1093788712","type":"load","field":"<java.util.TreeMap$Node: java.util.TreeMap$Node right>"},{"step":68,"from":"1093232400","to":"1093232400.<java.util.TreeMap$Node: int height>","type":"load","field":"<java.util.TreeMap$Node: int height>"},{"step":69,"from":"static.<java.util.TreeMap: boolean $assertionsDisabled>","to":"static.<java.util.TreeMap: boolean $assertionsDisabled>","type":"load","field":"<java.util.TreeMap: boolean $assertionsDisabled>"},{"step":70,"from":"sdaReg35","to":"sdaReg36","type":"model"},{"step":71,"from":"sdaReg35","to":"sdaReg40","type":"model"},{"step":72,"from":"sdaReg36","to":"sdaReg35","type":"model"},{"step":73,"from":"sdaReg36","to":"sdaReg40","type":"model"},{"step":74,"from":"sdaReg39","to":"1093232440","type":"store","field":"<java.util.TreeMap$Node: int height>"},{"step":75,"from":"1093232440","to":"1093232360","type":"load","field":"<java.util.TreeMap$Node: java.util.TreeMap$Node parent>"},{"step":76,"from":"1093232360","to":"1093851088","type":"load","field":"<java.util.TreeMap$Node: java.util.TreeMap$Node left>"},{"step":77,"from":"1093232360","to":"1093232440","type":"load","field":"<java.util.TreeMap$Node: java.util.TreeMap$Node right>"},{"step":78,"from":"1093851088","to":"1093851088.<java.util.TreeMap$Node: int height>","type":"load","field":"<java.util.TreeMap$Node: int height>"},{"step":79,"from":"1093232440","to":"1093232400","type":"load","field":"<java.util.TreeMap$Node: java.util.TreeMap$Node left>"},{"step":80,"from":"1093232440","to":"1093788712","type":"load","field":"<java.util.TreeMap$Node: java.util.TreeMap$Node right>"},{"step":81,"from":"1093232400","to":"1093232400.<java.util.TreeMap$Node: int height>","type":"load","field":"<java.util.TreeMap$Node: int height>"},{"step":82,"from":"1093232360","to":"1093851088","type":"load","field":"<java.util.TreeMap$Node: java.util.TreeMap$Node left>"},{"step":83,"from":"1093232360","to":"1093232440","type":"load","field":"<java.util.TreeMap$Node: java.util.TreeMap$Node right>"},{"step":84,"from":"1093232440","to":"1093232400","type":"load","field":"<java.util.TreeMap$Node: java.util.TreeMap$Node left>"},{"step":85,"from":"1093232440","to":"1093788712","type":"load","field":"<java.util.TreeMap$Node: java.util.TreeMap$Node right>"},{"step":86,"from":"1093232400","to":"1093232360","type":"store","field":"<java.util.TreeMap$Node: java.util.TreeMap$Node right>"},{"step":87,"from":"1093232360","to":"1093232400","type":"store","field":"<java.util.TreeMap$Node: java.util.TreeMap$Node parent>"},{"step":88,"from":"1093232360","to":"1094410912","type":"load","field":"<java.util.TreeMap$Node: java.util.TreeMap$Node parent>"},{"step":89,"from":"1093232360","to":"sdaReg49","type":"create","field":"<java.util.TreeMap$Node: java.util.TreeMap$Node parent>"},{"step":90,"from":"1094410912","to":"1093232440","type":"store","field":"<java.util.TreeMap$Node: java.util.TreeMap$Node parent>"},{"step":91,"from":"1094410912","to":"1094410752","type":"load","field":"<java.util.TreeMap$Node: java.util.TreeMap$Node left>"},{"step":92,"from":"static.<java.util.TreeMap: boolean $assertionsDisabled>","to":"static.<java.util.TreeMap: boolean $assertionsDisabled>","type":"load","field":"<java.util.TreeMap: boolean $assertionsDisabled>"},{"step":93,"from":"1093232440","to":"1094410912","type":"store","field":"<java.util.TreeMap$Node: java.util.TreeMap$Node right>"},{"step":94,"from":"1093232360","to":"1093232440","type":"store","field":"<java.util.TreeMap$Node: java.util.TreeMap$Node left>"},{"step":95,"from":"1093232440","to":"1093232360","type":"store","field":"<java.util.TreeMap$Node: java.util.TreeMap$Node parent>"},{"step":96,"from":"1093851088","to":"1093851088.<java.util.TreeMap$Node: int height>","type":"load","field":"<java.util.TreeMap$Node: int height>"},{"step":97,"from":"1093232400","to":"1093232400.<java.util.TreeMap$Node: int height>","type":"load","field":"<java.util.TreeMap$Node: int height>"},{"step":98,"from":"1093851088.<java.util.TreeMap$Node: int height>","to":"1093232400.<java.util.TreeMap$Node: int height>","type":"model"},{"step":99,"from":"1093851088.<java.util.TreeMap$Node: int height>","to":"sdaReg50","type":"model"},{"step":100,"from":"1093232400.<java.util.TreeMap$Node: int height>","to":"1093851088.<java.util.TreeMap$Node: int height>","type":"model"},{"step":101,"from":"1093232400.<java.util.TreeMap$Node: int height>","to":"sdaReg50","type":"model"},{"step":102,"from":"sdaReg51","to":"1093232360","type":"store","field":"<java.util.TreeMap$Node: int height>"},{"step":103,"from":"sdaReg53","to":"1093232440","type":"store","field":"<java.util.TreeMap$Node: int height>"},{"step":104,"from":"1085638584","to":"1095979048","type":"store","field":"<java.util.TreeMap$Node: java.lang.Object value>"}],"parameters":[{"id":"1094676392","name":"this","klass":"java.util.TreeSet"},{"id":"1093492424","name":"arg#1","klass":"java.lang.Object"}],"returns":[{"id":"sdaReg57","name":"return","klass":"boolean"}],"colors":{"heapLocToColor":{"1093788712.<java.util.TreeMap$Node: java.util.TreeMap$Node parent>":[0],"1093349608":[0, 1],"1094410912":[0],"1094845544":[0],"1093233072.<java.util.TreeMap: int size>":[0],"sdaReg14":[1, 6],"sdaReg11":[1, 5],"sdaReg12":[1, 5, 6, 7, 8, 9, 10, 11],"sdaReg10":[1],"1093232360":[0],"static.<java.lang.Boolean: java.lang.Boolean TRUE>":[2],"1093400864":[0, 1],"1085707192":[3],"1094259416":[0],"sdaReg19":[1, 11],"sdaReg54":[14],"sdaReg17":[1, 9],"sdaReg53":[19],"sdaReg18":[1, 10],"sdaReg52":[19],"1093851088.<java.util.TreeMap$Node: int height>":[0],"sdaReg15":[1, 7],"sdaReg51":[18],"sdaReg16":[1, 8],"1093383784":[0, 1],"1093232440.<java.util.TreeMap$Node: java.util.TreeMap$Node parent>":[0],"sdaReg50":[18],"1085752200":[12],"1093233072":[0],"static.<java.util.TreeMap$2: int[] $SwitchMap$java$util$TreeMap$Relation>":[12],"1093425680":[0, 1],"sdaReg48":[0],"1093427368":[0, 1],"static.<java.util.TreeMap: boolean $assertionsDisabled>":[15],"sdaReg45":[0],"sdaReg44":[0],"sdaReg47":[0],"1085638584":[2],"sdaReg46":[0],"sdaReg40":[17],"sdaReg43":[0],"1093851088":[0],"1093232400.<java.util.TreeMap$Node: int height>":[0],"sdaReg42":[0],"1093351976":[0, 1],"1083970648":[0, 4],"1093233072.<java.util.TreeMap: java.util.TreeMap$Node root>":[0],"1093232400":[0],"static.<java.util.TreeMap: java.util.Comparator NATURAL_ORDER>":[0, 4],"1093232440":[0],"1094676392":[0],"1085752200.arrayIdx_int:3":[12],"sdaReg39":[17, 16],"1093232360.<java.util.TreeMap$Node: java.util.TreeMap$Node right>":[0],"1093232440.<java.util.TreeMap$Node: java.util.TreeMap$Node right>":[0],"sdaReg38":[16],"sdaReg37":[0],"1094410752":[0],"1093232360.<java.util.TreeMap$Node: java.util.TreeMap$Node left>":[0],"1093232360.<java.util.TreeMap$Node: java.util.TreeMap$Node parent>":[0],"sdaReg31":[0],"sdaReg30":[0],"1095979048":[14],"sdaReg35":[0],"1093788712":[0],"sdaReg33":[0],"1093492424":[1],"1096265440":[0],"sdaReg8":[3],"sdaReg9":[1],"sdaReg6":[0],"sdaReg7":[1],"sdaReg4":[1],"sdaReg5":[2],"static.<java.util.TreeMap$Relation: java.util.TreeMap$Relation CREATE>":[3],"1093233072.<java.util.TreeMap: int modCount>":[0],"sdaReg27":[14],"sdaReg26":[14],"sdaReg29":[0],"sdaReg28":[0],"1093370496":[0, 1],"sdaReg3":[0],"sdaReg2":[2],"sdaReg1":[1],"sdaReg21":[14],"sdaReg0":[0],"sdaReg20":[3, 13],"sdaReg23":[1],"1093232440.<java.util.TreeMap$Node: java.util.TreeMap$Node left>":[0],"sdaReg22":[0],"sdaReg24":[14]},"colorToColor":{"17":[0],"0":[17, 0, 1, 18, 5, 6, 7, 8, 9, 10, 11, 14],"16":[0],"1":[1, 5, 6, 7, 8, 9, 10, 11, 14],"2":[14],"19":[0],"18":[0],"14":[0]},"colorToLabel":{"0":"this","1":"arg#1","2":"<java.lang.Boolean: java.lang.Boolean TRUE>","3":"<java.util.TreeMap$Relation: java.util.TreeMap$Relation CREATE>","4":"<java.util.TreeMap: java.util.Comparator NATURAL_ORDER>","12":"<java.util.TreeMap$2: int[] $SwitchMap$java$util$TreeMap$Relation>","15":"<java.util.TreeMap: boolean $assertionsDisabled>","20":"return"}}}

Generated Model
	this->arg#1
	arg#1->this

