Scanning method <java.io.CharArrayWriter: void write(char[],int,int)>

All seen event types: BinaryOperationRecord, SimpleAssignmentRecord, ExitMonitorRecord, MethodReturnRecord, MethodCallRecord, EnterMonitorRecord, LoadInstanceRecord, MethodStartRecord, ArrayLengthRecord, MethodEndRecord, IfRecord, StoreInstanceRecord, 
Ignored event types: ExitMonitorRecord, EnterMonitorRecord, IfRecord, 

JSON Encoded Analysis Data (for visualization):{"heapEdges":[{"step":0,"from":"1093592816","to":"1093592840","type":"load","field":"<java.io.Writer: java.lang.Object lock>"},{"step":1,"from":"1093592816","to":"1093592816.<java.io.CharArrayWriter: int count>","type":"load","field":"<java.io.CharArrayWriter: int count>"},{"step":2,"from":"1093592816","to":"1093592840","type":"load","field":"<java.io.CharArrayWriter: char[] buf>"},{"step":3,"from":"1093592816","to":"1093592840","type":"load","field":"<java.io.CharArrayWriter: char[] buf>"},{"step":4,"from":"1093592816","to":"1093592816.<java.io.CharArrayWriter: int count>","type":"load","field":"<java.io.CharArrayWriter: int count>"},{"step":5,"from":"1093348944","to":"1093592840","type":"model"},{"step":6,"from":"1093592816","to":"1093592816.<java.io.CharArrayWriter: int count>","type":"load","field":"<java.io.CharArrayWriter: int count>"},{"step":7,"from":"sdaReg9","to":"1093592816","type":"store","field":"<java.io.CharArrayWriter: int count>"}],"parameters":[{"id":"1093592816","name":"this","klass":"java.io.CharArrayWriter"},{"id":"1093348944","name":"arg#1","klass":"char[]"},{"id":"sdaReg0","name":"arg#2","klass":"int"},{"id":"sdaReg1","name":"arg#3","klass":"int"}],"returns":[{"id":null,"name":"return","klass":null}],"colors":{"heapLocToColor":{"1093592816.<java.io.CharArrayWriter: char[] buf>":[0],"sdaReg9":[0, 3],"sdaReg6":[0],"sdaReg7":[0, 3],"1093592816":[0],"sdaReg4":[2],"1093592816.<java.io.CharArrayWriter: int count>":[0],"sdaReg3":[2, 3],"sdaReg1":[3],"sdaReg0":[2],"1093348944":[1],"1093592840":[0]},"colorToColor":{"0":[0],"1":[0],"3":[0]},"colorToLabel":{"0":"this","1":"arg#1","2":"arg#2","3":"arg#3","4":"return"}}}

Generated Model
	arg#3->this
	arg#1->this

