Scanning method <java.util.AbstractCollection: void <init>()>

All seen event types: MethodReturnRecord, MethodCallRecord, 
Ignored event types: 

JSON Encoded Analysis Data (for visualization):{"heapEdges":[],"parameters":[{"id":"1093542376","name":"this","klass":"java.util.AbstractCollection"}],"returns":[{"id":"1093542376","name":"return","klass":"java.util.AbstractCollection"}],"colors":{"heapLocToColor":{"1093542376":[0],"sdaReg0":[0]},"colorToColor":{"0":[1]},"colorToLabel":{"0":"this","1":"return"}}}

Generated Model
	this->return

