Scanning method <java.io.ObjectInputStream: java.lang.String formatClassSig(java.lang.String)>

All seen event types: SimpleAssignmentRecord, MethodReturnRecord, MethodCallRecord, IfRecord, 
Ignored event types: IfRecord, 

JSON Encoded Analysis Data (for visualization):{"heapEdges":[{"step":0,"from":"sdaReg0","to":"sdaReg1","type":"model"},{"step":1,"from":"sdaReg0","to":"sdaReg3","type":"model"},{"step":2,"from":"sdaReg1","to":"sdaReg0","type":"model"},{"step":3,"from":"sdaReg1","to":"sdaReg3","type":"model"}],"parameters":[{"id":"sdaReg0","name":"arg#0","klass":"string"}],"returns":[{"id":"sdaReg0","name":"return","klass":"string"}],"colors":{"heapLocToColor":{"sdaReg3":[0, 2],"sdaReg2":[1],"sdaReg1":[0],"sdaReg0":[0]},"colorToColor":{"0":[0, 2, 3]},"colorToLabel":{"0":"arg#0","3":"return"}}}

Generated Model
	arg#0->return

