Scanning method <android.os.Bundle: long getLong(java.lang.String)>

All seen event types: BinaryOperationRecord, MethodReturnRecord, MethodCallRecord, CastRecord, ArrayLengthRecord, LoadInstanceRecord, MethodStartRecord, LoadArrayRecord, MethodEndRecord, IfRecord, 
Ignored event types: IfRecord, 

JSON Encoded Analysis Data (for visualization):{"heapEdges":[{"step":0,"from":"1093935424","to":"1093711024","type":"load","field":"<android.os.Bundle: java.util.Map mMap>"},{"step":1,"from":"1093711024","to":"1094080944","type":"load","field":"<java.util.HashMap: java.util.HashMap$HashMapEntry[] table>"},{"step":2,"from":"1094080944","to":"1094080984","type":"load","field":"arrayIdx_int:2"},{"step":3,"from":"1094080984","to":"1093536264","type":"load","field":"<java.util.HashMap$HashMapEntry: java.lang.Object key>"},{"step":4,"from":"1094080984","to":"1094070808","type":"load","field":"<java.util.HashMap$HashMapEntry: java.lang.Object value>"},{"step":5,"from":"1094070808","to":"sdaReg20","type":"model"}],"parameters":[{"id":"1093935424","name":"this","klass":"android.os.Bundle"},{"id":"sdaReg0","name":"arg#1","klass":"string"}],"returns":[{"id":"sdaReg20","name":"return","klass":"long"}],"colors":{"heapLocToColor":{"1093711024":[0],"sdaReg8":[2],"sdaReg9":[2],"sdaReg6":[2],"sdaReg7":[2],"sdaReg4":[0],"sdaReg5":[0],"1093935424":[0],"1093536264":[0],"sdaReg13":[2],"sdaReg14":[2],"sdaReg11":[2],"sdaReg12":[2],"sdaReg10":[2],"sdaReg2":[0],"sdaReg19":[0],"sdaReg1":[0],"sdaReg20":[0, 3],"1094080984":[0],"sdaReg0":[1],"1094070808":[0],"sdaReg17":[2],"sdaReg18":[0],"1094080944":[0]},"colorToColor":{"0":[4],"3":[4]},"colorToLabel":{"0":"this","1":"arg#1","4":"return"}}}

Generated Model
	this->return

