Scanning method <java.io.FilterInputStream: void close()>

All seen event types: MethodReturnRecord, MethodCallRecord, MethodStartRecord, LoadInstanceRecord, MethodEndRecord, 
Ignored event types: 

JSON Encoded Analysis Data (for visualization):{"heapEdges":[{"step":0,"from":"1093443304","to":"1093467448","type":"load","field":"<java.io.FilterInputStream: java.io.InputStream in>"}],"parameters":[{"id":"1093443304","name":"this","klass":"java.io.FilterInputStream"}],"returns":[{"id":null,"name":"return","klass":null}],"colors":{"heapLocToColor":{"1093467448":[0],"1093443304":[0],"sdaReg0":[0]},"colorToColor":{},"colorToLabel":{"0":"this","1":"return"}}}

Generated Model

