Scanning method <java.io.DataOutputStream: void writeUTF(java.lang.String)>

All seen event types: LoadStaticRecord, NewArrayRecord, BinaryOperationRecord, StoreArrayRecord, SimpleAssignmentRecord, MethodReturnRecord, MethodCallRecord, CastRecord, MethodStartRecord, MethodEndRecord, IfRecord, 
Ignored event types: IfRecord, 

JSON Encoded Analysis Data (for visualization):{"heapEdges":[{"step":0,"from":"sdaReg0","to":"sdaReg5","type":"model"},{"step":1,"from":"sdaReg0","to":"sdaReg7","type":"model"},{"step":2,"from":"sdaReg0","to":"sdaReg8","type":"model"},{"step":3,"from":"sdaReg0","to":"sdaReg9","type":"model"},{"step":4,"from":"sdaReg0","to":"sdaReg10","type":"model"},{"step":5,"from":"sdaReg0","to":"sdaReg11","type":"model"},{"step":6,"from":"sdaReg0","to":"sdaReg12","type":"model"},{"step":7,"from":"sdaReg0","to":"sdaReg13","type":"model"},{"step":8,"from":"sdaReg0","to":"sdaReg14","type":"model"},{"step":9,"from":"sdaReg0","to":"sdaReg15","type":"model"},{"step":10,"from":"sdaReg0","to":"sdaReg16","type":"model"},{"step":11,"from":"sdaReg0","to":"sdaReg17","type":"model"},{"step":12,"from":"sdaReg0","to":"sdaReg18","type":"model"},{"step":13,"from":"sdaReg0","to":"sdaReg19","type":"model"},{"step":14,"from":"sdaReg0","to":"sdaReg20","type":"model"},{"step":15,"from":"sdaReg0","to":"sdaReg21","type":"model"},{"step":16,"from":"sdaReg0","to":"sdaReg22","type":"model"},{"step":17,"from":"sdaReg0","to":"sdaReg23","type":"model"},{"step":18,"from":"sdaReg0","to":"sdaReg24","type":"model"},{"step":19,"from":"sdaReg0","to":"sdaReg25","type":"model"},{"step":20,"from":"sdaReg0","to":"sdaReg26","type":"model"},{"step":21,"from":"sdaReg0","to":"sdaReg27","type":"model"},{"step":22,"from":"sdaReg0","to":"sdaReg28","type":"model"},{"step":23,"from":"sdaReg0","to":"sdaReg29","type":"model"},{"step":24,"from":"sdaReg0","to":"sdaReg30","type":"model"},{"step":25,"from":"static.<java.nio.ByteOrder: java.nio.ByteOrder BIG_ENDIAN>","to":"1084339448","type":"load","field":"<java.nio.ByteOrder: java.nio.ByteOrder BIG_ENDIAN>"},{"step":26,"from":"1093707520","to":"sdaReg33","type":"model"},{"step":27,"from":"1093707520","to":"1084339448","type":"model"},{"step":28,"from":"sdaReg33","to":"1093707520","type":"model"},{"step":29,"from":"sdaReg33","to":"1084339448","type":"model"},{"step":30,"from":"1084339448","to":"1093707520","type":"model"},{"step":31,"from":"1084339448","to":"sdaReg33","type":"model"},{"step":32,"from":"sdaReg0","to":"sdaReg38","type":"model"},{"step":33,"from":"sdaReg40","to":"1093707520","type":"store","field":"arrayIdx_int:2"},{"step":34,"from":"sdaReg0","to":"sdaReg41","type":"model"},{"step":35,"from":"sdaReg40","to":"1093707520","type":"store","field":"arrayIdx_int:3"},{"step":36,"from":"sdaReg0","to":"sdaReg42","type":"model"},{"step":37,"from":"sdaReg40","to":"1093707520","type":"store","field":"arrayIdx_int:4"},{"step":38,"from":"sdaReg0","to":"sdaReg43","type":"model"},{"step":39,"from":"sdaReg40","to":"1093707520","type":"store","field":"arrayIdx_int:5"},{"step":40,"from":"sdaReg0","to":"sdaReg44","type":"model"},{"step":41,"from":"sdaReg40","to":"1093707520","type":"store","field":"arrayIdx_int:6"},{"step":42,"from":"sdaReg0","to":"sdaReg45","type":"model"},{"step":43,"from":"sdaReg40","to":"1093707520","type":"store","field":"arrayIdx_int:7"},{"step":44,"from":"sdaReg0","to":"sdaReg46","type":"model"},{"step":45,"from":"sdaReg40","to":"1093707520","type":"store","field":"arrayIdx_int:8"},{"step":46,"from":"sdaReg0","to":"sdaReg47","type":"model"},{"step":47,"from":"sdaReg40","to":"1093707520","type":"store","field":"arrayIdx_int:9"},{"step":48,"from":"sdaReg0","to":"sdaReg48","type":"model"},{"step":49,"from":"sdaReg40","to":"1093707520","type":"store","field":"arrayIdx_int:10"},{"step":50,"from":"sdaReg0","to":"sdaReg49","type":"model"},{"step":51,"from":"sdaReg40","to":"1093707520","type":"store","field":"arrayIdx_int:11"},{"step":52,"from":"sdaReg0","to":"sdaReg50","type":"model"},{"step":53,"from":"sdaReg40","to":"1093707520","type":"store","field":"arrayIdx_int:12"},{"step":54,"from":"sdaReg0","to":"sdaReg51","type":"model"},{"step":55,"from":"sdaReg40","to":"1093707520","type":"store","field":"arrayIdx_int:13"},{"step":56,"from":"sdaReg0","to":"sdaReg52","type":"model"},{"step":57,"from":"sdaReg40","to":"1093707520","type":"store","field":"arrayIdx_int:14"},{"step":58,"from":"sdaReg0","to":"sdaReg53","type":"model"},{"step":59,"from":"sdaReg40","to":"1093707520","type":"store","field":"arrayIdx_int:15"},{"step":60,"from":"sdaReg0","to":"sdaReg54","type":"model"},{"step":61,"from":"sdaReg40","to":"1093707520","type":"store","field":"arrayIdx_int:16"},{"step":62,"from":"sdaReg0","to":"sdaReg55","type":"model"},{"step":63,"from":"sdaReg40","to":"1093707520","type":"store","field":"arrayIdx_int:17"},{"step":64,"from":"sdaReg0","to":"sdaReg56","type":"model"},{"step":65,"from":"sdaReg40","to":"1093707520","type":"store","field":"arrayIdx_int:18"},{"step":66,"from":"sdaReg0","to":"sdaReg57","type":"model"},{"step":67,"from":"sdaReg40","to":"1093707520","type":"store","field":"arrayIdx_int:19"},{"step":68,"from":"sdaReg0","to":"sdaReg58","type":"model"},{"step":69,"from":"sdaReg40","to":"1093707520","type":"store","field":"arrayIdx_int:20"},{"step":70,"from":"sdaReg0","to":"sdaReg59","type":"model"},{"step":71,"from":"sdaReg40","to":"1093707520","type":"store","field":"arrayIdx_int:21"},{"step":72,"from":"sdaReg0","to":"sdaReg60","type":"model"},{"step":73,"from":"sdaReg40","to":"1093707520","type":"store","field":"arrayIdx_int:22"},{"step":74,"from":"sdaReg0","to":"sdaReg61","type":"model"},{"step":75,"from":"sdaReg40","to":"1093707520","type":"store","field":"arrayIdx_int:23"},{"step":76,"from":"sdaReg0","to":"sdaReg62","type":"model"},{"step":77,"from":"sdaReg40","to":"1093707520","type":"store","field":"arrayIdx_int:24"},{"step":78,"from":"sdaReg0","to":"sdaReg63","type":"model"},{"step":79,"from":"sdaReg40","to":"1093707520","type":"store","field":"arrayIdx_int:25"},{"step":80,"from":"sdaReg0","to":"sdaReg64","type":"model"},{"step":81,"from":"sdaReg40","to":"1093707520","type":"store","field":"arrayIdx_int:26"},{"step":82,"from":"1093322016","to":"1093707520","type":"model"},{"step":83,"from":"1093707520","to":"1093322016","type":"model"}],"parameters":[{"id":"1093322016","name":"this","klass":"java.io.DataOutputStream"},{"id":"sdaReg0","name":"arg#1","klass":"string"}],"returns":[{"id":null,"name":"return","klass":null}],"colors":{"heapLocToColor":{"sdaReg60":[51, 1],"sdaReg61":[1, 52],"sdaReg64":[1, 55],"sdaReg65":[28],"sdaReg62":[1, 53],"sdaReg63":[1, 54],"sdaReg13":[1, 10],"sdaReg14":[1, 11],"sdaReg11":[1, 8],"sdaReg12":[1, 9],"sdaReg10":[1, 7],"sdaReg59":[1, 50],"sdaReg58":[1, 49],"sdaReg57":[1, 48],"sdaReg56":[1, 47],"sdaReg19":[1, 16],"sdaReg55":[1, 46],"sdaReg17":[1, 14],"static.<java.nio.ByteOrder: java.nio.ByteOrder BIG_ENDIAN>":[29],"sdaReg54":[1, 45],"sdaReg18":[1, 15],"sdaReg53":[1, 44],"sdaReg15":[1, 12],"sdaReg52":[1, 43],"sdaReg16":[1, 13],"sdaReg51":[1, 42],"sdaReg50":[1, 41],"sdaReg49":[1, 40],"sdaReg48":[1, 39],"sdaReg45":[1, 36],"sdaReg44":[1, 35],"sdaReg47":[1, 38],"sdaReg46":[1, 37],"sdaReg41":[1, 32],"sdaReg40":[1, 31, 34, 35, 32, 33, 38, 39, 36, 37, 42, 43, 40, 41, 46, 47, 44, 45, 51, 50, 49, 48, 55, 54, 53, 52],"sdaReg43":[34, 1],"sdaReg42":[1, 33],"1093322016":[0],"1093707520":[0, 28],"sdaReg38":[1, 31],"sdaReg30":[1, 27],"sdaReg36":[30],"sdaReg34":[28],"sdaReg8":[1, 5],"sdaReg9":[1, 6],"sdaReg7":[1, 4],"sdaReg5":[1, 3],"sdaReg27":[1, 24],"sdaReg26":[1, 23],"sdaReg29":[1, 26],"sdaReg28":[1, 25],"1084339448":[29],"sdaReg3":[2],"sdaReg21":[1, 18],"sdaReg20":[17, 1],"sdaReg0":[1],"sdaReg23":[1, 20],"sdaReg22":[1, 19],"sdaReg25":[1, 22],"sdaReg24":[1, 21]},"colorToColor":{"0":[0],"1":[28],"29":[28],"28":[0, 29],"31":[28],"34":[28],"35":[28],"32":[28],"33":[28],"38":[28],"39":[28],"36":[28],"37":[28],"42":[28],"43":[28],"40":[28],"41":[28],"46":[28],"47":[28],"44":[28],"45":[28],"51":[28],"50":[28],"49":[28],"48":[28],"55":[28],"54":[28],"53":[28],"52":[28]},"colorToLabel":{"0":"this","1":"arg#1","29":"<java.nio.ByteOrder: java.nio.ByteOrder BIG_ENDIAN>","56":"return"}}}

Generated Model
	arg#1->this
	arg#1-><java.nio.ByteOrder: java.nio.ByteOrder BIG_ENDIAN>

