Scanning method <java.io.DataOutputStream: void writeUTF(java.lang.String)>

All seen event types: LoadStaticRecord, NewArrayRecord, BinaryOperationRecord, StoreArrayRecord, SimpleAssignmentRecord, MethodReturnRecord, MethodCallRecord, CastRecord, MethodStartRecord, MethodEndRecord, IfRecord, 
Ignored event types: IfRecord, 

JSON Encoded Analysis Data (for visualization):{"heapEdges":[{"step":0,"from":"sdaReg0","to":"sdaReg5","type":"model"},{"step":1,"from":"sdaReg0","to":"sdaReg7","type":"model"},{"step":2,"from":"sdaReg0","to":"sdaReg8","type":"model"},{"step":3,"from":"sdaReg0","to":"sdaReg9","type":"model"},{"step":4,"from":"sdaReg0","to":"sdaReg10","type":"model"},{"step":5,"from":"sdaReg0","to":"sdaReg11","type":"model"},{"step":6,"from":"sdaReg0","to":"sdaReg12","type":"model"},{"step":7,"from":"sdaReg0","to":"sdaReg13","type":"model"},{"step":8,"from":"sdaReg0","to":"sdaReg14","type":"model"},{"step":9,"from":"sdaReg0","to":"sdaReg15","type":"model"},{"step":10,"from":"static.<java.nio.ByteOrder: java.nio.ByteOrder BIG_ENDIAN>","to":"1084339448","type":"load","field":"<java.nio.ByteOrder: java.nio.ByteOrder BIG_ENDIAN>"},{"step":11,"from":"1093702608","to":"sdaReg18","type":"model"},{"step":12,"from":"1093702608","to":"1084339448","type":"model"},{"step":13,"from":"sdaReg18","to":"1093702608","type":"model"},{"step":14,"from":"sdaReg18","to":"1084339448","type":"model"},{"step":15,"from":"1084339448","to":"1093702608","type":"model"},{"step":16,"from":"1084339448","to":"sdaReg18","type":"model"},{"step":17,"from":"sdaReg0","to":"sdaReg23","type":"model"},{"step":18,"from":"sdaReg25","to":"1093702608","type":"store","field":"arrayIdx_int:2"},{"step":19,"from":"sdaReg0","to":"sdaReg26","type":"model"},{"step":20,"from":"sdaReg25","to":"1093702608","type":"store","field":"arrayIdx_int:3"},{"step":21,"from":"sdaReg0","to":"sdaReg27","type":"model"},{"step":22,"from":"sdaReg25","to":"1093702608","type":"store","field":"arrayIdx_int:4"},{"step":23,"from":"sdaReg0","to":"sdaReg28","type":"model"},{"step":24,"from":"sdaReg25","to":"1093702608","type":"store","field":"arrayIdx_int:5"},{"step":25,"from":"sdaReg0","to":"sdaReg29","type":"model"},{"step":26,"from":"sdaReg25","to":"1093702608","type":"store","field":"arrayIdx_int:6"},{"step":27,"from":"sdaReg0","to":"sdaReg30","type":"model"},{"step":28,"from":"sdaReg25","to":"1093702608","type":"store","field":"arrayIdx_int:7"},{"step":29,"from":"sdaReg0","to":"sdaReg31","type":"model"},{"step":30,"from":"sdaReg25","to":"1093702608","type":"store","field":"arrayIdx_int:8"},{"step":31,"from":"sdaReg0","to":"sdaReg32","type":"model"},{"step":32,"from":"sdaReg25","to":"1093702608","type":"store","field":"arrayIdx_int:9"},{"step":33,"from":"sdaReg0","to":"sdaReg33","type":"model"},{"step":34,"from":"sdaReg25","to":"1093702608","type":"store","field":"arrayIdx_int:10"},{"step":35,"from":"sdaReg0","to":"sdaReg34","type":"model"},{"step":36,"from":"sdaReg25","to":"1093702608","type":"store","field":"arrayIdx_int:11"},{"step":37,"from":"1093702008","to":"1093702608","type":"model"},{"step":38,"from":"1093702608","to":"1093702008","type":"model"}],"parameters":[{"id":"1093702008","name":"this","klass":"java.io.DataOutputStream"},{"id":"sdaReg0","name":"arg#1","klass":"string"}],"returns":[{"id":null,"name":"return","klass":null}],"colors":{"heapLocToColor":{"sdaReg13":[1, 10],"sdaReg14":[1, 11],"sdaReg11":[1, 8],"sdaReg12":[1, 9],"sdaReg10":[1, 7],"sdaReg32":[1, 23],"sdaReg31":[1, 22],"sdaReg19":[13],"sdaReg30":[1, 21],"static.<java.nio.ByteOrder: java.nio.ByteOrder BIG_ENDIAN>":[14],"sdaReg35":[13],"sdaReg34":[1, 25],"sdaReg15":[1, 12],"sdaReg33":[1, 24],"sdaReg8":[1, 5],"sdaReg9":[1, 6],"sdaReg7":[1, 4],"sdaReg5":[1, 3],"1093702008":[0],"1093702608":[0, 13],"sdaReg27":[1, 18],"sdaReg26":[17, 1],"sdaReg29":[1, 20],"sdaReg28":[1, 19],"1084339448":[14],"sdaReg3":[2],"sdaReg21":[15],"sdaReg0":[1],"sdaReg23":[1, 16],"sdaReg25":[17, 16, 1, 19, 18, 21, 20, 23, 22, 25, 24]},"colorToColor":{"0":[0],"1":[13],"13":[0, 14],"14":[13],"17":[13],"16":[13],"19":[13],"18":[13],"21":[13],"20":[13],"23":[13],"22":[13],"25":[13],"24":[13]},"colorToLabel":{"0":"this","1":"arg#1","14":"<java.nio.ByteOrder: java.nio.ByteOrder BIG_ENDIAN>","26":"return"}}}

Generated Model
	arg#1->this
	arg#1-><java.nio.ByteOrder: java.nio.ByteOrder BIG_ENDIAN>

