Scanning method <java.io.DataOutputStream: void writeUTF(java.lang.String)>

All seen event types: LoadStaticRecord, NewArrayRecord, BinaryOperationRecord, StoreArrayRecord, SimpleAssignmentRecord, MethodReturnRecord, MethodCallRecord, CastRecord, MethodStartRecord, MethodEndRecord, IfRecord, 
Ignored event types: IfRecord, 

JSON Encoded Analysis Data (for visualization):{"heapEdges":[{"step":0,"from":"sdaReg0","to":"sdaReg5","type":"model"},{"step":1,"from":"sdaReg0","to":"sdaReg7","type":"model"},{"step":2,"from":"static.<java.nio.ByteOrder: java.nio.ByteOrder BIG_ENDIAN>","to":"1084339448","type":"load","field":"<java.nio.ByteOrder: java.nio.ByteOrder BIG_ENDIAN>"},{"step":3,"from":"1093410088","to":"sdaReg10","type":"model"},{"step":4,"from":"1093410088","to":"1084339448","type":"model"},{"step":5,"from":"sdaReg10","to":"1093410088","type":"model"},{"step":6,"from":"sdaReg10","to":"1084339448","type":"model"},{"step":7,"from":"1084339448","to":"1093410088","type":"model"},{"step":8,"from":"1084339448","to":"sdaReg10","type":"model"},{"step":9,"from":"sdaReg0","to":"sdaReg15","type":"model"},{"step":10,"from":"sdaReg17","to":"1093410088","type":"store","field":"arrayIdx_int:2"},{"step":11,"from":"sdaReg0","to":"sdaReg18","type":"model"},{"step":12,"from":"sdaReg17","to":"1093410088","type":"store","field":"arrayIdx_int:3"},{"step":13,"from":"1093647440","to":"1093410088","type":"model"},{"step":14,"from":"1093410088","to":"1093647440","type":"model"}],"parameters":[{"id":"1093647440","name":"this","klass":"java.io.DataOutputStream"},{"id":"sdaReg0","name":"arg#1","klass":"string"}],"returns":[{"id":null,"name":"return","klass":null}],"colors":{"heapLocToColor":{"1093647440":[0],"sdaReg7":[1, 4],"sdaReg5":[1, 3],"sdaReg13":[7],"sdaReg11":[5],"1093410088":[0, 5],"1084339448":[6],"sdaReg3":[2],"sdaReg19":[5],"sdaReg0":[1],"static.<java.nio.ByteOrder: java.nio.ByteOrder BIG_ENDIAN>":[6],"sdaReg17":[1, 8, 9],"sdaReg18":[1, 9],"sdaReg15":[1, 8]},"colorToColor":{"0":[0],"1":[5],"5":[0, 6],"6":[5],"8":[5],"9":[5]},"colorToLabel":{"0":"this","1":"arg#1","6":"<java.nio.ByteOrder: java.nio.ByteOrder BIG_ENDIAN>","10":"return"}}}

Generated Model
	arg#1->this
	arg#1-><java.nio.ByteOrder: java.nio.ByteOrder BIG_ENDIAN>

