Scanning method <java.io.DataOutputStream: void writeUTF(java.lang.String)>

All seen event types: LoadStaticRecord, NewArrayRecord, BinaryOperationRecord, StoreArrayRecord, SimpleAssignmentRecord, MethodReturnRecord, MethodCallRecord, CastRecord, MethodStartRecord, MethodEndRecord, IfRecord, 
Ignored event types: IfRecord, 

JSON Encoded Analysis Data (for visualization):{"heapEdges":[{"step":0,"from":"sdaReg0","to":"sdaReg5","type":"model"},{"step":1,"from":"sdaReg0","to":"sdaReg7","type":"model"},{"step":2,"from":"sdaReg0","to":"sdaReg8","type":"model"},{"step":3,"from":"sdaReg0","to":"sdaReg9","type":"model"},{"step":4,"from":"sdaReg0","to":"sdaReg10","type":"model"},{"step":5,"from":"sdaReg0","to":"sdaReg11","type":"model"},{"step":6,"from":"static.<java.nio.ByteOrder: java.nio.ByteOrder BIG_ENDIAN>","to":"1084339448","type":"load","field":"<java.nio.ByteOrder: java.nio.ByteOrder BIG_ENDIAN>"},{"step":7,"from":"1095580104","to":"sdaReg14","type":"model"},{"step":8,"from":"1095580104","to":"1084339448","type":"model"},{"step":9,"from":"sdaReg14","to":"1095580104","type":"model"},{"step":10,"from":"sdaReg14","to":"1084339448","type":"model"},{"step":11,"from":"1084339448","to":"1095580104","type":"model"},{"step":12,"from":"1084339448","to":"sdaReg14","type":"model"},{"step":13,"from":"sdaReg0","to":"sdaReg19","type":"model"},{"step":14,"from":"sdaReg21","to":"1095580104","type":"store","field":"arrayIdx_int:2"},{"step":15,"from":"sdaReg0","to":"sdaReg22","type":"model"},{"step":16,"from":"sdaReg21","to":"1095580104","type":"store","field":"arrayIdx_int:3"},{"step":17,"from":"sdaReg0","to":"sdaReg23","type":"model"},{"step":18,"from":"sdaReg21","to":"1095580104","type":"store","field":"arrayIdx_int:4"},{"step":19,"from":"sdaReg0","to":"sdaReg24","type":"model"},{"step":20,"from":"sdaReg21","to":"1095580104","type":"store","field":"arrayIdx_int:5"},{"step":21,"from":"sdaReg0","to":"sdaReg25","type":"model"},{"step":22,"from":"sdaReg21","to":"1095580104","type":"store","field":"arrayIdx_int:6"},{"step":23,"from":"sdaReg0","to":"sdaReg26","type":"model"},{"step":24,"from":"sdaReg21","to":"1095580104","type":"store","field":"arrayIdx_int:7"},{"step":25,"from":"1093361560","to":"1095580104","type":"model"},{"step":26,"from":"1095580104","to":"1093361560","type":"model"}],"parameters":[{"id":"1093361560","name":"this","klass":"java.io.DataOutputStream"},{"id":"sdaReg0","name":"arg#1","klass":"string"}],"returns":[{"id":null,"name":"return","klass":null}],"colors":{"heapLocToColor":{"sdaReg8":[1, 5],"sdaReg9":[1, 6],"sdaReg7":[1, 4],"1093361560":[0],"sdaReg5":[1, 3],"1095580104":[0, 9],"sdaReg27":[9],"sdaReg26":[17, 1],"sdaReg11":[1, 8],"sdaReg10":[1, 7],"1084339448":[10],"sdaReg3":[2],"sdaReg21":[17, 16, 1, 12, 13, 14, 15],"sdaReg19":[1, 12],"sdaReg0":[1],"sdaReg23":[1, 14],"sdaReg17":[11],"static.<java.nio.ByteOrder: java.nio.ByteOrder BIG_ENDIAN>":[10],"sdaReg22":[1, 13],"sdaReg25":[1, 16],"sdaReg15":[9],"sdaReg24":[1, 15]},"colorToColor":{"0":[0],"17":[9],"16":[9],"1":[9],"9":[0, 10],"10":[9],"12":[9],"13":[9],"14":[9],"15":[9]},"colorToLabel":{"0":"this","1":"arg#1","10":"<java.nio.ByteOrder: java.nio.ByteOrder BIG_ENDIAN>","18":"return"}}}

Generated Model
	arg#1->this
	arg#1-><java.nio.ByteOrder: java.nio.ByteOrder BIG_ENDIAN>

