Scanning method <java.io.DataOutputStream: void writeUTF(java.lang.String)>

All seen event types: LoadStaticRecord, NewArrayRecord, BinaryOperationRecord, StoreArrayRecord, SimpleAssignmentRecord, MethodReturnRecord, MethodCallRecord, CastRecord, MethodStartRecord, MethodEndRecord, IfRecord, 
Ignored event types: IfRecord, 

JSON Encoded Analysis Data (for visualization):{"heapEdges":[{"step":0,"from":"sdaReg0","to":"sdaReg5","type":"model"},{"step":1,"from":"sdaReg0","to":"sdaReg7","type":"model"},{"step":2,"from":"sdaReg0","to":"sdaReg8","type":"model"},{"step":3,"from":"sdaReg0","to":"sdaReg9","type":"model"},{"step":4,"from":"sdaReg0","to":"sdaReg10","type":"model"},{"step":5,"from":"sdaReg0","to":"sdaReg11","type":"model"},{"step":6,"from":"sdaReg0","to":"sdaReg12","type":"model"},{"step":7,"from":"sdaReg0","to":"sdaReg13","type":"model"},{"step":8,"from":"sdaReg0","to":"sdaReg14","type":"model"},{"step":9,"from":"sdaReg0","to":"sdaReg15","type":"model"},{"step":10,"from":"sdaReg0","to":"sdaReg16","type":"model"},{"step":11,"from":"sdaReg0","to":"sdaReg17","type":"model"},{"step":12,"from":"sdaReg0","to":"sdaReg18","type":"model"},{"step":13,"from":"sdaReg0","to":"sdaReg19","type":"model"},{"step":14,"from":"sdaReg0","to":"sdaReg20","type":"model"},{"step":15,"from":"sdaReg0","to":"sdaReg21","type":"model"},{"step":16,"from":"sdaReg0","to":"sdaReg22","type":"model"},{"step":17,"from":"sdaReg0","to":"sdaReg23","type":"model"},{"step":18,"from":"sdaReg0","to":"sdaReg24","type":"model"},{"step":19,"from":"sdaReg0","to":"sdaReg25","type":"model"},{"step":20,"from":"static.<java.nio.ByteOrder: java.nio.ByteOrder BIG_ENDIAN>","to":"1084339448","type":"load","field":"<java.nio.ByteOrder: java.nio.ByteOrder BIG_ENDIAN>"},{"step":21,"from":"1093406960","to":"sdaReg28","type":"model"},{"step":22,"from":"1093406960","to":"1084339448","type":"model"},{"step":23,"from":"sdaReg28","to":"1093406960","type":"model"},{"step":24,"from":"sdaReg28","to":"1084339448","type":"model"},{"step":25,"from":"1084339448","to":"1093406960","type":"model"},{"step":26,"from":"1084339448","to":"sdaReg28","type":"model"},{"step":27,"from":"sdaReg0","to":"sdaReg33","type":"model"},{"step":28,"from":"sdaReg35","to":"1093406960","type":"store","field":"arrayIdx_int:2"},{"step":29,"from":"sdaReg0","to":"sdaReg36","type":"model"},{"step":30,"from":"sdaReg35","to":"1093406960","type":"store","field":"arrayIdx_int:3"},{"step":31,"from":"sdaReg0","to":"sdaReg37","type":"model"},{"step":32,"from":"sdaReg35","to":"1093406960","type":"store","field":"arrayIdx_int:4"},{"step":33,"from":"sdaReg0","to":"sdaReg38","type":"model"},{"step":34,"from":"sdaReg35","to":"1093406960","type":"store","field":"arrayIdx_int:5"},{"step":35,"from":"sdaReg0","to":"sdaReg39","type":"model"},{"step":36,"from":"sdaReg35","to":"1093406960","type":"store","field":"arrayIdx_int:6"},{"step":37,"from":"sdaReg0","to":"sdaReg40","type":"model"},{"step":38,"from":"sdaReg35","to":"1093406960","type":"store","field":"arrayIdx_int:7"},{"step":39,"from":"sdaReg0","to":"sdaReg41","type":"model"},{"step":40,"from":"sdaReg35","to":"1093406960","type":"store","field":"arrayIdx_int:8"},{"step":41,"from":"sdaReg0","to":"sdaReg42","type":"model"},{"step":42,"from":"sdaReg35","to":"1093406960","type":"store","field":"arrayIdx_int:9"},{"step":43,"from":"sdaReg0","to":"sdaReg43","type":"model"},{"step":44,"from":"sdaReg35","to":"1093406960","type":"store","field":"arrayIdx_int:10"},{"step":45,"from":"sdaReg0","to":"sdaReg44","type":"model"},{"step":46,"from":"sdaReg35","to":"1093406960","type":"store","field":"arrayIdx_int:11"},{"step":47,"from":"sdaReg0","to":"sdaReg45","type":"model"},{"step":48,"from":"sdaReg35","to":"1093406960","type":"store","field":"arrayIdx_int:12"},{"step":49,"from":"sdaReg0","to":"sdaReg46","type":"model"},{"step":50,"from":"sdaReg35","to":"1093406960","type":"store","field":"arrayIdx_int:13"},{"step":51,"from":"sdaReg0","to":"sdaReg47","type":"model"},{"step":52,"from":"sdaReg35","to":"1093406960","type":"store","field":"arrayIdx_int:14"},{"step":53,"from":"sdaReg0","to":"sdaReg48","type":"model"},{"step":54,"from":"sdaReg35","to":"1093406960","type":"store","field":"arrayIdx_int:15"},{"step":55,"from":"sdaReg0","to":"sdaReg49","type":"model"},{"step":56,"from":"sdaReg35","to":"1093406960","type":"store","field":"arrayIdx_int:16"},{"step":57,"from":"sdaReg0","to":"sdaReg50","type":"model"},{"step":58,"from":"sdaReg35","to":"1093406960","type":"store","field":"arrayIdx_int:17"},{"step":59,"from":"sdaReg0","to":"sdaReg51","type":"model"},{"step":60,"from":"sdaReg35","to":"1093406960","type":"store","field":"arrayIdx_int:18"},{"step":61,"from":"sdaReg0","to":"sdaReg52","type":"model"},{"step":62,"from":"sdaReg35","to":"1093406960","type":"store","field":"arrayIdx_int:19"},{"step":63,"from":"sdaReg0","to":"sdaReg53","type":"model"},{"step":64,"from":"sdaReg35","to":"1093406960","type":"store","field":"arrayIdx_int:20"},{"step":65,"from":"sdaReg0","to":"sdaReg54","type":"model"},{"step":66,"from":"sdaReg35","to":"1093406960","type":"store","field":"arrayIdx_int:21"},{"step":67,"from":"1093485888","to":"1093406960","type":"model"},{"step":68,"from":"1093406960","to":"1093485888","type":"model"}],"parameters":[{"id":"1093485888","name":"this","klass":"java.io.DataOutputStream"},{"id":"sdaReg0","name":"arg#1","klass":"string"}],"returns":[{"id":null,"name":"return","klass":null}],"colors":{"heapLocToColor":{"sdaReg13":[1, 10],"sdaReg14":[1, 11],"sdaReg11":[1, 8],"sdaReg12":[1, 9],"sdaReg10":[1, 7],"sdaReg19":[1, 16],"sdaReg55":[23],"static.<java.nio.ByteOrder: java.nio.ByteOrder BIG_ENDIAN>":[24],"sdaReg17":[1, 14],"sdaReg54":[1, 45],"sdaReg18":[1, 15],"sdaReg53":[1, 44],"sdaReg15":[1, 12],"sdaReg52":[1, 43],"sdaReg16":[1, 13],"sdaReg51":[1, 42],"sdaReg50":[1, 41],"1093406960":[0, 23],"sdaReg49":[1, 40],"sdaReg48":[1, 39],"sdaReg45":[1, 36],"sdaReg44":[1, 35],"sdaReg47":[1, 38],"sdaReg46":[1, 37],"sdaReg41":[1, 32],"sdaReg40":[1, 31],"sdaReg43":[34, 1],"sdaReg42":[1, 33],"sdaReg39":[1, 30],"sdaReg38":[1, 29],"sdaReg37":[1, 28],"sdaReg31":[25],"1093485888":[0],"sdaReg36":[1, 27],"sdaReg35":[34, 1, 35, 32, 33, 38, 39, 36, 37, 42, 43, 40, 41, 44, 45, 27, 26, 29, 28, 31, 30],"sdaReg33":[1, 26],"sdaReg8":[1, 5],"sdaReg9":[1, 6],"sdaReg7":[1, 4],"sdaReg5":[1, 3],"sdaReg29":[23],"1084339448":[24],"sdaReg3":[2],"sdaReg21":[1, 18],"sdaReg20":[17, 1],"sdaReg0":[1],"sdaReg23":[1, 20],"sdaReg22":[1, 19],"sdaReg25":[1, 22],"sdaReg24":[1, 21]},"colorToColor":{"0":[0],"34":[23],"1":[23],"35":[23],"32":[23],"33":[23],"38":[23],"39":[23],"36":[23],"37":[23],"42":[23],"43":[23],"40":[23],"41":[23],"44":[23],"45":[23],"23":[0, 24],"24":[23],"27":[23],"26":[23],"29":[23],"28":[23],"31":[23],"30":[23]},"colorToLabel":{"0":"this","1":"arg#1","24":"<java.nio.ByteOrder: java.nio.ByteOrder BIG_ENDIAN>","46":"return"}}}

Generated Model
	arg#1->this
	arg#1-><java.nio.ByteOrder: java.nio.ByteOrder BIG_ENDIAN>

