Scanning method <java.io.DataOutputStream: void writeUTF(java.lang.String)>

All seen event types: LoadStaticRecord, NewArrayRecord, BinaryOperationRecord, StoreArrayRecord, SimpleAssignmentRecord, MethodReturnRecord, MethodCallRecord, CastRecord, MethodStartRecord, MethodEndRecord, IfRecord, 
Ignored event types: IfRecord, 

JSON Encoded Analysis Data (for visualization):{"heapEdges":[{"step":0,"from":"sdaReg0","to":"sdaReg5","type":"model"},{"step":1,"from":"sdaReg0","to":"sdaReg7","type":"model"},{"step":2,"from":"sdaReg0","to":"sdaReg8","type":"model"},{"step":3,"from":"sdaReg0","to":"sdaReg9","type":"model"},{"step":4,"from":"sdaReg0","to":"sdaReg10","type":"model"},{"step":5,"from":"sdaReg0","to":"sdaReg11","type":"model"},{"step":6,"from":"sdaReg0","to":"sdaReg12","type":"model"},{"step":7,"from":"sdaReg0","to":"sdaReg13","type":"model"},{"step":8,"from":"sdaReg0","to":"sdaReg14","type":"model"},{"step":9,"from":"sdaReg0","to":"sdaReg15","type":"model"},{"step":10,"from":"sdaReg0","to":"sdaReg16","type":"model"},{"step":11,"from":"sdaReg0","to":"sdaReg17","type":"model"},{"step":12,"from":"sdaReg0","to":"sdaReg18","type":"model"},{"step":13,"from":"sdaReg0","to":"sdaReg19","type":"model"},{"step":14,"from":"sdaReg0","to":"sdaReg20","type":"model"},{"step":15,"from":"sdaReg0","to":"sdaReg21","type":"model"},{"step":16,"from":"sdaReg0","to":"sdaReg22","type":"model"},{"step":17,"from":"sdaReg0","to":"sdaReg23","type":"model"},{"step":18,"from":"static.<java.nio.ByteOrder: java.nio.ByteOrder BIG_ENDIAN>","to":"1084339448","type":"load","field":"<java.nio.ByteOrder: java.nio.ByteOrder BIG_ENDIAN>"},{"step":19,"from":"1093540512","to":"sdaReg26","type":"model"},{"step":20,"from":"1093540512","to":"1084339448","type":"model"},{"step":21,"from":"sdaReg26","to":"1093540512","type":"model"},{"step":22,"from":"sdaReg26","to":"1084339448","type":"model"},{"step":23,"from":"1084339448","to":"1093540512","type":"model"},{"step":24,"from":"1084339448","to":"sdaReg26","type":"model"},{"step":25,"from":"sdaReg0","to":"sdaReg31","type":"model"},{"step":26,"from":"sdaReg33","to":"1093540512","type":"store","field":"arrayIdx_int:2"},{"step":27,"from":"sdaReg0","to":"sdaReg34","type":"model"},{"step":28,"from":"sdaReg33","to":"1093540512","type":"store","field":"arrayIdx_int:3"},{"step":29,"from":"sdaReg0","to":"sdaReg35","type":"model"},{"step":30,"from":"sdaReg33","to":"1093540512","type":"store","field":"arrayIdx_int:4"},{"step":31,"from":"sdaReg0","to":"sdaReg36","type":"model"},{"step":32,"from":"sdaReg33","to":"1093540512","type":"store","field":"arrayIdx_int:5"},{"step":33,"from":"sdaReg0","to":"sdaReg37","type":"model"},{"step":34,"from":"sdaReg33","to":"1093540512","type":"store","field":"arrayIdx_int:6"},{"step":35,"from":"sdaReg0","to":"sdaReg38","type":"model"},{"step":36,"from":"sdaReg33","to":"1093540512","type":"store","field":"arrayIdx_int:7"},{"step":37,"from":"sdaReg0","to":"sdaReg39","type":"model"},{"step":38,"from":"sdaReg33","to":"1093540512","type":"store","field":"arrayIdx_int:8"},{"step":39,"from":"sdaReg0","to":"sdaReg40","type":"model"},{"step":40,"from":"sdaReg33","to":"1093540512","type":"store","field":"arrayIdx_int:9"},{"step":41,"from":"sdaReg0","to":"sdaReg41","type":"model"},{"step":42,"from":"sdaReg33","to":"1093540512","type":"store","field":"arrayIdx_int:10"},{"step":43,"from":"sdaReg0","to":"sdaReg42","type":"model"},{"step":44,"from":"sdaReg33","to":"1093540512","type":"store","field":"arrayIdx_int:11"},{"step":45,"from":"sdaReg0","to":"sdaReg43","type":"model"},{"step":46,"from":"sdaReg33","to":"1093540512","type":"store","field":"arrayIdx_int:12"},{"step":47,"from":"sdaReg0","to":"sdaReg44","type":"model"},{"step":48,"from":"sdaReg33","to":"1093540512","type":"store","field":"arrayIdx_int:13"},{"step":49,"from":"sdaReg0","to":"sdaReg45","type":"model"},{"step":50,"from":"sdaReg33","to":"1093540512","type":"store","field":"arrayIdx_int:14"},{"step":51,"from":"sdaReg0","to":"sdaReg46","type":"model"},{"step":52,"from":"sdaReg33","to":"1093540512","type":"store","field":"arrayIdx_int:15"},{"step":53,"from":"sdaReg0","to":"sdaReg47","type":"model"},{"step":54,"from":"sdaReg33","to":"1093540512","type":"store","field":"arrayIdx_int:16"},{"step":55,"from":"sdaReg0","to":"sdaReg48","type":"model"},{"step":56,"from":"sdaReg33","to":"1093540512","type":"store","field":"arrayIdx_int:17"},{"step":57,"from":"sdaReg0","to":"sdaReg49","type":"model"},{"step":58,"from":"sdaReg33","to":"1093540512","type":"store","field":"arrayIdx_int:18"},{"step":59,"from":"sdaReg0","to":"sdaReg50","type":"model"},{"step":60,"from":"sdaReg33","to":"1093540512","type":"store","field":"arrayIdx_int:19"},{"step":61,"from":"1093485888","to":"1093540512","type":"model"},{"step":62,"from":"1093540512","to":"1093485888","type":"model"}],"parameters":[{"id":"1093485888","name":"this","klass":"java.io.DataOutputStream"},{"id":"sdaReg0","name":"arg#1","klass":"string"}],"returns":[{"id":null,"name":"return","klass":null}],"colors":{"heapLocToColor":{"sdaReg13":[1, 10],"sdaReg39":[1, 30],"sdaReg14":[1, 11],"sdaReg38":[1, 29],"sdaReg11":[1, 8],"sdaReg37":[1, 28],"sdaReg12":[1, 9],"sdaReg10":[1, 7],"sdaReg31":[1, 24],"sdaReg19":[1, 16],"1093485888":[0],"sdaReg36":[1, 27],"sdaReg17":[1, 14],"static.<java.nio.ByteOrder: java.nio.ByteOrder BIG_ENDIAN>":[22],"sdaReg35":[1, 26],"sdaReg18":[1, 15],"sdaReg34":[1, 25],"sdaReg15":[1, 12],"sdaReg51":[21],"sdaReg33":[34, 1, 35, 32, 33, 38, 39, 36, 37, 40, 41, 25, 24, 27, 26, 29, 28, 31, 30],"sdaReg16":[1, 13],"sdaReg8":[1, 5],"sdaReg50":[1, 41],"sdaReg9":[1, 6],"sdaReg7":[1, 4],"sdaReg5":[1, 3],"1093540512":[0, 21],"sdaReg27":[21],"sdaReg29":[23],"sdaReg49":[1, 40],"sdaReg48":[1, 39],"1084339448":[22],"sdaReg45":[1, 36],"sdaReg3":[2],"sdaReg44":[1, 35],"sdaReg47":[1, 38],"sdaReg21":[1, 18],"sdaReg46":[1, 37],"sdaReg0":[1],"sdaReg20":[17, 1],"sdaReg41":[1, 32],"sdaReg23":[1, 20],"sdaReg40":[1, 31],"sdaReg22":[1, 19],"sdaReg43":[34, 1],"sdaReg42":[1, 33]},"colorToColor":{"0":[0],"34":[21],"35":[21],"1":[21],"32":[21],"33":[21],"38":[21],"39":[21],"36":[21],"37":[21],"40":[21],"41":[21],"21":[0, 22],"22":[21],"25":[21],"24":[21],"27":[21],"26":[21],"29":[21],"28":[21],"31":[21],"30":[21]},"colorToLabel":{"0":"this","1":"arg#1","22":"<java.nio.ByteOrder: java.nio.ByteOrder BIG_ENDIAN>","42":"return"}}}

Generated Model
	arg#1->this
	arg#1-><java.nio.ByteOrder: java.nio.ByteOrder BIG_ENDIAN>

