Scanning method <java.util.HashMap: java.lang.Object get(java.lang.Object)>

All seen event types: BinaryOperationRecord, MethodReturnRecord, MethodCallRecord, ArrayLengthRecord, LoadInstanceRecord, LoadArrayRecord, IfRecord, 
Ignored event types: IfRecord, 

JSON Encoded Analysis Data (for visualization):{"heapEdges":[{"step":0,"from":"1085803528","to":"1085760672","type":"load","field":"<java.util.HashMap: java.util.HashMap$HashMapEntry[] table>"},{"step":1,"from":"1085760672","to":"1085767472","type":"load","field":"arrayIdx_int:0"},{"step":2,"from":"1085767472","to":"1085760768","type":"load","field":"<java.util.HashMap$HashMapEntry: java.lang.Object key>"},{"step":3,"from":"1085767472","to":"1085767472.<java.util.HashMap$HashMapEntry: int hash>","type":"load","field":"<java.util.HashMap$HashMapEntry: int hash>"},{"step":4,"from":"1085767472","to":"1085769600","type":"load","field":"<java.util.HashMap$HashMapEntry: java.lang.Object value>"}],"parameters":[{"id":"1085803528","name":"this","klass":"java.util.HashMap"},{"id":"1093296544","name":"arg#1","klass":"java.lang.Object"}],"returns":[{"id":"1085769600","name":"return","klass":"java.lang.Object"}],"colors":{"heapLocToColor":{"sdaReg8":[2],"1085760672":[0],"sdaReg6":[2],"sdaReg7":[2],"sdaReg4":[2],"sdaReg5":[2],"1085803528":[0],"sdaReg11":[2],"sdaReg12":[3],"1085767472.<java.util.HashMap$HashMapEntry: int hash>":[0],"1093296544":[1],"1085769600":[0],"sdaReg3":[2],"sdaReg2":[2],"sdaReg1":[2],"sdaReg0":[2],"1085760768":[0],"1085767472":[0]},"colorToColor":{"0":[4]},"colorToLabel":{"0":"this","1":"arg#1","4":"return"}}}

Generated Model
	this->return

