Scanning method <java.util.AbstractList$SubAbstractList: java.lang.Object get(int)>

All seen event types: BinaryOperationRecord, MethodReturnRecord, MethodCallRecord, MethodStartRecord, LoadInstanceRecord, LoadArrayRecord, MethodEndRecord, IfRecord, 
Ignored event types: IfRecord, 

JSON Encoded Analysis Data (for visualization):{"heapEdges":[{"step":0,"from":"1095431800","to":"1095431800.<java.util.AbstractList: int modCount>","type":"load","field":"<java.util.AbstractList: int modCount>"},{"step":1,"from":"1095431800","to":"1094189776","type":"load","field":"<java.util.AbstractList$SubAbstractList: java.util.AbstractList fullList>"},{"step":2,"from":"1094189776","to":"1094189776.<java.util.AbstractList: int modCount>","type":"load","field":"<java.util.AbstractList: int modCount>"},{"step":3,"from":"1095431800","to":"1095431800.<java.util.AbstractList$SubAbstractList: int size>","type":"load","field":"<java.util.AbstractList$SubAbstractList: int size>"},{"step":4,"from":"1095431800","to":"1094189776","type":"load","field":"<java.util.AbstractList$SubAbstractList: java.util.AbstractList fullList>"},{"step":5,"from":"1095431800","to":"1095431800.<java.util.AbstractList$SubAbstractList: int offset>","type":"load","field":"<java.util.AbstractList$SubAbstractList: int offset>"},{"step":6,"from":"1094189776","to":"1094189776.<java.util.ArrayList: int size>","type":"load","field":"<java.util.ArrayList: int size>"},{"step":7,"from":"1094189776","to":"1094610512","type":"load","field":"<java.util.ArrayList: java.lang.Object[] array>"},{"step":8,"from":"1094610512","to":"1094082504","type":"load","field":"arrayIdx_int:50"}],"parameters":[{"id":"1095431800","name":"this","klass":"java.util.AbstractList$SubAbstractList"},{"id":"sdaReg0","name":"arg#1","klass":"int"}],"returns":[{"id":"1094082504","name":"return","klass":"java.lang.Object"}],"colors":{"heapLocToColor":{"1094082504":[0],"1095431800":[0],"1094189776.<java.util.AbstractList: int modCount>":[0],"1095431800.<java.util.AbstractList$SubAbstractList: int offset>":[0],"1094189776.<java.util.ArrayList: int size>":[0],"1095431800.<java.util.AbstractList$SubAbstractList: java.util.AbstractList fullList>":[0],"1095431800.<java.util.AbstractList$SubAbstractList: int size>":[0],"1094610512":[0],"1095431800.<java.util.AbstractList: int modCount>":[0],"sdaReg3":[0],"sdaReg2":[0],"sdaReg1":[0, 1],"sdaReg0":[1],"1094189776":[0]},"colorToColor":{"0":[2]},"colorToLabel":{"0":"this","1":"arg#1","2":"return"}}}

Generated Model
	this->return

