Scanning method <java.io.ByteArrayInputStream: void close()>

All seen event types: 
Ignored event types: 

JSON Encoded Analysis Data (for visualization):{"heapEdges":[],"parameters":[{"id":"1093590184","name":"this","klass":"java.io.ByteArrayInputStream"}],"returns":[{"id":null,"name":"return","klass":null}],"colors":{"heapLocToColor":{"1093590184":[0]},"colorToColor":{},"colorToLabel":{"0":"this","1":"return"}}}

Generated Model

