Scanning method <java.net.URLConnection: java.net.URL getURL()>

All seen event types: LoadInstanceRecord, 
Ignored event types: 

JSON Encoded Analysis Data (for visualization):{"heapEdges":[{"step":0,"from":"1093631584","to":"1093582488","type":"load","field":"<java.net.URLConnection: java.net.URL url>"}],"parameters":[{"id":"1093631584","name":"this","klass":"java.net.URLConnection"}],"returns":[{"id":"1093582488","name":"return","klass":"java.net.URL"}],"colors":{"heapLocToColor":{"1093631584":[0],"1093582488":[0]},"colorToColor":{"0":[1]},"colorToLabel":{"0":"this","1":"return"}}}

Generated Model
	this->return

