Scanning method <java.net.URLConnection: java.net.URL getURL()>

All seen event types: LoadInstanceRecord, 
Ignored event types: 

JSON Encoded Analysis Data (for visualization):{"heapEdges":[{"step":0,"from":"1093678992","to":"1093609608","type":"load","field":"<java.net.URLConnection: java.net.URL url>"}],"parameters":[{"id":"1093678992","name":"this","klass":"java.net.URLConnection"}],"returns":[{"id":"1093609608","name":"return","klass":"java.net.URL"}],"colors":{"heapLocToColor":{"1093609608":[0],"1093678992":[0]},"colorToColor":{"0":[1]},"colorToLabel":{"0":"this","1":"return"}}}

Generated Model
	this->return

