Scanning method <java.net.URLConnection: java.net.URL getURL()>

All seen event types: LoadInstanceRecord, 
Ignored event types: 

JSON Encoded Analysis Data (for visualization):{"heapEdges":[{"step":0,"from":"1093668568","to":"1093619592","type":"load","field":"<java.net.URLConnection: java.net.URL url>"}],"parameters":[{"id":"1093668568","name":"this","klass":"java.net.URLConnection"}],"returns":[{"id":"1093619592","name":"return","klass":"java.net.URL"}],"colors":{"heapLocToColor":{"1093619592":[0],"1093668568":[0]},"colorToColor":{"0":[1]},"colorToLabel":{"0":"this","1":"return"}}}

Generated Model
	this->return

