Scanning method <java.io.ObjectInputStream: java.lang.Class resolveClass(java.io.ObjectStreamClass)>

All seen event types: LoadStaticRecord, BinaryOperationRecord, MethodReturnRecord, MethodCallRecord, CastRecord, ArrayLengthRecord, LoadInstanceRecord, MethodStartRecord, LoadArrayRecord, MethodEndRecord, IfRecord, 
Ignored event types: IfRecord, 

JSON Encoded Analysis Data (for visualization):{"heapEdges":[{"step":0,"from":"1093299576","to":"0","type":"model"},{"step":1,"from":"1093299576","to":"sdaReg1","type":"model"},{"step":2,"from":"static.<java.io.ObjectInputStream: java.util.HashMap PRIMITIVE_CLASSES>","to":"1093308728","type":"load","field":"<java.io.ObjectInputStream: java.util.HashMap PRIMITIVE_CLASSES>"},{"step":3,"from":"1093308728","to":"1093535232","type":"load","field":"<java.util.HashMap: java.util.HashMap$HashMapEntry[] table>"},{"step":4,"from":"1093381560","to":"1093291176","type":"load","field":"<java.io.ObjectInputStream: java.lang.ClassLoader callerClassLoader>"},{"step":5,"from":"sdaReg1","to":"1093291176","type":"model"},{"step":6,"from":"sdaReg1","to":"1093399144","type":"model"},{"step":7,"from":"1093291176","to":"sdaReg1","type":"model"},{"step":8,"from":"1093291176","to":"1093399144","type":"model"}],"parameters":[{"id":"1093381560","name":"this","klass":"java.io.ObjectInputStream"},{"id":"1093299576","name":"arg#1","klass":"java.io.ObjectStreamClass"}],"returns":[{"id":"1093399144","name":"return","klass":"com.android.cts.droidrecord.modelgen.ObjectInputStreamTest$A.class"}],"colors":{"heapLocToColor":{"1093299576":[1],"sdaReg8":[5],"sdaReg9":[5],"sdaReg6":[5],"sdaReg7":[5],"sdaReg4":[5],"1093308728":[4],"sdaReg5":[5],"1093291176":[0],"1093399144":[6],"static.<java.io.ObjectInputStream: java.util.HashMap PRIMITIVE_CLASSES>":[4],"sdaReg14":[5],"sdaReg11":[5],"0":[1, 2],"sdaReg10":[5],"1093381560":[0],"sdaReg3":[5],"sdaReg2":[4],"sdaReg1":[1, 3],"sdaReg0":[1, 2],"1093535232":[4],"sdaReg15":[1, 2],"sdaReg16":[6]},"colorToColor":{"0":[1, 3, 6],"1":[0, 6],"3":[0, 6],"6":[7]},"colorToLabel":{"0":"this","1":"arg#1","4":"<java.io.ObjectInputStream: java.util.HashMap PRIMITIVE_CLASSES>","7":"return"}}}

Generated Model
	this->return
	this->arg#1
	arg#1->this
	arg#1->return

