Scanning method <java.util.HashMap$KeyIterator: java.lang.Object next()>

All seen event types: MethodReturnRecord, MethodCallRecord, ArrayLengthRecord, LoadInstanceRecord, MethodStartRecord, MethodEndRecord, IfRecord, StoreInstanceRecord, 
Ignored event types: IfRecord, 

JSON Encoded Analysis Data (for visualization):{"heapEdges":[{"step":0,"from":"1093297480","to":"1093556000","type":"load","field":"<java.util.HashMap$HashIterator: java.util.HashMap this$0>"},{"step":1,"from":"1093556000","to":"1093556000.<java.util.HashMap: int modCount>","type":"load","field":"<java.util.HashMap: int modCount>"},{"step":2,"from":"1093297480","to":"1093297480.<java.util.HashMap$HashIterator: int expectedModCount>","type":"load","field":"<java.util.HashMap$HashIterator: int expectedModCount>"},{"step":3,"from":"1093297480","to":"1093548848","type":"load","field":"<java.util.HashMap$HashIterator: java.util.HashMap$HashMapEntry nextEntry>"},{"step":4,"from":"1093297480","to":"1093548848","type":"load","field":"<java.util.HashMap$HashIterator: java.util.HashMap$HashMapEntry nextEntry>"},{"step":5,"from":"1093297480","to":"1093556000","type":"load","field":"<java.util.HashMap$HashIterator: java.util.HashMap this$0>"},{"step":6,"from":"1093556000","to":"1093563192","type":"load","field":"<java.util.HashMap: java.util.HashMap$HashMapEntry[] table>"},{"step":7,"from":"1093297480","to":"1093297480.<java.util.HashMap$HashIterator: int nextIndex>","type":"load","field":"<java.util.HashMap$HashIterator: int nextIndex>"},{"step":8,"from":"1093548848","to":"1093297480","type":"store","field":"<java.util.HashMap$HashIterator: java.util.HashMap$HashMapEntry lastEntryReturned>"},{"step":9,"from":"1093548848","to":"1093457472","type":"load","field":"<java.util.HashMap$HashMapEntry: java.lang.Object key>"}],"parameters":[{"id":"1093297480","name":"this","klass":"java.util.HashMap$KeyIterator"}],"returns":[{"id":"1093457472","name":"return","klass":"java.lang.Object"}],"colors":{"heapLocToColor":{"1093556000.<java.util.HashMap: int modCount>":[0],"1093548848":[0],"1093457472":[0],"1093563192":[0],"1093297480.<java.util.HashMap$HashIterator: int expectedModCount>":[0],"1093556000":[0],"1093297480.<java.util.HashMap$HashIterator: int nextIndex>":[0],"1093297480":[0],"sdaReg2":[0],"sdaReg0":[0],"1093297480.<java.util.HashMap$HashIterator: java.util.HashMap this$0>":[0],"1093297480.<java.util.HashMap$HashIterator: java.util.HashMap$HashMapEntry nextEntry>":[0]},"colorToColor":{"0":[0, 1]},"colorToLabel":{"0":"this","1":"return"}}}

Generated Model
	this->return

