Scanning method <java.util.HashMap$KeyIterator: java.lang.Object next()>

All seen event types: MethodReturnRecord, MethodCallRecord, LoadInstanceRecord, MethodStartRecord, MethodEndRecord, IfRecord, StoreInstanceRecord, 
Ignored event types: IfRecord, 

JSON Encoded Analysis Data (for visualization):{"heapEdges":[{"step":0,"from":"1093658216","to":"1093579272","type":"load","field":"<java.util.HashMap$HashIterator: java.util.HashMap this$0>"},{"step":1,"from":"1093579272","to":"1093579272.<java.util.HashMap: int modCount>","type":"load","field":"<java.util.HashMap: int modCount>"},{"step":2,"from":"1093658216","to":"1093658216.<java.util.HashMap$HashIterator: int expectedModCount>","type":"load","field":"<java.util.HashMap$HashIterator: int expectedModCount>"},{"step":3,"from":"1093658216","to":"1093636640","type":"load","field":"<java.util.HashMap$HashIterator: java.util.HashMap$HashMapEntry nextEntry>"},{"step":4,"from":"1093658216","to":"1093636640","type":"load","field":"<java.util.HashMap$HashIterator: java.util.HashMap$HashMapEntry nextEntry>"},{"step":5,"from":"1093658216","to":"1093579272","type":"load","field":"<java.util.HashMap$HashIterator: java.util.HashMap this$0>"},{"step":6,"from":"1093579272","to":"1093586464","type":"load","field":"<java.util.HashMap: java.util.HashMap$HashMapEntry[] table>"},{"step":7,"from":"1093636640","to":"1093586504","type":"load","field":"<java.util.HashMap$HashMapEntry: java.util.HashMap$HashMapEntry next>"},{"step":8,"from":"1093586504","to":"1093658216","type":"store","field":"<java.util.HashMap$HashIterator: java.util.HashMap$HashMapEntry nextEntry>"},{"step":9,"from":"1093636640","to":"1093658216","type":"store","field":"<java.util.HashMap$HashIterator: java.util.HashMap$HashMapEntry lastEntryReturned>"},{"step":10,"from":"1093636640","to":"1093636520","type":"load","field":"<java.util.HashMap$HashMapEntry: java.lang.Object key>"}],"parameters":[{"id":"1093658216","name":"this","klass":"java.util.HashMap$KeyIterator"}],"returns":[{"id":"1093636520","name":"return","klass":"java.lang.Object"}],"colors":{"heapLocToColor":{"1093579272":[0],"1093658216.<java.util.HashMap$HashIterator: int expectedModCount>":[0],"1093586504":[0],"1093658216.<java.util.HashMap$HashIterator: java.util.HashMap this$0>":[0],"1093586464":[0],"1093636640":[0],"sdaReg1":[0],"sdaReg0":[0],"1093658216":[0],"1093636520":[0],"1093658216.<java.util.HashMap$HashIterator: java.util.HashMap$HashMapEntry nextEntry>":[0],"1093579272.<java.util.HashMap: int modCount>":[0]},"colorToColor":{"0":[0, 1]},"colorToLabel":{"0":"this","1":"return"}}}

Generated Model
	this->return

