Scanning method <android.location.Location: void writeToParcel(android.os.Parcel,int)>

All seen event types: SimpleAssignmentRecord, LoadInstanceRecord, MethodStartRecord, IfRecord, InstanceOfRecord, NewObjectRecord, StoreInstanceRecord, BinaryOperationRecord, MethodCallRecord, MethodReturnRecord, ArrayLengthRecord, CastRecord, LoadArrayRecord, MethodEndRecord, 
Ignored event types: IfRecord, 

JSON Encoded Analysis Data (for visualization):{"heapEdges":[{"step":0,"from":"1093798944","to":"1093798944.<android.location.Location: java.lang.String mProvider>","type":"load","field":"<android.location.Location: java.lang.String mProvider>"},{"step":1,"from":"1093449752","to":"1093798944.<android.location.Location: java.lang.String mProvider>","type":"model"},{"step":2,"from":"1093798944.<android.location.Location: java.lang.String mProvider>","to":"1093449752","type":"model"},{"step":3,"from":"1093798944","to":"1093798944.<android.location.Location: long mTime>","type":"load","field":"<android.location.Location: long mTime>"},{"step":4,"from":"1093449752","to":"1093798944.<android.location.Location: long mTime>","type":"model"},{"step":5,"from":"1093798944.<android.location.Location: long mTime>","to":"1093449752","type":"model"},{"step":6,"from":"1093798944","to":"1093798944.<android.location.Location: double mLatitude>","type":"load","field":"<android.location.Location: double mLatitude>"},{"step":7,"from":"1093449752","to":"1093798944.<android.location.Location: double mLatitude>","type":"model"},{"step":8,"from":"1093798944.<android.location.Location: double mLatitude>","to":"1093449752","type":"model"},{"step":9,"from":"1093798944","to":"1093798944.<android.location.Location: double mLongitude>","type":"load","field":"<android.location.Location: double mLongitude>"},{"step":10,"from":"1093449752","to":"1093798944.<android.location.Location: double mLongitude>","type":"model"},{"step":11,"from":"1093798944.<android.location.Location: double mLongitude>","to":"1093449752","type":"model"},{"step":12,"from":"1093798944","to":"1093798944.<android.location.Location: boolean mHasAltitude>","type":"load","field":"<android.location.Location: boolean mHasAltitude>"},{"step":13,"from":"1093449752","to":"sdaReg1","type":"model"},{"step":14,"from":"sdaReg1","to":"1093449752","type":"model"},{"step":15,"from":"1093798944","to":"1093798944.<android.location.Location: double mAltitude>","type":"load","field":"<android.location.Location: double mAltitude>"},{"step":16,"from":"1093449752","to":"1093798944.<android.location.Location: double mAltitude>","type":"model"},{"step":17,"from":"1093798944.<android.location.Location: double mAltitude>","to":"1093449752","type":"model"},{"step":18,"from":"1093798944","to":"1093798944.<android.location.Location: boolean mHasSpeed>","type":"load","field":"<android.location.Location: boolean mHasSpeed>"},{"step":19,"from":"1093449752","to":"sdaReg2","type":"model"},{"step":20,"from":"sdaReg2","to":"1093449752","type":"model"},{"step":21,"from":"1093798944","to":"1093798944.<android.location.Location: float mSpeed>","type":"load","field":"<android.location.Location: float mSpeed>"},{"step":22,"from":"1093449752","to":"1093798944.<android.location.Location: float mSpeed>","type":"model"},{"step":23,"from":"1093798944.<android.location.Location: float mSpeed>","to":"1093449752","type":"model"},{"step":24,"from":"1093798944","to":"1093798944.<android.location.Location: boolean mHasBearing>","type":"load","field":"<android.location.Location: boolean mHasBearing>"},{"step":25,"from":"1093449752","to":"sdaReg3","type":"model"},{"step":26,"from":"sdaReg3","to":"1093449752","type":"model"},{"step":27,"from":"1093798944","to":"1093798944.<android.location.Location: float mBearing>","type":"load","field":"<android.location.Location: float mBearing>"},{"step":28,"from":"1093449752","to":"1093798944.<android.location.Location: float mBearing>","type":"model"},{"step":29,"from":"1093798944.<android.location.Location: float mBearing>","to":"1093449752","type":"model"},{"step":30,"from":"1093798944","to":"1093798944.<android.location.Location: boolean mHasAccuracy>","type":"load","field":"<android.location.Location: boolean mHasAccuracy>"},{"step":31,"from":"1093449752","to":"sdaReg4","type":"model"},{"step":32,"from":"sdaReg4","to":"1093449752","type":"model"},{"step":33,"from":"1093798944","to":"1093798944.<android.location.Location: float mAccuracy>","type":"load","field":"<android.location.Location: float mAccuracy>"},{"step":34,"from":"1093449752","to":"1093798944.<android.location.Location: float mAccuracy>","type":"model"},{"step":35,"from":"1093798944.<android.location.Location: float mAccuracy>","to":"1093449752","type":"model"},{"step":36,"from":"1093798944","to":"1093633264","type":"load","field":"<android.location.Location: android.os.Bundle mExtras>"},{"step":37,"from":"1093633264","to":"1093633264.<android.os.Bundle: boolean mAllowFds>","type":"load","field":"<android.os.Bundle: boolean mAllowFds>"},{"step":38,"from":"1093449752","to":"1093633264.<android.os.Bundle: boolean mAllowFds>","type":"model"},{"step":39,"from":"1093449752","to":"sdaReg10","type":"model"},{"step":40,"from":"1093633264.<android.os.Bundle: boolean mAllowFds>","to":"1093449752","type":"model"},{"step":41,"from":"1093633264.<android.os.Bundle: boolean mAllowFds>","to":"sdaReg10","type":"model"},{"step":42,"from":"1093449752","to":"sdaReg11","type":"model"},{"step":43,"from":"1093633264","to":"1093969544","type":"load","field":"<android.os.Bundle: java.util.Map mMap>"},{"step":44,"from":"1093969544","to":"1093480208","type":"store","field":"<java.util.HashMap$EntrySet: java.util.HashMap this$0>"},{"step":45,"from":"1093969544","to":"1093480208","type":"create","field":"<java.util.HashMap: java.util.Set entrySet>"},{"step":46,"from":"1093969544","to":"1093969544.<java.util.HashMap: int size>","type":"load","field":"<java.util.HashMap: int size>"},{"step":47,"from":"1093449752","to":"1093969544.<java.util.HashMap: int size>","type":"model"},{"step":48,"from":"1093969544.<java.util.HashMap: int size>","to":"1093449752","type":"model"},{"step":49,"from":"1093969544","to":"1093997488","type":"store","field":"<java.util.HashMap$EntryIterator: java.util.HashMap this$0>"},{"step":50,"from":"1093969544","to":"1093997488","type":"store","field":"<java.util.HashMap$HashIterator: java.util.HashMap this$0>"},{"step":51,"from":"1093969544","to":"1093969544.<java.util.HashMap: int modCount>","type":"load","field":"<java.util.HashMap: int modCount>"},{"step":52,"from":"1093969544.<java.util.HashMap: int modCount>","to":"1093997488","type":"store","field":"<java.util.HashMap$HashIterator: int expectedModCount>"},{"step":53,"from":"1093969544","to":"1093969600","type":"load","field":"<java.util.HashMap: java.util.HashMap$HashMapEntry[] table>"},{"step":54,"from":"1093997488","to":"1093997488.<java.util.HashMap$HashIterator: int nextIndex>","type":"load","field":"<java.util.HashMap$HashIterator: int nextIndex>"},{"step":55,"from":"1093997488","to":"1093997488.<java.util.HashMap$HashIterator: int nextIndex>","type":"load","field":"<java.util.HashMap$HashIterator: int nextIndex>"},{"step":56,"from":"sdaReg40","to":"1093997488","type":"store","field":"<java.util.HashMap$HashIterator: int nextIndex>"},{"step":57,"from":"sdaReg40","to":"1093997488","type":"store","field":"<java.util.HashMap$HashIterator: int nextIndex>"},{"step":58,"from":"sdaReg40","to":"1093997488","type":"store","field":"<java.util.HashMap$HashIterator: int nextIndex>"},{"step":59,"from":"1093969600","to":"1093971376","type":"load","field":"arrayIdx_int:2"},{"step":60,"from":"1093971376","to":"1093997488","type":"store","field":"<java.util.HashMap$HashIterator: java.util.HashMap$HashMapEntry nextEntry>"},{"step":61,"from":"1093969544","to":"1093969544.<java.util.HashMap: int modCount>","type":"load","field":"<java.util.HashMap: int modCount>"},{"step":62,"from":"1093969544","to":"1093969600","type":"load","field":"<java.util.HashMap: java.util.HashMap$HashMapEntry[] table>"},{"step":63,"from":"sdaReg54","to":"1093997488","type":"store","field":"<java.util.HashMap$HashIterator: int nextIndex>"},{"step":64,"from":"1093969600","to":"1093973104","type":"load","field":"arrayIdx_int:3"},{"step":65,"from":"1093973104","to":"1093997488","type":"store","field":"<java.util.HashMap$HashIterator: java.util.HashMap$HashMapEntry nextEntry>"},{"step":66,"from":"1093971376","to":"1093997488","type":"store","field":"<java.util.HashMap$HashIterator: java.util.HashMap$HashMapEntry lastEntryReturned>"},{"step":67,"from":"1093971376","to":"1093552592","type":"load","field":"<java.util.HashMap$HashMapEntry: java.lang.Object key>"},{"step":68,"from":"1093449752","to":"sdaReg64","type":"model"},{"step":69,"from":"sdaReg64","to":"1093449752","type":"model"},{"step":70,"from":"1093971376","to":"1085840800","type":"load","field":"<java.util.HashMap$HashMapEntry: java.lang.Object value>"},{"step":71,"from":"1085840800","to":"sdaReg93","type":"model"},{"step":72,"from":"1093449752","to":"sdaReg93","type":"model"},{"step":73,"from":"sdaReg93","to":"1093449752","type":"model"},{"step":74,"from":"1093969544","to":"1093969544.<java.util.HashMap: int modCount>","type":"load","field":"<java.util.HashMap: int modCount>"},{"step":75,"from":"1093969544","to":"1093969600","type":"load","field":"<java.util.HashMap: java.util.HashMap$HashMapEntry[] table>"},{"step":76,"from":"1093973104","to":"1093997488","type":"store","field":"<java.util.HashMap$HashIterator: java.util.HashMap$HashMapEntry lastEntryReturned>"},{"step":77,"from":"1093973104","to":"1093552496","type":"load","field":"<java.util.HashMap$HashMapEntry: java.lang.Object key>"},{"step":78,"from":"1093449752","to":"sdaReg108","type":"model"},{"step":79,"from":"sdaReg108","to":"1093449752","type":"model"},{"step":80,"from":"1093973104","to":"1085837760","type":"load","field":"<java.util.HashMap$HashMapEntry: java.lang.Object value>"},{"step":81,"from":"1085837760","to":"sdaReg124","type":"model"},{"step":82,"from":"1093449752","to":"sdaReg125","type":"model"},{"step":83,"from":"sdaReg125","to":"1093449752","type":"model"},{"step":84,"from":"1093449752","to":"sdaReg128","type":"model"},{"step":85,"from":"1093449752","to":"sdaReg129","type":"model"},{"step":86,"from":"sdaReg129","to":"1093449752","type":"model"},{"step":87,"from":"1093449752","to":"sdaReg130","type":"model"},{"step":88,"from":"sdaReg130","to":"1093449752","type":"model"},{"step":89,"from":"1093449752","to":"sdaReg128","type":"model"},{"step":90,"from":"sdaReg128","to":"1093449752","type":"model"},{"step":91,"from":"1093449752","to":"sdaReg10","type":"model"},{"step":92,"from":"sdaReg10","to":"1093449752","type":"model"}],"parameters":[{"id":"1093798944","name":"this","klass":"android.location.Location"},{"id":"1093449752","name":"arg#1","klass":"android.os.Parcel"},{"id":"sdaReg0","name":"arg#2","klass":"int"}],"returns":[{"id":null,"name":"return","klass":null}],"colors":{"heapLocToColor":{"sdaReg125":[1],"sdaReg126":[6],"sdaReg128":[1, 9],"sdaReg129":[1, 4],"1093798944.<android.location.Location: boolean mHasSpeed>":[0],"1093798944.<android.location.Location: double mLongitude>":[0, 1],"sdaReg68":[0],"1093449752":[1],"sdaReg66":[0],"sdaReg67":[1],"sdaReg64":[0, 1],"sdaReg65":[0],"1093798944.<android.location.Location: boolean mHasBearing>":[0],"sdaReg62":[0],"sdaReg13":[0],"sdaReg14":[0],"sdaReg11":[1, 4],"1093798944.<android.location.Location: double mAltitude>":[0, 1],"sdaReg12":[1],"sdaReg10":[1, 3],"1093997488.<java.util.HashMap$HashIterator: int nextIndex>":[6],"sdaReg19":[5],"1093969544.<java.util.HashMap: int modCount>":[0],"sdaReg17":[5],"1093552496":[0],"sdaReg18":[0],"sdaReg124":[0, 8],"sdaReg15":[5],"sdaReg123":[0],"sdaReg16":[0],"1093798944.<android.location.Location: boolean mHasAccuracy>":[0],"1085837760":[0],"sdaReg112":[0],"sdaReg111":[1],"sdaReg110":[0],"sdaReg108":[0, 1],"sdaReg109":[0],"sdaReg103":[0],"sdaReg104":[0],"sdaReg105":[1],"sdaReg106":[0],"1093798944.<android.location.Location: double mLatitude>":[0, 1],"sdaReg94":[6],"sdaReg93":[0, 1, 7],"sdaReg92":[0],"sdaReg100":[0],"sdaReg102":[0],"sdaReg101":[0],"1093798944.<android.location.Location: float mSpeed>":[0, 1],"1093969544":[0],"sdaReg96":[6],"sdaReg97":[6],"sdaReg98":[6],"1093969544.<java.util.HashMap: int size>":[0, 1],"1093798944.<android.location.Location: java.lang.String mProvider>":[0, 1],"1093798944.<android.location.Location: float mAccuracy>":[0, 1],"1093633264.<android.os.Bundle: boolean mAllowFds>":[0, 1],"sdaReg60":[0],"1093969544.<java.util.HashMap: java.util.HashMap$HashMapEntry[] table>":[0],"sdaReg61":[1],"1093798944.<android.location.Location: boolean mHasAltitude>":[0],"1093798944.<android.location.Location: float mBearing>":[0, 1],"1093480208":[5],"1093971376":[0],"sdaReg59":[0],"sdaReg58":[0],"1093798944.<android.location.Location: long mTime>":[0, 1],"sdaReg57":[0],"sdaReg56":[0],"sdaReg55":[0],"sdaReg52":[6],"sdaReg51":[6],"1093997488":[6],"sdaReg50":[6],"1093798944":[0],"sdaReg48":[6],"sdaReg45":[6],"sdaReg44":[6],"sdaReg47":[6],"sdaReg46":[6],"1093973104":[0],"sdaReg40":[6],"sdaReg43":[6],"sdaReg37":[6],"sdaReg32":[0],"sdaReg31":[6],"sdaReg30":[0],"sdaReg36":[0],"1093552592":[0],"1093633264":[0],"sdaReg35":[6],"sdaReg34":[0],"sdaReg33":[6],"sdaReg8":[1],"sdaReg6":[0],"sdaReg7":[0],"sdaReg4":[1],"sdaReg5":[1],"1093969600":[0],"sdaReg27":[5],"sdaReg26":[5],"sdaReg29":[5],"sdaReg28":[5],"sdaReg130":[1, 4, 9],"sdaReg3":[1],"sdaReg2":[1],"sdaReg21":[5],"sdaReg1":[1],"sdaReg20":[5],"sdaReg0":[2],"sdaReg23":[5],"sdaReg22":[5],"1085840800":[0],"sdaReg25":[5],"sdaReg24":[5]},"colorToColor":{"0":[1, 3, 5, 6],"1":[1, 3],"3":[1],"4":[1],"5":[0],"6":[6],"7":[1],"9":[1]},"colorToLabel":{"0":"this","1":"arg#1","2":"arg#2","10":"return"}}}

Generated Model
	this->arg#1

