Scanning method <java.util.ArrayList: int hashCode()>

All seen event types: BinaryOperationRecord, SimpleAssignmentRecord, MethodReturnRecord, MethodCallRecord, LoadInstanceRecord, LoadArrayRecord, IfRecord, 
Ignored event types: IfRecord, 

JSON Encoded Analysis Data (for visualization):{"heapEdges":[{"step":0,"from":"1093519824","to":"1094129696","type":"load","field":"<java.util.ArrayList: java.lang.Object[] array>"},{"step":1,"from":"1093519824","to":"1093519824.<java.util.ArrayList: int size>","type":"load","field":"<java.util.ArrayList: int size>"},{"step":2,"from":"1094129696","to":"1093852672","type":"load","field":"arrayIdx_int:0"},{"step":3,"from":"1094129696","to":"1094178736","type":"load","field":"arrayIdx_int:1"},{"step":4,"from":"1094129696","to":"1094032064","type":"load","field":"arrayIdx_int:2"},{"step":5,"from":"1094129696","to":"1094193096","type":"load","field":"arrayIdx_int:3"},{"step":6,"from":"1094129696","to":"1093854368","type":"load","field":"arrayIdx_int:4"},{"step":7,"from":"1094129696","to":"1093571160","type":"load","field":"arrayIdx_int:5"},{"step":8,"from":"1094129696","to":"1093259736","type":"load","field":"arrayIdx_int:6"},{"step":9,"from":"1094129696","to":"1093229088","type":"load","field":"arrayIdx_int:7"},{"step":10,"from":"1094129696","to":"1094295272","type":"load","field":"arrayIdx_int:8"},{"step":11,"from":"1094129696","to":"1093748960","type":"load","field":"arrayIdx_int:9"},{"step":12,"from":"1094129696","to":"1093798120","type":"load","field":"arrayIdx_int:10"},{"step":13,"from":"1094129696","to":"1093750272","type":"load","field":"arrayIdx_int:11"},{"step":14,"from":"1094129696","to":"1093306400","type":"load","field":"arrayIdx_int:12"},{"step":15,"from":"1094129696","to":"1093431536","type":"load","field":"arrayIdx_int:13"},{"step":16,"from":"1094129696","to":"1093475704","type":"load","field":"arrayIdx_int:14"},{"step":17,"from":"1094129696","to":"1093342360","type":"load","field":"arrayIdx_int:15"},{"step":18,"from":"1094129696","to":"1093464024","type":"load","field":"arrayIdx_int:16"},{"step":19,"from":"1094129696","to":"1093474640","type":"load","field":"arrayIdx_int:17"},{"step":20,"from":"1094129696","to":"1093571344","type":"load","field":"arrayIdx_int:18"},{"step":21,"from":"1094129696","to":"1093594080","type":"load","field":"arrayIdx_int:19"},{"step":22,"from":"1094129696","to":"1093319400","type":"load","field":"arrayIdx_int:20"},{"step":23,"from":"1094129696","to":"1093336024","type":"load","field":"arrayIdx_int:21"},{"step":24,"from":"1094129696","to":"1093336536","type":"load","field":"arrayIdx_int:22"},{"step":25,"from":"1094129696","to":"1093254744","type":"load","field":"arrayIdx_int:23"},{"step":26,"from":"1094129696","to":"1093789280","type":"load","field":"arrayIdx_int:24"},{"step":27,"from":"1094129696","to":"1093447440","type":"load","field":"arrayIdx_int:25"},{"step":28,"from":"1094129696","to":"1093472464","type":"load","field":"arrayIdx_int:26"},{"step":29,"from":"1094129696","to":"1093250392","type":"load","field":"arrayIdx_int:27"},{"step":30,"from":"1094129696","to":"1093288432","type":"load","field":"arrayIdx_int:28"},{"step":31,"from":"1094129696","to":"1093327392","type":"load","field":"arrayIdx_int:29"},{"step":32,"from":"1094129696","to":"1093340760","type":"load","field":"arrayIdx_int:30"},{"step":33,"from":"1094129696","to":"1093351976","type":"load","field":"arrayIdx_int:31"},{"step":34,"from":"1094129696","to":"1093437704","type":"load","field":"arrayIdx_int:32"},{"step":35,"from":"1094129696","to":"1093441328","type":"load","field":"arrayIdx_int:33"},{"step":36,"from":"1094129696","to":"1093355656","type":"load","field":"arrayIdx_int:34"},{"step":37,"from":"1094129696","to":"1093335456","type":"load","field":"arrayIdx_int:35"},{"step":38,"from":"1094129696","to":"1093297184","type":"load","field":"arrayIdx_int:36"},{"step":39,"from":"1094129696","to":"1093309728","type":"load","field":"arrayIdx_int:37"},{"step":40,"from":"1094129696","to":"1093356848","type":"load","field":"arrayIdx_int:38"},{"step":41,"from":"1094129696","to":"1093356456","type":"load","field":"arrayIdx_int:39"},{"step":42,"from":"1094129696","to":"1093375120","type":"load","field":"arrayIdx_int:40"},{"step":43,"from":"1094129696","to":"1093458456","type":"load","field":"arrayIdx_int:41"},{"step":44,"from":"1094129696","to":"1094472424","type":"load","field":"arrayIdx_int:42"},{"step":45,"from":"1094129696","to":"1093284216","type":"load","field":"arrayIdx_int:43"},{"step":46,"from":"1094129696","to":"1093309160","type":"load","field":"arrayIdx_int:44"},{"step":47,"from":"1094129696","to":"1093343376","type":"load","field":"arrayIdx_int:45"},{"step":48,"from":"1094129696","to":"1093348216","type":"load","field":"arrayIdx_int:46"},{"step":49,"from":"1094129696","to":"1093349608","type":"load","field":"arrayIdx_int:47"},{"step":50,"from":"1094129696","to":"1093432024","type":"load","field":"arrayIdx_int:48"},{"step":51,"from":"1094129696","to":"1093514912","type":"load","field":"arrayIdx_int:49"},{"step":52,"from":"1094129696","to":"1093517776","type":"load","field":"arrayIdx_int:50"},{"step":53,"from":"1094129696","to":"1093522768","type":"load","field":"arrayIdx_int:51"},{"step":54,"from":"1094129696","to":"1093719400","type":"load","field":"arrayIdx_int:52"},{"step":55,"from":"1094129696","to":"1094062752","type":"load","field":"arrayIdx_int:53"},{"step":56,"from":"1094129696","to":"1094168576","type":"load","field":"arrayIdx_int:54"},{"step":57,"from":"1094129696","to":"1093256176","type":"load","field":"arrayIdx_int:55"},{"step":58,"from":"1094129696","to":"1093269216","type":"load","field":"arrayIdx_int:56"},{"step":59,"from":"1094129696","to":"1093283520","type":"load","field":"arrayIdx_int:57"},{"step":60,"from":"1094129696","to":"1093364232","type":"load","field":"arrayIdx_int:58"},{"step":61,"from":"1094129696","to":"1093379064","type":"load","field":"arrayIdx_int:59"},{"step":62,"from":"1094129696","to":"1093388184","type":"load","field":"arrayIdx_int:60"},{"step":63,"from":"1094129696","to":"1093392608","type":"load","field":"arrayIdx_int:61"},{"step":64,"from":"1094129696","to":"1093403480","type":"load","field":"arrayIdx_int:62"},{"step":65,"from":"1094129696","to":"1093427368","type":"load","field":"arrayIdx_int:63"},{"step":66,"from":"1094129696","to":"1093494376","type":"load","field":"arrayIdx_int:64"},{"step":67,"from":"1094129696","to":"1093507584","type":"load","field":"arrayIdx_int:65"},{"step":68,"from":"1094129696","to":"1093515616","type":"load","field":"arrayIdx_int:66"},{"step":69,"from":"1094129696","to":"1093292720","type":"load","field":"arrayIdx_int:67"},{"step":70,"from":"1094129696","to":"1093294536","type":"load","field":"arrayIdx_int:68"},{"step":71,"from":"1094129696","to":"1093355232","type":"load","field":"arrayIdx_int:69"},{"step":72,"from":"1094129696","to":"1093363904","type":"load","field":"arrayIdx_int:70"},{"step":73,"from":"1094129696","to":"1093370496","type":"load","field":"arrayIdx_int:71"},{"step":74,"from":"1094129696","to":"1093371152","type":"load","field":"arrayIdx_int:72"},{"step":75,"from":"1094129696","to":"1093383784","type":"load","field":"arrayIdx_int:73"},{"step":76,"from":"1094129696","to":"1093398912","type":"load","field":"arrayIdx_int:74"},{"step":77,"from":"1094129696","to":"1093400864","type":"load","field":"arrayIdx_int:75"},{"step":78,"from":"1094129696","to":"1093425680","type":"load","field":"arrayIdx_int:76"},{"step":79,"from":"1094129696","to":"1093492424","type":"load","field":"arrayIdx_int:77"},{"step":80,"from":"1094129696","to":"1093499016","type":"load","field":"arrayIdx_int:78"},{"step":81,"from":"1094129696","to":"1093524480","type":"load","field":"arrayIdx_int:79"},{"step":82,"from":"1094129696","to":"1093530040","type":"load","field":"arrayIdx_int:80"},{"step":83,"from":"1094129696","to":"1093571744","type":"load","field":"arrayIdx_int:81"},{"step":84,"from":"1094129696","to":"1093572512","type":"load","field":"arrayIdx_int:82"},{"step":85,"from":"1094129696","to":"1093573104","type":"load","field":"arrayIdx_int:83"},{"step":86,"from":"1094129696","to":"1093574168","type":"load","field":"arrayIdx_int:84"},{"step":87,"from":"1094129696","to":"1093218856","type":"load","field":"arrayIdx_int:85"},{"step":88,"from":"1094129696","to":"1093260328","type":"load","field":"arrayIdx_int:86"},{"step":89,"from":"1094129696","to":"1093284704","type":"load","field":"arrayIdx_int:87"},{"step":90,"from":"1094129696","to":"1093290848","type":"load","field":"arrayIdx_int:88"},{"step":91,"from":"1094129696","to":"1093293032","type":"load","field":"arrayIdx_int:89"},{"step":92,"from":"1094129696","to":"1093325376","type":"load","field":"arrayIdx_int:90"},{"step":93,"from":"1094129696","to":"1093375472","type":"load","field":"arrayIdx_int:91"},{"step":94,"from":"1094129696","to":"1093377976","type":"load","field":"arrayIdx_int:92"},{"step":95,"from":"1094129696","to":"1093382184","type":"load","field":"arrayIdx_int:93"},{"step":96,"from":"1094129696","to":"1093383472","type":"load","field":"arrayIdx_int:94"},{"step":97,"from":"1094129696","to":"1093396616","type":"load","field":"arrayIdx_int:95"},{"step":98,"from":"1094129696","to":"1093397624","type":"load","field":"arrayIdx_int:96"},{"step":99,"from":"1094129696","to":"1093412864","type":"load","field":"arrayIdx_int:97"},{"step":100,"from":"1094129696","to":"1093410536","type":"load","field":"arrayIdx_int:98"},{"step":101,"from":"1094129696","to":"1093420608","type":"load","field":"arrayIdx_int:99"}],"parameters":[{"id":"1093519824","name":"this","klass":"java.util.ArrayList"}],"returns":[{"id":"sdaReg0","name":"return","klass":"int"}],"colors":{"heapLocToColor":{"1093494376":[0],"1093571344":[0],"sdaReg13":[11],"sdaReg14":[12],"sdaReg11":[9],"1093375472":[0],"sdaReg12":[10],"sdaReg10":[8],"sdaReg19":[17],"sdaReg17":[15],"sdaReg18":[16],"sdaReg15":[13],"sdaReg16":[14],"1093383784":[0],"1093427368":[0],"1094472424":[0],"1093383472":[0],"1093377976":[0],"1093254744":[0],"1094168576":[0],"1093464024":[0],"1093382184":[0],"1093447440":[0],"1093789280":[0],"1093571744":[0],"1094193096":[0],"1093852672":[0],"1093594080":[0],"1093398912":[0],"1093854368":[0],"1093293032":[0],"sdaReg60":[58],"sdaReg61":[59],"1093458456":[0],"1093475704":[0],"1093284704":[0],"1093420608":[0],"1093748960":[0],"1094062752":[0],"1093309728":[0],"1093432024":[0],"sdaReg59":[57],"sdaReg58":[56],"1093507584":[0],"1093260328":[0],"sdaReg57":[55],"1093336536":[0],"sdaReg56":[54],"sdaReg55":[53],"sdaReg54":[52],"sdaReg53":[51],"1093530040":[0],"sdaReg52":[50],"sdaReg51":[49],"sdaReg50":[48],"1093403480":[0],"1093355656":[0],"sdaReg49":[47],"sdaReg48":[46],"sdaReg45":[43],"sdaReg44":[42],"1093340760":[0],"1093719400":[0],"sdaReg47":[45],"sdaReg46":[44],"sdaReg41":[39],"sdaReg40":[38],"sdaReg43":[41],"sdaReg42":[40],"1093342360":[0],"1093517776":[0],"1093574168":[0],"1093364232":[0],"sdaReg39":[37],"sdaReg38":[36],"sdaReg37":[35],"1093524480":[0],"sdaReg32":[30],"sdaReg31":[29],"1093474640":[0],"sdaReg30":[28],"1093522768":[0],"1093515616":[0],"1093396616":[0],"sdaReg36":[34],"sdaReg35":[33],"sdaReg34":[32],"sdaReg33":[31],"1093571160":[0],"sdaReg8":[6],"1094032064":[0],"sdaReg9":[7],"sdaReg6":[4],"sdaReg7":[5],"sdaReg4":[2],"sdaReg5":[3],"sdaReg27":[25],"sdaReg26":[24],"1093229088":[0],"sdaReg29":[27],"1093256176":[0],"sdaReg28":[26],"sdaReg3":[1],"sdaReg2":[1, 2, 3, 4, 5, 6, 7, 8, 9, 10, 11, 12, 13, 14, 15, 17, 16, 19, 18, 21, 20, 23, 22, 25, 24, 27, 26, 29, 28, 31, 30, 34, 35, 32, 33, 38, 39, 36, 37, 42, 43, 40, 41, 46, 47, 44, 45, 51, 50, 49, 48, 55, 54, 53, 52, 59, 58, 57, 56, 63, 62, 61, 60, 68, 69, 70, 71, 64, 65, 66, 67, 76, 77, 78, 79, 72, 73, 74, 75, 85, 84, 87, 86, 81, 80, 83, 82, 93, 92, 95, 94, 89, 88, 91, 90, 98, 99, 96, 97],"sdaReg21":[19],"sdaReg0":[1, 2, 3, 4, 5, 6, 7, 8, 9, 10, 11, 12, 13, 14, 15, 17, 16, 19, 18, 21, 20, 23, 22, 25, 24, 27, 26, 29, 28, 31, 30, 34, 35, 32, 33, 38, 39, 36, 37, 42, 43, 40, 41, 46, 47, 44, 45, 51, 50, 49, 48, 55, 54, 53, 52, 59, 58, 57, 56, 63, 62, 61, 60, 68, 69, 70, 71, 64, 65, 66, 67, 76, 77, 78, 79, 72, 73, 74, 75, 85, 84, 87, 86, 81, 80, 83, 82, 93, 92, 95, 94, 89, 88, 91, 90, 100, 98, 99, 96, 97],"sdaReg20":[18],"sdaReg23":[21],"sdaReg22":[20],"sdaReg25":[23],"sdaReg24":[22],"1093388184":[0],"1093363904":[0],"1093499016":[0],"1093294536":[0],"1093349608":[0],"sdaReg68":[66],"sdaReg69":[67],"sdaReg66":[64],"1093572512":[0],"sdaReg67":[65],"sdaReg64":[62],"sdaReg65":[63],"sdaReg62":[60],"sdaReg63":[61],"sdaReg72":[70],"sdaReg71":[69],"1093437704":[0],"sdaReg70":[68],"1093306400":[0],"1093514912":[0],"1093798120":[0],"1093392608":[0],"1093288432":[0],"1094129696":[0],"sdaReg77":[75],"sdaReg78":[76],"sdaReg79":[77],"1093379064":[0],"sdaReg73":[71],"sdaReg74":[72],"sdaReg75":[73],"sdaReg76":[74],"sdaReg81":[79],"sdaReg80":[78],"sdaReg83":[81],"sdaReg82":[80],"1093292720":[0],"1093412864":[0],"sdaReg86":[84],"1093371152":[0],"sdaReg87":[85],"sdaReg84":[82],"sdaReg85":[83],"sdaReg88":[86],"sdaReg89":[87],"sdaReg90":[88],"sdaReg94":[92],"sdaReg93":[91],"1093355232":[0],"sdaReg92":[90],"sdaReg91":[89],"sdaReg100":[98],"1093375120":[0],"sdaReg102":[100],"sdaReg101":[99],"sdaReg95":[93],"1093284216":[0],"sdaReg96":[94],"sdaReg97":[95],"sdaReg98":[96],"sdaReg99":[97],"1093573104":[0],"1093319400":[0],"1093218856":[0],"1093410536":[0],"1093348216":[0],"1093269216":[0],"1094295272":[0],"1093519824":[0],"1093400864":[0],"1093325376":[0],"1093297184":[0],"1093356848":[0],"1093425680":[0],"1093351976":[0],"1093327392":[0],"1093519824.<java.util.ArrayList: int size>":[0],"1093356456":[0],"1094178736":[0],"1093750272":[0],"1093441328":[0],"1093492424":[0],"1093290848":[0],"1093283520":[0],"1093259736":[0],"1093343376":[0],"1093472464":[0],"1093431536":[0],"1093336024":[0],"1093370496":[0],"1093250392":[0],"1093397624":[0],"1093309160":[0],"1093335456":[0]},"colorToColor":{"1":[101],"2":[101],"3":[101],"4":[101],"5":[101],"6":[101],"7":[101],"8":[101],"9":[101],"10":[101],"11":[101],"12":[101],"13":[101],"14":[101],"15":[101],"17":[101],"16":[101],"19":[101],"18":[101],"21":[101],"20":[101],"23":[101],"22":[101],"25":[101],"24":[101],"27":[101],"26":[101],"29":[101],"28":[101],"31":[101],"30":[101],"34":[101],"35":[101],"32":[101],"33":[101],"38":[101],"39":[101],"36":[101],"37":[101],"42":[101],"43":[101],"40":[101],"41":[101],"46":[101],"47":[101],"44":[101],"45":[101],"51":[101],"50":[101],"49":[101],"48":[101],"55":[101],"54":[101],"53":[101],"52":[101],"59":[101],"58":[101],"57":[101],"56":[101],"63":[101],"62":[101],"61":[101],"60":[101],"68":[101],"69":[101],"70":[101],"71":[101],"64":[101],"65":[101],"66":[101],"67":[101],"76":[101],"77":[101],"78":[101],"79":[101],"72":[101],"73":[101],"74":[101],"75":[101],"85":[101],"84":[101],"87":[101],"86":[101],"81":[101],"80":[101],"83":[101],"82":[101],"93":[101],"92":[101],"95":[101],"94":[101],"89":[101],"88":[101],"91":[101],"90":[101],"100":[101],"98":[101],"99":[101],"96":[101],"97":[101]},"colorToLabel":{"0":"this","101":"return"}}}

Generated Model

