Scanning method <java.util.ArrayList: void <init>(int)>

All seen event types: NewArrayRecord, MethodReturnRecord, MethodCallRecord, MethodStartRecord, IfRecord, MethodEndRecord, StoreInstanceRecord, 
Ignored event types: IfRecord, 

JSON Encoded Analysis Data (for visualization):{"heapEdges":[{"step":0,"from":"1093642400","to":"1093642424","type":"create","field":"<java.util.ArrayList: java.lang.Object[] array>"}],"parameters":[{"id":"1093642400","name":"this","klass":"java.util.ArrayList"},{"id":"sdaReg0","name":"arg#1","klass":"int"}],"returns":[{"id":"1093642400","name":"return","klass":"java.util.ArrayList"}],"colors":{"heapLocToColor":{"1093642400":[0],"1093642424":[2],"sdaReg4":[0],"sdaReg5":[0],"sdaReg3":[0],"sdaReg2":[0],"sdaReg1":[0],"sdaReg0":[1]},"colorToColor":{"0":[3],"2":[0]},"colorToLabel":{"0":"this","1":"arg#1","3":"return"}}}

Generated Model
	this->return

