Scanning method <java.util.HashMap$HashMapEntry: java.lang.Object getValue()>

All seen event types: LoadInstanceRecord, 
Ignored event types: 

JSON Encoded Analysis Data (for visualization):{"heapEdges":[{"step":0,"from":"1093627088","to":"1093626408","type":"load","field":"<java.util.HashMap$HashMapEntry: java.lang.Object value>"}],"parameters":[{"id":"1093627088","name":"this","klass":"java.util.HashMap$HashMapEntry"}],"returns":[{"id":"1093626408","name":"return","klass":"java.lang.Object"}],"colors":{"heapLocToColor":{"1093626408":[0],"1093627088":[0]},"colorToColor":{"0":[1]},"colorToLabel":{"0":"this","1":"return"}}}

Generated Model
	this->return

