Scanning method <java.io.ObjectInputStream: byte[] readBlockData()>

All seen event types: NewArrayRecord, BinaryOperationRecord, MethodReturnRecord, MethodCallRecord, ArrayLengthRecord, CastRecord, MethodStartRecord, LoadInstanceRecord, LoadArrayRecord, MethodEndRecord, IfRecord, StoreInstanceRecord, 
Ignored event types: IfRecord, 

JSON Encoded Analysis Data (for visualization):{"heapEdges":[{"step":0,"from":"1093472264","to":"1093472624","type":"load","field":"<java.io.ObjectInputStream: java.io.DataInputStream input>"},{"step":1,"from":"1093472624","to":"1093472464","type":"load","field":"<java.io.FilterInputStream: java.io.InputStream in>"},{"step":2,"from":"1093472464","to":"1093472464.<java.io.ByteArrayInputStream: int pos>","type":"load","field":"<java.io.ByteArrayInputStream: int pos>"},{"step":3,"from":"1093472464","to":"1093472464.<java.io.ByteArrayInputStream: int count>","type":"load","field":"<java.io.ByteArrayInputStream: int count>"},{"step":4,"from":"1093472464","to":"1093472496","type":"load","field":"<java.io.ByteArrayInputStream: byte[] buf>"},{"step":5,"from":"1093472464","to":"1093472464.<java.io.ByteArrayInputStream: int pos>","type":"load","field":"<java.io.ByteArrayInputStream: int pos>"},{"step":6,"from":"sdaReg2","to":"1093472464","type":"store","field":"<java.io.ByteArrayInputStream: int pos>"},{"step":7,"from":"1093472496","to":"1093472496.arrayIdx_int:5","type":"load","field":"arrayIdx_int:5"},{"step":8,"from":"1093472264","to":"1093472624","type":"load","field":"<java.io.ObjectInputStream: java.io.DataInputStream input>"},{"step":9,"from":"1093472624","to":"1093472464","type":"load","field":"<java.io.FilterInputStream: java.io.InputStream in>"},{"step":10,"from":"1093472464","to":"1093682896","type":"model"}],"parameters":[{"id":"1093472264","name":"this","klass":"java.io.ObjectInputStream"}],"returns":[{"id":"1093682896","name":"return","klass":"byte[]"}],"colors":{"heapLocToColor":{"1093682896":[1],"sdaReg9":[0],"1093472496":[0],"sdaReg6":[0],"1093472464.<java.io.ByteArrayInputStream: int pos>":[0],"sdaReg7":[1],"1093472496.arrayIdx_int:5":[0],"sdaReg4":[0],"sdaReg5":[0],"1093472464":[0],"1093472264":[0],"1093472624.<java.io.FilterInputStream: java.io.InputStream in>":[0],"1093472464.<java.io.ByteArrayInputStream: int count>":[0],"sdaReg10":[1],"1093472624":[0],"sdaReg3":[0],"sdaReg2":[0],"sdaReg1":[0],"sdaReg0":[0],"1093472264.<java.io.ObjectInputStream: java.io.DataInputStream input>":[0]},"colorToColor":{"0":[0, 1],"1":[2]},"colorToLabel":{"0":"this","2":"return"}}}

Generated Model
	this->return

