Scanning method <java.util.Vector$1: void <init>(java.util.Vector)>

All seen event types: MethodReturnRecord, MethodCallRecord, StoreInstanceRecord, 
Ignored event types: 

JSON Encoded Analysis Data (for visualization):{"heapEdges":[{"step":0,"from":"1093594984","to":"1093285520","type":"store","field":"<java.util.Vector$1: java.util.Vector this$0>"},{"step":1,"from":"1093285520","to":"sdaReg1","type":"create","field":"<java.util.Vector$1: int pos>"}],"parameters":[{"id":"1093285520","name":"this","klass":"java.util.Vector$1"},{"id":"1093594984","name":"arg#1","klass":"java.util.Vector"}],"returns":[{"id":"1093285520","name":"return","klass":"java.util.Vector$1"}],"colors":{"heapLocToColor":{"1093285520":[0],"sdaReg0":[0],"1093594984":[1]},"colorToColor":{"0":[2],"1":[0]},"colorToLabel":{"0":"this","1":"arg#1","2":"return"}}}

Generated Model
	this->return
	arg#1->this
	arg#1->return

