Scanning method <java.util.Vector$1: void <init>(java.util.Vector)>

All seen event types: MethodReturnRecord, MethodCallRecord, StoreInstanceRecord, 
Ignored event types: 

JSON Encoded Analysis Data (for visualization):{"heapEdges":[{"step":0,"from":"1093762776","to":"1093762872","type":"store","field":"<java.util.Vector$1: java.util.Vector this$0>"},{"step":1,"from":"1093762872","to":"sdaReg1","type":"create","field":"<java.util.Vector$1: int pos>"}],"parameters":[{"id":"1093762872","name":"this","klass":"java.util.Vector$1"},{"id":"1093762776","name":"arg#1","klass":"java.util.Vector"}],"returns":[{"id":"1093762872","name":"return","klass":"java.util.Vector$1"}],"colors":{"heapLocToColor":{"1093762776":[1],"sdaReg0":[0],"1093762872":[0]},"colorToColor":{"0":[2],"1":[0]},"colorToLabel":{"0":"this","1":"arg#1","2":"return"}}}

Generated Model
	this->return
	arg#1->this
	arg#1->return

