Scanning method <android.os.Bundle: void <init>(android.os.Bundle)>

All seen event types: StoreArrayRecord, SimpleAssignmentRecord, LoadInstanceRecord, MethodStartRecord, IfRecord, StoreInstanceRecord, NewObjectRecord, NewArrayRecord, BinaryOperationRecord, MethodCallRecord, MethodReturnRecord, CastRecord, ArrayLengthRecord, LoadArrayRecord, MethodEndRecord, 
Ignored event types: IfRecord, 

JSON Encoded Analysis Data (for visualization):{"heapEdges":[{"step":0,"from":"1093776752","to":"sdaReg1","type":"create","field":"<android.os.Bundle: java.util.Map mMap>"},{"step":1,"from":"1093776752","to":"sdaReg2","type":"create","field":"<android.os.Bundle: android.os.Parcel mParcelledData>"},{"step":2,"from":"1093776752","to":"sdaReg3","type":"create","field":"<android.os.Bundle: boolean mHasFds>"},{"step":3,"from":"1093776752","to":"sdaReg4","type":"create","field":"<android.os.Bundle: boolean mFdsKnown>"},{"step":4,"from":"1093776752","to":"sdaReg5","type":"create","field":"<android.os.Bundle: boolean mAllowFds>"},{"step":5,"from":"1093776752","to":"sdaReg6","type":"create","field":"<android.os.Bundle: android.os.Parcel mParcelledData>"},{"step":6,"from":"1093717072","to":"1093722728","type":"load","field":"<android.os.Bundle: java.util.Map mMap>"},{"step":7,"from":"1093717072","to":"1093722728","type":"load","field":"<android.os.Bundle: java.util.Map mMap>"},{"step":8,"from":"1093722728","to":"1093722728.<java.util.HashMap: int size>","type":"load","field":"<java.util.HashMap: int size>"},{"step":9,"from":"1093508592","to":"1093508648","type":"create","field":"<java.util.HashMap: java.util.HashMap$HashMapEntry[] table>"},{"step":10,"from":"sdaReg23","to":"1093508592","type":"store","field":"<java.util.HashMap: int threshold>"},{"step":11,"from":"1093722728","to":"1093901456","type":"store","field":"<java.util.HashMap$EntrySet: java.util.HashMap this$0>"},{"step":12,"from":"1093722728","to":"1093901456","type":"create","field":"<java.util.HashMap: java.util.Set entrySet>"},{"step":13,"from":"1093722728","to":"1093508688","type":"store","field":"<java.util.HashMap$EntryIterator: java.util.HashMap this$0>"},{"step":14,"from":"1093722728","to":"1093508688","type":"store","field":"<java.util.HashMap$HashIterator: java.util.HashMap this$0>"},{"step":15,"from":"1093722728","to":"1093722728.<java.util.HashMap: int modCount>","type":"load","field":"<java.util.HashMap: int modCount>"},{"step":16,"from":"1093722728.<java.util.HashMap: int modCount>","to":"1093508688","type":"store","field":"<java.util.HashMap$HashIterator: int expectedModCount>"},{"step":17,"from":"1093722728","to":"1093745584","type":"load","field":"<java.util.HashMap: java.util.HashMap$HashMapEntry[] table>"},{"step":18,"from":"1093508688","to":"1093508688.<java.util.HashMap$HashIterator: int nextIndex>","type":"load","field":"<java.util.HashMap$HashIterator: int nextIndex>"},{"step":19,"from":"1093508688","to":"1093508688.<java.util.HashMap$HashIterator: int nextIndex>","type":"load","field":"<java.util.HashMap$HashIterator: int nextIndex>"},{"step":20,"from":"sdaReg52","to":"1093508688","type":"store","field":"<java.util.HashMap$HashIterator: int nextIndex>"},{"step":21,"from":"1093745584","to":"1093745624","type":"load","field":"arrayIdx_int:0"},{"step":22,"from":"1093745624","to":"1093508688","type":"store","field":"<java.util.HashMap$HashIterator: java.util.HashMap$HashMapEntry nextEntry>"},{"step":23,"from":"1093722728","to":"1093722728.<java.util.HashMap: int modCount>","type":"load","field":"<java.util.HashMap: int modCount>"},{"step":24,"from":"1093722728","to":"1093745584","type":"load","field":"<java.util.HashMap: java.util.HashMap$HashMapEntry[] table>"},{"step":25,"from":"sdaReg64","to":"1093508688","type":"store","field":"<java.util.HashMap$HashIterator: int nextIndex>"},{"step":26,"from":"sdaReg64","to":"1093508688","type":"store","field":"<java.util.HashMap$HashIterator: int nextIndex>"},{"step":27,"from":"sdaReg64","to":"1093508688","type":"store","field":"<java.util.HashMap$HashIterator: int nextIndex>"},{"step":28,"from":"1093745584","to":"1093757544","type":"load","field":"arrayIdx_int:3"},{"step":29,"from":"1093757544","to":"1093508688","type":"store","field":"<java.util.HashMap$HashIterator: java.util.HashMap$HashMapEntry nextEntry>"},{"step":30,"from":"1093745624","to":"1093508688","type":"store","field":"<java.util.HashMap$HashIterator: java.util.HashMap$HashMapEntry lastEntryReturned>"},{"step":31,"from":"1093745624","to":"1084420848","type":"load","field":"<java.util.HashMap$HashMapEntry: java.lang.Object key>"},{"step":32,"from":"1093745624","to":"1093504544","type":"load","field":"<java.util.HashMap$HashMapEntry: java.lang.Object value>"},{"step":33,"from":"1084420848","to":"1093510544","type":"store","field":"<java.util.HashMap$HashMapEntry: java.lang.Object key>"},{"step":34,"from":"1093504544","to":"1093510544","type":"store","field":"<java.util.HashMap$HashMapEntry: java.lang.Object value>"},{"step":35,"from":"sdaReg86","to":"1093510544","type":"store","field":"<java.util.HashMap$HashMapEntry: int hash>"},{"step":36,"from":"1093508648","to":"1093510544","type":"create","field":"arrayIdx_int:0"},{"step":37,"from":"1093508592","to":"1093508592.<java.util.HashMap: int size>","type":"load","field":"<java.util.HashMap: int size>"},{"step":38,"from":"sdaReg102","to":"1093508592","type":"store","field":"<java.util.HashMap: int size>"},{"step":39,"from":"1093722728","to":"1093722728.<java.util.HashMap: int modCount>","type":"load","field":"<java.util.HashMap: int modCount>"},{"step":40,"from":"1093722728","to":"1093745584","type":"load","field":"<java.util.HashMap: java.util.HashMap$HashMapEntry[] table>"},{"step":41,"from":"1093757544","to":"1093508688","type":"store","field":"<java.util.HashMap$HashIterator: java.util.HashMap$HashMapEntry lastEntryReturned>"},{"step":42,"from":"1093757544","to":"1093505080","type":"load","field":"<java.util.HashMap$HashMapEntry: java.lang.Object key>"},{"step":43,"from":"1093757544","to":"1083976944","type":"load","field":"<java.util.HashMap$HashMapEntry: java.lang.Object value>"},{"step":44,"from":"1093505080","to":"1093925632","type":"store","field":"<java.util.HashMap$HashMapEntry: java.lang.Object key>"},{"step":45,"from":"1083976944","to":"1093925632","type":"store","field":"<java.util.HashMap$HashMapEntry: java.lang.Object value>"},{"step":46,"from":"sdaReg127","to":"1093925632","type":"store","field":"<java.util.HashMap$HashMapEntry: int hash>"},{"step":47,"from":"1093508648","to":"1093925632","type":"create","field":"arrayIdx_int:3"},{"step":48,"from":"sdaReg143","to":"1093508592","type":"store","field":"<java.util.HashMap: int size>"},{"step":49,"from":"1093776752","to":"1093508592","type":"create","field":"<android.os.Bundle: java.util.Map mMap>"},{"step":50,"from":"1093717072","to":"1093717072.<android.os.Bundle: boolean mHasFds>","type":"load","field":"<android.os.Bundle: boolean mHasFds>"},{"step":51,"from":"1093717072.<android.os.Bundle: boolean mHasFds>","to":"1093776752","type":"store","field":"<android.os.Bundle: boolean mHasFds>"},{"step":52,"from":"1093717072","to":"1093717072.<android.os.Bundle: boolean mFdsKnown>","type":"load","field":"<android.os.Bundle: boolean mFdsKnown>"},{"step":53,"from":"1093717072.<android.os.Bundle: boolean mFdsKnown>","to":"1093776752","type":"store","field":"<android.os.Bundle: boolean mFdsKnown>"},{"step":54,"from":"1093717072","to":"1083999984","type":"load","field":"<android.os.Bundle: java.lang.ClassLoader mClassLoader>"},{"step":55,"from":"1083999984","to":"1093776752","type":"store","field":"<android.os.Bundle: java.lang.ClassLoader mClassLoader>"}],"parameters":[{"id":"1093776752","name":"this","klass":"android.os.Bundle"},{"id":"1093717072","name":"arg#1","klass":"android.os.Bundle"}],"returns":[{"id":"1093776752","name":"return","klass":"android.os.Bundle"}],"colors":{"heapLocToColor":{"sdaReg125":[8],"sdaReg126":[8],"sdaReg127":[8],"1093722728":[1],"sdaReg68":[1],"sdaReg69":[1],"sdaReg67":[1],"sdaReg62":[5],"sdaReg13":[1],"sdaReg72":[1],"1083976944":[1],"sdaReg14":[2],"sdaReg71":[1],"sdaReg11":[1],"sdaReg70":[1],"sdaReg12":[1],"sdaReg10":[1],"sdaReg120":[8],"sdaReg19":[2],"sdaReg122":[8],"sdaReg17":[2],"sdaReg121":[8],"sdaReg124":[8],"sdaReg15":[2],"sdaReg123":[8],"sdaReg16":[2],"sdaReg116":[2],"sdaReg117":[1],"sdaReg114":[1],"sdaReg115":[1],"sdaReg118":[1],"sdaReg119":[8],"sdaReg77":[1],"sdaReg78":[6],"sdaReg79":[6],"sdaReg73":[1],"1093717072.<android.os.Bundle: boolean mFdsKnown>":[1],"1093508688.<java.util.HashMap$HashIterator: int nextIndex>":[5],"1093504544":[1],"sdaReg74":[1],"sdaReg75":[2],"sdaReg76":[1],"sdaReg81":[6],"sdaReg80":[6],"sdaReg83":[6],"sdaReg82":[6],"1093722728.<java.util.HashMap: int size>":[1],"1093776752":[0],"sdaReg113":[1],"sdaReg112":[1],"sdaReg111":[1],"sdaReg110":[1],"sdaReg107":[5],"1093505080":[1],"sdaReg109":[1],"sdaReg103":[5],"sdaReg105":[5],"sdaReg106":[5],"sdaReg86":[6],"1093717072.<android.os.Bundle: boolean mHasFds>":[1],"sdaReg84":[6],"sdaReg85":[6],"1093745584":[1],"sdaReg89":[6],"1093722728.<java.util.HashMap: java.util.HashMap$HashMapEntry[] table>":[1],"sdaReg93":[1],"sdaReg92":[1],"sdaReg91":[2],"sdaReg100":[7],"sdaReg102":[2],"1093508688":[5],"sdaReg101":[7],"sdaReg95":[7],"sdaReg96":[1],"sdaReg97":[1],"sdaReg99":[7],"1093745624":[1],"1093508592":[2],"sdaReg60":[5],"sdaReg61":[5],"1084420848":[1],"1093717072.<android.os.Bundle: java.util.Map mMap>":[1],"1093757544":[1],"1093722728.<java.util.HashMap: int modCount>":[1],"sdaReg58":[5],"sdaReg57":[5],"sdaReg56":[5],"sdaReg55":[5],"sdaReg54":[5],"sdaReg53":[5],"sdaReg52":[5],"1093508592.<java.util.HashMap: int size>":[2],"1093510544":[7],"sdaReg49":[5],"sdaReg48":[1],"sdaReg45":[5],"sdaReg44":[1],"sdaReg47":[5],"sdaReg46":[1],"1093925632":[9],"sdaReg41":[4],"sdaReg40":[4],"sdaReg43":[5],"sdaReg42":[1],"sdaReg144":[5],"sdaReg39":[4],"sdaReg38":[4],"sdaReg146":[2],"sdaReg37":[4],"sdaReg140":[9],"sdaReg141":[9],"sdaReg142":[9],"sdaReg32":[4],"1083999984":[1],"sdaReg31":[1],"sdaReg30":[4],"sdaReg36":[4],"1093717072":[1],"sdaReg35":[4],"sdaReg34":[4],"sdaReg33":[4],"1093508648":[3],"sdaReg8":[1],"sdaReg9":[1],"sdaReg7":[2],"sdaReg138":[1],"1093901456":[4],"sdaReg137":[1],"sdaReg136":[9],"sdaReg134":[1],"sdaReg27":[1],"sdaReg26":[1],"sdaReg132":[2],"sdaReg29":[1],"sdaReg133":[1],"sdaReg28":[4],"sdaReg130":[8],"sdaReg0":[0],"sdaReg25":[2],"sdaReg24":[2]},"colorToColor":{"0":[10],"1":[0, 4, 5, 7, 9],"2":[0, 2],"3":[2],"4":[1],"5":[5],"6":[7],"7":[3],"8":[9],"9":[3]},"colorToLabel":{"0":"this","1":"arg#1","10":"return"}}}

Generated Model
	this->return
	arg#1->this
	arg#1->return

