Scanning method <java.net.NetPermission: void <init>(java.lang.String)>

All seen event types: MethodReturnRecord, MethodCallRecord, MethodStartRecord, MethodEndRecord, 
Ignored event types: 

JSON Encoded Analysis Data (for visualization):{"heapEdges":[],"parameters":[{"id":"1093285016","name":"this","klass":"java.net.NetPermission"},{"id":"sdaReg0","name":"arg#1","klass":"string"}],"returns":[{"id":"1093285016","name":"return","klass":"java.net.NetPermission"}],"colors":{"heapLocToColor":{"sdaReg6":[0],"sdaReg7":[0],"sdaReg5":[0],"sdaReg3":[0],"1093285016":[0],"sdaReg1":[0],"sdaReg0":[1]},"colorToColor":{"0":[2]},"colorToLabel":{"0":"this","1":"arg#1","2":"return"}}}

Generated Model
	this->return

