Scanning method <java.net.URLConnection: void setUseCaches(boolean)>

All seen event types: MethodReturnRecord, MethodCallRecord, LoadInstanceRecord, MethodStartRecord, MethodEndRecord, IfRecord, StoreInstanceRecord, 
Ignored event types: IfRecord, 

JSON Encoded Analysis Data (for visualization):{"heapEdges":[{"step":0,"from":"1093659360","to":"1093659360.<java.net.URLConnection: boolean connected>","type":"load","field":"<java.net.URLConnection: boolean connected>"},{"step":1,"from":"sdaReg0","to":"1093659360","type":"store","field":"<java.net.URLConnection: boolean useCaches>"}],"parameters":[{"id":"1093659360","name":"this","klass":"java.net.URLConnection"},{"id":"sdaReg0","name":"arg#1","klass":"boolean"}],"returns":[{"id":null,"name":"return","klass":null}],"colors":{"heapLocToColor":{"1093659360":[0],"sdaReg1":[0],"sdaReg0":[1],"1093659360.<java.net.URLConnection: boolean connected>":[0]},"colorToColor":{"1":[0]},"colorToLabel":{"0":"this","1":"arg#1","2":"return"}}}

Generated Model
	arg#1->this

