Scanning method <java.net.Authenticator: void <clinit>()>

All seen event types: StoreStaticRecord, MethodReturnRecord, MethodCallRecord, MethodStartRecord, MethodEndRecord, NewObjectRecord, 
Ignored event types: 

JSON Encoded Analysis Data (for visualization):{"heapEdges":[{"step":0,"from":"static.<java.net.Authenticator: java.net.NetPermission requestPasswordAuthenticationPermission>","to":"1093259736","type":"create","field":"<java.net.Authenticator: java.net.NetPermission requestPasswordAuthenticationPermission>"},{"step":1,"from":"static.<java.net.Authenticator: java.net.NetPermission setDefaultAuthenticatorPermission>","to":"1093269672","type":"create","field":"<java.net.Authenticator: java.net.NetPermission setDefaultAuthenticatorPermission>"}],"parameters":[],"returns":[{"id":null,"name":"return","klass":null}],"colors":{"heapLocToColor":{"sdaReg8":[0],"sdaReg9":[0],"sdaReg6":[0],"sdaReg7":[0],"sdaReg4":[0],"static.<java.net.Authenticator: java.net.NetPermission requestPasswordAuthenticationPermission>":[1],"1093259736":[0],"1093269672":[2],"static.<java.net.Authenticator: java.net.NetPermission setDefaultAuthenticatorPermission>":[3],"sdaReg14":[2],"sdaReg12":[2],"sdaReg10":[2],"sdaReg2":[0],"sdaReg19":[2],"sdaReg0":[0],"sdaReg17":[2],"sdaReg18":[2],"sdaReg16":[2]},"colorToColor":{"0":[1],"2":[3]},"colorToLabel":{"1":"<java.net.Authenticator: java.net.NetPermission requestPasswordAuthenticationPermission>","3":"<java.net.Authenticator: java.net.NetPermission setDefaultAuthenticatorPermission>","4":"return"}}}

Generated Model

