Scanning method <java.io.CharArrayWriter: char[] toCharArray()>

All seen event types: NewArrayRecord, SimpleAssignmentRecord, ExitMonitorRecord, MethodReturnRecord, MethodCallRecord, EnterMonitorRecord, LoadInstanceRecord, 
Ignored event types: ExitMonitorRecord, EnterMonitorRecord, 

JSON Encoded Analysis Data (for visualization):{"heapEdges":[{"step":0,"from":"1093603824","to":"1093603848","type":"load","field":"<java.io.Writer: java.lang.Object lock>"},{"step":1,"from":"1093603824","to":"1093603824.<java.io.CharArrayWriter: int count>","type":"load","field":"<java.io.CharArrayWriter: int count>"},{"step":2,"from":"1093603824","to":"1093603848","type":"load","field":"<java.io.CharArrayWriter: char[] buf>"},{"step":3,"from":"1093603824","to":"1093603824.<java.io.CharArrayWriter: int count>","type":"load","field":"<java.io.CharArrayWriter: int count>"},{"step":4,"from":"1093603848","to":"1093650704","type":"model"}],"parameters":[{"id":"1093603824","name":"this","klass":"java.io.CharArrayWriter"}],"returns":[{"id":"1093650704","name":"return","klass":"char[]"}],"colors":{"heapLocToColor":{"1093650704":[1],"1093603824.<java.io.CharArrayWriter: int count>":[0],"1093603848":[0],"1093603824.<java.io.CharArrayWriter: char[] buf>":[0],"1093603824":[0]},"colorToColor":{"0":[1],"1":[2]},"colorToLabel":{"0":"this","2":"return"}}}

Generated Model
	this->return

