Scanning method <android.os.Bundle: java.lang.CharSequence[] getCharSequenceArray(java.lang.String)>

All seen event types: BinaryOperationRecord, MethodReturnRecord, MethodCallRecord, ArrayLengthRecord, LoadInstanceRecord, MethodStartRecord, LoadArrayRecord, MethodEndRecord, IfRecord, 
Ignored event types: IfRecord, 

JSON Encoded Analysis Data (for visualization):{"heapEdges":[{"step":0,"from":"1093936960","to":"1093943928","type":"load","field":"<android.os.Bundle: java.util.Map mMap>"},{"step":1,"from":"1093943928","to":"1083997920","type":"load","field":"<java.util.HashMap: java.util.HashMap$HashMapEntry[] table>"}],"parameters":[{"id":"1093936960","name":"this","klass":"android.os.Bundle"},{"id":"sdaReg0","name":"arg#1","klass":"string"}],"returns":[{"id":"0","name":"return","klass":"java.lang.CharSequence[]"}],"colors":{"heapLocToColor":{"1093943928":[0],"sdaReg8":[2],"sdaReg9":[2],"sdaReg6":[2],"sdaReg7":[2],"sdaReg4":[2],"sdaReg5":[2],"sdaReg14":[2],"sdaReg11":[2],"1093936960":[0],"sdaReg10":[2],"sdaReg3":[2],"sdaReg2":[0],"1083997920":[0],"sdaReg1":[0],"sdaReg0":[1]},"colorToColor":{},"colorToLabel":{"0":"this","1":"arg#1","3":"return"}}}

Generated Model

