Scanning method <java.io.RandomAccessFile: void seek(long)>

All seen event types: LoadStaticRecord, BinaryOperationRecord, MethodReturnRecord, MethodCallRecord, LoadInstanceRecord, IfRecord, 
Ignored event types: IfRecord, 

JSON Encoded Analysis Data (for visualization):{"heapEdges":[{"step":0,"from":"static.<libcore.io.Libcore: libcore.io.Os os>","to":"1083982784","type":"load","field":"<libcore.io.Libcore: libcore.io.Os os>"},{"step":1,"from":"1093692728","to":"1093703576","type":"load","field":"<java.io.RandomAccessFile: java.io.FileDescriptor fd>"},{"step":2,"from":"static.<libcore.io.OsConstants: int SEEK_SET>","to":"static.<libcore.io.OsConstants: int SEEK_SET>","type":"load","field":"<libcore.io.OsConstants: int SEEK_SET>"},{"step":3,"from":"1083982784","to":"1093703576","type":"model"},{"step":4,"from":"1083982784","to":"sdaReg0","type":"model"},{"step":5,"from":"1083982784","to":"static.<libcore.io.OsConstants: int SEEK_SET>","type":"model"},{"step":6,"from":"1093703576","to":"1083982784","type":"model"},{"step":7,"from":"1093703576","to":"sdaReg0","type":"model"},{"step":8,"from":"1093703576","to":"static.<libcore.io.OsConstants: int SEEK_SET>","type":"model"},{"step":9,"from":"sdaReg0","to":"1083982784","type":"model"},{"step":10,"from":"sdaReg0","to":"1093703576","type":"model"},{"step":11,"from":"sdaReg0","to":"static.<libcore.io.OsConstants: int SEEK_SET>","type":"model"},{"step":12,"from":"static.<libcore.io.OsConstants: int SEEK_SET>","to":"1083982784","type":"model"},{"step":13,"from":"static.<libcore.io.OsConstants: int SEEK_SET>","to":"1093703576","type":"model"},{"step":14,"from":"static.<libcore.io.OsConstants: int SEEK_SET>","to":"sdaReg0","type":"model"}],"parameters":[{"id":"1093692728","name":"this","klass":"java.io.RandomAccessFile"},{"id":"sdaReg0","name":"arg#1","klass":"long"}],"returns":[{"id":null,"name":"return","klass":null}],"colors":{"heapLocToColor":{"static.<libcore.io.OsConstants: int SEEK_SET>":[2, 3],"1093703576":[0, 2],"1093692728":[0],"1083982784":[2],"sdaReg1":[1],"sdaReg0":[1, 2],"static.<libcore.io.Libcore: libcore.io.Os os>":[2]},"colorToColor":{"0":[1, 2, 3],"1":[0, 2, 3],"2":[0, 1, 2, 3],"3":[0, 1, 2]},"colorToLabel":{"0":"this","1":"arg#1","2":"<libcore.io.Libcore: libcore.io.Os os>","3":"<libcore.io.OsConstants: int SEEK_SET>","4":"return"}}}

Generated Model
	this->arg#1
	this-><libcore.io.OsConstants: int SEEK_SET>
	this-><libcore.io.Libcore: libcore.io.Os os>
	arg#1->this
	arg#1-><libcore.io.OsConstants: int SEEK_SET>
	arg#1-><libcore.io.Libcore: libcore.io.Os os>

