Scanning method <java.io.StringReader: int read()>

All seen event types: BinaryOperationRecord, SimpleAssignmentRecord, ExitMonitorRecord, MethodReturnRecord, MethodCallRecord, EnterMonitorRecord, MethodStartRecord, LoadInstanceRecord, MethodEndRecord, IfRecord, StoreInstanceRecord, 
Ignored event types: ExitMonitorRecord, EnterMonitorRecord, IfRecord, 

JSON Encoded Analysis Data (for visualization):{"heapEdges":[{"step":0,"from":"1093704016","to":"1093704016","type":"load","field":"<java.io.Reader: java.lang.Object lock>"},{"step":1,"from":"1093704016","to":"1093704016.<java.io.StringReader: java.lang.String str>","type":"load","field":"<java.io.StringReader: java.lang.String str>"},{"step":2,"from":"1093704016","to":"1093704016.<java.io.StringReader: int pos>","type":"load","field":"<java.io.StringReader: int pos>"},{"step":3,"from":"1093704016","to":"1093704016.<java.io.StringReader: int count>","type":"load","field":"<java.io.StringReader: int count>"},{"step":4,"from":"1093704016","to":"1093704016.<java.io.StringReader: java.lang.String str>","type":"load","field":"<java.io.StringReader: java.lang.String str>"},{"step":5,"from":"1093704016","to":"1093704016.<java.io.StringReader: int pos>","type":"load","field":"<java.io.StringReader: int pos>"},{"step":6,"from":"sdaReg4","to":"1093704016","type":"store","field":"<java.io.StringReader: int pos>"},{"step":7,"from":"1093704016.<java.io.StringReader: java.lang.String str>","to":"sdaReg5","type":"model"}],"parameters":[{"id":"1093704016","name":"this","klass":"java.io.StringReader"}],"returns":[{"id":"sdaReg5","name":"return","klass":"int"}],"colors":{"heapLocToColor":{"1093704016.<java.io.StringReader: int count>":[0],"sdaReg4":[0],"sdaReg5":[0, 1],"sdaReg2":[0],"sdaReg1":[0],"1093704016.<java.io.StringReader: int pos>":[0],"1093704016.<java.io.StringReader: java.lang.String str>":[0],"sdaReg0":[0],"1093704016.<java.io.Reader: java.lang.Object lock>":[0],"1093704016":[0]},"colorToColor":{"0":[0, 2],"1":[2]},"colorToLabel":{"0":"this","2":"return"}}}

Generated Model
	this->return

