Scanning method <android.location.Location: void setSpeed(float)>

All seen event types: StoreInstanceRecord, 
Ignored event types: 

JSON Encoded Analysis Data (for visualization):{"heapEdges":[{"step":0,"from":"sdaReg0","to":"1093945680","type":"store","field":"<android.location.Location: float mSpeed>"},{"step":1,"from":"1093945680","to":"sdaReg1","type":"create","field":"<android.location.Location: boolean mHasSpeed>"}],"parameters":[{"id":"1093945680","name":"this","klass":"android.location.Location"},{"id":"sdaReg0","name":"arg#1","klass":"float"}],"returns":[{"id":null,"name":"return","klass":null}],"colors":{"heapLocToColor":{"sdaReg0":[1],"1093945680":[0]},"colorToColor":{"1":[0]},"colorToLabel":{"0":"this","1":"arg#1","2":"return"}}}

Generated Model
	arg#1->this

