Scanning method <java.util.Locale: void setDefault(java.util.Locale)>

All seen event types: StoreStaticRecord, IfRecord, 
Ignored event types: IfRecord, 

JSON Encoded Analysis Data (for visualization):{"heapEdges":[{"step":0,"from":"1093260240","to":"static.<java.util.Locale: java.util.Locale defaultLocale>","type":"store","field":"<java.util.Locale: java.util.Locale defaultLocale>"}],"parameters":[{"id":"1093260240","name":"arg#0","klass":"java.util.Locale"}],"returns":[{"id":null,"name":"return","klass":null}],"colors":{"heapLocToColor":{"static.<java.util.Locale: java.util.Locale defaultLocale>":[1],"1093260240":[0]},"colorToColor":{"0":[1]},"colorToLabel":{"0":"arg#0","1":"<java.util.Locale: java.util.Locale defaultLocale>","2":"return"}}}

Generated Model
	arg#0-><java.util.Locale: java.util.Locale defaultLocale>

