Scanning method <java.util.AbstractList$SubAbstractList$SubAbstractListIterator: java.lang.Object next()>

All seen event types: BinaryOperationRecord, MethodReturnRecord, MethodCallRecord, MethodStartRecord, LoadInstanceRecord, LoadArrayRecord, IfRecord, MethodEndRecord, StoreInstanceRecord, 
Ignored event types: IfRecord, 

JSON Encoded Analysis Data (for visualization):{"heapEdges":[{"step":0,"from":"1093246504","to":"1093246536","type":"load","field":"<java.util.AbstractList$SubAbstractList$SubAbstractListIterator: java.util.ListIterator iterator>"},{"step":1,"from":"1093246536","to":"1093246536.<java.util.AbstractList$SimpleListIterator: int pos>","type":"load","field":"<java.util.AbstractList$SimpleListIterator: int pos>"},{"step":2,"from":"1093246504","to":"1093246504.<java.util.AbstractList$SubAbstractList$SubAbstractListIterator: int end>","type":"load","field":"<java.util.AbstractList$SubAbstractList$SubAbstractListIterator: int end>"},{"step":3,"from":"1093246504","to":"1093246536","type":"load","field":"<java.util.AbstractList$SubAbstractList$SubAbstractListIterator: java.util.ListIterator iterator>"},{"step":4,"from":"1093246536","to":"1093246536.<java.util.AbstractList$SimpleListIterator: int expectedModCount>","type":"load","field":"<java.util.AbstractList$SimpleListIterator: int expectedModCount>"},{"step":5,"from":"1093246536","to":"1093519824","type":"load","field":"<java.util.AbstractList$SimpleListIterator: java.util.AbstractList this$0>"},{"step":6,"from":"1093519824","to":"1093519824.<java.util.AbstractList: int modCount>","type":"load","field":"<java.util.AbstractList: int modCount>"},{"step":7,"from":"1093246536","to":"1093519824","type":"load","field":"<java.util.AbstractList$SimpleListIterator: java.util.AbstractList this$0>"},{"step":8,"from":"1093246536","to":"1093246536.<java.util.AbstractList$SimpleListIterator: int pos>","type":"load","field":"<java.util.AbstractList$SimpleListIterator: int pos>"},{"step":9,"from":"1093519824","to":"1093519824.<java.util.ArrayList: int size>","type":"load","field":"<java.util.ArrayList: int size>"},{"step":10,"from":"1093519824","to":"1094129696","type":"load","field":"<java.util.ArrayList: java.lang.Object[] array>"},{"step":11,"from":"1094129696","to":"1093568240","type":"load","field":"arrayIdx_int:52"},{"step":12,"from":"1093246536","to":"1093246536.<java.util.AbstractList$SimpleListIterator: int pos>","type":"load","field":"<java.util.AbstractList$SimpleListIterator: int pos>"},{"step":13,"from":"sdaReg6","to":"1093246536","type":"store","field":"<java.util.AbstractList$SimpleListIterator: int pos>"},{"step":14,"from":"sdaReg6","to":"1093246536","type":"store","field":"<java.util.AbstractList$SimpleListIterator: int lastPosition>"}],"parameters":[{"id":"1093246504","name":"this","klass":"java.util.AbstractList$SubAbstractList$SubAbstractListIterator"}],"returns":[{"id":"1093568240","name":"return","klass":"java.lang.Object"}],"colors":{"heapLocToColor":{"1093246536.<java.util.AbstractList$SimpleListIterator: int expectedModCount>":[0],"sdaReg6":[0],"1093246504.<java.util.AbstractList$SubAbstractList$SubAbstractListIterator: java.util.ListIterator iterator>":[0],"sdaReg7":[0],"sdaReg4":[0],"sdaReg5":[0],"1094129696":[0],"1093519824.<java.util.ArrayList: int size>":[0],"1093246536":[0],"1093246536.<java.util.AbstractList$SimpleListIterator: int pos>":[0],"1093568240":[0],"1093246504":[0],"1093246536.<java.util.AbstractList$SimpleListIterator: java.util.AbstractList this$0>":[0],"1093519824":[0],"sdaReg3":[0],"sdaReg2":[0],"sdaReg1":[0],"sdaReg0":[0],"1093246504.<java.util.AbstractList$SubAbstractList$SubAbstractListIterator: int end>":[0],"1093519824.<java.util.AbstractList: int modCount>":[0]},"colorToColor":{"0":[0, 1]},"colorToLabel":{"0":"this","1":"return"}}}

Generated Model
	this->return

