Scanning method <java.util.HashMap: void <init>()>

All seen event types: LoadStaticRecord, MethodReturnRecord, MethodCallRecord, CastRecord, MethodStartRecord, MethodEndRecord, StoreInstanceRecord, 
Ignored event types: 

JSON Encoded Analysis Data (for visualization):{"heapEdges":[{"step":0,"from":"static.<java.util.HashMap: java.util.Map$Entry[] EMPTY_TABLE>","to":"1083997920","type":"load","field":"<java.util.HashMap: java.util.Map$Entry[] EMPTY_TABLE>"},{"step":1,"from":"1083997920","to":"1093438536","type":"store","field":"<java.util.HashMap: java.util.HashMap$HashMapEntry[] table>"},{"step":2,"from":"1093438536","to":"sdaReg5","type":"create","field":"<java.util.HashMap: int threshold>"}],"parameters":[{"id":"1093438536","name":"this","klass":"java.util.HashMap"}],"returns":[{"id":"1093438536","name":"return","klass":"java.util.HashMap"}],"colors":{"heapLocToColor":{"sdaReg4":[1],"1093438536":[0],"sdaReg3":[1],"sdaReg2":[0],"1083997920":[1],"static.<java.util.HashMap: java.util.Map$Entry[] EMPTY_TABLE>":[1],"sdaReg1":[0],"sdaReg0":[0]},"colorToColor":{"0":[2],"1":[0]},"colorToLabel":{"0":"this","1":"<java.util.HashMap: java.util.Map$Entry[] EMPTY_TABLE>","2":"return"}}}

Generated Model
	this->return

