Scanning method <android.util.Base64: byte[] decode(byte[],int)>

All seen event types: StoreArrayRecord, SimpleAssignmentRecord, MethodStartRecord, LoadInstanceRecord, IfRecord, NewObjectRecord, StoreInstanceRecord, NewArrayRecord, LoadStaticRecord, BinaryOperationRecord, SwitchRecord, MethodCallRecord, MethodReturnRecord, CastRecord, ArrayLengthRecord, LoadArrayRecord, MethodEndRecord, 
Ignored event types: SwitchRecord, IfRecord, 

JSON Encoded Analysis Data (for visualization):{"heapEdges":[{"step":0,"from":"1097660400","to":"1097660432","type":"create","field":"<android.util.Base64$Coder: byte[] output>"},{"step":1,"from":"static.<android.util.Base64$Decoder: int[] DECODE>","to":"1096049968","type":"load","field":"<android.util.Base64$Decoder: int[] DECODE>"},{"step":2,"from":"1096049968","to":"1097660400","type":"store","field":"<android.util.Base64$Decoder: int[] alphabet>"},{"step":3,"from":"1097660400","to":"sdaReg12","type":"create","field":"<android.util.Base64$Decoder: int state>"},{"step":4,"from":"1097660400","to":"sdaReg13","type":"create","field":"<android.util.Base64$Decoder: int value>"},{"step":5,"from":"1097642304","to":"1097642304.arrayIdx_int:0","type":"load","field":"arrayIdx_int:0"},{"step":6,"from":"1096049968","to":"1096049968.arrayIdx_int:47","type":"load","field":"arrayIdx_int:47"},{"step":7,"from":"1097642304","to":"1097642304.arrayIdx_int:1","type":"load","field":"arrayIdx_int:1"},{"step":8,"from":"1096049968","to":"1096049968.arrayIdx_int:43","type":"load","field":"arrayIdx_int:43"},{"step":9,"from":"1097642304","to":"1097642304.arrayIdx_int:2","type":"load","field":"arrayIdx_int:2"},{"step":10,"from":"1096049968","to":"1096049968.arrayIdx_int:52","type":"load","field":"arrayIdx_int:52"},{"step":11,"from":"1097642304","to":"1097642304.arrayIdx_int:3","type":"load","field":"arrayIdx_int:3"},{"step":12,"from":"1096049968","to":"1096049968.arrayIdx_int:61","type":"load","field":"arrayIdx_int:61"},{"step":13,"from":"1097642304","to":"1097642304.arrayIdx_int:0","type":"load","field":"arrayIdx_int:0"},{"step":14,"from":"1096049968","to":"1096049968.arrayIdx_int:47","type":"load","field":"arrayIdx_int:47"},{"step":15,"from":"1097642304","to":"1097642304.arrayIdx_int:1","type":"load","field":"arrayIdx_int:1"},{"step":16,"from":"1096049968","to":"1096049968.arrayIdx_int:43","type":"load","field":"arrayIdx_int:43"},{"step":17,"from":"1097642304","to":"1097642304.arrayIdx_int:2","type":"load","field":"arrayIdx_int:2"},{"step":18,"from":"1096049968","to":"1096049968.arrayIdx_int:52","type":"load","field":"arrayIdx_int:52"},{"step":19,"from":"1097642304","to":"1097642304.arrayIdx_int:3","type":"load","field":"arrayIdx_int:3"},{"step":20,"from":"1096049968","to":"1096049968.arrayIdx_int:61","type":"load","field":"arrayIdx_int:61"},{"step":21,"from":"sdaReg44","to":"1097660432","type":"store","field":"arrayIdx_int:1"},{"step":22,"from":"sdaReg46","to":"1097660432","type":"store","field":"arrayIdx_int:0"},{"step":23,"from":"sdaReg39","to":"1097660400","type":"store","field":"<android.util.Base64$Decoder: int state>"},{"step":24,"from":"sdaReg21","to":"1097660400","type":"store","field":"<android.util.Base64$Coder: int op>"},{"step":25,"from":"1097660432","to":"1097811720","type":"model"}],"parameters":[{"id":"1097642304","name":"arg#0","klass":"byte[]"},{"id":"sdaReg0","name":"arg#1","klass":"int"}],"returns":[{"id":"1097811720","name":"return","klass":"byte[]"}],"colors":{"heapLocToColor":{"1097811720":[5],"1096049968.arrayIdx_int:47":[4],"1096049968.arrayIdx_int:43":[4],"1096049968.arrayIdx_int:61":[4],"sdaReg14":[2],"sdaReg38":[0],"sdaReg11":[1],"1097660400":[2],"sdaReg10":[2],"sdaReg32":[4],"sdaReg31":[4],"sdaReg30":[0],"sdaReg36":[4],"sdaReg17":[0],"sdaReg35":[4],"sdaReg34":[0],"sdaReg15":[2],"sdaReg16":[2],"sdaReg8":[2],"sdaReg9":[2],"sdaReg6":[2],"sdaReg7":[3],"1096049968.arrayIdx_int:52":[4],"1097642304":[0],"static.<android.util.Base64$Decoder: int[] DECODE>":[4],"1096049968":[4],"sdaReg27":[4],"sdaReg26":[0],"sdaReg28":[4],"sdaReg49":[5],"1097660432":[3],"sdaReg45":[4],"sdaReg44":[4],"sdaReg2":[0],"sdaReg46":[4],"sdaReg0":[1],"sdaReg41":[4],"1097642304.arrayIdx_int:0":[0],"sdaReg23":[0],"sdaReg40":[4],"1097642304.arrayIdx_int:1":[0],"sdaReg43":[4],"1097642304.arrayIdx_int:2":[0],"1097642304.arrayIdx_int:3":[0],"sdaReg24":[4]},"colorToColor":{"3":[2, 5],"4":[2, 3],"5":[6]},"colorToLabel":{"0":"arg#0","1":"arg#1","4":"<android.util.Base64$Decoder: int[] DECODE>","6":"return"}}}

Generated Model

