Scanning method <android.util.Base64: byte[] decode(byte[],int)>

All seen event types: StoreArrayRecord, SimpleAssignmentRecord, MethodStartRecord, LoadInstanceRecord, IfRecord, NewObjectRecord, StoreInstanceRecord, NewArrayRecord, LoadStaticRecord, BinaryOperationRecord, SwitchRecord, MethodCallRecord, MethodReturnRecord, CastRecord, ArrayLengthRecord, LoadArrayRecord, MethodEndRecord, 
Ignored event types: SwitchRecord, IfRecord, 

JSON Encoded Analysis Data (for visualization):{"heapEdges":[{"step":0,"from":"1093932832","to":"1093951728","type":"create","field":"<android.util.Base64$Coder: byte[] output>"},{"step":1,"from":"static.<android.util.Base64$Decoder: int[] DECODE_WEBSAFE>","to":"1093755832","type":"load","field":"<android.util.Base64$Decoder: int[] DECODE_WEBSAFE>"},{"step":2,"from":"1093755832","to":"1093932832","type":"store","field":"<android.util.Base64$Decoder: int[] alphabet>"},{"step":3,"from":"1093932832","to":"sdaReg12","type":"create","field":"<android.util.Base64$Decoder: int state>"},{"step":4,"from":"1093932832","to":"sdaReg13","type":"create","field":"<android.util.Base64$Decoder: int value>"},{"step":5,"from":"1093454544","to":"1093454544.arrayIdx_int:0","type":"load","field":"arrayIdx_int:0"},{"step":6,"from":"1093755832","to":"1093755832.arrayIdx_int:95","type":"load","field":"arrayIdx_int:95"},{"step":7,"from":"1093454544","to":"1093454544.arrayIdx_int:1","type":"load","field":"arrayIdx_int:1"},{"step":8,"from":"1093755832","to":"1093755832.arrayIdx_int:45","type":"load","field":"arrayIdx_int:45"},{"step":9,"from":"1093454544","to":"1093454544.arrayIdx_int:2","type":"load","field":"arrayIdx_int:2"},{"step":10,"from":"1093755832","to":"1093755832.arrayIdx_int:55","type":"load","field":"arrayIdx_int:55"},{"step":11,"from":"1093454544","to":"1093454544.arrayIdx_int:3","type":"load","field":"arrayIdx_int:3"},{"step":12,"from":"1093755832","to":"1093755832.arrayIdx_int:100","type":"load","field":"arrayIdx_int:100"},{"step":13,"from":"sdaReg38","to":"1093951728","type":"store","field":"arrayIdx_int:2"},{"step":14,"from":"sdaReg41","to":"1093951728","type":"store","field":"arrayIdx_int:1"},{"step":15,"from":"sdaReg43","to":"1093951728","type":"store","field":"arrayIdx_int:0"},{"step":16,"from":"sdaReg44","to":"1093932832","type":"store","field":"<android.util.Base64$Decoder: int state>"},{"step":17,"from":"sdaReg21","to":"1093932832","type":"store","field":"<android.util.Base64$Coder: int op>"}],"parameters":[{"id":"1093454544","name":"arg#0","klass":"byte[]"},{"id":"sdaReg0","name":"arg#1","klass":"int"}],"returns":[{"id":"1093951728","name":"return","klass":"byte[]"}],"colors":{"heapLocToColor":{"1093454544.arrayIdx_int:3":[0],"1093755832.arrayIdx_int:55":[4],"sdaReg14":[2],"sdaReg38":[4],"sdaReg11":[1],"sdaReg10":[2],"1093755832":[4],"sdaReg32":[4],"sdaReg31":[4],"sdaReg30":[0],"sdaReg36":[4],"sdaReg17":[0],"sdaReg35":[4],"1093755832.arrayIdx_int:95":[4],"sdaReg34":[0],"sdaReg15":[2],"sdaReg16":[2],"1093755832.arrayIdx_int:100":[4],"sdaReg8":[2],"sdaReg9":[2],"sdaReg6":[2],"sdaReg7":[3],"1093951728":[3],"1093755832.arrayIdx_int:45":[4],"sdaReg27":[4],"1093932832":[2],"sdaReg26":[0],"sdaReg28":[4],"1093454544.arrayIdx_int:0":[0],"sdaReg2":[0],"sdaReg47":[3],"1093454544.arrayIdx_int:2":[0],"static.<android.util.Base64$Decoder: int[] DECODE_WEBSAFE>":[4],"sdaReg0":[1],"1093454544.arrayIdx_int:1":[0],"sdaReg41":[4],"sdaReg23":[0],"sdaReg40":[4],"1093454544":[0],"sdaReg43":[4],"sdaReg42":[4],"sdaReg24":[4]},"colorToColor":{"3":[2, 5],"4":[2, 3]},"colorToLabel":{"0":"arg#0","1":"arg#1","4":"<android.util.Base64$Decoder: int[] DECODE_WEBSAFE>","5":"return"}}}

Generated Model

