Scanning method <android.util.Base64: byte[] decode(byte[],int)>

All seen event types: StoreArrayRecord, SimpleAssignmentRecord, MethodStartRecord, LoadInstanceRecord, IfRecord, NewObjectRecord, StoreInstanceRecord, NewArrayRecord, LoadStaticRecord, BinaryOperationRecord, SwitchRecord, MethodCallRecord, MethodReturnRecord, CastRecord, ArrayLengthRecord, LoadArrayRecord, MethodEndRecord, 
Ignored event types: SwitchRecord, IfRecord, 

JSON Encoded Analysis Data (for visualization):{"heapEdges":[{"step":0,"from":"1093522280","to":"1093486576","type":"create","field":"<android.util.Base64$Coder: byte[] output>"},{"step":1,"from":"static.<android.util.Base64$Decoder: int[] DECODE>","to":"1094029720","type":"load","field":"<android.util.Base64$Decoder: int[] DECODE>"},{"step":2,"from":"1094029720","to":"1093522280","type":"store","field":"<android.util.Base64$Decoder: int[] alphabet>"},{"step":3,"from":"1093522280","to":"sdaReg12","type":"create","field":"<android.util.Base64$Decoder: int state>"},{"step":4,"from":"1093522280","to":"sdaReg13","type":"create","field":"<android.util.Base64$Decoder: int value>"},{"step":5,"from":"1093752920","to":"1093752920.arrayIdx_int:0","type":"load","field":"arrayIdx_int:0"},{"step":6,"from":"1094029720","to":"1094029720.arrayIdx_int:89","type":"load","field":"arrayIdx_int:89"},{"step":7,"from":"1093752920","to":"1093752920.arrayIdx_int:1","type":"load","field":"arrayIdx_int:1"},{"step":8,"from":"1094029720","to":"1094029720.arrayIdx_int:81","type":"load","field":"arrayIdx_int:81"},{"step":9,"from":"1093752920","to":"1093752920.arrayIdx_int:2","type":"load","field":"arrayIdx_int:2"},{"step":10,"from":"1094029720","to":"1094029720.arrayIdx_int:10","type":"load","field":"arrayIdx_int:10"},{"step":11,"from":"sdaReg30","to":"1093486576","type":"store","field":"arrayIdx_int:0"},{"step":12,"from":"sdaReg26","to":"1093522280","type":"store","field":"<android.util.Base64$Decoder: int state>"},{"step":13,"from":"sdaReg21","to":"1093522280","type":"store","field":"<android.util.Base64$Coder: int op>"},{"step":14,"from":"1093486576","to":"1093668768","type":"model"}],"parameters":[{"id":"1093752920","name":"arg#0","klass":"byte[]"},{"id":"sdaReg0","name":"arg#1","klass":"int"}],"returns":[{"id":"1093668768","name":"return","klass":"byte[]"}],"colors":{"heapLocToColor":{"1094029720.arrayIdx_int:89":[4],"1093522280":[2],"1093486576":[3],"1094029720":[4],"sdaReg14":[2],"sdaReg11":[1],"1094029720.arrayIdx_int:10":[4],"sdaReg10":[2],"1094029720.arrayIdx_int:81":[4],"sdaReg30":[4],"sdaReg17":[0],"1093668768":[5],"sdaReg15":[2],"sdaReg33":[5],"sdaReg16":[2],"sdaReg8":[2],"sdaReg9":[2],"1093752920":[0],"sdaReg6":[2],"sdaReg7":[3],"1093752920.arrayIdx_int:2":[0],"1093752920.arrayIdx_int:1":[0],"static.<android.util.Base64$Decoder: int[] DECODE>":[4],"1093752920.arrayIdx_int:0":[0],"sdaReg27":[4],"sdaReg29":[4],"sdaReg2":[0],"sdaReg0":[1],"sdaReg25":[4],"sdaReg24":[0]},"colorToColor":{"3":[2, 5],"4":[2, 3],"5":[6]},"colorToLabel":{"0":"arg#0","1":"arg#1","4":"<android.util.Base64$Decoder: int[] DECODE>","6":"return"}}}

Generated Model

