Scanning method <android.util.Base64: byte[] decode(byte[],int)>

All seen event types: StoreArrayRecord, SimpleAssignmentRecord, MethodStartRecord, LoadInstanceRecord, IfRecord, NewObjectRecord, StoreInstanceRecord, NewArrayRecord, LoadStaticRecord, BinaryOperationRecord, SwitchRecord, MethodCallRecord, MethodReturnRecord, CastRecord, ArrayLengthRecord, LoadArrayRecord, MethodEndRecord, 
Ignored event types: SwitchRecord, IfRecord, 

JSON Encoded Analysis Data (for visualization):{"heapEdges":[{"step":0,"from":"1094796720","to":"1094146112","type":"create","field":"<android.util.Base64$Coder: byte[] output>"},{"step":1,"from":"static.<android.util.Base64$Decoder: int[] DECODE>","to":"1094029720","type":"load","field":"<android.util.Base64$Decoder: int[] DECODE>"},{"step":2,"from":"1094029720","to":"1094796720","type":"store","field":"<android.util.Base64$Decoder: int[] alphabet>"},{"step":3,"from":"1094796720","to":"sdaReg12","type":"create","field":"<android.util.Base64$Decoder: int state>"},{"step":4,"from":"1094796720","to":"sdaReg13","type":"create","field":"<android.util.Base64$Decoder: int value>"},{"step":5,"from":"1093663096","to":"1093663096.arrayIdx_int:0","type":"load","field":"arrayIdx_int:0"},{"step":6,"from":"1094029720","to":"1094029720.arrayIdx_int:89","type":"load","field":"arrayIdx_int:89"},{"step":7,"from":"1093663096","to":"1093663096.arrayIdx_int:1","type":"load","field":"arrayIdx_int:1"},{"step":8,"from":"1094029720","to":"1094029720.arrayIdx_int:81","type":"load","field":"arrayIdx_int:81"},{"step":9,"from":"sdaReg30","to":"1094146112","type":"store","field":"arrayIdx_int:0"},{"step":10,"from":"sdaReg26","to":"1094796720","type":"store","field":"<android.util.Base64$Decoder: int state>"},{"step":11,"from":"sdaReg21","to":"1094796720","type":"store","field":"<android.util.Base64$Coder: int op>"}],"parameters":[{"id":"1093663096","name":"arg#0","klass":"byte[]"},{"id":"sdaReg0","name":"arg#1","klass":"int"}],"returns":[{"id":"1094146112","name":"return","klass":"byte[]"}],"colors":{"heapLocToColor":{"1094029720.arrayIdx_int:89":[4],"1093663096.arrayIdx_int:1":[0],"1093663096.arrayIdx_int:0":[0],"1094029720":[4],"sdaReg14":[2],"sdaReg11":[1],"sdaReg10":[2],"1094029720.arrayIdx_int:81":[4],"sdaReg30":[4],"sdaReg17":[0],"sdaReg15":[2],"sdaReg33":[3],"sdaReg16":[2],"1093663096":[0],"sdaReg8":[2],"sdaReg9":[2],"sdaReg6":[2],"sdaReg7":[3],"1094146112":[3],"static.<android.util.Base64$Decoder: int[] DECODE>":[4],"sdaReg27":[4],"sdaReg29":[4],"1094796720":[2],"sdaReg2":[0],"sdaReg0":[1],"sdaReg25":[4],"sdaReg24":[0]},"colorToColor":{"3":[2, 5],"4":[2, 3]},"colorToLabel":{"0":"arg#0","1":"arg#1","4":"<android.util.Base64$Decoder: int[] DECODE>","5":"return"}}}

Generated Model

