Scanning method <java.util.Formatter$FormatToken: boolean setFlag(int)>

All seen event types: SimpleAssignmentRecord, SwitchRecord, 
Ignored event types: SwitchRecord, 

JSON Encoded Analysis Data (for visualization):{"heapEdges":[],"parameters":[{"id":"1093279280","name":"this","klass":"java.util.Formatter$FormatToken"},{"id":"sdaReg0","name":"arg#1","klass":"int"}],"returns":[{"id":null,"name":"return","klass":"boolean"}],"colors":{"heapLocToColor":{"sdaReg0":[1],"1093279280":[0]},"colorToColor":{},"colorToLabel":{"0":"this","1":"arg#1","2":"return"}}}

Generated Model

