Scanning method <android.util.Base64: java.lang.String encodeToString(byte[],int)>

All seen event types: StoreArrayRecord, SimpleAssignmentRecord, MethodStartRecord, LoadInstanceRecord, IfRecord, NewObjectRecord, StoreInstanceRecord, LoadStaticRecord, NewArrayRecord, BinaryOperationRecord, MethodCallRecord, MethodReturnRecord, SwitchRecord, ArrayLengthRecord, LoadArrayRecord, MethodEndRecord, 
Ignored event types: SwitchRecord, IfRecord, 

JSON Encoded Analysis Data (for visualization):{"heapEdges":[{"step":0,"from":"1094156792","to":"sdaReg0","type":"model"},{"step":1,"from":"sdaReg0","to":"1094156792","type":"model"},{"step":2,"from":"sdaReg0","to":"1094156792","type":"model"},{"step":3,"from":"1094156792","to":"1094156792.<android.util.Base64$Encoder: boolean do_padding>","type":"load","field":"<android.util.Base64$Encoder: boolean do_padding>"},{"step":4,"from":"1094156792","to":"1094156792.<android.util.Base64$Encoder: boolean do_newline>","type":"load","field":"<android.util.Base64$Encoder: boolean do_newline>"},{"step":5,"from":"1094156792","to":"1093795176","type":"create","field":"<android.util.Base64$Coder: byte[] output>"},{"step":6,"from":"1094156792","to":"1093738224","type":"load","field":"<android.util.Base64$Encoder: byte[] alphabet>"},{"step":7,"from":"1094156792","to":"1094156792.<android.util.Base64$Encoder: int count>","type":"load","field":"<android.util.Base64$Encoder: int count>"},{"step":8,"from":"1094156792","to":"1094156792.<android.util.Base64$Encoder: int tailLen>","type":"load","field":"<android.util.Base64$Encoder: int tailLen>"},{"step":9,"from":"1094156792","to":"1094156792.<android.util.Base64$Encoder: int tailLen>","type":"load","field":"<android.util.Base64$Encoder: int tailLen>"},{"step":10,"from":"1094156792","to":"1094156792.<android.util.Base64$Encoder: int tailLen>","type":"load","field":"<android.util.Base64$Encoder: int tailLen>"},{"step":11,"from":"1093675480","to":"1093675480.arrayIdx_int:0","type":"load","field":"arrayIdx_int:0"},{"step":12,"from":"1094156792","to":"1094156792.<android.util.Base64$Encoder: int tailLen>","type":"load","field":"<android.util.Base64$Encoder: int tailLen>"},{"step":13,"from":"sdaReg24","to":"1094156792","type":"store","field":"<android.util.Base64$Encoder: int tailLen>"},{"step":14,"from":"1093738224","to":"1093738224.arrayIdx_int:24","type":"load","field":"arrayIdx_int:24"},{"step":15,"from":"1093738224.arrayIdx_int:24","to":"1093795176","type":"store","field":"arrayIdx_int:0"},{"step":16,"from":"1093738224","to":"1093738224.arrayIdx_int:16","type":"load","field":"arrayIdx_int:16"},{"step":17,"from":"1093738224.arrayIdx_int:16","to":"1093795176","type":"store","field":"arrayIdx_int:1"},{"step":18,"from":"1094156792","to":"1094156792.<android.util.Base64$Encoder: boolean do_padding>","type":"load","field":"<android.util.Base64$Encoder: boolean do_padding>"},{"step":19,"from":"1094156792","to":"1094156792.<android.util.Base64$Encoder: boolean do_newline>","type":"load","field":"<android.util.Base64$Encoder: boolean do_newline>"},{"step":20,"from":"static.<android.util.Base64$Encoder: boolean $assertionsDisabled>","to":"static.<android.util.Base64$Encoder: boolean $assertionsDisabled>","type":"load","field":"<android.util.Base64$Encoder: boolean $assertionsDisabled>"},{"step":21,"from":"static.<android.util.Base64$Encoder: boolean $assertionsDisabled>","to":"static.<android.util.Base64$Encoder: boolean $assertionsDisabled>","type":"load","field":"<android.util.Base64$Encoder: boolean $assertionsDisabled>"},{"step":22,"from":"sdaReg13","to":"1094156792","type":"store","field":"<android.util.Base64$Coder: int op>"},{"step":23,"from":"1094156792.<android.util.Base64$Encoder: int count>","to":"1094156792","type":"store","field":"<android.util.Base64$Encoder: int count>"},{"step":24,"from":"static.<android.util.Base64: boolean $assertionsDisabled>","to":"static.<android.util.Base64: boolean $assertionsDisabled>","type":"load","field":"<android.util.Base64: boolean $assertionsDisabled>"},{"step":25,"from":"1093795176","to":"sdaReg32","type":"model"}],"parameters":[{"id":"1093675480","name":"arg#0","klass":"byte[]"},{"id":"sdaReg0","name":"arg#1","klass":"int"}],"returns":[{"id":"sdaReg32","name":"return","klass":"string"}],"colors":{"heapLocToColor":{"1094156792.<android.util.Base64$Encoder: int count>":[2],"1094156792.<android.util.Base64$Encoder: int tailLen>":[2],"1093738224.arrayIdx_int:24":[2],"sdaReg11":[0],"sdaReg10":[2],"sdaReg32":[6],"sdaReg31":[3],"sdaReg30":[3],"1093675480.arrayIdx_int:0":[0],"1094156792.<android.util.Base64$Encoder: boolean do_newline>":[2],"static.<android.util.Base64: boolean $assertionsDisabled>":[5],"sdaReg18":[2],"static.<android.util.Base64$Encoder: boolean $assertionsDisabled>":[4],"sdaReg6":[2],"sdaReg5":[2],"1093738224.arrayIdx_int:16":[2],"1094156792":[2],"1094156792.<android.util.Base64$Encoder: boolean do_padding>":[2],"sdaReg27":[0],"sdaReg26":[0],"1093675480":[0],"sdaReg28":[0],"1093795176":[3],"sdaReg3":[0],"sdaReg1":[0],"1093738224":[2],"sdaReg0":[1, 2],"sdaReg23":[0],"sdaReg22":[0],"sdaReg24":[2]},"colorToColor":{"1":[2],"2":[2, 3],"3":[2, 6],"6":[7]},"colorToLabel":{"0":"arg#0","1":"arg#1","4":"<android.util.Base64$Encoder: boolean $assertionsDisabled>","5":"<android.util.Base64: boolean $assertionsDisabled>","7":"return"}}}

Generated Model
	arg#1->return

