Scanning method <java.io.ByteArrayInputStream: boolean markSupported()>

All seen event types: 
Ignored event types: 

JSON Encoded Analysis Data (for visualization):{"heapEdges":[],"parameters":[{"id":"1093583696","name":"this","klass":"java.io.ByteArrayInputStream"}],"returns":[{"id":null,"name":"return","klass":"boolean"}],"colors":{"heapLocToColor":{"1093583696":[0]},"colorToColor":{},"colorToLabel":{"0":"this","1":"return"}}}

Generated Model

