Scanning method <java.util.HashMap$EntryIterator: void <init>(java.util.HashMap,java.util.HashMap$1)>

All seen event types: BinaryOperationRecord, SimpleAssignmentRecord, MethodReturnRecord, MethodCallRecord, ArrayLengthRecord, LoadInstanceRecord, MethodStartRecord, LoadArrayRecord, MethodEndRecord, IfRecord, StoreInstanceRecord, 
Ignored event types: IfRecord, 

JSON Encoded Analysis Data (for visualization):{"heapEdges":[{"step":0,"from":"1093246512","to":"1093560096","type":"store","field":"<java.util.HashMap$EntryIterator: java.util.HashMap this$0>"},{"step":1,"from":"1093246512","to":"1093560096","type":"store","field":"<java.util.HashMap$HashIterator: java.util.HashMap this$0>"},{"step":2,"from":"1093246512","to":"1093246512.<java.util.HashMap: int modCount>","type":"load","field":"<java.util.HashMap: int modCount>"},{"step":3,"from":"1093246512.<java.util.HashMap: int modCount>","to":"1093560096","type":"store","field":"<java.util.HashMap$HashIterator: int expectedModCount>"},{"step":4,"from":"1093246512","to":"1093556768","type":"load","field":"<java.util.HashMap: java.util.HashMap$HashMapEntry[] table>"},{"step":5,"from":"1093560096","to":"1093560096.<java.util.HashMap$HashIterator: int nextIndex>","type":"load","field":"<java.util.HashMap$HashIterator: int nextIndex>"},{"step":6,"from":"1093560096","to":"1093560096.<java.util.HashMap$HashIterator: int nextIndex>","type":"load","field":"<java.util.HashMap$HashIterator: int nextIndex>"},{"step":7,"from":"sdaReg7","to":"1093560096","type":"store","field":"<java.util.HashMap$HashIterator: int nextIndex>"},{"step":8,"from":"1093556768","to":"1093556824","type":"load","field":"arrayIdx_int:0"},{"step":9,"from":"1093556824","to":"1093560096","type":"store","field":"<java.util.HashMap$HashIterator: java.util.HashMap$HashMapEntry nextEntry>"}],"parameters":[{"id":"1093560096","name":"this","klass":"java.util.HashMap$EntryIterator"},{"id":"1093246512","name":"arg#1","klass":"java.util.HashMap"},{"id":"0","name":"arg#2","klass":"java.util.HashMap$1"}],"returns":[{"id":"1093560096","name":"return","klass":"java.util.HashMap$EntryIterator"}],"colors":{"heapLocToColor":{"1093560096":[0],"sdaReg8":[0],"sdaReg9":[0],"sdaReg7":[0],"sdaReg4":[0],"1093246512":[1],"1093556824":[1],"1093246512.<java.util.HashMap: int modCount>":[1],"0":[2],"1093556768":[1],"sdaReg3":[1],"sdaReg2":[0],"1093560096.<java.util.HashMap$HashIterator: int nextIndex>":[0],"sdaReg1":[1],"sdaReg0":[0]},"colorToColor":{"0":[0, 3],"1":[0]},"colorToLabel":{"0":"this","1":"arg#1","2":"arg#2","3":"return"}}}

Generated Model
	this->return
	arg#1->this
	arg#1->return

