Scanning method <java.io.BufferedWriter: void checkNotClosed()>

All seen event types: SimpleAssignmentRecord, MethodReturnRecord, MethodCallRecord, LoadInstanceRecord, MethodStartRecord, MethodEndRecord, IfRecord, 
Ignored event types: IfRecord, 

JSON Encoded Analysis Data (for visualization):{"heapEdges":[{"step":0,"from":"1093592976","to":"1093585672","type":"load","field":"<java.io.BufferedWriter: java.io.Writer out>"}],"parameters":[{"id":"1093592976","name":"this","klass":"java.io.BufferedWriter"}],"returns":[{"id":null,"name":"return","klass":null}],"colors":{"heapLocToColor":{"1093585672":[0],"sdaReg0":[0],"1093592976":[0]},"colorToColor":{},"colorToLabel":{"0":"this","1":"return"}}}

Generated Model

