Scanning method <java.io.DataInputStream: java.lang.String readUTF()>

All seen event types: StoreArrayRecord, SimpleAssignmentRecord, MethodStartRecord, LoadInstanceRecord, IfRecord, NewObjectRecord, LoadStaticRecord, NewArrayRecord, BinaryOperationRecord, MethodCallRecord, MethodReturnRecord, CastRecord, LoadArrayRecord, MethodEndRecord, 
Ignored event types: IfRecord, 

JSON Encoded Analysis Data (for visualization):{"heapEdges":[{"step":0,"from":"1093679648","to":"1093679784","type":"load","field":"<java.io.FilterInputStream: java.io.InputStream in>"},{"step":1,"from":"1093679648","to":"1093679856","type":"load","field":"<java.io.DataInputStream: byte[] scratch>"},{"step":2,"from":"1093679784","to":"1093679856","type":"model"},{"step":3,"from":"1093679648","to":"1093679856","type":"load","field":"<java.io.DataInputStream: byte[] scratch>"},{"step":4,"from":"static.<java.nio.ByteOrder: java.nio.ByteOrder BIG_ENDIAN>","to":"1084339448","type":"load","field":"<java.nio.ByteOrder: java.nio.ByteOrder BIG_ENDIAN>"},{"step":5,"from":"1093679856","to":"sdaReg2","type":"model"},{"step":6,"from":"1093679648","to":"1093679784","type":"load","field":"<java.io.FilterInputStream: java.io.InputStream in>"},{"step":7,"from":"1093679784","to":"1093688176","type":"model"},{"step":8,"from":"1093688176","to":"1093688176.arrayIdx_int:0","type":"load","field":"arrayIdx_int:0"},{"step":9,"from":"sdaReg16","to":"1093698352","type":"store","field":"arrayIdx_int:0"},{"step":10,"from":"1093688176","to":"1093688176.arrayIdx_int:1","type":"load","field":"arrayIdx_int:1"},{"step":11,"from":"sdaReg16","to":"1093698352","type":"store","field":"arrayIdx_int:1"},{"step":12,"from":"1093688176","to":"1093688176.arrayIdx_int:2","type":"load","field":"arrayIdx_int:2"},{"step":13,"from":"sdaReg16","to":"1093698352","type":"store","field":"arrayIdx_int:2"},{"step":14,"from":"1093688176","to":"1093688176.arrayIdx_int:3","type":"load","field":"arrayIdx_int:3"},{"step":15,"from":"sdaReg16","to":"1093698352","type":"store","field":"arrayIdx_int:3"},{"step":16,"from":"1093688176","to":"1093688176.arrayIdx_int:4","type":"load","field":"arrayIdx_int:4"},{"step":17,"from":"sdaReg16","to":"1093698352","type":"store","field":"arrayIdx_int:4"},{"step":18,"from":"1093688176","to":"1093688176.arrayIdx_int:5","type":"load","field":"arrayIdx_int:5"},{"step":19,"from":"sdaReg16","to":"1093698352","type":"store","field":"arrayIdx_int:5"},{"step":20,"from":"1093688176","to":"1093688176.arrayIdx_int:6","type":"load","field":"arrayIdx_int:6"},{"step":21,"from":"sdaReg16","to":"1093698352","type":"store","field":"arrayIdx_int:6"},{"step":22,"from":"1093688176","to":"1093688176.arrayIdx_int:7","type":"load","field":"arrayIdx_int:7"},{"step":23,"from":"sdaReg16","to":"1093698352","type":"store","field":"arrayIdx_int:7"},{"step":24,"from":"1093688176","to":"1093688176.arrayIdx_int:8","type":"load","field":"arrayIdx_int:8"},{"step":25,"from":"sdaReg16","to":"1093698352","type":"store","field":"arrayIdx_int:8"},{"step":26,"from":"1093688176","to":"1093688176.arrayIdx_int:9","type":"load","field":"arrayIdx_int:9"},{"step":27,"from":"sdaReg16","to":"1093698352","type":"store","field":"arrayIdx_int:9"},{"step":28,"from":"1093688176","to":"1093688176.arrayIdx_int:10","type":"load","field":"arrayIdx_int:10"},{"step":29,"from":"sdaReg16","to":"1093698352","type":"store","field":"arrayIdx_int:10"},{"step":30,"from":"1093698352","to":"sdaReg17","type":"model"}],"parameters":[{"id":"1093679648","name":"this","klass":"java.io.DataInputStream"}],"returns":[{"id":"sdaReg17","name":"return","klass":"string"}],"colors":{"heapLocToColor":{"1093688176.arrayIdx_int:3":[3],"1093688176.arrayIdx_int:4":[3],"1093688176.arrayIdx_int:5":[3],"1093688176.arrayIdx_int:6":[3],"1093688176.arrayIdx_int:7":[3],"1093688176.arrayIdx_int:8":[3],"1093679648.<java.io.FilterInputStream: java.io.InputStream in>":[0],"1093688176.arrayIdx_int:9":[3],"1093688176.arrayIdx_int:0":[3],"1093688176.arrayIdx_int:1":[3],"1093688176.arrayIdx_int:2":[3],"sdaReg10":[4],"1093688176":[3],"sdaReg17":[5],"static.<java.nio.ByteOrder: java.nio.ByteOrder BIG_ENDIAN>":[1],"sdaReg16":[3],"1093688176.arrayIdx_int:10":[3],"sdaReg9":[3],"sdaReg6":[0],"sdaReg7":[3],"sdaReg4":[0],"sdaReg5":[0],"1093698352":[4],"1084339448":[1],"1093679648":[0],"sdaReg3":[2],"1093679648.<java.io.DataInputStream: byte[] scratch>":[0],"sdaReg2":[2],"1093679856":[0],"sdaReg1":[0],"sdaReg0":[0],"1093679784":[0]},"colorToColor":{"0":[0, 2, 3],"3":[4],"4":[5],"5":[6]},"colorToLabel":{"0":"this","1":"<java.nio.ByteOrder: java.nio.ByteOrder BIG_ENDIAN>","6":"return"}}}

Generated Model
	this->return

