Scanning method <java.nio.ByteBuffer: java.nio.ByteBuffer put(byte[])>

All seen event types: BinaryOperationRecord, MethodReturnRecord, MethodCallRecord, LoadInstanceRecord, MethodStartRecord, ArrayLengthRecord, MethodEndRecord, IfRecord, StoreInstanceRecord, 
Ignored event types: IfRecord, 

JSON Encoded Analysis Data (for visualization):{"heapEdges":[{"step":0,"from":"1093586272","to":"1093586272.<java.nio.Buffer: int limit>","type":"load","field":"<java.nio.Buffer: int limit>"},{"step":1,"from":"1093586272","to":"1093586272.<java.nio.Buffer: int position>","type":"load","field":"<java.nio.Buffer: int position>"},{"step":2,"from":"1093586272","to":"1093586328","type":"load","field":"<java.nio.HeapByteBuffer: byte[] backingArray>"},{"step":3,"from":"1093586272","to":"1093586272.<java.nio.HeapByteBuffer: int offset>","type":"load","field":"<java.nio.HeapByteBuffer: int offset>"},{"step":4,"from":"1093586272","to":"1093586272.<java.nio.Buffer: int position>","type":"load","field":"<java.nio.Buffer: int position>"},{"step":5,"from":"1093628984","to":"1093586328","type":"model"},{"step":6,"from":"1093586272","to":"1093586272.<java.nio.Buffer: int position>","type":"load","field":"<java.nio.Buffer: int position>"},{"step":7,"from":"sdaReg15","to":"1093586272","type":"store","field":"<java.nio.Buffer: int position>"}],"parameters":[{"id":"1093586272","name":"this","klass":"java.nio.ByteBuffer"},{"id":"1093628984","name":"arg#1","klass":"byte[]"}],"returns":[{"id":"1093586272","name":"return","klass":"java.nio.ByteBuffer"}],"colors":{"heapLocToColor":{"1093586272.<java.nio.HeapByteBuffer: int offset>":[0],"sdaReg5":[0],"1093586272.<java.nio.Buffer: int limit>":[0],"1093628984":[1],"sdaReg14":[0],"sdaReg11":[0],"1093586328":[0],"sdaReg12":[0],"sdaReg10":[0],"sdaReg2":[1],"sdaReg1":[0],"1093586272.<java.nio.Buffer: int position>":[0],"sdaReg15":[0],"1093586272":[0],"sdaReg16":[0]},"colorToColor":{"0":[0, 2],"1":[0]},"colorToLabel":{"0":"this","1":"arg#1","2":"return"}}}

Generated Model
	this->return
	arg#1->this
	arg#1->return

