Scanning method <java.util.TreeMap: java.lang.Object putInternal(java.lang.Object,java.lang.Object)>

All seen event types: SimpleAssignmentRecord, MethodStartRecord, LoadInstanceRecord, IfRecord, NewObjectRecord, StoreInstanceRecord, LoadStaticRecord, BinaryOperationRecord, MethodCallRecord, MethodReturnRecord, SwitchRecord, CastRecord, LoadArrayRecord, MethodEndRecord, 
Ignored event types: SwitchRecord, IfRecord, 

JSON Encoded Analysis Data (for visualization):{"heapEdges":[{"step":0,"from":"static.<java.util.TreeMap$Relation: java.util.TreeMap$Relation CREATE>","to":"1085707192","type":"load","field":"<java.util.TreeMap$Relation: java.util.TreeMap$Relation CREATE>"},{"step":1,"from":"1093233072","to":"1094753864","type":"load","field":"<java.util.TreeMap: java.util.TreeMap$Node root>"},{"step":2,"from":"1093233072","to":"1083970648","type":"load","field":"<java.util.TreeMap: java.util.Comparator comparator>"},{"step":3,"from":"static.<java.util.TreeMap: java.util.Comparator NATURAL_ORDER>","to":"1083970648","type":"load","field":"<java.util.TreeMap: java.util.Comparator NATURAL_ORDER>"},{"step":4,"from":"1093233072","to":"1094753864","type":"load","field":"<java.util.TreeMap: java.util.TreeMap$Node root>"},{"step":5,"from":"1094753864","to":"1094193096","type":"load","field":"<java.util.TreeMap$Node: java.lang.Object key>"},{"step":6,"from":"1093798120","to":"1094193096","type":"model"},{"step":7,"from":"1093798120","to":"sdaReg5","type":"model"},{"step":8,"from":"1094193096","to":"1093798120","type":"model"},{"step":9,"from":"1094193096","to":"sdaReg5","type":"model"},{"step":10,"from":"1094753864","to":"1093447784","type":"load","field":"<java.util.TreeMap$Node: java.util.TreeMap$Node right>"},{"step":11,"from":"1093447784","to":"1093229088","type":"load","field":"<java.util.TreeMap$Node: java.lang.Object key>"},{"step":12,"from":"1093798120","to":"1093229088","type":"model"},{"step":13,"from":"1093798120","to":"sdaReg8","type":"model"},{"step":14,"from":"1093229088","to":"1093798120","type":"model"},{"step":15,"from":"1093229088","to":"sdaReg8","type":"model"},{"step":16,"from":"1093447784","to":"1095218184","type":"load","field":"<java.util.TreeMap$Node: java.util.TreeMap$Node right>"},{"step":17,"from":"1095218184","to":"1094295272","type":"load","field":"<java.util.TreeMap$Node: java.lang.Object key>"},{"step":18,"from":"1093798120","to":"1094295272","type":"model"},{"step":19,"from":"1093798120","to":"sdaReg9","type":"model"},{"step":20,"from":"1094295272","to":"1093798120","type":"model"},{"step":21,"from":"1094295272","to":"sdaReg9","type":"model"},{"step":22,"from":"1095218184","to":"1095218224","type":"load","field":"<java.util.TreeMap$Node: java.util.TreeMap$Node right>"},{"step":23,"from":"1095218224","to":"1093748960","type":"load","field":"<java.util.TreeMap$Node: java.lang.Object key>"},{"step":24,"from":"1093798120","to":"1093748960","type":"model"},{"step":25,"from":"1093798120","to":"sdaReg10","type":"model"},{"step":26,"from":"1093748960","to":"1093798120","type":"model"},{"step":27,"from":"1093748960","to":"sdaReg10","type":"model"},{"step":28,"from":"static.<java.util.TreeMap$2: int[] $SwitchMap$java$util$TreeMap$Relation>","to":"1085752200","type":"load","field":"<java.util.TreeMap$2: int[] $SwitchMap$java$util$TreeMap$Relation>"},{"step":29,"from":"1085707192","to":"sdaReg11","type":"model"},{"step":30,"from":"1085752200","to":"1085752200.arrayIdx_int:3","type":"load","field":"arrayIdx_int:3"},{"step":31,"from":"1095218224","to":"1094630056","type":"store","field":"<java.util.TreeMap$Node: java.util.TreeMap$Node parent>"},{"step":32,"from":"1093798120","to":"1094630056","type":"store","field":"<java.util.TreeMap$Node: java.lang.Object key>"},{"step":33,"from":"1094630056","to":"sdaReg16","type":"create","field":"<java.util.TreeMap$Node: int height>"},{"step":34,"from":"1095218224","to":"1094630056","type":"create","field":"<java.util.TreeMap$Node: java.util.TreeMap$Node right>"},{"step":35,"from":"1093233072","to":"1093233072.<java.util.TreeMap: int size>","type":"load","field":"<java.util.TreeMap: int size>"},{"step":36,"from":"sdaReg19","to":"1093233072","type":"store","field":"<java.util.TreeMap: int size>"},{"step":37,"from":"1093233072","to":"1093233072.<java.util.TreeMap: int modCount>","type":"load","field":"<java.util.TreeMap: int modCount>"},{"step":38,"from":"sdaReg20","to":"1093233072","type":"store","field":"<java.util.TreeMap: int modCount>"},{"step":39,"from":"static.<java.util.TreeMap: boolean $assertionsDisabled>","to":"static.<java.util.TreeMap: boolean $assertionsDisabled>","type":"load","field":"<java.util.TreeMap: boolean $assertionsDisabled>"},{"step":40,"from":"sdaReg26","to":"sdaReg27","type":"model"},{"step":41,"from":"sdaReg26","to":"sdaReg29","type":"model"},{"step":42,"from":"sdaReg27","to":"sdaReg26","type":"model"},{"step":43,"from":"sdaReg27","to":"sdaReg29","type":"model"},{"step":44,"from":"sdaReg30","to":"1095218224","type":"store","field":"<java.util.TreeMap$Node: int height>"},{"step":45,"from":"1095218224","to":"1095218184","type":"load","field":"<java.util.TreeMap$Node: java.util.TreeMap$Node parent>"},{"step":46,"from":"1095218184","to":"1095218224","type":"load","field":"<java.util.TreeMap$Node: java.util.TreeMap$Node right>"},{"step":47,"from":"1095218184","to":"1095218224","type":"load","field":"<java.util.TreeMap$Node: java.util.TreeMap$Node right>"},{"step":48,"from":"1095218184","to":"1093447784","type":"load","field":"<java.util.TreeMap$Node: java.util.TreeMap$Node parent>"},{"step":49,"from":"1095218184","to":"sdaReg40","type":"create","field":"<java.util.TreeMap$Node: java.util.TreeMap$Node parent>"},{"step":50,"from":"1093447784","to":"1095218224","type":"store","field":"<java.util.TreeMap$Node: java.util.TreeMap$Node parent>"},{"step":51,"from":"1093447784","to":"1093686520","type":"load","field":"<java.util.TreeMap$Node: java.util.TreeMap$Node left>"},{"step":52,"from":"static.<java.util.TreeMap: boolean $assertionsDisabled>","to":"static.<java.util.TreeMap: boolean $assertionsDisabled>","type":"load","field":"<java.util.TreeMap: boolean $assertionsDisabled>"},{"step":53,"from":"1095218224","to":"1093447784","type":"store","field":"<java.util.TreeMap$Node: java.util.TreeMap$Node right>"},{"step":54,"from":"1095218184","to":"1095218224","type":"store","field":"<java.util.TreeMap$Node: java.util.TreeMap$Node left>"},{"step":55,"from":"1095218224","to":"1095218184","type":"store","field":"<java.util.TreeMap$Node: java.util.TreeMap$Node parent>"},{"step":56,"from":"sdaReg41","to":"sdaReg42","type":"model"},{"step":57,"from":"sdaReg41","to":"sdaReg43","type":"model"},{"step":58,"from":"sdaReg42","to":"sdaReg41","type":"model"},{"step":59,"from":"sdaReg42","to":"sdaReg43","type":"model"},{"step":60,"from":"sdaReg44","to":"1095218184","type":"store","field":"<java.util.TreeMap$Node: int height>"},{"step":61,"from":"sdaReg46","to":"1095218224","type":"store","field":"<java.util.TreeMap$Node: int height>"},{"step":62,"from":"1085638584","to":"1094630056","type":"store","field":"<java.util.TreeMap$Node: java.lang.Object value>"}],"parameters":[{"id":"1093233072","name":"this","klass":"java.util.TreeMap"},{"id":"1093798120","name":"arg#1","klass":"java.lang.Object"},{"id":"1085638584","name":"arg#2","klass":"java.lang.Object"}],"returns":[{"id":"0","name":"return","klass":"java.lang.Object"}],"colors":{"heapLocToColor":{"1094295272":[0, 1],"1093748960":[0, 1],"1094630056":[11],"sdaReg13":[0],"1093233072.<java.util.TreeMap: int size>":[0],"sdaReg14":[1],"sdaReg11":[3, 10],"1095218184.<java.util.TreeMap$Node: java.util.TreeMap$Node right>":[0],"sdaReg12":[11],"sdaReg10":[1, 8],"1085707192":[3],"1093798120":[1],"sdaReg19":[0],"sdaReg17":[11],"sdaReg18":[11],"sdaReg15":[11],"1085752200":[9],"1093233072":[0],"static.<java.util.TreeMap$2: int[] $SwitchMap$java$util$TreeMap$Relation>":[9],"1095218224":[0],"static.<java.util.TreeMap: boolean $assertionsDisabled>":[12],"sdaReg45":[15],"sdaReg44":[14],"sdaReg47":[11],"1085638584":[2],"1094753864":[0],"sdaReg46":[15],"sdaReg43":[14],"1083970648":[0, 4],"1093686520":[0],"1093233072.<java.util.TreeMap: java.util.TreeMap$Node root>":[0],"static.<java.util.TreeMap: java.util.Comparator NATURAL_ORDER>":[0, 4],"1093447784":[0],"1085752200.arrayIdx_int:3":[9],"1095218224.<java.util.TreeMap$Node: java.util.TreeMap$Node parent>":[0],"sdaReg39":[0],"sdaReg38":[0],"sdaReg37":[0],"1095218184.<java.util.TreeMap$Node: java.util.TreeMap$Node parent>":[0],"sdaReg30":[13],"sdaReg36":[0],"sdaReg35":[0],"sdaReg8":[1, 6],"sdaReg9":[1, 7],"sdaReg6":[1, 5, 6, 7, 8],"sdaReg4":[1],"sdaReg5":[1, 5],"static.<java.util.TreeMap$Relation: java.util.TreeMap$Relation CREATE>":[3],"1094193096":[0, 1],"1093233072.<java.util.TreeMap: int modCount>":[0],"1093229088":[0, 1],"sdaReg29":[13],"1095218184":[0],"sdaReg3":[1],"sdaReg2":[3],"sdaReg1":[1],"sdaReg21":[0],"sdaReg0":[0],"sdaReg20":[0],"sdaReg22":[0],"sdaReg24":[0]},"colorToColor":{"0":[0, 1, 5, 6, 7, 8, 11],"1":[1, 5, 6, 7, 8, 11],"2":[11],"11":[0],"13":[0],"14":[0],"15":[0]},"colorToLabel":{"0":"this","1":"arg#1","2":"arg#2","3":"<java.util.TreeMap$Relation: java.util.TreeMap$Relation CREATE>","4":"<java.util.TreeMap: java.util.Comparator NATURAL_ORDER>","9":"<java.util.TreeMap$2: int[] $SwitchMap$java$util$TreeMap$Relation>","12":"<java.util.TreeMap: boolean $assertionsDisabled>","16":"return"}}}

Generated Model
	this->arg#1
	arg#2->this
	arg#2->arg#1
	arg#1->this

