Scanning method <java.util.TreeMap: java.lang.Object putInternal(java.lang.Object,java.lang.Object)>

All seen event types: SimpleAssignmentRecord, MethodStartRecord, LoadInstanceRecord, IfRecord, NewObjectRecord, StoreInstanceRecord, LoadStaticRecord, BinaryOperationRecord, MethodCallRecord, MethodReturnRecord, SwitchRecord, CastRecord, LoadArrayRecord, MethodEndRecord, 
Ignored event types: SwitchRecord, IfRecord, 

JSON Encoded Analysis Data (for visualization):{"heapEdges":[{"step":0,"from":"static.<java.util.TreeMap$Relation: java.util.TreeMap$Relation CREATE>","to":"1085707192","type":"load","field":"<java.util.TreeMap$Relation: java.util.TreeMap$Relation CREATE>"},{"step":1,"from":"1093233072","to":"1093533024","type":"load","field":"<java.util.TreeMap: java.util.TreeMap$Node root>"},{"step":2,"from":"1093233072","to":"1083970648","type":"load","field":"<java.util.TreeMap: java.util.Comparator comparator>"},{"step":3,"from":"static.<java.util.TreeMap: java.util.Comparator NATURAL_ORDER>","to":"1083970648","type":"load","field":"<java.util.TreeMap: java.util.Comparator NATURAL_ORDER>"},{"step":4,"from":"1093233072","to":"1093533024","type":"load","field":"<java.util.TreeMap: java.util.TreeMap$Node root>"},{"step":5,"from":"1093533024","to":"1093342360","type":"load","field":"<java.util.TreeMap$Node: java.lang.Object key>"},{"step":6,"from":"1093349608","to":"1093342360","type":"model"},{"step":7,"from":"1093349608","to":"sdaReg5","type":"model"},{"step":8,"from":"1093342360","to":"1093349608","type":"model"},{"step":9,"from":"1093342360","to":"sdaReg5","type":"model"},{"step":10,"from":"1093533024","to":"1096265440","type":"load","field":"<java.util.TreeMap$Node: java.util.TreeMap$Node right>"},{"step":11,"from":"1096265440","to":"1093351976","type":"load","field":"<java.util.TreeMap$Node: java.lang.Object key>"},{"step":12,"from":"1093349608","to":"1093351976","type":"model"},{"step":13,"from":"1093349608","to":"sdaReg8","type":"model"},{"step":14,"from":"1093351976","to":"1093349608","type":"model"},{"step":15,"from":"1093351976","to":"sdaReg8","type":"model"},{"step":16,"from":"1096265440","to":"1093944824","type":"load","field":"<java.util.TreeMap$Node: java.util.TreeMap$Node right>"},{"step":17,"from":"1093944824","to":"1093356456","type":"load","field":"<java.util.TreeMap$Node: java.lang.Object key>"},{"step":18,"from":"1093349608","to":"1093356456","type":"model"},{"step":19,"from":"1093349608","to":"sdaReg9","type":"model"},{"step":20,"from":"1093356456","to":"1093349608","type":"model"},{"step":21,"from":"1093356456","to":"sdaReg9","type":"model"},{"step":22,"from":"1093944824","to":"1095193432","type":"load","field":"<java.util.TreeMap$Node: java.util.TreeMap$Node right>"},{"step":23,"from":"1095193432","to":"1093284216","type":"load","field":"<java.util.TreeMap$Node: java.lang.Object key>"},{"step":24,"from":"1093349608","to":"1093284216","type":"model"},{"step":25,"from":"1093349608","to":"sdaReg10","type":"model"},{"step":26,"from":"1093284216","to":"1093349608","type":"model"},{"step":27,"from":"1093284216","to":"sdaReg10","type":"model"},{"step":28,"from":"1095193432","to":"1094845464","type":"load","field":"<java.util.TreeMap$Node: java.util.TreeMap$Node right>"},{"step":29,"from":"1094845464","to":"1093343376","type":"load","field":"<java.util.TreeMap$Node: java.lang.Object key>"},{"step":30,"from":"1093349608","to":"1093343376","type":"model"},{"step":31,"from":"1093349608","to":"sdaReg11","type":"model"},{"step":32,"from":"1093343376","to":"1093349608","type":"model"},{"step":33,"from":"1093343376","to":"sdaReg11","type":"model"},{"step":34,"from":"1094845464","to":"1094845504","type":"load","field":"<java.util.TreeMap$Node: java.util.TreeMap$Node right>"},{"step":35,"from":"1094845504","to":"1093348216","type":"load","field":"<java.util.TreeMap$Node: java.lang.Object key>"},{"step":36,"from":"1093349608","to":"1093348216","type":"model"},{"step":37,"from":"1093349608","to":"sdaReg12","type":"model"},{"step":38,"from":"1093348216","to":"1093349608","type":"model"},{"step":39,"from":"1093348216","to":"sdaReg12","type":"model"},{"step":40,"from":"static.<java.util.TreeMap$2: int[] $SwitchMap$java$util$TreeMap$Relation>","to":"1085752200","type":"load","field":"<java.util.TreeMap$2: int[] $SwitchMap$java$util$TreeMap$Relation>"},{"step":41,"from":"1085707192","to":"sdaReg13","type":"model"},{"step":42,"from":"1085752200","to":"1085752200.arrayIdx_int:3","type":"load","field":"arrayIdx_int:3"},{"step":43,"from":"1094845504","to":"1094845544","type":"store","field":"<java.util.TreeMap$Node: java.util.TreeMap$Node parent>"},{"step":44,"from":"1093349608","to":"1094845544","type":"store","field":"<java.util.TreeMap$Node: java.lang.Object key>"},{"step":45,"from":"1094845544","to":"sdaReg18","type":"create","field":"<java.util.TreeMap$Node: int height>"},{"step":46,"from":"1094845504","to":"1094845544","type":"create","field":"<java.util.TreeMap$Node: java.util.TreeMap$Node right>"},{"step":47,"from":"1093233072","to":"1093233072.<java.util.TreeMap: int size>","type":"load","field":"<java.util.TreeMap: int size>"},{"step":48,"from":"sdaReg21","to":"1093233072","type":"store","field":"<java.util.TreeMap: int size>"},{"step":49,"from":"1093233072","to":"1093233072.<java.util.TreeMap: int modCount>","type":"load","field":"<java.util.TreeMap: int modCount>"},{"step":50,"from":"sdaReg22","to":"1093233072","type":"store","field":"<java.util.TreeMap: int modCount>"},{"step":51,"from":"static.<java.util.TreeMap: boolean $assertionsDisabled>","to":"static.<java.util.TreeMap: boolean $assertionsDisabled>","type":"load","field":"<java.util.TreeMap: boolean $assertionsDisabled>"},{"step":52,"from":"sdaReg28","to":"sdaReg29","type":"model"},{"step":53,"from":"sdaReg28","to":"sdaReg31","type":"model"},{"step":54,"from":"sdaReg29","to":"sdaReg28","type":"model"},{"step":55,"from":"sdaReg29","to":"sdaReg31","type":"model"},{"step":56,"from":"sdaReg32","to":"1094845504","type":"store","field":"<java.util.TreeMap$Node: int height>"},{"step":57,"from":"1094845504","to":"1094845464","type":"load","field":"<java.util.TreeMap$Node: java.util.TreeMap$Node parent>"},{"step":58,"from":"1094845464","to":"1093263136","type":"load","field":"<java.util.TreeMap$Node: java.util.TreeMap$Node left>"},{"step":59,"from":"1094845464","to":"1094845504","type":"load","field":"<java.util.TreeMap$Node: java.util.TreeMap$Node right>"},{"step":60,"from":"1093263136","to":"1093263136.<java.util.TreeMap$Node: int height>","type":"load","field":"<java.util.TreeMap$Node: int height>"},{"step":61,"from":"static.<java.util.TreeMap: boolean $assertionsDisabled>","to":"static.<java.util.TreeMap: boolean $assertionsDisabled>","type":"load","field":"<java.util.TreeMap: boolean $assertionsDisabled>"},{"step":62,"from":"sdaReg28","to":"sdaReg29","type":"model"},{"step":63,"from":"sdaReg28","to":"sdaReg33","type":"model"},{"step":64,"from":"sdaReg29","to":"sdaReg28","type":"model"},{"step":65,"from":"sdaReg29","to":"sdaReg33","type":"model"},{"step":66,"from":"sdaReg32","to":"1094845464","type":"store","field":"<java.util.TreeMap$Node: int height>"},{"step":67,"from":"1094845464","to":"1095193432","type":"load","field":"<java.util.TreeMap$Node: java.util.TreeMap$Node parent>"},{"step":68,"from":"1095193432","to":"1093278784","type":"load","field":"<java.util.TreeMap$Node: java.util.TreeMap$Node left>"},{"step":69,"from":"1095193432","to":"1094845464","type":"load","field":"<java.util.TreeMap$Node: java.util.TreeMap$Node right>"},{"step":70,"from":"1093278784","to":"1093278784.<java.util.TreeMap$Node: int height>","type":"load","field":"<java.util.TreeMap$Node: int height>"},{"step":71,"from":"static.<java.util.TreeMap: boolean $assertionsDisabled>","to":"static.<java.util.TreeMap: boolean $assertionsDisabled>","type":"load","field":"<java.util.TreeMap: boolean $assertionsDisabled>"},{"step":72,"from":"sdaReg28","to":"sdaReg29","type":"model"},{"step":73,"from":"sdaReg28","to":"sdaReg34","type":"model"},{"step":74,"from":"sdaReg29","to":"sdaReg28","type":"model"},{"step":75,"from":"sdaReg29","to":"sdaReg34","type":"model"},{"step":76,"from":"sdaReg32","to":"1095193432","type":"store","field":"<java.util.TreeMap$Node: int height>"},{"step":77,"from":"1095193432","to":"1093944824","type":"load","field":"<java.util.TreeMap$Node: java.util.TreeMap$Node parent>"},{"step":78,"from":"1093944824","to":"1095116944","type":"load","field":"<java.util.TreeMap$Node: java.util.TreeMap$Node left>"},{"step":79,"from":"1093944824","to":"1095193432","type":"load","field":"<java.util.TreeMap$Node: java.util.TreeMap$Node right>"},{"step":80,"from":"1095116944","to":"1095116944.<java.util.TreeMap$Node: int height>","type":"load","field":"<java.util.TreeMap$Node: int height>"},{"step":81,"from":"static.<java.util.TreeMap: boolean $assertionsDisabled>","to":"static.<java.util.TreeMap: boolean $assertionsDisabled>","type":"load","field":"<java.util.TreeMap: boolean $assertionsDisabled>"},{"step":82,"from":"sdaReg28","to":"sdaReg29","type":"model"},{"step":83,"from":"sdaReg28","to":"sdaReg35","type":"model"},{"step":84,"from":"sdaReg29","to":"sdaReg28","type":"model"},{"step":85,"from":"sdaReg29","to":"sdaReg35","type":"model"},{"step":86,"from":"sdaReg32","to":"1093944824","type":"store","field":"<java.util.TreeMap$Node: int height>"},{"step":87,"from":"1093944824","to":"1096265440","type":"load","field":"<java.util.TreeMap$Node: java.util.TreeMap$Node parent>"},{"step":88,"from":"1096265440","to":"1095563624","type":"load","field":"<java.util.TreeMap$Node: java.util.TreeMap$Node left>"},{"step":89,"from":"1096265440","to":"1093944824","type":"load","field":"<java.util.TreeMap$Node: java.util.TreeMap$Node right>"},{"step":90,"from":"1095563624","to":"1095563624.<java.util.TreeMap$Node: int height>","type":"load","field":"<java.util.TreeMap$Node: int height>"},{"step":91,"from":"static.<java.util.TreeMap: boolean $assertionsDisabled>","to":"static.<java.util.TreeMap: boolean $assertionsDisabled>","type":"load","field":"<java.util.TreeMap: boolean $assertionsDisabled>"},{"step":92,"from":"sdaReg28","to":"sdaReg29","type":"model"},{"step":93,"from":"sdaReg28","to":"sdaReg36","type":"model"},{"step":94,"from":"sdaReg29","to":"sdaReg28","type":"model"},{"step":95,"from":"sdaReg29","to":"sdaReg36","type":"model"},{"step":96,"from":"sdaReg32","to":"1096265440","type":"store","field":"<java.util.TreeMap$Node: int height>"},{"step":97,"from":"1096265440","to":"1093533024","type":"load","field":"<java.util.TreeMap$Node: java.util.TreeMap$Node parent>"},{"step":98,"from":"1093533024","to":"1093447784","type":"load","field":"<java.util.TreeMap$Node: java.util.TreeMap$Node left>"},{"step":99,"from":"1093533024","to":"1096265440","type":"load","field":"<java.util.TreeMap$Node: java.util.TreeMap$Node right>"},{"step":100,"from":"1093447784","to":"1093447784.<java.util.TreeMap$Node: int height>","type":"load","field":"<java.util.TreeMap$Node: int height>"},{"step":101,"from":"1096265440","to":"1095563624","type":"load","field":"<java.util.TreeMap$Node: java.util.TreeMap$Node left>"},{"step":102,"from":"1096265440","to":"1093944824","type":"load","field":"<java.util.TreeMap$Node: java.util.TreeMap$Node right>"},{"step":103,"from":"1095563624","to":"1095563624.<java.util.TreeMap$Node: int height>","type":"load","field":"<java.util.TreeMap$Node: int height>"},{"step":104,"from":"1093533024","to":"1093447784","type":"load","field":"<java.util.TreeMap$Node: java.util.TreeMap$Node left>"},{"step":105,"from":"1093533024","to":"1096265440","type":"load","field":"<java.util.TreeMap$Node: java.util.TreeMap$Node right>"},{"step":106,"from":"1096265440","to":"1095563624","type":"load","field":"<java.util.TreeMap$Node: java.util.TreeMap$Node left>"},{"step":107,"from":"1096265440","to":"1093944824","type":"load","field":"<java.util.TreeMap$Node: java.util.TreeMap$Node right>"},{"step":108,"from":"1095563624","to":"1093533024","type":"store","field":"<java.util.TreeMap$Node: java.util.TreeMap$Node right>"},{"step":109,"from":"1093533024","to":"1095563624","type":"store","field":"<java.util.TreeMap$Node: java.util.TreeMap$Node parent>"},{"step":110,"from":"1093533024","to":"sdaReg45","type":"create","field":"<java.util.TreeMap$Node: java.util.TreeMap$Node parent>"},{"step":111,"from":"1096265440","to":"1093233072","type":"store","field":"<java.util.TreeMap: java.util.TreeMap$Node root>"},{"step":112,"from":"1093533024","to":"1096265440","type":"store","field":"<java.util.TreeMap$Node: java.util.TreeMap$Node left>"},{"step":113,"from":"1096265440","to":"1093533024","type":"store","field":"<java.util.TreeMap$Node: java.util.TreeMap$Node parent>"},{"step":114,"from":"1093447784","to":"1093447784.<java.util.TreeMap$Node: int height>","type":"load","field":"<java.util.TreeMap$Node: int height>"},{"step":115,"from":"1095563624","to":"1095563624.<java.util.TreeMap$Node: int height>","type":"load","field":"<java.util.TreeMap$Node: int height>"},{"step":116,"from":"1093447784.<java.util.TreeMap$Node: int height>","to":"1095563624.<java.util.TreeMap$Node: int height>","type":"model"},{"step":117,"from":"1093447784.<java.util.TreeMap$Node: int height>","to":"sdaReg46","type":"model"},{"step":118,"from":"1095563624.<java.util.TreeMap$Node: int height>","to":"1093447784.<java.util.TreeMap$Node: int height>","type":"model"},{"step":119,"from":"1095563624.<java.util.TreeMap$Node: int height>","to":"sdaReg46","type":"model"},{"step":120,"from":"sdaReg47","to":"1093533024","type":"store","field":"<java.util.TreeMap$Node: int height>"},{"step":121,"from":"sdaReg49","to":"1096265440","type":"store","field":"<java.util.TreeMap$Node: int height>"},{"step":122,"from":"1085638584","to":"1094845544","type":"store","field":"<java.util.TreeMap$Node: java.lang.Object value>"}],"parameters":[{"id":"1093233072","name":"this","klass":"java.util.TreeMap"},{"id":"1093349608","name":"arg#1","klass":"java.lang.Object"},{"id":"1085638584","name":"arg#2","klass":"java.lang.Object"}],"returns":[{"id":"0","name":"return","klass":"java.lang.Object"}],"colors":{"heapLocToColor":{"1093349608":[1],"1093348216":[0, 1],"1093944824.<java.util.TreeMap$Node: java.util.TreeMap$Node parent>":[0],"1094845544":[13],"1095116944.<java.util.TreeMap$Node: int height>":[0],"sdaReg13":[3, 12],"1093233072.<java.util.TreeMap: int size>":[0],"sdaReg14":[13],"sdaReg11":[1, 9],"1096265440.<java.util.TreeMap$Node: java.util.TreeMap$Node right>":[0],"sdaReg12":[1, 10],"1095563624":[0],"sdaReg10":[1, 8],"1095193432":[0],"1085707192":[3],"sdaReg19":[13],"sdaReg17":[13],"sdaReg15":[0],"sdaReg16":[1],"1094845464.<java.util.TreeMap$Node: java.util.TreeMap$Node parent>":[0],"sdaReg50":[13],"1093278784":[0],"1094845464.<java.util.TreeMap$Node: java.util.TreeMap$Node right>":[0],"1085752200":[11],"1093447784.<java.util.TreeMap$Node: int height>":[0],"1095193432.<java.util.TreeMap$Node: java.util.TreeMap$Node parent>":[0],"1093233072":[0],"1093944824.<java.util.TreeMap$Node: java.util.TreeMap$Node right>":[0],"1096265440.<java.util.TreeMap$Node: java.util.TreeMap$Node left>":[0],"1095116944":[0],"static.<java.util.TreeMap$2: int[] $SwitchMap$java$util$TreeMap$Relation>":[11],"sdaReg49":[21],"sdaReg48":[21],"1095193432.<java.util.TreeMap$Node: java.util.TreeMap$Node right>":[0],"static.<java.util.TreeMap: boolean $assertionsDisabled>":[14],"sdaReg44":[0],"sdaReg47":[20],"1085638584":[2],"sdaReg46":[20],"sdaReg41":[0],"sdaReg40":[0],"sdaReg43":[0],"1093263136.<java.util.TreeMap$Node: int height>":[0],"sdaReg42":[0],"1093351976":[0, 1],"1083970648":[0, 4],"1093342360":[0, 1],"1093233072.<java.util.TreeMap: java.util.TreeMap$Node root>":[0],"1096265440.<java.util.TreeMap$Node: java.util.TreeMap$Node parent>":[0],"static.<java.util.TreeMap: java.util.Comparator NATURAL_ORDER>":[0, 4],"1093263136":[0],"1093356456":[0, 1],"1094845464":[0],"1093447784":[0],"1085752200.arrayIdx_int:3":[11],"1095563624.<java.util.TreeMap$Node: int height>":[0],"sdaReg39":[0],"sdaReg38":[0],"sdaReg32":[17, 16, 19, 18, 15],"sdaReg31":[15],"sdaReg30":[0],"sdaReg36":[19],"sdaReg35":[18],"sdaReg34":[17],"sdaReg33":[16],"sdaReg8":[1, 6],"1096265440":[0],"sdaReg9":[1, 7],"sdaReg6":[1, 5, 6, 7, 8, 9, 10],"sdaReg4":[1],"sdaReg5":[1, 5],"1093284216":[0, 1],"static.<java.util.TreeMap$Relation: java.util.TreeMap$Relation CREATE>":[3],"1093233072.<java.util.TreeMap: int modCount>":[0],"1093343376":[0, 1],"1093278784.<java.util.TreeMap$Node: int height>":[0],"sdaReg26":[0],"1093533024.<java.util.TreeMap$Node: java.util.TreeMap$Node left>":[0],"1093533024.<java.util.TreeMap$Node: java.util.TreeMap$Node right>":[0],"sdaReg28":[0],"1094845504.<java.util.TreeMap$Node: java.util.TreeMap$Node parent>":[0],"1093944824":[0],"1094845504":[0],"sdaReg3":[1],"sdaReg2":[3],"sdaReg1":[1],"sdaReg21":[0],"sdaReg0":[0],"1093533024":[0],"sdaReg20":[13],"sdaReg23":[0],"sdaReg22":[0],"sdaReg24":[0]},"colorToColor":{"17":[0],"0":[0, 1, 5, 6, 7, 8, 9, 10, 13, 17, 16, 19, 18, 20],"16":[0],"1":[1, 5, 6, 7, 8, 9, 10, 13],"2":[13],"19":[0],"18":[0],"21":[0],"20":[0],"13":[0],"15":[0]},"colorToLabel":{"0":"this","1":"arg#1","2":"arg#2","3":"<java.util.TreeMap$Relation: java.util.TreeMap$Relation CREATE>","4":"<java.util.TreeMap: java.util.Comparator NATURAL_ORDER>","11":"<java.util.TreeMap$2: int[] $SwitchMap$java$util$TreeMap$Relation>","14":"<java.util.TreeMap: boolean $assertionsDisabled>","22":"return"}}}

Generated Model
	this->arg#1
	arg#2->this
	arg#2->arg#1
	arg#1->this

