Scanning method <android.os.Bundle: void putInt(java.lang.String,int)>

All seen event types: StoreArrayRecord, SimpleAssignmentRecord, MethodStartRecord, LoadInstanceRecord, IfRecord, NewObjectRecord, StoreInstanceRecord, NewArrayRecord, BinaryOperationRecord, MethodCallRecord, MethodReturnRecord, ArrayLengthRecord, CastRecord, LoadArrayRecord, MethodEndRecord, 
Ignored event types: IfRecord, 

JSON Encoded Analysis Data (for visualization):{"heapEdges":[{"step":0,"from":"1093937176","to":"1093942584","type":"load","field":"<android.os.Bundle: java.util.Map mMap>"},{"step":1,"from":"sdaReg1","to":"1083976944","type":"model"},{"step":2,"from":"1093942584","to":"1093498872","type":"load","field":"<java.util.HashMap: java.util.HashMap$HashMapEntry[] table>"},{"step":3,"from":"1093498872","to":"1093523352","type":"load","field":"arrayIdx_int:0"},{"step":4,"from":"1093523352","to":"1093523352.<java.util.HashMap$HashMapEntry: int hash>","type":"load","field":"<java.util.HashMap$HashMapEntry: int hash>"},{"step":5,"from":"1093942584","to":"1093942584.<java.util.HashMap: int modCount>","type":"load","field":"<java.util.HashMap: int modCount>"},{"step":6,"from":"sdaReg18","to":"1093942584","type":"store","field":"<java.util.HashMap: int modCount>"},{"step":7,"from":"1093942584","to":"1093942584.<java.util.HashMap: int size>","type":"load","field":"<java.util.HashMap: int size>"},{"step":8,"from":"sdaReg19","to":"1093942584","type":"store","field":"<java.util.HashMap: int size>"},{"step":9,"from":"1093942584","to":"1093942584.<java.util.HashMap: int threshold>","type":"load","field":"<java.util.HashMap: int threshold>"},{"step":10,"from":"1093942584","to":"1093498872","type":"load","field":"<java.util.HashMap: java.util.HashMap$HashMapEntry[] table>"},{"step":11,"from":"1093942584","to":"1093495368","type":"create","field":"<java.util.HashMap: java.util.HashMap$HashMapEntry[] table>"},{"step":12,"from":"sdaReg27","to":"1093942584","type":"store","field":"<java.util.HashMap: int threshold>"},{"step":13,"from":"1093498872","to":"1093523352","type":"load","field":"arrayIdx_int:0"},{"step":14,"from":"1093523352","to":"1093523352.<java.util.HashMap$HashMapEntry: int hash>","type":"load","field":"<java.util.HashMap$HashMapEntry: int hash>"},{"step":15,"from":"1093523352","to":"1093495368","type":"store","field":"arrayIdx_int:0"},{"step":16,"from":"1093498872","to":"1093875832","type":"load","field":"arrayIdx_int:1"},{"step":17,"from":"1093875832","to":"1093875832.<java.util.HashMap$HashMapEntry: int hash>","type":"load","field":"<java.util.HashMap$HashMapEntry: int hash>"},{"step":18,"from":"1093875832","to":"1093495368","type":"store","field":"arrayIdx_int:5"},{"step":19,"from":"1093875832","to":"1093817552","type":"load","field":"<java.util.HashMap$HashMapEntry: java.util.HashMap$HashMapEntry next>"},{"step":20,"from":"1093817552","to":"1093817552.<java.util.HashMap$HashMapEntry: int hash>","type":"load","field":"<java.util.HashMap$HashMapEntry: int hash>"},{"step":21,"from":"1093817552","to":"1093495368","type":"store","field":"arrayIdx_int:1"},{"step":22,"from":"1093875832","to":"sdaReg35","type":"create","field":"<java.util.HashMap$HashMapEntry: java.util.HashMap$HashMapEntry next>"},{"step":23,"from":"1093498872","to":"1093523384","type":"load","field":"arrayIdx_int:3"},{"step":24,"from":"1093523384","to":"1093523384.<java.util.HashMap$HashMapEntry: int hash>","type":"load","field":"<java.util.HashMap$HashMapEntry: int hash>"},{"step":25,"from":"1093523384","to":"1093495368","type":"store","field":"arrayIdx_int:3"},{"step":26,"from":"1093518752","to":"1093502576","type":"store","field":"<java.util.HashMap$HashMapEntry: java.lang.Object key>"},{"step":27,"from":"1093502576","to":"1083976944","type":"create","field":"<java.util.HashMap$HashMapEntry: java.lang.Object value>"},{"step":28,"from":"sdaReg14","to":"1093502576","type":"store","field":"<java.util.HashMap$HashMapEntry: int hash>"},{"step":29,"from":"1093523352","to":"1093502576","type":"store","field":"<java.util.HashMap$HashMapEntry: java.util.HashMap$HashMapEntry next>"},{"step":30,"from":"1093495368","to":"1093502576","type":"create","field":"arrayIdx_int:0"}],"parameters":[{"id":"1093937176","name":"this","klass":"android.os.Bundle"},{"id":"sdaReg0","name":"arg#1","klass":"string"},{"id":"sdaReg1","name":"arg#2","klass":"int"}],"returns":[{"id":null,"name":"return","klass":null}],"colors":{"heapLocToColor":{"1093523352":[0],"1093523384":[0],"1093498872.arrayIdx_int:0":[0],"1093523352.<java.util.HashMap$HashMapEntry: int hash>":[0],"sdaReg13":[4],"1093942584.<java.util.HashMap: int modCount>":[0],"sdaReg14":[4],"1083976944":[3],"sdaReg11":[4],"sdaReg12":[4],"sdaReg10":[4],"1093495368":[5],"sdaReg19":[0],"sdaReg17":[4],"sdaReg18":[0],"1093937176":[0],"1093498872":[0],"1093942584.<java.util.HashMap: int size>":[0],"1093875832.<java.util.HashMap$HashMapEntry: int hash>":[0],"sdaReg45":[0],"sdaReg44":[3],"sdaReg47":[6],"sdaReg46":[6],"sdaReg41":[3],"sdaReg42":[6],"sdaReg39":[0],"sdaReg32":[0],"sdaReg30":[0],"1093942584.<java.util.HashMap: int threshold>":[0],"sdaReg36":[5],"sdaReg34":[0],"sdaReg33":[0],"1093942584.<java.util.HashMap: java.util.HashMap$HashMapEntry[] table>":[0],"sdaReg8":[4],"sdaReg9":[4],"sdaReg6":[4],"1093875832":[0],"sdaReg7":[4],"sdaReg4":[0],"sdaReg5":[3],"1093817552":[0],"sdaReg28":[5],"1093942584":[0],"sdaReg3":[3],"1093817552.<java.util.HashMap$HashMapEntry: int hash>":[0],"sdaReg2":[0],"sdaReg1":[2],"1093523384.<java.util.HashMap$HashMapEntry: int hash>":[0],"1093502576":[6],"sdaReg0":[1],"sdaReg20":[0],"sdaReg23":[0]},"colorToColor":{"0":[0, 5, 6],"2":[3],"3":[6],"4":[6],"5":[0],"6":[5]},"colorToLabel":{"0":"this","1":"arg#1","2":"arg#2","7":"return"}}}

Generated Model
	arg#2->this

