Scanning method <java.util.TreeMap$MapIterator: java.util.TreeMap$Node stepForward()>

All seen event types: SimpleAssignmentRecord, MethodReturnRecord, MethodCallRecord, MethodStartRecord, LoadInstanceRecord, MethodEndRecord, IfRecord, StoreInstanceRecord, 
Ignored event types: IfRecord, 

JSON Encoded Analysis Data (for visualization):{"heapEdges":[{"step":0,"from":"1093292648","to":"1099725312","type":"load","field":"<java.util.TreeMap$MapIterator: java.util.TreeMap$Node next>"},{"step":1,"from":"1093292648","to":"1099705064","type":"load","field":"<java.util.TreeMap$MapIterator: java.util.TreeMap this$0>"},{"step":2,"from":"1099705064","to":"1099705064.<java.util.TreeMap: int modCount>","type":"load","field":"<java.util.TreeMap: int modCount>"},{"step":3,"from":"1093292648","to":"1093292648.<java.util.TreeMap$MapIterator: int expectedModCount>","type":"load","field":"<java.util.TreeMap$MapIterator: int expectedModCount>"},{"step":4,"from":"1093292648","to":"1099725312","type":"load","field":"<java.util.TreeMap$MapIterator: java.util.TreeMap$Node next>"},{"step":5,"from":"1099725312","to":"1093292648","type":"store","field":"<java.util.TreeMap$MapIterator: java.util.TreeMap$Node last>"},{"step":6,"from":"1093292648","to":"1099725312","type":"load","field":"<java.util.TreeMap$MapIterator: java.util.TreeMap$Node next>"},{"step":7,"from":"1099725312","to":"1099725352","type":"load","field":"<java.util.TreeMap$Node: java.util.TreeMap$Node right>"},{"step":8,"from":"1099725312","to":"1099725352","type":"load","field":"<java.util.TreeMap$Node: java.util.TreeMap$Node right>"},{"step":9,"from":"1099725352","to":"1093292648","type":"store","field":"<java.util.TreeMap$MapIterator: java.util.TreeMap$Node next>"}],"parameters":[{"id":"1093292648","name":"this","klass":"java.util.TreeMap$MapIterator"}],"returns":[{"id":"1099725312","name":"return","klass":"java.util.TreeMap$Node"}],"colors":{"heapLocToColor":{"1093292648.<java.util.TreeMap$MapIterator: java.util.TreeMap$Node next>":[0],"1099725352":[0],"1093292648":[0],"1093292648.<java.util.TreeMap$MapIterator: int expectedModCount>":[0],"sdaReg4":[0],"1099725312.<java.util.TreeMap$Node: java.util.TreeMap$Node right>":[0],"1099705064":[0],"1099705064.<java.util.TreeMap: int modCount>":[0],"1099725312":[0],"sdaReg3":[0],"sdaReg2":[0],"sdaReg1":[0],"sdaReg0":[0]},"colorToColor":{"0":[0, 1]},"colorToLabel":{"0":"this","1":"return"}}}

Generated Model
	this->return

