Scanning method <java.util.TreeMap$MapIterator: java.util.TreeMap$Node stepForward()>

All seen event types: SimpleAssignmentRecord, MethodReturnRecord, MethodCallRecord, MethodStartRecord, LoadInstanceRecord, MethodEndRecord, IfRecord, StoreInstanceRecord, 
Ignored event types: IfRecord, 

JSON Encoded Analysis Data (for visualization):{"heapEdges":[{"step":0,"from":"1096199360","to":"1096265440","type":"load","field":"<java.util.TreeMap$MapIterator: java.util.TreeMap$Node next>"},{"step":1,"from":"1096199360","to":"1093233072","type":"load","field":"<java.util.TreeMap$MapIterator: java.util.TreeMap this$0>"},{"step":2,"from":"1093233072","to":"1093233072.<java.util.TreeMap: int modCount>","type":"load","field":"<java.util.TreeMap: int modCount>"},{"step":3,"from":"1096199360","to":"1096199360.<java.util.TreeMap$MapIterator: int expectedModCount>","type":"load","field":"<java.util.TreeMap$MapIterator: int expectedModCount>"},{"step":4,"from":"1096199360","to":"1096265440","type":"load","field":"<java.util.TreeMap$MapIterator: java.util.TreeMap$Node next>"},{"step":5,"from":"1096265440","to":"1096199360","type":"store","field":"<java.util.TreeMap$MapIterator: java.util.TreeMap$Node last>"},{"step":6,"from":"1096199360","to":"1096265440","type":"load","field":"<java.util.TreeMap$MapIterator: java.util.TreeMap$Node next>"},{"step":7,"from":"1096265440","to":"1094845544","type":"load","field":"<java.util.TreeMap$Node: java.util.TreeMap$Node right>"},{"step":8,"from":"1096265440","to":"1094845544","type":"load","field":"<java.util.TreeMap$Node: java.util.TreeMap$Node right>"},{"step":9,"from":"1094845544","to":"1093944824","type":"load","field":"<java.util.TreeMap$Node: java.util.TreeMap$Node left>"},{"step":10,"from":"1093944824","to":"1095116944","type":"load","field":"<java.util.TreeMap$Node: java.util.TreeMap$Node left>"},{"step":11,"from":"1095116944","to":"1095583016","type":"load","field":"<java.util.TreeMap$Node: java.util.TreeMap$Node left>"},{"step":12,"from":"1095583016","to":"1096043560","type":"load","field":"<java.util.TreeMap$Node: java.util.TreeMap$Node left>"},{"step":13,"from":"1096043560","to":"1096199360","type":"store","field":"<java.util.TreeMap$MapIterator: java.util.TreeMap$Node next>"}],"parameters":[{"id":"1096199360","name":"this","klass":"java.util.TreeMap$MapIterator"}],"returns":[{"id":"1096265440","name":"return","klass":"java.util.TreeMap$Node"}],"colors":{"heapLocToColor":{"1096265440":[0],"sdaReg4":[0],"1096043560":[0],"1096199360":[0],"1093233072":[0],"1093233072.<java.util.TreeMap: int modCount>":[0],"1094845544":[0],"1095116944":[0],"1096265440.<java.util.TreeMap$Node: java.util.TreeMap$Node right>":[0],"1096199360.<java.util.TreeMap$MapIterator: int expectedModCount>":[0],"1093944824":[0],"sdaReg3":[0],"sdaReg2":[0],"1096199360.<java.util.TreeMap$MapIterator: java.util.TreeMap$Node next>":[0],"sdaReg1":[0],"sdaReg0":[0],"1095583016":[0]},"colorToColor":{"0":[0, 1]},"colorToLabel":{"0":"this","1":"return"}}}

Generated Model
	this->return

