Scanning method <java.util.Vector: void setElementAt(java.lang.Object,int)>

All seen event types: StoreArrayRecord, LoadInstanceRecord, IfRecord, 
Ignored event types: IfRecord, 

JSON Encoded Analysis Data (for visualization):{"heapEdges":[{"step":0,"from":"1093631560","to":"1093631560.<java.util.Vector: int elementCount>","type":"load","field":"<java.util.Vector: int elementCount>"},{"step":1,"from":"1093631560","to":"1093737984","type":"load","field":"<java.util.Vector: java.lang.Object[] elementData>"}],"parameters":[{"id":"1093631560","name":"this","klass":"java.util.Vector"},{"id":"0","name":"arg#1","klass":"java.lang.Object"},{"id":"sdaReg0","name":"arg#2","klass":"int"}],"returns":[{"id":null,"name":"return","klass":null}],"colors":{"heapLocToColor":{"0":[1],"1093737984":[0],"1093631560":[0],"1093631560.<java.util.Vector: int elementCount>":[0],"sdaReg0":[2]},"colorToColor":{},"colorToLabel":{"0":"this","1":"arg#1","2":"arg#2","3":"return"}}}

Generated Model

