Scanning method <java.io.InputStreamReader: boolean ready()>

All seen event types: SimpleAssignmentRecord, ExitMonitorRecord, MethodReturnRecord, MethodCallRecord, EnterMonitorRecord, MethodStartRecord, LoadInstanceRecord, MethodEndRecord, IfRecord, 
Ignored event types: ExitMonitorRecord, EnterMonitorRecord, IfRecord, 

JSON Encoded Analysis Data (for visualization):{"heapEdges":[{"step":0,"from":"1093292448","to":"1093288392","type":"load","field":"<java.io.Reader: java.lang.Object lock>"},{"step":1,"from":"1093292448","to":"1093288392","type":"load","field":"<java.io.InputStreamReader: java.io.InputStream in>"},{"step":2,"from":"1093292448","to":"1093288424","type":"load","field":"<java.io.InputStreamReader: java.nio.ByteBuffer bytes>"},{"step":3,"from":"1093288424","to":"1093288424.<java.nio.Buffer: int position>","type":"load","field":"<java.nio.Buffer: int position>"},{"step":4,"from":"1093288424","to":"1093288424.<java.nio.Buffer: int limit>","type":"load","field":"<java.nio.Buffer: int limit>"}],"parameters":[{"id":"1093292448","name":"this","klass":"java.io.InputStreamReader"}],"returns":[{"id":"sdaReg3","name":"return","klass":"boolean"}],"colors":{"heapLocToColor":{"1093288392":[0],"1093292448":[0],"1093288424.<java.nio.Buffer: int position>":[0],"1093288424":[0],"1093288424.<java.nio.Buffer: int limit>":[0],"sdaReg1":[0],"1093292448.<java.io.InputStreamReader: java.io.InputStream in>":[0]},"colorToColor":{},"colorToLabel":{"0":"this","1":"return"}}}

Generated Model

