Scanning method <java.io.InputStreamReader: boolean ready()>

All seen event types: BinaryOperationRecord, SimpleAssignmentRecord, ExitMonitorRecord, MethodReturnRecord, MethodCallRecord, EnterMonitorRecord, MethodStartRecord, LoadInstanceRecord, MethodEndRecord, IfRecord, 
Ignored event types: ExitMonitorRecord, EnterMonitorRecord, IfRecord, 

JSON Encoded Analysis Data (for visualization):{"heapEdges":[{"step":0,"from":"1093628760","to":"1093627856","type":"load","field":"<java.io.Reader: java.lang.Object lock>"},{"step":1,"from":"1093628760","to":"1093627856","type":"load","field":"<java.io.InputStreamReader: java.io.InputStream in>"},{"step":2,"from":"1093628760","to":"1093639000","type":"load","field":"<java.io.InputStreamReader: java.nio.ByteBuffer bytes>"},{"step":3,"from":"1093639000","to":"1093639000.<java.nio.Buffer: int position>","type":"load","field":"<java.nio.Buffer: int position>"},{"step":4,"from":"1093639000","to":"1093639000.<java.nio.Buffer: int limit>","type":"load","field":"<java.nio.Buffer: int limit>"},{"step":5,"from":"1093628760","to":"1093627856","type":"load","field":"<java.io.InputStreamReader: java.io.InputStream in>"},{"step":6,"from":"1093627856","to":"1093627856.<java.io.ByteArrayInputStream: int count>","type":"load","field":"<java.io.ByteArrayInputStream: int count>"},{"step":7,"from":"1093627856","to":"1093627856.<java.io.ByteArrayInputStream: int pos>","type":"load","field":"<java.io.ByteArrayInputStream: int pos>"}],"parameters":[{"id":"1093628760","name":"this","klass":"java.io.InputStreamReader"}],"returns":[{"id":"sdaReg5","name":"return","klass":"boolean"}],"colors":{"heapLocToColor":{"1093639000.<java.nio.Buffer: int limit>":[0],"1093628760":[0],"1093627856.<java.io.ByteArrayInputStream: int count>":[0],"1093627856.<java.io.ByteArrayInputStream: int pos>":[0],"sdaReg4":[0],"sdaReg3":[0],"1093639000":[0],"1093628760.<java.io.InputStreamReader: java.io.InputStream in>":[0],"1093639000.<java.nio.Buffer: int position>":[0],"sdaReg1":[0],"1093627856":[0]},"colorToColor":{},"colorToLabel":{"0":"this","1":"return"}}}

Generated Model

