Scanning method <android.os.Bundle: boolean hasFileDescriptors()>

All seen event types: SimpleAssignmentRecord, LoadInstanceRecord, MethodStartRecord, IfRecord, InstanceOfRecord, NewObjectRecord, StoreInstanceRecord, BinaryOperationRecord, MethodCallRecord, MethodReturnRecord, ArrayLengthRecord, CastRecord, LoadArrayRecord, MethodEndRecord, 
Ignored event types: IfRecord, 

JSON Encoded Analysis Data (for visualization):{"heapEdges":[{"step":0,"from":"1094001456","to":"1094001456.<android.os.Bundle: boolean mFdsKnown>","type":"load","field":"<android.os.Bundle: boolean mFdsKnown>"},{"step":1,"from":"1094001456","to":"1094008424","type":"load","field":"<android.os.Bundle: java.util.Map mMap>"},{"step":2,"from":"1094008424","to":"1093673016","type":"store","field":"<java.util.HashMap$EntrySet: java.util.HashMap this$0>"},{"step":3,"from":"1094008424","to":"1093673016","type":"create","field":"<java.util.HashMap: java.util.Set entrySet>"},{"step":4,"from":"1094008424","to":"1093571424","type":"store","field":"<java.util.HashMap$EntryIterator: java.util.HashMap this$0>"},{"step":5,"from":"1094008424","to":"1093571424","type":"store","field":"<java.util.HashMap$HashIterator: java.util.HashMap this$0>"},{"step":6,"from":"1094008424","to":"1094008424.<java.util.HashMap: int modCount>","type":"load","field":"<java.util.HashMap: int modCount>"},{"step":7,"from":"1094008424.<java.util.HashMap: int modCount>","to":"1093571424","type":"store","field":"<java.util.HashMap$HashIterator: int expectedModCount>"},{"step":8,"from":"1094008424","to":"1093669200","type":"load","field":"<java.util.HashMap: java.util.HashMap$HashMapEntry[] table>"},{"step":9,"from":"1093571424","to":"1093571424.<java.util.HashMap$HashIterator: int nextIndex>","type":"load","field":"<java.util.HashMap$HashIterator: int nextIndex>"},{"step":10,"from":"1093571424","to":"1093571424.<java.util.HashMap$HashIterator: int nextIndex>","type":"load","field":"<java.util.HashMap$HashIterator: int nextIndex>"},{"step":11,"from":"sdaReg26","to":"1093571424","type":"store","field":"<java.util.HashMap$HashIterator: int nextIndex>"},{"step":12,"from":"sdaReg26","to":"1093571424","type":"store","field":"<java.util.HashMap$HashIterator: int nextIndex>"},{"step":13,"from":"sdaReg26","to":"1093571424","type":"store","field":"<java.util.HashMap$HashIterator: int nextIndex>"},{"step":14,"from":"1093669200","to":"1093669240","type":"load","field":"arrayIdx_int:2"},{"step":15,"from":"1093669240","to":"1093571424","type":"store","field":"<java.util.HashMap$HashIterator: java.util.HashMap$HashMapEntry nextEntry>"},{"step":16,"from":"1094008424","to":"1094008424.<java.util.HashMap: int modCount>","type":"load","field":"<java.util.HashMap: int modCount>"},{"step":17,"from":"1094008424","to":"1093669200","type":"load","field":"<java.util.HashMap: java.util.HashMap$HashMapEntry[] table>"},{"step":18,"from":"sdaReg40","to":"1093571424","type":"store","field":"<java.util.HashMap$HashIterator: int nextIndex>"},{"step":19,"from":"1093669240","to":"1093571424","type":"store","field":"<java.util.HashMap$HashIterator: java.util.HashMap$HashMapEntry lastEntryReturned>"},{"step":20,"from":"1093669240","to":"1093516504","type":"load","field":"<java.util.HashMap$HashMapEntry: java.lang.Object value>"},{"step":21,"from":"sdaReg0","to":"1094001456","type":"store","field":"<android.os.Bundle: boolean mHasFds>"},{"step":22,"from":"1094001456","to":"sdaReg53","type":"create","field":"<android.os.Bundle: boolean mFdsKnown>"}],"parameters":[{"id":"1094001456","name":"this","klass":"android.os.Bundle"}],"returns":[{"id":null,"name":"return","klass":"boolean"}],"colors":{"heapLocToColor":{"sdaReg13":[1],"sdaReg14":[1],"sdaReg11":[1],"1094008424.<java.util.HashMap: int modCount>":[0],"sdaReg12":[1],"sdaReg10":[1],"sdaReg19":[2],"sdaReg17":[2],"sdaReg18":[0],"1093571424.<java.util.HashMap$HashIterator: int nextIndex>":[2],"sdaReg15":[1],"sdaReg16":[0],"sdaReg50":[0],"1093571424":[2],"sdaReg49":[0],"sdaReg45":[0],"sdaReg44":[0],"sdaReg47":[0],"sdaReg46":[0],"1094008424.<java.util.HashMap: java.util.HashMap$HashMapEntry[] table>":[0],"sdaReg43":[0],"sdaReg42":[0],"1093669200":[0],"1093516504":[0],"1093673016":[1],"sdaReg38":[2],"sdaReg37":[2],"1093669240":[0],"sdaReg32":[2],"sdaReg31":[2],"sdaReg30":[2],"sdaReg36":[2],"sdaReg34":[2],"sdaReg33":[2],"1094001456.<android.os.Bundle: boolean mFdsKnown>":[0],"1094001456":[0],"sdaReg8":[1],"sdaReg9":[1],"sdaReg6":[1],"sdaReg7":[1],"sdaReg4":[1],"sdaReg5":[0],"1094008424":[0],"sdaReg26":[2],"sdaReg29":[2],"sdaReg3":[0],"sdaReg2":[1],"sdaReg1":[0],"sdaReg21":[2],"sdaReg20":[0],"sdaReg23":[2],"sdaReg22":[0]},"colorToColor":{"0":[1, 2],"1":[0],"2":[2]},"colorToLabel":{"0":"this","3":"return"}}}

Generated Model

