Scanning method <java.io.ObjectInputStream: void readFieldValues(java.lang.Object,java.io.ObjectStreamClass)>

All seen event types: SimpleAssignmentRecord, MethodStartRecord, LoadInstanceRecord, IfRecord, InstanceOfRecord, LoadStaticRecord, BinaryOperationRecord, MethodCallRecord, MethodReturnRecord, ArrayLengthRecord, CastRecord, LoadArrayRecord, MethodEndRecord, 
Ignored event types: IfRecord, 

JSON Encoded Analysis Data (for visualization):{"heapEdges":[{"step":0,"from":"1093497664","to":"1093702528","type":"model"},{"step":1,"from":"1093497664","to":"1083934568","type":"model"},{"step":2,"from":"1093702528","to":"1093280088","type":"load","field":"arrayIdx_int:0"},{"step":3,"from":"1093497664","to":"1093280088","type":"model"},{"step":4,"from":"1093497664","to":"1093388936","type":"model"},{"step":5,"from":"1093280088","to":"1093497664","type":"model"},{"step":6,"from":"1093280088","to":"1093388936","type":"model"},{"step":7,"from":"1093280088","to":"1083909616","type":"load","field":"<java.io.ObjectStreamField: java.lang.Object type>"},{"step":8,"from":"1093280088","to":"1083909616","type":"load","field":"<java.io.ObjectStreamField: java.lang.Object type>"},{"step":9,"from":"static.<java.lang.Byte: java.lang.Class TYPE>","to":"1083909112","type":"load","field":"<java.lang.Byte: java.lang.Class TYPE>"},{"step":10,"from":"static.<java.lang.Character: java.lang.Class TYPE>","to":"1083909448","type":"load","field":"<java.lang.Character: java.lang.Class TYPE>"},{"step":11,"from":"static.<java.lang.Double: java.lang.Class TYPE>","to":"1083910120","type":"load","field":"<java.lang.Double: java.lang.Class TYPE>"},{"step":12,"from":"static.<java.lang.Float: java.lang.Class TYPE>","to":"1083909952","type":"load","field":"<java.lang.Float: java.lang.Class TYPE>"},{"step":13,"from":"static.<java.lang.Integer: java.lang.Class TYPE>","to":"1083909616","type":"load","field":"<java.lang.Integer: java.lang.Class TYPE>"},{"step":14,"from":"1093293768","to":"1093386376","type":"load","field":"<java.io.ObjectInputStream: java.io.DataInputStream input>"},{"step":15,"from":"1093386376","to":"1093544616","type":"load","field":"<java.io.FilterInputStream: java.io.InputStream in>"},{"step":16,"from":"1093386376","to":"1093388312","type":"load","field":"<java.io.DataInputStream: byte[] scratch>"},{"step":17,"from":"1093544616","to":"1093388312","type":"model"},{"step":18,"from":"1093386376","to":"1093388312","type":"load","field":"<java.io.DataInputStream: byte[] scratch>"},{"step":19,"from":"static.<java.nio.ByteOrder: java.nio.ByteOrder BIG_ENDIAN>","to":"1084339448","type":"load","field":"<java.nio.ByteOrder: java.nio.ByteOrder BIG_ENDIAN>"},{"step":20,"from":"1093388312","to":"sdaReg13","type":"model"},{"step":21,"from":"1093388936","to":"1093281456","type":"model"},{"step":22,"from":"1093388936","to":"sdaReg13","type":"model"},{"step":23,"from":"1093281456","to":"1093388936","type":"model"},{"step":24,"from":"1093281456","to":"sdaReg13","type":"model"},{"step":25,"from":"sdaReg13","to":"1093388936","type":"model"},{"step":26,"from":"sdaReg13","to":"1093281456","type":"model"}],"parameters":[{"id":"1093293768","name":"this","klass":"java.io.ObjectInputStream"},{"id":"1093281456","name":"arg#1","klass":"java.lang.Object"},{"id":"1093497664","name":"arg#2","klass":"java.io.ObjectStreamClass"}],"returns":[{"id":null,"name":"return","klass":null}],"colors":{"heapLocToColor":{"static.<java.lang.Character: java.lang.Class TYPE>":[7],"1083934568":[2, 4],"static.<java.lang.Float: java.lang.Class TYPE>":[9],"1093281456":[1, 2, 5],"1093280088.<java.io.ObjectStreamField: java.lang.Object type>":[2, 3],"static.<java.lang.Byte: java.lang.Class TYPE>":[6],"sdaReg13":[2, 5, 12],"1083909112":[6],"sdaReg11":[2, 3],"sdaReg12":[0],"1083909952":[9],"1083909616":[2, 3, 10],"sdaReg10":[2, 3],"1093388312":[0],"1093497664":[2],"1093293768":[0],"static.<java.nio.ByteOrder: java.nio.ByteOrder BIG_ENDIAN>":[11],"1093702528":[2, 3],"static.<java.lang.Double: java.lang.Class TYPE>":[8],"sdaReg8":[2, 3],"sdaReg7":[2, 5],"sdaReg4":[2, 3],"1093386376.<java.io.DataInputStream: byte[] scratch>":[0],"1093388936":[2, 5],"1084339448":[11],"1093386376":[0],"static.<java.lang.Integer: java.lang.Class TYPE>":[2, 3, 10],"sdaReg3":[2, 4],"1093280088":[2, 3],"sdaReg2":[2, 3],"sdaReg1":[2, 3],"1083910120":[8],"sdaReg0":[2, 3],"1093544616":[0],"1083909448":[7]},"colorToColor":{"0":[0, 12],"1":[2, 5, 12],"2":[1, 2, 5, 12],"3":[2, 5],"5":[1, 2, 5, 12],"12":[1, 2, 5]},"colorToLabel":{"0":"this","1":"arg#1","2":"arg#2","6":"<java.lang.Byte: java.lang.Class TYPE>","7":"<java.lang.Character: java.lang.Class TYPE>","8":"<java.lang.Double: java.lang.Class TYPE>","9":"<java.lang.Float: java.lang.Class TYPE>","10":"<java.lang.Integer: java.lang.Class TYPE>","11":"<java.nio.ByteOrder: java.nio.ByteOrder BIG_ENDIAN>","13":"return"}}}

Generated Model
	this->arg#2
	this->arg#1
	arg#2->arg#1
	arg#1->arg#2

