Scanning method <java.net.URI: void <init>(java.lang.String)>

All seen event types: LoadStaticRecord, BinaryOperationRecord, SimpleAssignmentRecord, MethodReturnRecord, MethodCallRecord, LoadInstanceRecord, MethodStartRecord, MethodEndRecord, IfRecord, StoreInstanceRecord, 
Ignored event types: IfRecord, 

JSON Encoded Analysis Data (for visualization):{"heapEdges":[{"step":0,"from":"1093692112","to":"sdaReg2","type":"create","field":"<java.net.URI: int port>"},{"step":1,"from":"1093692112","to":"sdaReg3","type":"create","field":"<java.net.URI: boolean serverAuthority>"},{"step":2,"from":"1093692112","to":"sdaReg4","type":"create","field":"<java.net.URI: int hash>"},{"step":3,"from":"sdaReg0","to":"1093692112","type":"store","field":"<java.net.URI: java.lang.String string>"},{"step":4,"from":"sdaReg0","to":"sdaReg11","type":"model"},{"step":5,"from":"sdaReg0","to":"sdaReg13","type":"model"},{"step":6,"from":"sdaReg0","to":"sdaReg15","type":"model"},{"step":7,"from":"sdaReg0","to":"sdaReg17","type":"model"},{"step":8,"from":"sdaReg0","to":"sdaReg19","type":"model"},{"step":9,"from":"sdaReg0","to":"sdaReg21","type":"model"},{"step":10,"from":"sdaReg0","to":"sdaReg23","type":"model"},{"step":11,"from":"sdaReg0","to":"sdaReg29","type":"model"},{"step":12,"from":"sdaReg0","to":"sdaReg31","type":"model"},{"step":13,"from":"sdaReg0","to":"sdaReg33","type":"model"},{"step":14,"from":"sdaReg0","to":"sdaReg35","type":"model"},{"step":15,"from":"sdaReg0","to":"sdaReg37","type":"model"},{"step":16,"from":"sdaReg0","to":"sdaReg39","type":"model"},{"step":17,"from":"sdaReg0","to":"sdaReg41","type":"model"},{"step":18,"from":"sdaReg0","to":"sdaReg46","type":"model"},{"step":19,"from":"sdaReg0","to":"sdaReg48","type":"model"},{"step":20,"from":"sdaReg0","to":"sdaReg50","type":"model"},{"step":21,"from":"sdaReg0","to":"sdaReg52","type":"model"},{"step":22,"from":"sdaReg0","to":"sdaReg54","type":"model"},{"step":23,"from":"sdaReg0","to":"sdaReg56","type":"model"},{"step":24,"from":"sdaReg0","to":"sdaReg58","type":"model"},{"step":25,"from":"1093692112","to":"sdaReg60","type":"create","field":"<java.net.URI: boolean absolute>"},{"step":26,"from":"1093692112","to":"sdaReg62","type":"create","field":"<java.net.URI: boolean opaque>"},{"step":27,"from":"sdaReg0","to":"sdaReg63","type":"model"},{"step":28,"from":"sdaReg63","to":"1093692112","type":"store","field":"<java.net.URI: java.lang.String schemeSpecificPart>"},{"step":29,"from":"sdaReg0","to":"sdaReg68","type":"model"},{"step":30,"from":"sdaReg0","to":"sdaReg70","type":"model"},{"step":31,"from":"sdaReg0","to":"sdaReg72","type":"model"},{"step":32,"from":"sdaReg0","to":"sdaReg74","type":"model"},{"step":33,"from":"sdaReg0","to":"sdaReg76","type":"model"},{"step":34,"from":"sdaReg0","to":"sdaReg78","type":"model"},{"step":35,"from":"sdaReg0","to":"sdaReg80","type":"model"},{"step":36,"from":"static.<java.net.URI: libcore.net.UriCodec PATH_ENCODER>","to":"1085474672","type":"load","field":"<java.net.URI: libcore.net.UriCodec PATH_ENCODER>"},{"step":37,"from":"sdaReg0","to":"sdaReg85","type":"model"},{"step":38,"from":"sdaReg0","to":"sdaReg86","type":"model"},{"step":39,"from":"sdaReg0","to":"sdaReg87","type":"model"},{"step":40,"from":"sdaReg0","to":"sdaReg88","type":"model"},{"step":41,"from":"sdaReg0","to":"sdaReg89","type":"model"},{"step":42,"from":"sdaReg0","to":"sdaReg90","type":"model"},{"step":43,"from":"sdaReg0","to":"sdaReg91","type":"model"},{"step":44,"from":"sdaReg0","to":"sdaReg92","type":"model"},{"step":45,"from":"sdaReg92","to":"1093692112","type":"store","field":"<java.net.URI: java.lang.String path>"},{"step":46,"from":"1093692112","to":"1093692112.<java.net.URI: java.lang.String authority>","type":"load","field":"<java.net.URI: java.lang.String authority>"}],"parameters":[{"id":"1093692112","name":"this","klass":"java.net.URI"},{"id":"sdaReg0","name":"arg#1","klass":"string"}],"returns":[{"id":"1093692112","name":"return","klass":"java.net.URI"}],"colors":{"heapLocToColor":{"sdaReg68":[1, 48],"sdaReg69":[49],"sdaReg64":[47],"sdaReg63":[1, 46],"sdaReg72":[1, 52],"sdaReg13":[1, 5],"sdaReg71":[51],"sdaReg14":[6],"sdaReg70":[1, 50],"sdaReg11":[1, 3],"sdaReg12":[4],"sdaReg59":[45],"sdaReg58":[1, 44],"sdaReg57":[43],"sdaReg19":[1, 11],"sdaReg56":[1, 42],"sdaReg55":[41],"sdaReg17":[1, 9],"sdaReg54":[1, 40],"sdaReg18":[10],"sdaReg53":[39],"sdaReg15":[1, 7],"sdaReg52":[1, 38],"sdaReg16":[8],"sdaReg51":[37],"sdaReg50":[1, 36],"sdaReg77":[57],"sdaReg78":[1, 58],"sdaReg79":[59],"sdaReg73":[53],"sdaReg74":[1, 54],"sdaReg75":[55],"sdaReg76":[1, 56],"sdaReg81":[61],"sdaReg80":[1, 60],"sdaReg82":[62],"sdaReg49":[35],"sdaReg48":[34, 1],"sdaReg47":[33],"sdaReg46":[1, 32],"sdaReg41":[1, 30],"sdaReg40":[29],"sdaReg42":[31],"sdaReg86":[1, 64],"sdaReg87":[1, 65],"sdaReg85":[1, 63],"sdaReg88":[1, 66],"sdaReg89":[1, 67],"sdaReg90":[68, 1],"sdaReg39":[1, 28],"1085474672":[62],"sdaReg38":[27],"sdaReg37":[1, 26],"sdaReg93":[0],"sdaReg92":[1, 70],"sdaReg91":[1, 69],"sdaReg32":[21],"sdaReg31":[1, 20],"sdaReg30":[19],"sdaReg36":[25],"sdaReg35":[1, 24],"sdaReg34":[23],"sdaReg33":[1, 22],"sdaReg7":[2],"sdaReg5":[0],"1093692112.<java.net.URI: java.lang.String authority>":[0],"sdaReg29":[1, 18],"static.<java.net.URI: libcore.net.UriCodec PATH_ENCODER>":[62],"sdaReg21":[1, 13],"sdaReg1":[0],"sdaReg20":[12],"sdaReg0":[1],"sdaReg23":[1, 15],"1093692112":[0],"sdaReg22":[14],"sdaReg25":[17],"sdaReg24":[16]},"colorToColor":{"0":[71],"1":[0],"70":[0],"46":[0]},"colorToLabel":{"0":"this","1":"arg#1","62":"<java.net.URI: libcore.net.UriCodec PATH_ENCODER>","71":"return"}}}

Generated Model
	this->return
	arg#1->this
	arg#1->return

