Scanning method <java.net.URI: void <init>(java.lang.String)>

All seen event types: LoadStaticRecord, BinaryOperationRecord, SimpleAssignmentRecord, MethodReturnRecord, MethodCallRecord, ArrayLengthRecord, LoadInstanceRecord, MethodStartRecord, LoadArrayRecord, MethodEndRecord, IfRecord, StoreInstanceRecord, 
Ignored event types: IfRecord, 

JSON Encoded Analysis Data (for visualization):{"heapEdges":[{"step":0,"from":"1093628192","to":"sdaReg2","type":"create","field":"<java.net.URI: int port>"},{"step":1,"from":"1093628192","to":"sdaReg3","type":"create","field":"<java.net.URI: boolean serverAuthority>"},{"step":2,"from":"1093628192","to":"sdaReg4","type":"create","field":"<java.net.URI: int hash>"},{"step":3,"from":"sdaReg0","to":"1093628192","type":"store","field":"<java.net.URI: java.lang.String string>"},{"step":4,"from":"sdaReg0","to":"sdaReg11","type":"model"},{"step":5,"from":"sdaReg0","to":"sdaReg13","type":"model"},{"step":6,"from":"sdaReg0","to":"sdaReg15","type":"model"},{"step":7,"from":"sdaReg0","to":"sdaReg17","type":"model"},{"step":8,"from":"sdaReg0","to":"sdaReg19","type":"model"},{"step":9,"from":"sdaReg0","to":"sdaReg21","type":"model"},{"step":10,"from":"sdaReg0","to":"sdaReg23","type":"model"},{"step":11,"from":"sdaReg0","to":"sdaReg25","type":"model"},{"step":12,"from":"sdaReg0","to":"sdaReg27","type":"model"},{"step":13,"from":"sdaReg0","to":"sdaReg29","type":"model"},{"step":14,"from":"sdaReg0","to":"sdaReg31","type":"model"},{"step":15,"from":"sdaReg0","to":"sdaReg33","type":"model"},{"step":16,"from":"sdaReg0","to":"sdaReg35","type":"model"},{"step":17,"from":"sdaReg0","to":"sdaReg37","type":"model"},{"step":18,"from":"sdaReg0","to":"sdaReg39","type":"model"},{"step":19,"from":"sdaReg0","to":"sdaReg41","type":"model"},{"step":20,"from":"sdaReg0","to":"sdaReg43","type":"model"},{"step":21,"from":"sdaReg0","to":"sdaReg49","type":"model"},{"step":22,"from":"sdaReg0","to":"sdaReg51","type":"model"},{"step":23,"from":"sdaReg0","to":"sdaReg53","type":"model"},{"step":24,"from":"sdaReg0","to":"sdaReg55","type":"model"},{"step":25,"from":"sdaReg0","to":"sdaReg57","type":"model"},{"step":26,"from":"sdaReg0","to":"sdaReg62","type":"model"},{"step":27,"from":"sdaReg0","to":"sdaReg64","type":"model"},{"step":28,"from":"sdaReg0","to":"sdaReg66","type":"model"},{"step":29,"from":"sdaReg0","to":"sdaReg68","type":"model"},{"step":30,"from":"sdaReg0","to":"sdaReg70","type":"model"},{"step":31,"from":"sdaReg0","to":"sdaReg72","type":"model"},{"step":32,"from":"1093628192","to":"sdaReg74","type":"create","field":"<java.net.URI: boolean absolute>"},{"step":33,"from":"sdaReg0","to":"sdaReg77","type":"model"},{"step":34,"from":"sdaReg0","to":"sdaReg79","type":"model"},{"step":35,"from":"sdaReg0","to":"sdaReg81","type":"model"},{"step":36,"from":"sdaReg0","to":"sdaReg83","type":"model"},{"step":37,"from":"sdaReg0","to":"sdaReg85","type":"model"},{"step":38,"from":"sdaReg85","to":"1093628192","type":"store","field":"<java.net.URI: java.lang.String scheme>"},{"step":39,"from":"1093628192","to":"sdaReg88","type":"create","field":"<java.net.URI: boolean opaque>"},{"step":40,"from":"sdaReg0","to":"sdaReg89","type":"model"},{"step":41,"from":"sdaReg89","to":"1093628192","type":"store","field":"<java.net.URI: java.lang.String schemeSpecificPart>"},{"step":42,"from":"sdaReg0","to":"sdaReg94","type":"model"},{"step":43,"from":"sdaReg0","to":"sdaReg96","type":"model"},{"step":44,"from":"sdaReg0","to":"sdaReg98","type":"model"},{"step":45,"from":"sdaReg0","to":"sdaReg100","type":"model"},{"step":46,"from":"sdaReg0","to":"sdaReg102","type":"model"},{"step":47,"from":"static.<java.net.URI: libcore.net.UriCodec AUTHORITY_ENCODER>","to":"1085536376","type":"load","field":"<java.net.URI: libcore.net.UriCodec AUTHORITY_ENCODER>"},{"step":48,"from":"sdaReg0","to":"sdaReg108","type":"model"},{"step":49,"from":"sdaReg0","to":"sdaReg109","type":"model"},{"step":50,"from":"sdaReg0","to":"sdaReg110","type":"model"},{"step":51,"from":"sdaReg0","to":"sdaReg111","type":"model"},{"step":52,"from":"sdaReg0","to":"sdaReg112","type":"model"},{"step":53,"from":"sdaReg112","to":"1093628192","type":"store","field":"<java.net.URI: java.lang.String authority>"},{"step":54,"from":"sdaReg0","to":"sdaReg115","type":"model"},{"step":55,"from":"sdaReg0","to":"sdaReg117","type":"model"},{"step":56,"from":"sdaReg0","to":"sdaReg119","type":"model"},{"step":57,"from":"sdaReg0","to":"sdaReg121","type":"model"},{"step":58,"from":"sdaReg0","to":"sdaReg123","type":"model"},{"step":59,"from":"sdaReg0","to":"sdaReg125","type":"model"},{"step":60,"from":"static.<java.net.URI: libcore.net.UriCodec PATH_ENCODER>","to":"1085474672","type":"load","field":"<java.net.URI: libcore.net.UriCodec PATH_ENCODER>"},{"step":61,"from":"sdaReg0","to":"sdaReg130","type":"model"},{"step":62,"from":"1085474672","to":"1085474672.<java.net.URI$PartEncoder: java.lang.String extraLegalCharacters>","type":"load","field":"<java.net.URI$PartEncoder: java.lang.String extraLegalCharacters>"},{"step":63,"from":"sdaReg0","to":"sdaReg138","type":"model"},{"step":64,"from":"sdaReg0","to":"sdaReg139","type":"model"},{"step":65,"from":"1085474672","to":"1085474672.<java.net.URI$PartEncoder: java.lang.String extraLegalCharacters>","type":"load","field":"<java.net.URI$PartEncoder: java.lang.String extraLegalCharacters>"},{"step":66,"from":"sdaReg0","to":"sdaReg147","type":"model"},{"step":67,"from":"sdaReg0","to":"sdaReg148","type":"model"},{"step":68,"from":"1085474672","to":"1085474672.<java.net.URI$PartEncoder: java.lang.String extraLegalCharacters>","type":"load","field":"<java.net.URI$PartEncoder: java.lang.String extraLegalCharacters>"},{"step":69,"from":"sdaReg0","to":"sdaReg156","type":"model"},{"step":70,"from":"sdaReg0","to":"sdaReg157","type":"model"},{"step":71,"from":"sdaReg157","to":"1093628192","type":"store","field":"<java.net.URI: java.lang.String path>"},{"step":72,"from":"sdaReg165","to":"sdaReg171","type":"model"},{"step":73,"from":"sdaReg165","to":"sdaReg176","type":"model"},{"step":74,"from":"sdaReg165","to":"sdaReg178","type":"model"},{"step":75,"from":"sdaReg165","to":"sdaReg180","type":"model"},{"step":76,"from":"sdaReg165","to":"sdaReg182","type":"model"},{"step":77,"from":"sdaReg165","to":"1093656256","type":"model"},{"step":78,"from":"1093656256","to":"1093656256.arrayIdx_int:0","type":"load","field":"arrayIdx_int:0"},{"step":79,"from":"sdaReg159","to":"1093628192","type":"store","field":"<java.net.URI: java.lang.String userInfo>"},{"step":80,"from":"sdaReg165","to":"1093628192","type":"store","field":"<java.net.URI: java.lang.String host>"},{"step":81,"from":"sdaReg164","to":"1093628192","type":"store","field":"<java.net.URI: int port>"},{"step":82,"from":"1093628192","to":"sdaReg193","type":"create","field":"<java.net.URI: boolean serverAuthority>"}],"parameters":[{"id":"1093628192","name":"this","klass":"java.net.URI"},{"id":"sdaReg0","name":"arg#1","klass":"string"}],"returns":[{"id":"1093628192","name":"return","klass":"java.net.URI"}],"colors":{"heapLocToColor":{"sdaReg125":[1, 95],"sdaReg190":[134],"sdaReg126":[96],"sdaReg127":[97],"sdaReg68":[1, 54],"sdaReg69":[55],"sdaReg66":[1, 52],"sdaReg67":[53],"sdaReg64":[1, 50],"sdaReg65":[51],"sdaReg62":[1, 48],"sdaReg63":[49],"sdaReg13":[1, 5],"sdaReg72":[1, 58],"sdaReg14":[6],"sdaReg71":[57],"sdaReg11":[1, 3],"sdaReg70":[1, 56],"sdaReg12":[4],"sdaReg19":[1, 11],"sdaReg120":[90],"sdaReg122":[92],"sdaReg17":[1, 9],"sdaReg18":[10],"sdaReg121":[1, 91],"sdaReg124":[94],"sdaReg15":[1, 7],"sdaReg123":[1, 93],"sdaReg16":[8],"sdaReg116":[86],"1093656256.arrayIdx_int:0":[131],"sdaReg117":[1, 87],"sdaReg115":[85, 1],"sdaReg118":[88],"sdaReg119":[1, 89],"sdaReg77":[1, 60],"sdaReg79":[1, 61],"sdaReg73":[59],"sdaReg75":[0],"sdaReg81":[1, 62],"sdaReg83":[1, 63],"sdaReg112":[1, 84],"sdaReg111":[1, 83],"sdaReg110":[1, 82],"sdaReg108":[1, 80],"sdaReg109":[1, 81],"sdaReg103":[77],"sdaReg104":[78],"sdaReg171":[121],"sdaReg105":[79],"sdaReg170":[120],"sdaReg172":[0],"sdaReg87":[65],"sdaReg175":[122],"sdaReg85":[1, 64],"sdaReg177":[124],"sdaReg176":[123],"sdaReg179":[126],"sdaReg178":[125],"sdaReg89":[1, 66],"sdaReg90":[67],"sdaReg94":[68, 1],"sdaReg100":[1, 74],"sdaReg102":[1, 76],"sdaReg101":[75],"sdaReg182":[129],"sdaReg181":[128],"sdaReg180":[127],"1085474672.<java.net.URI$PartEncoder: java.lang.String extraLegalCharacters>":[97],"sdaReg95":[69],"sdaReg185":[131],"sdaReg96":[1, 70],"sdaReg184":[131],"sdaReg97":[71],"sdaReg183":[130],"sdaReg98":[1, 72],"sdaReg99":[73],"1085536376":[79],"sdaReg189":[133],"sdaReg188":[132],"static.<java.net.URI: libcore.net.UriCodec PATH_ENCODER>":[97],"1093628192":[0],"sdaReg169":[119],"sdaReg162":[115],"sdaReg163":[116],"sdaReg166":[117],"sdaReg167":[0],"sdaReg168":[118],"sdaReg58":[47],"sdaReg57":[1, 46],"sdaReg56":[45],"sdaReg55":[1, 44],"sdaReg54":[43],"sdaReg53":[1, 42],"sdaReg52":[41],"sdaReg160":[114],"sdaReg51":[1, 40],"sdaReg50":[39],"sdaReg158":[0],"sdaReg153":[110],"sdaReg151":[109],"sdaReg156":[1, 112],"sdaReg49":[1, 38],"sdaReg157":[1, 113],"sdaReg154":[111],"sdaReg45":[37],"sdaReg44":[36],"sdaReg41":[1, 33],"sdaReg40":[32],"sdaReg43":[1, 35],"sdaReg42":[34],"1093656256":[131],"static.<java.net.URI: libcore.net.UriCodec AUTHORITY_ENCODER>":[79],"sdaReg148":[1, 108],"sdaReg147":[1, 107],"sdaReg149":[97],"sdaReg144":[105],"sdaReg39":[1, 31],"sdaReg145":[106],"1085474672":[97],"sdaReg38":[30],"sdaReg37":[1, 29],"sdaReg140":[97],"sdaReg142":[104],"sdaReg32":[24],"sdaReg31":[1, 23],"sdaReg30":[22],"sdaReg36":[28],"sdaReg35":[1, 27],"sdaReg34":[26],"sdaReg33":[1, 25],"sdaReg7":[2],"sdaReg5":[0],"sdaReg139":[1, 103],"sdaReg138":[102, 1],"sdaReg136":[101],"sdaReg27":[1, 19],"sdaReg135":[100],"sdaReg26":[18],"sdaReg29":[1, 21],"sdaReg133":[99],"sdaReg28":[20],"sdaReg130":[1, 98],"sdaReg131":[97],"sdaReg1":[0],"sdaReg21":[1, 13],"sdaReg0":[1],"sdaReg20":[12],"sdaReg23":[1, 15],"sdaReg22":[14],"sdaReg25":[17, 1],"sdaReg24":[16]},"colorToColor":{"0":[135],"84":[0],"1":[0],"64":[0],"113":[0],"66":[0]},"colorToLabel":{"0":"this","1":"arg#1","79":"<java.net.URI: libcore.net.UriCodec AUTHORITY_ENCODER>","97":"<java.net.URI: libcore.net.UriCodec PATH_ENCODER>","135":"return"}}}

Generated Model
	this->return
	arg#1->this
	arg#1->return

