Scanning method <java.net.URI: void <init>(java.lang.String)>

All seen event types: LoadStaticRecord, BinaryOperationRecord, SimpleAssignmentRecord, MethodReturnRecord, MethodCallRecord, ArrayLengthRecord, LoadInstanceRecord, MethodStartRecord, LoadArrayRecord, MethodEndRecord, IfRecord, StoreInstanceRecord, 
Ignored event types: IfRecord, 

JSON Encoded Analysis Data (for visualization):{"heapEdges":[{"step":0,"from":"1093671744","to":"sdaReg2","type":"create","field":"<java.net.URI: int port>"},{"step":1,"from":"1093671744","to":"sdaReg3","type":"create","field":"<java.net.URI: boolean serverAuthority>"},{"step":2,"from":"1093671744","to":"sdaReg4","type":"create","field":"<java.net.URI: int hash>"},{"step":3,"from":"sdaReg0","to":"1093671744","type":"store","field":"<java.net.URI: java.lang.String string>"},{"step":4,"from":"sdaReg0","to":"sdaReg11","type":"model"},{"step":5,"from":"sdaReg0","to":"sdaReg13","type":"model"},{"step":6,"from":"sdaReg0","to":"sdaReg15","type":"model"},{"step":7,"from":"sdaReg0","to":"sdaReg17","type":"model"},{"step":8,"from":"sdaReg0","to":"sdaReg19","type":"model"},{"step":9,"from":"sdaReg0","to":"sdaReg21","type":"model"},{"step":10,"from":"sdaReg0","to":"sdaReg23","type":"model"},{"step":11,"from":"sdaReg0","to":"sdaReg25","type":"model"},{"step":12,"from":"sdaReg0","to":"sdaReg27","type":"model"},{"step":13,"from":"sdaReg0","to":"sdaReg29","type":"model"},{"step":14,"from":"sdaReg0","to":"sdaReg31","type":"model"},{"step":15,"from":"sdaReg0","to":"sdaReg33","type":"model"},{"step":16,"from":"sdaReg0","to":"sdaReg35","type":"model"},{"step":17,"from":"sdaReg0","to":"sdaReg37","type":"model"},{"step":18,"from":"sdaReg0","to":"sdaReg39","type":"model"},{"step":19,"from":"sdaReg0","to":"sdaReg41","type":"model"},{"step":20,"from":"sdaReg0","to":"sdaReg43","type":"model"},{"step":21,"from":"sdaReg0","to":"sdaReg45","type":"model"},{"step":22,"from":"sdaReg0","to":"sdaReg47","type":"model"},{"step":23,"from":"sdaReg0","to":"sdaReg49","type":"model"},{"step":24,"from":"sdaReg0","to":"sdaReg55","type":"model"},{"step":25,"from":"sdaReg0","to":"sdaReg57","type":"model"},{"step":26,"from":"sdaReg0","to":"sdaReg59","type":"model"},{"step":27,"from":"sdaReg0","to":"sdaReg61","type":"model"},{"step":28,"from":"sdaReg0","to":"sdaReg63","type":"model"},{"step":29,"from":"sdaReg0","to":"sdaReg68","type":"model"},{"step":30,"from":"sdaReg0","to":"sdaReg70","type":"model"},{"step":31,"from":"sdaReg0","to":"sdaReg72","type":"model"},{"step":32,"from":"sdaReg0","to":"sdaReg74","type":"model"},{"step":33,"from":"sdaReg0","to":"sdaReg76","type":"model"},{"step":34,"from":"sdaReg0","to":"sdaReg78","type":"model"},{"step":35,"from":"1093671744","to":"sdaReg80","type":"create","field":"<java.net.URI: boolean absolute>"},{"step":36,"from":"sdaReg0","to":"sdaReg83","type":"model"},{"step":37,"from":"sdaReg0","to":"sdaReg85","type":"model"},{"step":38,"from":"sdaReg0","to":"sdaReg87","type":"model"},{"step":39,"from":"sdaReg0","to":"sdaReg89","type":"model"},{"step":40,"from":"sdaReg0","to":"sdaReg91","type":"model"},{"step":41,"from":"sdaReg91","to":"1093671744","type":"store","field":"<java.net.URI: java.lang.String scheme>"},{"step":42,"from":"1093671744","to":"sdaReg94","type":"create","field":"<java.net.URI: boolean opaque>"},{"step":43,"from":"sdaReg0","to":"sdaReg95","type":"model"},{"step":44,"from":"sdaReg95","to":"1093671744","type":"store","field":"<java.net.URI: java.lang.String schemeSpecificPart>"},{"step":45,"from":"sdaReg0","to":"sdaReg100","type":"model"},{"step":46,"from":"sdaReg0","to":"sdaReg102","type":"model"},{"step":47,"from":"sdaReg0","to":"sdaReg104","type":"model"},{"step":48,"from":"sdaReg0","to":"sdaReg106","type":"model"},{"step":49,"from":"sdaReg0","to":"sdaReg108","type":"model"},{"step":50,"from":"static.<java.net.URI: libcore.net.UriCodec AUTHORITY_ENCODER>","to":"1085536376","type":"load","field":"<java.net.URI: libcore.net.UriCodec AUTHORITY_ENCODER>"},{"step":51,"from":"sdaReg0","to":"sdaReg114","type":"model"},{"step":52,"from":"sdaReg0","to":"sdaReg115","type":"model"},{"step":53,"from":"sdaReg0","to":"sdaReg116","type":"model"},{"step":54,"from":"sdaReg0","to":"sdaReg117","type":"model"},{"step":55,"from":"sdaReg0","to":"sdaReg118","type":"model"},{"step":56,"from":"sdaReg118","to":"1093671744","type":"store","field":"<java.net.URI: java.lang.String authority>"},{"step":57,"from":"sdaReg0","to":"sdaReg121","type":"model"},{"step":58,"from":"sdaReg0","to":"sdaReg123","type":"model"},{"step":59,"from":"sdaReg0","to":"sdaReg125","type":"model"},{"step":60,"from":"sdaReg0","to":"sdaReg127","type":"model"},{"step":61,"from":"sdaReg0","to":"sdaReg129","type":"model"},{"step":62,"from":"sdaReg0","to":"sdaReg131","type":"model"},{"step":63,"from":"sdaReg0","to":"sdaReg133","type":"model"},{"step":64,"from":"sdaReg0","to":"sdaReg135","type":"model"},{"step":65,"from":"sdaReg0","to":"sdaReg137","type":"model"},{"step":66,"from":"static.<java.net.URI: libcore.net.UriCodec PATH_ENCODER>","to":"1085474672","type":"load","field":"<java.net.URI: libcore.net.UriCodec PATH_ENCODER>"},{"step":67,"from":"sdaReg0","to":"sdaReg142","type":"model"},{"step":68,"from":"1085474672","to":"1085474672.<java.net.URI$PartEncoder: java.lang.String extraLegalCharacters>","type":"load","field":"<java.net.URI$PartEncoder: java.lang.String extraLegalCharacters>"},{"step":69,"from":"sdaReg0","to":"sdaReg150","type":"model"},{"step":70,"from":"sdaReg0","to":"sdaReg151","type":"model"},{"step":71,"from":"sdaReg0","to":"sdaReg152","type":"model"},{"step":72,"from":"sdaReg0","to":"sdaReg153","type":"model"},{"step":73,"from":"sdaReg0","to":"sdaReg154","type":"model"},{"step":74,"from":"1085474672","to":"1085474672.<java.net.URI$PartEncoder: java.lang.String extraLegalCharacters>","type":"load","field":"<java.net.URI$PartEncoder: java.lang.String extraLegalCharacters>"},{"step":75,"from":"sdaReg0","to":"sdaReg162","type":"model"},{"step":76,"from":"sdaReg0","to":"sdaReg163","type":"model"},{"step":77,"from":"sdaReg0","to":"sdaReg164","type":"model"},{"step":78,"from":"sdaReg0","to":"sdaReg165","type":"model"},{"step":79,"from":"sdaReg165","to":"1093671744","type":"store","field":"<java.net.URI: java.lang.String path>"},{"step":80,"from":"sdaReg173","to":"sdaReg179","type":"model"},{"step":81,"from":"sdaReg173","to":"sdaReg184","type":"model"},{"step":82,"from":"sdaReg173","to":"sdaReg186","type":"model"},{"step":83,"from":"sdaReg173","to":"sdaReg188","type":"model"},{"step":84,"from":"sdaReg173","to":"sdaReg190","type":"model"},{"step":85,"from":"sdaReg173","to":"1093557560","type":"model"},{"step":86,"from":"1093557560","to":"1093557560.arrayIdx_int:0","type":"load","field":"arrayIdx_int:0"},{"step":87,"from":"sdaReg167","to":"1093671744","type":"store","field":"<java.net.URI: java.lang.String userInfo>"},{"step":88,"from":"sdaReg173","to":"1093671744","type":"store","field":"<java.net.URI: java.lang.String host>"},{"step":89,"from":"sdaReg172","to":"1093671744","type":"store","field":"<java.net.URI: int port>"},{"step":90,"from":"1093671744","to":"sdaReg201","type":"create","field":"<java.net.URI: boolean serverAuthority>"}],"parameters":[{"id":"1093671744","name":"this","klass":"java.net.URI"},{"id":"sdaReg0","name":"arg#1","klass":"string"}],"returns":[{"id":"1093671744","name":"return","klass":"java.net.URI"}],"colors":{"heapLocToColor":{"sdaReg191":[142],"sdaReg125":[1, 95],"sdaReg190":[141],"sdaReg126":[96],"sdaReg193":[143],"sdaReg127":[1, 97],"sdaReg192":[143],"sdaReg128":[98],"sdaReg129":[1, 99],"sdaReg68":[1, 54],"sdaReg198":[146],"sdaReg69":[55],"sdaReg64":[53],"sdaReg197":[145],"sdaReg62":[51],"sdaReg196":[144],"sdaReg63":[1, 52],"sdaReg13":[1, 5],"sdaReg72":[1, 58],"sdaReg14":[6],"sdaReg71":[57],"sdaReg11":[1, 3],"sdaReg70":[1, 56],"sdaReg12":[4],"sdaReg19":[1, 11],"sdaReg122":[92],"sdaReg17":[1, 9],"sdaReg18":[10],"sdaReg121":[1, 91],"sdaReg124":[94],"sdaReg15":[1, 7],"sdaReg123":[1, 93],"sdaReg16":[8],"sdaReg116":[1, 88],"sdaReg117":[1, 89],"sdaReg114":[1, 86],"sdaReg115":[1, 87],"sdaReg118":[1, 90],"sdaReg77":[63],"sdaReg78":[1, 64],"sdaReg79":[65],"sdaReg73":[59],"sdaReg74":[1, 60],"sdaReg75":[61],"sdaReg76":[1, 62],"sdaReg81":[0],"sdaReg83":[1, 66],"sdaReg111":[85],"sdaReg110":[84],"sdaReg107":[81],"sdaReg108":[1, 82],"sdaReg109":[83],"sdaReg103":[77],"sdaReg104":[1, 78],"sdaReg171":[128],"sdaReg105":[79],"sdaReg170":[127],"sdaReg106":[1, 80],"sdaReg87":[68, 1],"sdaReg175":[0],"sdaReg174":[129],"sdaReg85":[1, 67],"sdaReg177":[131],"sdaReg176":[130],"sdaReg179":[133],"1093671744":[0],"sdaReg178":[132],"sdaReg89":[1, 69],"1093557560.arrayIdx_int:0":[143],"sdaReg93":[71],"1093557560":[143],"sdaReg91":[1, 70],"sdaReg100":[1, 74],"sdaReg102":[1, 76],"sdaReg101":[75],"sdaReg180":[0],"1085474672.<java.net.URI$PartEncoder: java.lang.String extraLegalCharacters>":[109],"sdaReg186":[137],"sdaReg95":[1, 72],"sdaReg185":[136],"sdaReg96":[73],"sdaReg184":[135],"sdaReg183":[134],"1085536376":[85],"sdaReg189":[140],"sdaReg188":[139],"sdaReg187":[138],"static.<java.net.URI: libcore.net.UriCodec PATH_ENCODER>":[109],"sdaReg60":[49],"sdaReg61":[1, 50],"sdaReg162":[1, 122],"sdaReg163":[1, 123],"sdaReg164":[1, 124],"sdaReg165":[1, 125],"sdaReg166":[0],"sdaReg168":[126],"sdaReg59":[1, 48],"sdaReg58":[47],"sdaReg57":[1, 46],"sdaReg56":[45],"sdaReg55":[1, 44],"sdaReg160":[121],"sdaReg51":[43],"sdaReg50":[42],"sdaReg159":[120],"sdaReg152":[1, 116],"sdaReg153":[1, 117],"sdaReg150":[1, 114],"sdaReg151":[1, 115],"sdaReg49":[1, 41],"sdaReg157":[119],"sdaReg48":[40],"sdaReg154":[1, 118],"sdaReg155":[109],"sdaReg45":[1, 37],"sdaReg44":[36],"sdaReg47":[1, 39],"sdaReg46":[38],"sdaReg41":[1, 33],"sdaReg40":[32],"sdaReg43":[1, 35],"sdaReg42":[34],"static.<java.net.URI: libcore.net.UriCodec AUTHORITY_ENCODER>":[85],"sdaReg148":[113],"sdaReg147":[112],"sdaReg143":[109],"sdaReg39":[1, 31],"sdaReg145":[111],"1085474672":[109],"sdaReg38":[30],"sdaReg37":[1, 29],"sdaReg142":[1, 110],"sdaReg32":[24],"sdaReg31":[1, 23],"sdaReg30":[22],"sdaReg36":[28],"sdaReg35":[1, 27],"sdaReg34":[26],"sdaReg33":[1, 25],"sdaReg7":[2],"sdaReg5":[0],"sdaReg139":[109],"sdaReg138":[108],"sdaReg137":[1, 107],"sdaReg136":[106],"sdaReg134":[104],"sdaReg27":[1, 19],"sdaReg135":[1, 105],"sdaReg26":[18],"sdaReg132":[102],"sdaReg29":[1, 21],"sdaReg133":[1, 103],"sdaReg28":[20],"sdaReg130":[100],"sdaReg131":[1, 101],"sdaReg1":[0],"sdaReg21":[1, 13],"sdaReg0":[1],"sdaReg20":[12],"sdaReg23":[1, 15],"sdaReg22":[14],"sdaReg25":[17, 1],"sdaReg24":[16]},"colorToColor":{"0":[147],"1":[0],"70":[0],"125":[0],"72":[0],"90":[0]},"colorToLabel":{"0":"this","1":"arg#1","85":"<java.net.URI: libcore.net.UriCodec AUTHORITY_ENCODER>","109":"<java.net.URI: libcore.net.UriCodec PATH_ENCODER>","147":"return"}}}

Generated Model
	this->return
	arg#1->this
	arg#1->return

