Scanning method <java.net.URI: void <init>(java.lang.String)>

All seen event types: LoadStaticRecord, BinaryOperationRecord, SimpleAssignmentRecord, MethodReturnRecord, MethodCallRecord, LoadInstanceRecord, MethodStartRecord, MethodEndRecord, IfRecord, StoreInstanceRecord, 
Ignored event types: IfRecord, 

JSON Encoded Analysis Data (for visualization):{"heapEdges":[{"step":0,"from":"1093299240","to":"sdaReg2","type":"create","field":"<java.net.URI: int port>"},{"step":1,"from":"1093299240","to":"sdaReg3","type":"create","field":"<java.net.URI: boolean serverAuthority>"},{"step":2,"from":"1093299240","to":"sdaReg4","type":"create","field":"<java.net.URI: int hash>"},{"step":3,"from":"sdaReg0","to":"1093299240","type":"store","field":"<java.net.URI: java.lang.String string>"},{"step":4,"from":"sdaReg0","to":"sdaReg11","type":"model"},{"step":5,"from":"sdaReg0","to":"sdaReg13","type":"model"},{"step":6,"from":"static.<java.net.URI: libcore.net.UriCodec ALL_LEGAL_ENCODER>","to":"1085538000","type":"load","field":"<java.net.URI: libcore.net.UriCodec ALL_LEGAL_ENCODER>"},{"step":7,"from":"sdaReg0","to":"sdaReg21","type":"model"},{"step":8,"from":"sdaReg0","to":"sdaReg22","type":"model"},{"step":9,"from":"1085538000","to":"1085538000.<java.net.URI$PartEncoder: java.lang.String extraLegalCharacters>","type":"load","field":"<java.net.URI$PartEncoder: java.lang.String extraLegalCharacters>"},{"step":10,"from":"sdaReg0","to":"sdaReg30","type":"model"},{"step":11,"from":"sdaReg0","to":"sdaReg35","type":"model"},{"step":12,"from":"1085538000","to":"1085538000.<java.net.URI$PartEncoder: java.lang.String extraLegalCharacters>","type":"load","field":"<java.net.URI$PartEncoder: java.lang.String extraLegalCharacters>"},{"step":13,"from":"sdaReg0","to":"sdaReg43","type":"model"},{"step":14,"from":"sdaReg0","to":"sdaReg44","type":"model"},{"step":15,"from":"sdaReg44","to":"1093299240","type":"store","field":"<java.net.URI: java.lang.String fragment>"},{"step":16,"from":"sdaReg0","to":"sdaReg48","type":"model"},{"step":17,"from":"sdaReg0","to":"sdaReg53","type":"model"},{"step":18,"from":"1093299240","to":"sdaReg55","type":"create","field":"<java.net.URI: boolean absolute>"},{"step":19,"from":"1093299240","to":"sdaReg57","type":"create","field":"<java.net.URI: boolean opaque>"},{"step":20,"from":"sdaReg0","to":"sdaReg58","type":"model"},{"step":21,"from":"sdaReg58","to":"1093299240","type":"store","field":"<java.net.URI: java.lang.String schemeSpecificPart>"},{"step":22,"from":"sdaReg0","to":"sdaReg63","type":"model"},{"step":23,"from":"static.<java.net.URI: libcore.net.UriCodec PATH_ENCODER>","to":"1085474672","type":"load","field":"<java.net.URI: libcore.net.UriCodec PATH_ENCODER>"},{"step":24,"from":"sdaReg0","to":"sdaReg68","type":"model"},{"step":25,"from":"sdaReg0","to":"sdaReg69","type":"model"},{"step":26,"from":"sdaReg69","to":"1093299240","type":"store","field":"<java.net.URI: java.lang.String path>"},{"step":27,"from":"1093299240","to":"1093299240.<java.net.URI: java.lang.String authority>","type":"load","field":"<java.net.URI: java.lang.String authority>"}],"parameters":[{"id":"1093299240","name":"this","klass":"java.net.URI"},{"id":"sdaReg0","name":"arg#1","klass":"string"}],"returns":[{"id":"1093299240","name":"return","klass":"java.net.URI"}],"colors":{"heapLocToColor":{"sdaReg68":[1, 32],"sdaReg69":[1, 33],"sdaReg64":[30],"sdaReg65":[31],"sdaReg63":[1, 29],"sdaReg13":[1, 5],"sdaReg14":[6],"sdaReg70":[0],"1085474672":[31],"sdaReg38":[18],"sdaReg11":[1, 3],"sdaReg12":[4],"sdaReg59":[28],"sdaReg58":[1, 27],"1085538000":[8],"sdaReg31":[8],"sdaReg30":[1, 15],"sdaReg54":[26],"sdaReg36":[8],"sdaReg17":[9],"sdaReg53":[1, 25],"sdaReg18":[8],"sdaReg35":[17, 1],"sdaReg15":[7],"sdaReg33":[16],"sdaReg7":[2],"sdaReg5":[0],"1093299240.<java.net.URI: java.lang.String authority>":[0],"static.<java.net.URI: libcore.net.UriCodec ALL_LEGAL_ENCODER>":[8],"1085538000.<java.net.URI$PartEncoder: java.lang.String extraLegalCharacters>":[8],"sdaReg27":[13],"static.<java.net.URI: libcore.net.UriCodec PATH_ENCODER>":[31],"1093299240":[0],"sdaReg28":[14],"sdaReg49":[24],"sdaReg48":[1, 23],"sdaReg44":[1, 22],"sdaReg1":[0],"sdaReg21":[1, 10],"sdaReg0":[1],"sdaReg41":[20],"sdaReg23":[8],"sdaReg40":[19],"sdaReg22":[1, 11],"sdaReg43":[1, 21],"sdaReg25":[12]},"colorToColor":{"0":[34],"1":[0],"33":[0],"22":[0],"27":[0]},"colorToLabel":{"0":"this","1":"arg#1","8":"<java.net.URI: libcore.net.UriCodec ALL_LEGAL_ENCODER>","31":"<java.net.URI: libcore.net.UriCodec PATH_ENCODER>","34":"return"}}}

Generated Model
	this->return
	arg#1->this
	arg#1->return

