Scanning method <java.net.URI: void <init>(java.lang.String)>

All seen event types: LoadStaticRecord, BinaryOperationRecord, SimpleAssignmentRecord, MethodReturnRecord, MethodCallRecord, LoadInstanceRecord, MethodStartRecord, MethodEndRecord, IfRecord, StoreInstanceRecord, 
Ignored event types: IfRecord, 

JSON Encoded Analysis Data (for visualization):{"heapEdges":[{"step":0,"from":"1093796152","to":"sdaReg2","type":"create","field":"<java.net.URI: int port>"},{"step":1,"from":"1093796152","to":"sdaReg3","type":"create","field":"<java.net.URI: boolean serverAuthority>"},{"step":2,"from":"1093796152","to":"sdaReg4","type":"create","field":"<java.net.URI: int hash>"},{"step":3,"from":"sdaReg0","to":"1093796152","type":"store","field":"<java.net.URI: java.lang.String string>"},{"step":4,"from":"sdaReg0","to":"sdaReg11","type":"model"},{"step":5,"from":"sdaReg0","to":"sdaReg13","type":"model"},{"step":6,"from":"sdaReg0","to":"sdaReg19","type":"model"},{"step":7,"from":"sdaReg0","to":"sdaReg21","type":"model"},{"step":8,"from":"sdaReg0","to":"sdaReg26","type":"model"},{"step":9,"from":"1093796152","to":"sdaReg28","type":"create","field":"<java.net.URI: boolean absolute>"},{"step":10,"from":"1093796152","to":"sdaReg30","type":"create","field":"<java.net.URI: boolean opaque>"},{"step":11,"from":"sdaReg0","to":"sdaReg31","type":"model"},{"step":12,"from":"sdaReg31","to":"1093796152","type":"store","field":"<java.net.URI: java.lang.String schemeSpecificPart>"},{"step":13,"from":"sdaReg0","to":"sdaReg36","type":"model"},{"step":14,"from":"sdaReg0","to":"sdaReg38","type":"model"},{"step":15,"from":"static.<java.net.URI: libcore.net.UriCodec PATH_ENCODER>","to":"1085474672","type":"load","field":"<java.net.URI: libcore.net.UriCodec PATH_ENCODER>"},{"step":16,"from":"sdaReg0","to":"sdaReg43","type":"model"},{"step":17,"from":"1085474672","to":"1085474672.<java.net.URI$PartEncoder: java.lang.String extraLegalCharacters>","type":"load","field":"<java.net.URI$PartEncoder: java.lang.String extraLegalCharacters>"},{"step":18,"from":"sdaReg0","to":"sdaReg51","type":"model"},{"step":19,"from":"sdaReg0","to":"sdaReg52","type":"model"},{"step":20,"from":"sdaReg52","to":"1093796152","type":"store","field":"<java.net.URI: java.lang.String path>"},{"step":21,"from":"1093796152","to":"1093796152.<java.net.URI: java.lang.String authority>","type":"load","field":"<java.net.URI: java.lang.String authority>"}],"parameters":[{"id":"1093796152","name":"this","klass":"java.net.URI"},{"id":"sdaReg0","name":"arg#1","klass":"string"}],"returns":[{"id":"1093796152","name":"return","klass":"java.net.URI"}],"colors":{"heapLocToColor":{"sdaReg13":[1, 5],"sdaReg14":[6],"1093796152":[0],"sdaReg39":[19],"sdaReg11":[1, 3],"sdaReg38":[1, 18],"1085474672":[20],"sdaReg12":[4],"sdaReg37":[17],"sdaReg32":[15],"sdaReg31":[1, 14],"sdaReg19":[1, 8],"1093796152.<java.net.URI: java.lang.String authority>":[0],"sdaReg36":[1, 16],"sdaReg53":[0],"sdaReg52":[1, 26],"sdaReg15":[7],"sdaReg51":[1, 25],"sdaReg7":[2],"1085474672.<java.net.URI$PartEncoder: java.lang.String extraLegalCharacters>":[20],"sdaReg5":[0],"sdaReg27":[13],"sdaReg26":[1, 12],"static.<java.net.URI: libcore.net.UriCodec PATH_ENCODER>":[20],"sdaReg49":[24],"sdaReg48":[23],"sdaReg44":[20],"sdaReg21":[1, 10],"sdaReg1":[0],"sdaReg46":[22],"sdaReg20":[9],"sdaReg0":[1],"sdaReg22":[11],"sdaReg40":[20],"sdaReg43":[1, 21]},"colorToColor":{"0":[27],"1":[0],"26":[0],"14":[0]},"colorToLabel":{"0":"this","1":"arg#1","20":"<java.net.URI: libcore.net.UriCodec PATH_ENCODER>","27":"return"}}}

Generated Model
	this->return
	arg#1->this
	arg#1->return

