Scanning method <java.net.URI: void <init>(java.lang.String)>

All seen event types: LoadStaticRecord, BinaryOperationRecord, SimpleAssignmentRecord, MethodReturnRecord, MethodCallRecord, LoadInstanceRecord, MethodStartRecord, MethodEndRecord, IfRecord, StoreInstanceRecord, 
Ignored event types: IfRecord, 

JSON Encoded Analysis Data (for visualization):{"heapEdges":[{"step":0,"from":"1093494432","to":"sdaReg2","type":"create","field":"<java.net.URI: int port>"},{"step":1,"from":"1093494432","to":"sdaReg3","type":"create","field":"<java.net.URI: boolean serverAuthority>"},{"step":2,"from":"1093494432","to":"sdaReg4","type":"create","field":"<java.net.URI: int hash>"},{"step":3,"from":"sdaReg0","to":"1093494432","type":"store","field":"<java.net.URI: java.lang.String string>"},{"step":4,"from":"sdaReg0","to":"sdaReg11","type":"model"},{"step":5,"from":"sdaReg0","to":"sdaReg13","type":"model"},{"step":6,"from":"sdaReg0","to":"sdaReg15","type":"model"},{"step":7,"from":"sdaReg0","to":"sdaReg17","type":"model"},{"step":8,"from":"static.<java.net.URI: libcore.net.UriCodec ALL_LEGAL_ENCODER>","to":"1085538000","type":"load","field":"<java.net.URI: libcore.net.UriCodec ALL_LEGAL_ENCODER>"},{"step":9,"from":"sdaReg0","to":"sdaReg25","type":"model"},{"step":10,"from":"sdaReg0","to":"sdaReg26","type":"model"},{"step":11,"from":"sdaReg26","to":"1093494432","type":"store","field":"<java.net.URI: java.lang.String fragment>"},{"step":12,"from":"sdaReg0","to":"sdaReg30","type":"model"},{"step":13,"from":"sdaReg0","to":"sdaReg32","type":"model"},{"step":14,"from":"sdaReg0","to":"sdaReg34","type":"model"},{"step":15,"from":"sdaReg0","to":"sdaReg39","type":"model"},{"step":16,"from":"sdaReg0","to":"sdaReg41","type":"model"},{"step":17,"from":"1093494432","to":"sdaReg43","type":"create","field":"<java.net.URI: boolean absolute>"},{"step":18,"from":"1093494432","to":"sdaReg45","type":"create","field":"<java.net.URI: boolean opaque>"},{"step":19,"from":"sdaReg0","to":"sdaReg46","type":"model"},{"step":20,"from":"sdaReg46","to":"1093494432","type":"store","field":"<java.net.URI: java.lang.String schemeSpecificPart>"},{"step":21,"from":"sdaReg0","to":"sdaReg51","type":"model"},{"step":22,"from":"sdaReg0","to":"sdaReg53","type":"model"},{"step":23,"from":"static.<java.net.URI: libcore.net.UriCodec PATH_ENCODER>","to":"1085474672","type":"load","field":"<java.net.URI: libcore.net.UriCodec PATH_ENCODER>"},{"step":24,"from":"sdaReg0","to":"sdaReg58","type":"model"},{"step":25,"from":"sdaReg0","to":"sdaReg59","type":"model"},{"step":26,"from":"sdaReg59","to":"1093494432","type":"store","field":"<java.net.URI: java.lang.String path>"},{"step":27,"from":"static.<java.net.URI: libcore.net.UriCodec ALL_LEGAL_ENCODER>","to":"1085538000","type":"load","field":"<java.net.URI: libcore.net.UriCodec ALL_LEGAL_ENCODER>"},{"step":28,"from":"sdaReg0","to":"sdaReg64","type":"model"},{"step":29,"from":"sdaReg0","to":"sdaReg65","type":"model"},{"step":30,"from":"sdaReg65","to":"1093494432","type":"store","field":"<java.net.URI: java.lang.String query>"},{"step":31,"from":"1093494432","to":"1093494432.<java.net.URI: java.lang.String authority>","type":"load","field":"<java.net.URI: java.lang.String authority>"}],"parameters":[{"id":"1093494432","name":"this","klass":"java.net.URI"},{"id":"sdaReg0","name":"arg#1","klass":"string"}],"returns":[{"id":"1093494432","name":"return","klass":"java.net.URI"}],"colors":{"heapLocToColor":{"1093494432.<java.net.URI: java.lang.String authority>":[0],"sdaReg61":[12],"sdaReg66":[0],"sdaReg64":[1, 35],"sdaReg65":[1, 36],"sdaReg13":[1, 5],"sdaReg39":[1, 22],"sdaReg14":[6],"1085474672":[32],"sdaReg11":[1, 3],"sdaReg12":[4],"sdaReg59":[34, 1],"sdaReg58":[1, 33],"1085538000":[12],"sdaReg32":[1, 18],"sdaReg31":[17],"sdaReg19":[11],"sdaReg30":[1, 16],"sdaReg55":[32],"sdaReg54":[31],"sdaReg17":[1, 9],"sdaReg53":[1, 30],"sdaReg35":[21],"sdaReg18":[10],"sdaReg52":[29],"sdaReg15":[1, 7],"sdaReg34":[1, 20],"sdaReg51":[1, 28],"sdaReg16":[8],"sdaReg33":[19],"sdaReg7":[2],"sdaReg5":[0],"static.<java.net.URI: libcore.net.UriCodec ALL_LEGAL_ENCODER>":[12],"sdaReg26":[1, 15],"static.<java.net.URI: libcore.net.UriCodec PATH_ENCODER>":[32],"1093494432":[0],"sdaReg47":[27],"sdaReg1":[0],"sdaReg21":[13],"sdaReg46":[1, 26],"sdaReg0":[1],"sdaReg41":[1, 24],"sdaReg40":[23],"sdaReg22":[12],"sdaReg25":[1, 14],"sdaReg42":[25]},"colorToColor":{"0":[37],"34":[0],"1":[0],"36":[0],"26":[0],"15":[0]},"colorToLabel":{"0":"this","1":"arg#1","12":"<java.net.URI: libcore.net.UriCodec ALL_LEGAL_ENCODER>","32":"<java.net.URI: libcore.net.UriCodec PATH_ENCODER>","37":"return"}}}

Generated Model
	this->return
	arg#1->this
	arg#1->return

