Scanning method <java.net.URI: void <init>(java.lang.String)>

All seen event types: LoadStaticRecord, BinaryOperationRecord, SimpleAssignmentRecord, MethodReturnRecord, MethodCallRecord, ArrayLengthRecord, LoadInstanceRecord, MethodStartRecord, LoadArrayRecord, MethodEndRecord, IfRecord, StoreInstanceRecord, 
Ignored event types: IfRecord, 

JSON Encoded Analysis Data (for visualization):{"heapEdges":[{"step":0,"from":"1093309016","to":"sdaReg2","type":"create","field":"<java.net.URI: int port>"},{"step":1,"from":"1093309016","to":"sdaReg3","type":"create","field":"<java.net.URI: boolean serverAuthority>"},{"step":2,"from":"1093309016","to":"sdaReg4","type":"create","field":"<java.net.URI: int hash>"},{"step":3,"from":"sdaReg0","to":"1093309016","type":"store","field":"<java.net.URI: java.lang.String string>"},{"step":4,"from":"sdaReg0","to":"sdaReg11","type":"model"},{"step":5,"from":"sdaReg0","to":"sdaReg13","type":"model"},{"step":6,"from":"sdaReg0","to":"sdaReg15","type":"model"},{"step":7,"from":"sdaReg0","to":"sdaReg17","type":"model"},{"step":8,"from":"sdaReg0","to":"sdaReg19","type":"model"},{"step":9,"from":"sdaReg0","to":"sdaReg21","type":"model"},{"step":10,"from":"sdaReg0","to":"sdaReg23","type":"model"},{"step":11,"from":"sdaReg0","to":"sdaReg25","type":"model"},{"step":12,"from":"sdaReg0","to":"sdaReg27","type":"model"},{"step":13,"from":"sdaReg0","to":"sdaReg29","type":"model"},{"step":14,"from":"sdaReg0","to":"sdaReg31","type":"model"},{"step":15,"from":"sdaReg0","to":"sdaReg33","type":"model"},{"step":16,"from":"sdaReg0","to":"sdaReg35","type":"model"},{"step":17,"from":"sdaReg0","to":"sdaReg37","type":"model"},{"step":18,"from":"sdaReg0","to":"sdaReg39","type":"model"},{"step":19,"from":"sdaReg0","to":"sdaReg41","type":"model"},{"step":20,"from":"sdaReg0","to":"sdaReg43","type":"model"},{"step":21,"from":"sdaReg0","to":"sdaReg45","type":"model"},{"step":22,"from":"sdaReg0","to":"sdaReg47","type":"model"},{"step":23,"from":"sdaReg0","to":"sdaReg49","type":"model"},{"step":24,"from":"sdaReg0","to":"sdaReg51","type":"model"},{"step":25,"from":"sdaReg0","to":"sdaReg53","type":"model"},{"step":26,"from":"sdaReg0","to":"sdaReg55","type":"model"},{"step":27,"from":"sdaReg0","to":"sdaReg57","type":"model"},{"step":28,"from":"sdaReg0","to":"sdaReg59","type":"model"},{"step":29,"from":"sdaReg0","to":"sdaReg61","type":"model"},{"step":30,"from":"sdaReg0","to":"sdaReg63","type":"model"},{"step":31,"from":"sdaReg0","to":"sdaReg65","type":"model"},{"step":32,"from":"sdaReg0","to":"sdaReg67","type":"model"},{"step":33,"from":"static.<java.net.URI: libcore.net.UriCodec ALL_LEGAL_ENCODER>","to":"1085538000","type":"load","field":"<java.net.URI: libcore.net.UriCodec ALL_LEGAL_ENCODER>"},{"step":34,"from":"sdaReg0","to":"sdaReg75","type":"model"},{"step":35,"from":"sdaReg0","to":"sdaReg76","type":"model"},{"step":36,"from":"sdaReg0","to":"sdaReg77","type":"model"},{"step":37,"from":"sdaReg0","to":"sdaReg78","type":"model"},{"step":38,"from":"sdaReg0","to":"sdaReg79","type":"model"},{"step":39,"from":"sdaReg79","to":"1093309016","type":"store","field":"<java.net.URI: java.lang.String fragment>"},{"step":40,"from":"sdaReg0","to":"sdaReg83","type":"model"},{"step":41,"from":"sdaReg0","to":"sdaReg85","type":"model"},{"step":42,"from":"sdaReg0","to":"sdaReg87","type":"model"},{"step":43,"from":"sdaReg0","to":"sdaReg89","type":"model"},{"step":44,"from":"sdaReg0","to":"sdaReg91","type":"model"},{"step":45,"from":"sdaReg0","to":"sdaReg96","type":"model"},{"step":46,"from":"sdaReg0","to":"sdaReg98","type":"model"},{"step":47,"from":"sdaReg0","to":"sdaReg100","type":"model"},{"step":48,"from":"sdaReg0","to":"sdaReg102","type":"model"},{"step":49,"from":"sdaReg0","to":"sdaReg104","type":"model"},{"step":50,"from":"sdaReg0","to":"sdaReg106","type":"model"},{"step":51,"from":"1093309016","to":"sdaReg108","type":"create","field":"<java.net.URI: boolean absolute>"},{"step":52,"from":"sdaReg0","to":"sdaReg111","type":"model"},{"step":53,"from":"sdaReg0","to":"sdaReg113","type":"model"},{"step":54,"from":"sdaReg0","to":"sdaReg115","type":"model"},{"step":55,"from":"sdaReg0","to":"sdaReg117","type":"model"},{"step":56,"from":"sdaReg0","to":"sdaReg119","type":"model"},{"step":57,"from":"sdaReg119","to":"1093309016","type":"store","field":"<java.net.URI: java.lang.String scheme>"},{"step":58,"from":"1093309016","to":"sdaReg122","type":"create","field":"<java.net.URI: boolean opaque>"},{"step":59,"from":"sdaReg0","to":"sdaReg123","type":"model"},{"step":60,"from":"sdaReg123","to":"1093309016","type":"store","field":"<java.net.URI: java.lang.String schemeSpecificPart>"},{"step":61,"from":"sdaReg0","to":"sdaReg128","type":"model"},{"step":62,"from":"sdaReg0","to":"sdaReg130","type":"model"},{"step":63,"from":"sdaReg0","to":"sdaReg132","type":"model"},{"step":64,"from":"sdaReg0","to":"sdaReg134","type":"model"},{"step":65,"from":"sdaReg0","to":"sdaReg136","type":"model"},{"step":66,"from":"sdaReg0","to":"sdaReg138","type":"model"},{"step":67,"from":"sdaReg0","to":"sdaReg140","type":"model"},{"step":68,"from":"sdaReg0","to":"sdaReg142","type":"model"},{"step":69,"from":"sdaReg0","to":"sdaReg144","type":"model"},{"step":70,"from":"sdaReg0","to":"sdaReg146","type":"model"},{"step":71,"from":"static.<java.net.URI: libcore.net.UriCodec AUTHORITY_ENCODER>","to":"1085536376","type":"load","field":"<java.net.URI: libcore.net.UriCodec AUTHORITY_ENCODER>"},{"step":72,"from":"sdaReg0","to":"sdaReg152","type":"model"},{"step":73,"from":"sdaReg0","to":"sdaReg153","type":"model"},{"step":74,"from":"sdaReg0","to":"sdaReg154","type":"model"},{"step":75,"from":"sdaReg0","to":"sdaReg155","type":"model"},{"step":76,"from":"sdaReg0","to":"sdaReg156","type":"model"},{"step":77,"from":"sdaReg0","to":"sdaReg157","type":"model"},{"step":78,"from":"sdaReg0","to":"sdaReg158","type":"model"},{"step":79,"from":"sdaReg0","to":"sdaReg159","type":"model"},{"step":80,"from":"sdaReg0","to":"sdaReg160","type":"model"},{"step":81,"from":"sdaReg0","to":"sdaReg161","type":"model"},{"step":82,"from":"sdaReg161","to":"1093309016","type":"store","field":"<java.net.URI: java.lang.String authority>"},{"step":83,"from":"sdaReg0","to":"sdaReg164","type":"model"},{"step":84,"from":"sdaReg0","to":"sdaReg166","type":"model"},{"step":85,"from":"sdaReg0","to":"sdaReg168","type":"model"},{"step":86,"from":"sdaReg0","to":"sdaReg170","type":"model"},{"step":87,"from":"sdaReg0","to":"sdaReg172","type":"model"},{"step":88,"from":"static.<java.net.URI: libcore.net.UriCodec PATH_ENCODER>","to":"1085474672","type":"load","field":"<java.net.URI: libcore.net.UriCodec PATH_ENCODER>"},{"step":89,"from":"sdaReg0","to":"sdaReg177","type":"model"},{"step":90,"from":"1085474672","to":"1085474672.<java.net.URI$PartEncoder: java.lang.String extraLegalCharacters>","type":"load","field":"<java.net.URI$PartEncoder: java.lang.String extraLegalCharacters>"},{"step":91,"from":"sdaReg0","to":"sdaReg185","type":"model"},{"step":92,"from":"sdaReg0","to":"sdaReg186","type":"model"},{"step":93,"from":"sdaReg0","to":"sdaReg187","type":"model"},{"step":94,"from":"sdaReg0","to":"sdaReg188","type":"model"},{"step":95,"from":"sdaReg188","to":"1093309016","type":"store","field":"<java.net.URI: java.lang.String path>"},{"step":96,"from":"static.<java.net.URI: libcore.net.UriCodec ALL_LEGAL_ENCODER>","to":"1085538000","type":"load","field":"<java.net.URI: libcore.net.UriCodec ALL_LEGAL_ENCODER>"},{"step":97,"from":"sdaReg0","to":"sdaReg193","type":"model"},{"step":98,"from":"sdaReg0","to":"sdaReg194","type":"model"},{"step":99,"from":"sdaReg0","to":"sdaReg195","type":"model"},{"step":100,"from":"sdaReg0","to":"sdaReg196","type":"model"},{"step":101,"from":"sdaReg0","to":"sdaReg203","type":"model"},{"step":102,"from":"sdaReg0","to":"sdaReg204","type":"model"},{"step":103,"from":"sdaReg0","to":"sdaReg205","type":"model"},{"step":104,"from":"sdaReg0","to":"sdaReg206","type":"model"},{"step":105,"from":"sdaReg206","to":"1093309016","type":"store","field":"<java.net.URI: java.lang.String query>"},{"step":106,"from":"sdaReg214","to":"sdaReg220","type":"model"},{"step":107,"from":"sdaReg214","to":"sdaReg225","type":"model"},{"step":108,"from":"sdaReg214","to":"sdaReg227","type":"model"},{"step":109,"from":"sdaReg214","to":"sdaReg229","type":"model"},{"step":110,"from":"sdaReg214","to":"sdaReg231","type":"model"},{"step":111,"from":"sdaReg214","to":"sdaReg233","type":"model"},{"step":112,"from":"sdaReg214","to":"sdaReg235","type":"model"},{"step":113,"from":"sdaReg214","to":"sdaReg237","type":"model"},{"step":114,"from":"sdaReg214","to":"sdaReg239","type":"model"},{"step":115,"from":"sdaReg214","to":"sdaReg241","type":"model"},{"step":116,"from":"sdaReg214","to":"1093399888","type":"model"},{"step":117,"from":"1093399888","to":"1093399888.arrayIdx_int:0","type":"load","field":"arrayIdx_int:0"},{"step":118,"from":"sdaReg208","to":"1093309016","type":"store","field":"<java.net.URI: java.lang.String userInfo>"},{"step":119,"from":"sdaReg214","to":"1093309016","type":"store","field":"<java.net.URI: java.lang.String host>"},{"step":120,"from":"sdaReg213","to":"1093309016","type":"store","field":"<java.net.URI: int port>"},{"step":121,"from":"1093309016","to":"sdaReg252","type":"create","field":"<java.net.URI: boolean serverAuthority>"}],"parameters":[{"id":"1093309016","name":"this","klass":"java.net.URI"},{"id":"sdaReg0","name":"arg#1","klass":"string"}],"returns":[{"id":"1093309016","name":"return","klass":"java.net.URI"}],"colors":{"heapLocToColor":{"sdaReg190":[62],"sdaReg193":[1, 150],"sdaReg199":[154],"sdaReg195":[152, 1],"sdaReg194":[1, 151],"sdaReg197":[62],"sdaReg196":[1, 153],"sdaReg13":[1, 5],"sdaReg14":[6],"sdaReg11":[1, 3],"sdaReg12":[4],"sdaReg19":[1, 11],"sdaReg17":[1, 9],"sdaReg18":[10],"sdaReg15":[1, 7],"sdaReg16":[8],"sdaReg171":[138],"sdaReg170":[137, 1],"sdaReg173":[140],"sdaReg172":[1, 139],"sdaReg174":[141],"sdaReg177":[1, 142],"sdaReg178":[141],"sdaReg182":[144],"sdaReg180":[143],"sdaReg186":[1, 147],"sdaReg185":[1, 146],"sdaReg183":[145],"sdaReg188":[1, 149],"sdaReg187":[1, 148],"sdaReg60":[52],"sdaReg61":[1, 53],"sdaReg59":[51, 1],"sdaReg58":[50],"sdaReg57":[1, 49],"sdaReg56":[48],"sdaReg55":[1, 47],"sdaReg54":[46],"1093399888.arrayIdx_int:0":[187],"sdaReg53":[1, 45],"sdaReg52":[44],"sdaReg51":[1, 43],"sdaReg50":[42],"static.<java.net.URI: libcore.net.UriCodec ALL_LEGAL_ENCODER>":[62],"sdaReg49":[1, 41],"sdaReg48":[40],"sdaReg45":[1, 37],"sdaReg44":[36],"sdaReg47":[1, 39],"sdaReg46":[38],"sdaReg41":[1, 33],"sdaReg40":[32],"sdaReg43":[1, 35],"sdaReg42":[34],"static.<java.net.URI: libcore.net.UriCodec AUTHORITY_ENCODER>":[120],"sdaReg201":[155],"sdaReg205":[1, 158],"sdaReg39":[1, 31],"sdaReg204":[1, 157],"sdaReg38":[30],"1085474672":[141],"sdaReg203":[1, 156],"sdaReg37":[1, 29],"sdaReg209":[160],"sdaReg207":[0],"sdaReg206":[1, 159],"sdaReg32":[24],"sdaReg31":[1, 23],"sdaReg30":[22],"sdaReg36":[28],"sdaReg35":[1, 27],"sdaReg34":[26],"sdaReg33":[1, 25],"sdaReg7":[2],"sdaReg5":[0],"sdaReg27":[1, 19],"sdaReg26":[18],"sdaReg29":[1, 21],"sdaReg28":[20],"sdaReg21":[1, 13],"sdaReg1":[0],"sdaReg20":[12],"sdaReg0":[1],"sdaReg23":[1, 15],"sdaReg22":[14],"sdaReg25":[17, 1],"sdaReg24":[16],"sdaReg128":[1, 99],"sdaReg129":[100],"sdaReg68":[60],"sdaReg228":[172],"sdaReg69":[61],"sdaReg229":[173],"sdaReg66":[58],"sdaReg67":[1, 59],"sdaReg64":[56],"sdaReg224":[168],"sdaReg65":[1, 57],"sdaReg225":[169],"sdaReg62":[54],"sdaReg226":[170],"sdaReg63":[1, 55],"sdaReg227":[171],"sdaReg72":[62],"sdaReg221":[0],"sdaReg71":[63],"sdaReg220":[167],"sdaReg121":[96],"sdaReg124":[98],"sdaReg123":[1, 97],"sdaReg117":[1, 94],"sdaReg115":[1, 93],"sdaReg119":[1, 95],"sdaReg77":[1, 66],"sdaReg219":[166],"sdaReg78":[1, 67],"sdaReg79":[68, 1],"sdaReg217":[164],"sdaReg218":[165],"sdaReg215":[163],"sdaReg216":[0],"sdaReg75":[1, 64],"sdaReg76":[1, 65],"sdaReg212":[162],"sdaReg211":[161],"sdaReg83":[1, 69],"sdaReg113":[1, 92],"sdaReg111":[1, 91],"sdaReg107":[90],"sdaReg109":[0],"sdaReg103":[86],"sdaReg104":[1, 87],"sdaReg105":[88],"sdaReg106":[1, 89],"sdaReg86":[72],"sdaReg247":[188],"sdaReg87":[1, 73],"sdaReg248":[189],"sdaReg84":[70],"sdaReg249":[190],"sdaReg85":[1, 71],"sdaReg88":[74],"sdaReg89":[1, 75],"sdaReg90":[76],"sdaReg241":[185],"sdaReg240":[184],"sdaReg243":[187],"sdaReg242":[186],"sdaReg92":[78],"sdaReg244":[187],"sdaReg91":[1, 77],"sdaReg100":[1, 83],"sdaReg102":[85, 1],"sdaReg101":[84],"1093309016":[0],"1085474672.<java.net.URI$PartEncoder: java.lang.String extraLegalCharacters>":[141],"sdaReg237":[181],"sdaReg238":[182],"sdaReg96":[1, 79],"sdaReg235":[179],"sdaReg97":[80],"sdaReg236":[180],"sdaReg98":[1, 81],"sdaReg99":[82],"1085536376":[120],"sdaReg239":[183],"sdaReg230":[174],"static.<java.net.URI: libcore.net.UriCodec PATH_ENCODER>":[141],"sdaReg234":[178],"sdaReg233":[177],"sdaReg232":[176],"sdaReg231":[175],"sdaReg169":[136],"sdaReg161":[1, 130],"sdaReg164":[1, 131],"sdaReg165":[132],"sdaReg166":[1, 133],"sdaReg167":[134],"sdaReg168":[1, 135],"sdaReg160":[1, 129],"sdaReg159":[1, 128],"sdaReg158":[1, 127],"sdaReg152":[1, 121],"sdaReg153":[1, 122],"sdaReg156":[1, 125],"sdaReg157":[1, 126],"sdaReg154":[1, 123],"sdaReg155":[1, 124],"sdaReg148":[119],"sdaReg147":[118],"sdaReg149":[120],"sdaReg143":[114],"sdaReg144":[1, 115],"sdaReg145":[116],"sdaReg146":[1, 117],"sdaReg140":[1, 111],"sdaReg141":[112],"1093399888":[187],"sdaReg142":[1, 113],"1085538000":[62],"sdaReg139":[110],"sdaReg138":[1, 109],"sdaReg137":[108],"sdaReg136":[1, 107],"sdaReg134":[1, 105],"sdaReg135":[106],"sdaReg132":[1, 103],"sdaReg133":[104],"sdaReg130":[1, 101],"sdaReg131":[102]},"colorToColor":{"0":[191],"68":[0],"1":[0],"159":[0],"97":[0],"95":[0],"130":[0],"149":[0]},"colorToLabel":{"0":"this","1":"arg#1","62":"<java.net.URI: libcore.net.UriCodec ALL_LEGAL_ENCODER>","120":"<java.net.URI: libcore.net.UriCodec AUTHORITY_ENCODER>","141":"<java.net.URI: libcore.net.UriCodec PATH_ENCODER>","191":"return"}}}

Generated Model
	this->return
	arg#1->this
	arg#1->return

