Scanning method <java.net.URI: void <init>(java.lang.String)>

All seen event types: LoadStaticRecord, BinaryOperationRecord, SimpleAssignmentRecord, MethodReturnRecord, MethodCallRecord, LoadInstanceRecord, MethodStartRecord, MethodEndRecord, IfRecord, StoreInstanceRecord, 
Ignored event types: IfRecord, 

JSON Encoded Analysis Data (for visualization):{"heapEdges":[{"step":0,"from":"1093617464","to":"sdaReg2","type":"create","field":"<java.net.URI: int port>"},{"step":1,"from":"1093617464","to":"sdaReg3","type":"create","field":"<java.net.URI: boolean serverAuthority>"},{"step":2,"from":"1093617464","to":"sdaReg4","type":"create","field":"<java.net.URI: int hash>"},{"step":3,"from":"sdaReg0","to":"1093617464","type":"store","field":"<java.net.URI: java.lang.String string>"},{"step":4,"from":"sdaReg0","to":"sdaReg11","type":"model"},{"step":5,"from":"sdaReg0","to":"sdaReg13","type":"model"},{"step":6,"from":"sdaReg0","to":"sdaReg15","type":"model"},{"step":7,"from":"sdaReg0","to":"sdaReg17","type":"model"},{"step":8,"from":"sdaReg0","to":"sdaReg19","type":"model"},{"step":9,"from":"sdaReg0","to":"sdaReg21","type":"model"},{"step":10,"from":"sdaReg0","to":"sdaReg23","type":"model"},{"step":11,"from":"sdaReg0","to":"sdaReg25","type":"model"},{"step":12,"from":"sdaReg0","to":"sdaReg27","type":"model"},{"step":13,"from":"sdaReg0","to":"sdaReg29","type":"model"},{"step":14,"from":"sdaReg0","to":"sdaReg31","type":"model"},{"step":15,"from":"sdaReg0","to":"sdaReg33","type":"model"},{"step":16,"from":"sdaReg0","to":"sdaReg39","type":"model"},{"step":17,"from":"sdaReg0","to":"sdaReg41","type":"model"},{"step":18,"from":"sdaReg0","to":"sdaReg43","type":"model"},{"step":19,"from":"sdaReg0","to":"sdaReg45","type":"model"},{"step":20,"from":"sdaReg0","to":"sdaReg47","type":"model"},{"step":21,"from":"sdaReg0","to":"sdaReg52","type":"model"},{"step":22,"from":"sdaReg0","to":"sdaReg54","type":"model"},{"step":23,"from":"sdaReg0","to":"sdaReg56","type":"model"},{"step":24,"from":"sdaReg0","to":"sdaReg58","type":"model"},{"step":25,"from":"sdaReg0","to":"sdaReg60","type":"model"},{"step":26,"from":"sdaReg0","to":"sdaReg62","type":"model"},{"step":27,"from":"1093617464","to":"sdaReg64","type":"create","field":"<java.net.URI: boolean absolute>"},{"step":28,"from":"sdaReg0","to":"sdaReg67","type":"model"},{"step":29,"from":"sdaReg0","to":"sdaReg69","type":"model"},{"step":30,"from":"sdaReg0","to":"sdaReg71","type":"model"},{"step":31,"from":"sdaReg0","to":"sdaReg73","type":"model"},{"step":32,"from":"sdaReg0","to":"sdaReg75","type":"model"},{"step":33,"from":"sdaReg75","to":"1093617464","type":"store","field":"<java.net.URI: java.lang.String scheme>"},{"step":34,"from":"1093617464","to":"sdaReg78","type":"create","field":"<java.net.URI: boolean opaque>"},{"step":35,"from":"sdaReg0","to":"sdaReg79","type":"model"},{"step":36,"from":"sdaReg79","to":"1093617464","type":"store","field":"<java.net.URI: java.lang.String schemeSpecificPart>"},{"step":37,"from":"sdaReg0","to":"sdaReg84","type":"model"},{"step":38,"from":"sdaReg0","to":"sdaReg89","type":"model"},{"step":39,"from":"sdaReg0","to":"sdaReg91","type":"model"},{"step":40,"from":"sdaReg0","to":"sdaReg93","type":"model"},{"step":41,"from":"sdaReg0","to":"sdaReg95","type":"model"},{"step":42,"from":"sdaReg0","to":"sdaReg97","type":"model"},{"step":43,"from":"static.<java.net.URI: libcore.net.UriCodec PATH_ENCODER>","to":"1085474672","type":"load","field":"<java.net.URI: libcore.net.UriCodec PATH_ENCODER>"},{"step":44,"from":"sdaReg0","to":"sdaReg102","type":"model"},{"step":45,"from":"1085474672","to":"1085474672.<java.net.URI$PartEncoder: java.lang.String extraLegalCharacters>","type":"load","field":"<java.net.URI$PartEncoder: java.lang.String extraLegalCharacters>"},{"step":46,"from":"sdaReg0","to":"sdaReg110","type":"model"},{"step":47,"from":"sdaReg0","to":"sdaReg111","type":"model"},{"step":48,"from":"sdaReg0","to":"sdaReg112","type":"model"},{"step":49,"from":"sdaReg0","to":"sdaReg113","type":"model"},{"step":50,"from":"sdaReg0","to":"sdaReg114","type":"model"},{"step":51,"from":"sdaReg114","to":"1093617464","type":"store","field":"<java.net.URI: java.lang.String path>"},{"step":52,"from":"1093617464","to":"1093617464.<java.net.URI: java.lang.String authority>","type":"load","field":"<java.net.URI: java.lang.String authority>"}],"parameters":[{"id":"1093617464","name":"this","klass":"java.net.URI"},{"id":"sdaReg0","name":"arg#1","klass":"string"}],"returns":[{"id":"1093617464","name":"return","klass":"java.net.URI"}],"colors":{"heapLocToColor":{"sdaReg60":[1, 46],"sdaReg61":[47],"sdaReg69":[51, 1],"sdaReg67":[1, 50],"sdaReg65":[0],"sdaReg62":[1, 48],"sdaReg63":[49],"sdaReg13":[1, 5],"sdaReg71":[1, 52],"sdaReg14":[6],"sdaReg11":[1, 3],"sdaReg12":[4],"sdaReg59":[45],"sdaReg58":[1, 44],"sdaReg57":[43],"sdaReg19":[1, 11],"sdaReg56":[1, 42],"sdaReg55":[41],"sdaReg17":[1, 9],"sdaReg54":[1, 40],"sdaReg18":[10],"sdaReg53":[39],"sdaReg15":[1, 7],"sdaReg52":[1, 38],"sdaReg16":[8],"sdaReg114":[1, 80],"sdaReg115":[0],"sdaReg77":[55],"sdaReg79":[1, 56],"sdaReg73":[1, 53],"sdaReg75":[1, 54],"sdaReg80":[57],"sdaReg48":[37],"sdaReg45":[34, 1],"sdaReg44":[33],"sdaReg47":[1, 36],"sdaReg46":[35],"sdaReg113":[1, 79],"sdaReg41":[1, 30],"sdaReg112":[1, 78],"sdaReg40":[29],"sdaReg111":[1, 77],"sdaReg43":[1, 32],"sdaReg110":[1, 76],"sdaReg42":[31],"sdaReg107":[74],"sdaReg108":[75],"sdaReg103":[71],"sdaReg105":[73],"sdaReg86":[60],"sdaReg84":[1, 58],"sdaReg85":[59],"sdaReg89":[1, 61],"sdaReg90":[62],"sdaReg39":[1, 28],"1085474672":[71],"sdaReg94":[66],"sdaReg93":[1, 65],"sdaReg92":[64],"sdaReg91":[1, 63],"sdaReg32":[24],"sdaReg31":[1, 23],"sdaReg102":[1, 72],"sdaReg30":[22],"sdaReg35":[27],"sdaReg34":[26],"sdaReg33":[1, 25],"sdaReg7":[2],"1093617464.<java.net.URI: java.lang.String authority>":[0],"1085474672.<java.net.URI$PartEncoder: java.lang.String extraLegalCharacters>":[71],"sdaReg5":[0],"sdaReg95":[1, 67],"sdaReg96":[68],"sdaReg97":[1, 69],"sdaReg98":[70],"sdaReg99":[71],"sdaReg27":[1, 19],"sdaReg26":[18],"sdaReg29":[1, 21],"static.<java.net.URI: libcore.net.UriCodec PATH_ENCODER>":[71],"sdaReg28":[20],"sdaReg21":[1, 13],"sdaReg1":[0],"sdaReg20":[12],"sdaReg0":[1],"sdaReg23":[1, 15],"sdaReg22":[14],"sdaReg25":[17, 1],"1093617464":[0],"sdaReg24":[16]},"colorToColor":{"0":[81],"1":[0],"80":[0],"54":[0],"56":[0]},"colorToLabel":{"0":"this","1":"arg#1","71":"<java.net.URI: libcore.net.UriCodec PATH_ENCODER>","81":"return"}}}

Generated Model
	this->return
	arg#1->this
	arg#1->return

