Scanning method <java.net.URI: void <init>(java.lang.String)>

All seen event types: LoadStaticRecord, BinaryOperationRecord, SimpleAssignmentRecord, MethodReturnRecord, MethodCallRecord, LoadInstanceRecord, MethodStartRecord, MethodEndRecord, IfRecord, StoreInstanceRecord, 
Ignored event types: IfRecord, 

JSON Encoded Analysis Data (for visualization):{"heapEdges":[{"step":0,"from":"1093228968","to":"sdaReg2","type":"create","field":"<java.net.URI: int port>"},{"step":1,"from":"1093228968","to":"sdaReg3","type":"create","field":"<java.net.URI: boolean serverAuthority>"},{"step":2,"from":"1093228968","to":"sdaReg4","type":"create","field":"<java.net.URI: int hash>"},{"step":3,"from":"sdaReg0","to":"1093228968","type":"store","field":"<java.net.URI: java.lang.String string>"},{"step":4,"from":"sdaReg0","to":"sdaReg11","type":"model"},{"step":5,"from":"sdaReg0","to":"sdaReg13","type":"model"},{"step":6,"from":"sdaReg0","to":"sdaReg15","type":"model"},{"step":7,"from":"sdaReg0","to":"sdaReg17","type":"model"},{"step":8,"from":"sdaReg0","to":"sdaReg19","type":"model"},{"step":9,"from":"sdaReg0","to":"sdaReg21","type":"model"},{"step":10,"from":"sdaReg0","to":"sdaReg23","type":"model"},{"step":11,"from":"sdaReg0","to":"sdaReg25","type":"model"},{"step":12,"from":"sdaReg0","to":"sdaReg31","type":"model"},{"step":13,"from":"sdaReg0","to":"sdaReg33","type":"model"},{"step":14,"from":"sdaReg0","to":"sdaReg35","type":"model"},{"step":15,"from":"sdaReg0","to":"sdaReg37","type":"model"},{"step":16,"from":"sdaReg0","to":"sdaReg39","type":"model"},{"step":17,"from":"sdaReg0","to":"sdaReg44","type":"model"},{"step":18,"from":"sdaReg0","to":"sdaReg46","type":"model"},{"step":19,"from":"sdaReg0","to":"sdaReg48","type":"model"},{"step":20,"from":"sdaReg0","to":"sdaReg50","type":"model"},{"step":21,"from":"sdaReg0","to":"sdaReg52","type":"model"},{"step":22,"from":"sdaReg0","to":"sdaReg54","type":"model"},{"step":23,"from":"1093228968","to":"sdaReg56","type":"create","field":"<java.net.URI: boolean absolute>"},{"step":24,"from":"sdaReg0","to":"sdaReg59","type":"model"},{"step":25,"from":"sdaReg0","to":"sdaReg61","type":"model"},{"step":26,"from":"sdaReg0","to":"sdaReg63","type":"model"},{"step":27,"from":"sdaReg0","to":"sdaReg65","type":"model"},{"step":28,"from":"sdaReg0","to":"sdaReg67","type":"model"},{"step":29,"from":"sdaReg67","to":"1093228968","type":"store","field":"<java.net.URI: java.lang.String scheme>"},{"step":30,"from":"1093228968","to":"sdaReg70","type":"create","field":"<java.net.URI: boolean opaque>"},{"step":31,"from":"sdaReg0","to":"sdaReg71","type":"model"},{"step":32,"from":"sdaReg71","to":"1093228968","type":"store","field":"<java.net.URI: java.lang.String schemeSpecificPart>"},{"step":33,"from":"sdaReg0","to":"sdaReg76","type":"model"},{"step":34,"from":"sdaReg0","to":"sdaReg78","type":"model"},{"step":35,"from":"sdaReg0","to":"sdaReg80","type":"model"},{"step":36,"from":"static.<java.net.URI: libcore.net.UriCodec PATH_ENCODER>","to":"1085474672","type":"load","field":"<java.net.URI: libcore.net.UriCodec PATH_ENCODER>"},{"step":37,"from":"sdaReg0","to":"sdaReg85","type":"model"},{"step":38,"from":"1085474672","to":"1085474672.<java.net.URI$PartEncoder: java.lang.String extraLegalCharacters>","type":"load","field":"<java.net.URI$PartEncoder: java.lang.String extraLegalCharacters>"},{"step":39,"from":"sdaReg0","to":"sdaReg93","type":"model"},{"step":40,"from":"sdaReg0","to":"sdaReg94","type":"model"},{"step":41,"from":"1085474672","to":"1085474672.<java.net.URI$PartEncoder: java.lang.String extraLegalCharacters>","type":"load","field":"<java.net.URI$PartEncoder: java.lang.String extraLegalCharacters>"},{"step":42,"from":"sdaReg0","to":"sdaReg102","type":"model"},{"step":43,"from":"sdaReg102","to":"1093228968","type":"store","field":"<java.net.URI: java.lang.String path>"},{"step":44,"from":"1093228968","to":"1093228968.<java.net.URI: java.lang.String authority>","type":"load","field":"<java.net.URI: java.lang.String authority>"}],"parameters":[{"id":"1093228968","name":"this","klass":"java.net.URI"},{"id":"sdaReg0","name":"arg#1","klass":"string"}],"returns":[{"id":"1093228968","name":"return","klass":"java.net.URI"}],"colors":{"heapLocToColor":{"sdaReg61":[1, 43],"sdaReg69":[47],"sdaReg67":[1, 46],"sdaReg65":[1, 45],"sdaReg63":[1, 44],"sdaReg72":[49],"sdaReg13":[1, 5],"sdaReg71":[1, 48],"sdaReg14":[6],"sdaReg11":[1, 3],"sdaReg12":[4],"sdaReg59":[1, 42],"sdaReg57":[0],"sdaReg19":[1, 11],"sdaReg55":[41],"sdaReg17":[1, 9],"sdaReg54":[1, 40],"sdaReg18":[10],"sdaReg53":[39],"sdaReg15":[1, 7],"sdaReg52":[1, 38],"sdaReg16":[8],"sdaReg51":[37],"sdaReg50":[1, 36],"sdaReg77":[51],"sdaReg78":[1, 52],"sdaReg79":[53],"sdaReg76":[1, 50],"sdaReg81":[55],"sdaReg80":[1, 54],"sdaReg82":[56],"sdaReg49":[35],"sdaReg48":[34, 1],"sdaReg45":[31],"sdaReg44":[1, 30],"sdaReg47":[33],"sdaReg46":[1, 32],"sdaReg40":[29],"sdaReg103":[0],"sdaReg86":[56],"1093228968":[0],"sdaReg85":[1, 57],"sdaReg88":[58],"sdaReg90":[59],"sdaReg39":[1, 28],"1085474672":[56],"sdaReg38":[27],"sdaReg37":[1, 26],"1093228968.<java.net.URI: java.lang.String authority>":[0],"sdaReg94":[1, 62],"sdaReg93":[1, 61],"sdaReg91":[60],"sdaReg100":[65],"sdaReg32":[21],"sdaReg31":[1, 20],"sdaReg102":[1, 66],"sdaReg36":[25],"sdaReg35":[1, 24],"sdaReg34":[23],"sdaReg33":[1, 22],"sdaReg7":[2],"1085474672.<java.net.URI$PartEncoder: java.lang.String extraLegalCharacters>":[56],"sdaReg5":[0],"sdaReg95":[56],"sdaReg97":[63],"sdaReg99":[64],"sdaReg27":[19],"sdaReg26":[18],"static.<java.net.URI: libcore.net.UriCodec PATH_ENCODER>":[56],"sdaReg21":[1, 13],"sdaReg1":[0],"sdaReg20":[12],"sdaReg0":[1],"sdaReg23":[1, 15],"sdaReg22":[14],"sdaReg25":[17, 1],"sdaReg24":[16]},"colorToColor":{"0":[67],"1":[0],"48":[0],"66":[0],"46":[0]},"colorToLabel":{"0":"this","1":"arg#1","56":"<java.net.URI: libcore.net.UriCodec PATH_ENCODER>","67":"return"}}}

Generated Model
	this->return
	arg#1->this
	arg#1->return

