Scanning method <java.net.URI: void <init>(java.lang.String)>

All seen event types: LoadStaticRecord, BinaryOperationRecord, SimpleAssignmentRecord, MethodReturnRecord, MethodCallRecord, ArrayLengthRecord, LoadInstanceRecord, MethodStartRecord, LoadArrayRecord, MethodEndRecord, IfRecord, StoreInstanceRecord, 
Ignored event types: IfRecord, 

JSON Encoded Analysis Data (for visualization):{"heapEdges":[{"step":0,"from":"1093635912","to":"sdaReg2","type":"create","field":"<java.net.URI: int port>"},{"step":1,"from":"1093635912","to":"sdaReg3","type":"create","field":"<java.net.URI: boolean serverAuthority>"},{"step":2,"from":"1093635912","to":"sdaReg4","type":"create","field":"<java.net.URI: int hash>"},{"step":3,"from":"sdaReg0","to":"1093635912","type":"store","field":"<java.net.URI: java.lang.String string>"},{"step":4,"from":"sdaReg0","to":"sdaReg11","type":"model"},{"step":5,"from":"sdaReg0","to":"sdaReg13","type":"model"},{"step":6,"from":"sdaReg0","to":"sdaReg15","type":"model"},{"step":7,"from":"sdaReg0","to":"sdaReg17","type":"model"},{"step":8,"from":"sdaReg0","to":"sdaReg19","type":"model"},{"step":9,"from":"sdaReg0","to":"sdaReg21","type":"model"},{"step":10,"from":"sdaReg0","to":"sdaReg23","type":"model"},{"step":11,"from":"sdaReg0","to":"sdaReg25","type":"model"},{"step":12,"from":"sdaReg0","to":"sdaReg27","type":"model"},{"step":13,"from":"sdaReg0","to":"sdaReg29","type":"model"},{"step":14,"from":"sdaReg0","to":"sdaReg31","type":"model"},{"step":15,"from":"sdaReg0","to":"sdaReg33","type":"model"},{"step":16,"from":"sdaReg0","to":"sdaReg35","type":"model"},{"step":17,"from":"sdaReg0","to":"sdaReg37","type":"model"},{"step":18,"from":"sdaReg0","to":"sdaReg39","type":"model"},{"step":19,"from":"sdaReg0","to":"sdaReg41","type":"model"},{"step":20,"from":"sdaReg0","to":"sdaReg43","type":"model"},{"step":21,"from":"sdaReg0","to":"sdaReg45","type":"model"},{"step":22,"from":"sdaReg0","to":"sdaReg47","type":"model"},{"step":23,"from":"sdaReg0","to":"sdaReg49","type":"model"},{"step":24,"from":"sdaReg0","to":"sdaReg51","type":"model"},{"step":25,"from":"sdaReg0","to":"sdaReg57","type":"model"},{"step":26,"from":"sdaReg0","to":"sdaReg59","type":"model"},{"step":27,"from":"sdaReg0","to":"sdaReg61","type":"model"},{"step":28,"from":"sdaReg0","to":"sdaReg63","type":"model"},{"step":29,"from":"sdaReg0","to":"sdaReg65","type":"model"},{"step":30,"from":"sdaReg0","to":"sdaReg70","type":"model"},{"step":31,"from":"sdaReg0","to":"sdaReg72","type":"model"},{"step":32,"from":"sdaReg0","to":"sdaReg74","type":"model"},{"step":33,"from":"sdaReg0","to":"sdaReg76","type":"model"},{"step":34,"from":"sdaReg0","to":"sdaReg78","type":"model"},{"step":35,"from":"sdaReg0","to":"sdaReg80","type":"model"},{"step":36,"from":"1093635912","to":"sdaReg82","type":"create","field":"<java.net.URI: boolean absolute>"},{"step":37,"from":"sdaReg0","to":"sdaReg85","type":"model"},{"step":38,"from":"sdaReg0","to":"sdaReg87","type":"model"},{"step":39,"from":"sdaReg0","to":"sdaReg89","type":"model"},{"step":40,"from":"sdaReg0","to":"sdaReg91","type":"model"},{"step":41,"from":"sdaReg0","to":"sdaReg93","type":"model"},{"step":42,"from":"sdaReg93","to":"1093635912","type":"store","field":"<java.net.URI: java.lang.String scheme>"},{"step":43,"from":"1093635912","to":"sdaReg96","type":"create","field":"<java.net.URI: boolean opaque>"},{"step":44,"from":"sdaReg0","to":"sdaReg97","type":"model"},{"step":45,"from":"sdaReg97","to":"1093635912","type":"store","field":"<java.net.URI: java.lang.String schemeSpecificPart>"},{"step":46,"from":"sdaReg0","to":"sdaReg102","type":"model"},{"step":47,"from":"sdaReg0","to":"sdaReg104","type":"model"},{"step":48,"from":"sdaReg0","to":"sdaReg106","type":"model"},{"step":49,"from":"sdaReg0","to":"sdaReg108","type":"model"},{"step":50,"from":"sdaReg0","to":"sdaReg110","type":"model"},{"step":51,"from":"sdaReg0","to":"sdaReg112","type":"model"},{"step":52,"from":"sdaReg0","to":"sdaReg114","type":"model"},{"step":53,"from":"sdaReg0","to":"sdaReg116","type":"model"},{"step":54,"from":"sdaReg0","to":"sdaReg118","type":"model"},{"step":55,"from":"sdaReg0","to":"sdaReg120","type":"model"},{"step":56,"from":"sdaReg0","to":"sdaReg122","type":"model"},{"step":57,"from":"sdaReg0","to":"sdaReg124","type":"model"},{"step":58,"from":"sdaReg0","to":"sdaReg126","type":"model"},{"step":59,"from":"sdaReg0","to":"sdaReg128","type":"model"},{"step":60,"from":"static.<java.net.URI: libcore.net.UriCodec AUTHORITY_ENCODER>","to":"1085536376","type":"load","field":"<java.net.URI: libcore.net.UriCodec AUTHORITY_ENCODER>"},{"step":61,"from":"sdaReg0","to":"sdaReg134","type":"model"},{"step":62,"from":"sdaReg0","to":"sdaReg135","type":"model"},{"step":63,"from":"sdaReg0","to":"sdaReg136","type":"model"},{"step":64,"from":"sdaReg0","to":"sdaReg137","type":"model"},{"step":65,"from":"sdaReg0","to":"sdaReg138","type":"model"},{"step":66,"from":"1085536376","to":"1085536376.<java.net.URI$PartEncoder: java.lang.String extraLegalCharacters>","type":"load","field":"<java.net.URI$PartEncoder: java.lang.String extraLegalCharacters>"},{"step":67,"from":"sdaReg0","to":"sdaReg146","type":"model"},{"step":68,"from":"sdaReg0","to":"sdaReg147","type":"model"},{"step":69,"from":"sdaReg0","to":"sdaReg148","type":"model"},{"step":70,"from":"sdaReg0","to":"sdaReg149","type":"model"},{"step":71,"from":"sdaReg0","to":"sdaReg150","type":"model"},{"step":72,"from":"sdaReg0","to":"sdaReg157","type":"model"},{"step":73,"from":"sdaReg0","to":"sdaReg158","type":"model"},{"step":74,"from":"sdaReg0","to":"sdaReg159","type":"model"},{"step":75,"from":"sdaReg0","to":"sdaReg160","type":"model"},{"step":76,"from":"sdaReg0","to":"sdaReg161","type":"model"},{"step":77,"from":"sdaReg161","to":"1093635912","type":"store","field":"<java.net.URI: java.lang.String authority>"},{"step":78,"from":"static.<java.net.URI: libcore.net.UriCodec PATH_ENCODER>","to":"1085474672","type":"load","field":"<java.net.URI: libcore.net.UriCodec PATH_ENCODER>"},{"step":79,"from":"sdaReg0","to":"sdaReg167","type":"model"},{"step":80,"from":"sdaReg167","to":"1093635912","type":"store","field":"<java.net.URI: java.lang.String path>"},{"step":81,"from":"sdaReg172","to":"sdaReg178","type":"model"},{"step":82,"from":"sdaReg172","to":"sdaReg180","type":"model"},{"step":83,"from":"sdaReg172","to":"sdaReg182","type":"model"},{"step":84,"from":"sdaReg172","to":"sdaReg184","type":"model"},{"step":85,"from":"sdaReg187","to":"sdaReg188","type":"model"},{"step":86,"from":"sdaReg187","to":"sdaReg191","type":"model"},{"step":87,"from":"sdaReg187","to":"sdaReg195","type":"model"},{"step":88,"from":"sdaReg195","to":"sdaReg196","type":"model"},{"step":89,"from":"sdaReg191","to":"sdaReg202","type":"model"},{"step":90,"from":"sdaReg191","to":"sdaReg207","type":"model"},{"step":91,"from":"sdaReg191","to":"sdaReg209","type":"model"},{"step":92,"from":"sdaReg191","to":"sdaReg211","type":"model"},{"step":93,"from":"sdaReg191","to":"sdaReg213","type":"model"},{"step":94,"from":"sdaReg191","to":"1093283848","type":"model"},{"step":95,"from":"1093283848","to":"1093283848.arrayIdx_int:0","type":"load","field":"arrayIdx_int:0"},{"step":96,"from":"sdaReg172","to":"1093635912","type":"store","field":"<java.net.URI: java.lang.String userInfo>"},{"step":97,"from":"sdaReg191","to":"1093635912","type":"store","field":"<java.net.URI: java.lang.String host>"},{"step":98,"from":"sdaReg196","to":"1093635912","type":"store","field":"<java.net.URI: int port>"},{"step":99,"from":"1093635912","to":"sdaReg224","type":"create","field":"<java.net.URI: boolean serverAuthority>"}],"parameters":[{"id":"1093635912","name":"this","klass":"java.net.URI"},{"id":"sdaReg0","name":"arg#1","klass":"string"}],"returns":[{"id":"1093635912","name":"return","klass":"java.net.URI"}],"colors":{"heapLocToColor":{"sdaReg191":[139, 142],"sdaReg125":[99],"sdaReg126":[1, 100],"sdaReg193":[143],"sdaReg127":[101],"sdaReg192":[143],"sdaReg128":[102, 1],"sdaReg129":[103],"sdaReg199":[147],"sdaReg198":[0],"sdaReg66":[55],"sdaReg195":[139, 144],"sdaReg64":[53],"sdaReg194":[139, 140],"sdaReg65":[1, 54],"sdaReg197":[146],"sdaReg62":[51],"sdaReg196":[145],"1093635912":[0],"sdaReg63":[1, 52],"sdaReg221":[163],"sdaReg13":[1, 5],"sdaReg72":[1, 58],"sdaReg220":[162],"sdaReg14":[6],"sdaReg71":[57],"sdaReg11":[1, 3],"sdaReg70":[1, 56],"sdaReg12":[4],"sdaReg120":[1, 94],"sdaReg19":[1, 11],"sdaReg122":[1, 96],"sdaReg17":[1, 9],"sdaReg121":[95],"sdaReg18":[10],"sdaReg124":[1, 98],"sdaReg15":[1, 7],"sdaReg123":[97],"sdaReg16":[8],"sdaReg116":[1, 90],"sdaReg117":[91],"sdaReg114":[1, 88],"sdaReg115":[89],"sdaReg118":[1, 92],"sdaReg119":[93],"sdaReg219":[161],"sdaReg77":[63],"sdaReg78":[1, 64],"sdaReg79":[65],"sdaReg215":[139, 142, 160],"sdaReg73":[59],"sdaReg216":[139, 142, 160],"sdaReg74":[1, 60],"sdaReg213":[139, 158, 142],"sdaReg75":[61],"sdaReg214":[159],"sdaReg76":[1, 62],"sdaReg212":[157],"sdaReg81":[67],"sdaReg211":[139, 156, 142],"sdaReg80":[1, 66],"sdaReg210":[155],"sdaReg83":[0],"sdaReg113":[87],"sdaReg112":[1, 86],"sdaReg111":[85],"sdaReg110":[1, 84],"sdaReg107":[81],"sdaReg108":[1, 82],"sdaReg109":[83],"sdaReg103":[77],"sdaReg104":[1, 78],"sdaReg171":[128],"sdaReg105":[79],"sdaReg170":[128],"sdaReg106":[1, 80],"sdaReg173":[0],"sdaReg172":[129],"sdaReg87":[1, 69],"sdaReg85":[68, 1],"sdaReg177":[130],"sdaReg179":[132],"sdaReg178":[129, 131],"sdaReg89":[1, 70],"sdaReg93":[1, 72],"sdaReg91":[1, 71],"sdaReg102":[1, 76],"sdaReg182":[129, 135],"sdaReg181":[134],"sdaReg180":[129, 133],"sdaReg186":[128],"sdaReg95":[73],"sdaReg185":[138],"sdaReg184":[137, 129],"sdaReg97":[1, 74],"sdaReg183":[136],"sdaReg98":[75],"1085536376":[105],"sdaReg189":[141],"sdaReg188":[139, 140],"sdaReg187":[139],"static.<java.net.URI: libcore.net.UriCodec PATH_ENCODER>":[126],"sdaReg60":[49],"sdaReg61":[1, 50],"sdaReg161":[1, 125],"sdaReg163":[2],"sdaReg164":[126],"sdaReg166":[2],"sdaReg167":[1, 127],"sdaReg168":[0],"sdaReg59":[1, 48],"sdaReg58":[47],"sdaReg57":[1, 46],"sdaReg53":[45],"sdaReg52":[44],"sdaReg160":[1, 124],"sdaReg51":[1, 43],"sdaReg50":[42],"sdaReg159":[1, 123],"sdaReg158":[1, 122],"sdaReg153":[119],"sdaReg150":[1, 118],"sdaReg151":[105],"sdaReg49":[1, 41],"sdaReg157":[1, 121],"sdaReg48":[40],"1093283848.arrayIdx_int:0":[139, 142, 160],"sdaReg155":[120],"sdaReg45":[1, 37],"sdaReg44":[36],"sdaReg47":[1, 39],"1093283848":[139, 142, 160],"sdaReg46":[38],"sdaReg41":[1, 33],"sdaReg40":[32],"sdaReg43":[1, 35],"sdaReg42":[34],"static.<java.net.URI: libcore.net.UriCodec AUTHORITY_ENCODER>":[105],"sdaReg200":[148],"sdaReg148":[1, 116],"sdaReg201":[149],"sdaReg147":[1, 115],"sdaReg149":[1, 117],"sdaReg143":[112],"sdaReg144":[113],"sdaReg39":[1, 31],"sdaReg203":[0],"1085474672":[126],"sdaReg38":[30],"sdaReg202":[139, 142, 150],"sdaReg146":[1, 114],"sdaReg37":[1, 29],"sdaReg209":[139, 154, 142],"sdaReg208":[153],"sdaReg207":[152, 139, 142],"sdaReg141":[111],"sdaReg206":[151],"1085536376.<java.net.URI$PartEncoder: java.lang.String extraLegalCharacters>":[105],"sdaReg32":[24],"sdaReg31":[1, 23],"sdaReg30":[22],"sdaReg36":[28],"sdaReg35":[1, 27],"sdaReg34":[26],"sdaReg33":[1, 25],"sdaReg7":[2],"sdaReg5":[0],"sdaReg139":[105],"sdaReg138":[1, 110],"sdaReg137":[1, 109],"sdaReg136":[1, 108],"sdaReg134":[1, 106],"sdaReg27":[1, 19],"sdaReg135":[1, 107],"sdaReg26":[18],"sdaReg29":[1, 21],"sdaReg28":[20],"sdaReg130":[104],"sdaReg131":[105],"sdaReg1":[0],"sdaReg21":[1, 13],"sdaReg0":[1],"sdaReg20":[12],"sdaReg23":[1, 15],"sdaReg22":[14],"sdaReg25":[17, 1],"sdaReg24":[16]},"colorToColor":{"0":[164],"1":[0],"139":[0, 145],"142":[0],"129":[0],"144":[145],"127":[0],"145":[0],"125":[0],"72":[0],"74":[0]},"colorToLabel":{"0":"this","1":"arg#1","105":"<java.net.URI: libcore.net.UriCodec AUTHORITY_ENCODER>","126":"<java.net.URI: libcore.net.UriCodec PATH_ENCODER>","164":"return"}}}

Generated Model
	this->return
	arg#1->this
	arg#1->return

