Scanning method <java.net.URI: void <init>(java.lang.String)>

All seen event types: LoadStaticRecord, BinaryOperationRecord, SimpleAssignmentRecord, MethodReturnRecord, MethodCallRecord, ArrayLengthRecord, LoadInstanceRecord, MethodStartRecord, LoadArrayRecord, MethodEndRecord, IfRecord, StoreInstanceRecord, 
Ignored event types: IfRecord, 

JSON Encoded Analysis Data (for visualization):{"heapEdges":[{"step":0,"from":"1093672744","to":"sdaReg2","type":"create","field":"<java.net.URI: int port>"},{"step":1,"from":"1093672744","to":"sdaReg3","type":"create","field":"<java.net.URI: boolean serverAuthority>"},{"step":2,"from":"1093672744","to":"sdaReg4","type":"create","field":"<java.net.URI: int hash>"},{"step":3,"from":"sdaReg0","to":"1093672744","type":"store","field":"<java.net.URI: java.lang.String string>"},{"step":4,"from":"sdaReg0","to":"sdaReg11","type":"model"},{"step":5,"from":"sdaReg0","to":"sdaReg13","type":"model"},{"step":6,"from":"sdaReg0","to":"sdaReg15","type":"model"},{"step":7,"from":"sdaReg0","to":"sdaReg17","type":"model"},{"step":8,"from":"sdaReg0","to":"sdaReg19","type":"model"},{"step":9,"from":"sdaReg0","to":"sdaReg21","type":"model"},{"step":10,"from":"sdaReg0","to":"sdaReg23","type":"model"},{"step":11,"from":"sdaReg0","to":"sdaReg25","type":"model"},{"step":12,"from":"sdaReg0","to":"sdaReg27","type":"model"},{"step":13,"from":"sdaReg0","to":"sdaReg29","type":"model"},{"step":14,"from":"sdaReg0","to":"sdaReg31","type":"model"},{"step":15,"from":"sdaReg0","to":"sdaReg33","type":"model"},{"step":16,"from":"sdaReg0","to":"sdaReg35","type":"model"},{"step":17,"from":"sdaReg0","to":"sdaReg37","type":"model"},{"step":18,"from":"sdaReg0","to":"sdaReg39","type":"model"},{"step":19,"from":"sdaReg0","to":"sdaReg41","type":"model"},{"step":20,"from":"sdaReg0","to":"sdaReg43","type":"model"},{"step":21,"from":"sdaReg0","to":"sdaReg45","type":"model"},{"step":22,"from":"sdaReg0","to":"sdaReg51","type":"model"},{"step":23,"from":"sdaReg0","to":"sdaReg53","type":"model"},{"step":24,"from":"sdaReg0","to":"sdaReg55","type":"model"},{"step":25,"from":"sdaReg0","to":"sdaReg57","type":"model"},{"step":26,"from":"sdaReg0","to":"sdaReg59","type":"model"},{"step":27,"from":"sdaReg0","to":"sdaReg64","type":"model"},{"step":28,"from":"sdaReg0","to":"sdaReg66","type":"model"},{"step":29,"from":"sdaReg0","to":"sdaReg68","type":"model"},{"step":30,"from":"sdaReg0","to":"sdaReg70","type":"model"},{"step":31,"from":"sdaReg0","to":"sdaReg72","type":"model"},{"step":32,"from":"sdaReg0","to":"sdaReg74","type":"model"},{"step":33,"from":"1093672744","to":"sdaReg76","type":"create","field":"<java.net.URI: boolean absolute>"},{"step":34,"from":"sdaReg0","to":"sdaReg79","type":"model"},{"step":35,"from":"sdaReg0","to":"sdaReg81","type":"model"},{"step":36,"from":"sdaReg0","to":"sdaReg83","type":"model"},{"step":37,"from":"sdaReg0","to":"sdaReg85","type":"model"},{"step":38,"from":"sdaReg0","to":"sdaReg87","type":"model"},{"step":39,"from":"sdaReg87","to":"1093672744","type":"store","field":"<java.net.URI: java.lang.String scheme>"},{"step":40,"from":"1093672744","to":"sdaReg90","type":"create","field":"<java.net.URI: boolean opaque>"},{"step":41,"from":"sdaReg0","to":"sdaReg91","type":"model"},{"step":42,"from":"sdaReg91","to":"1093672744","type":"store","field":"<java.net.URI: java.lang.String schemeSpecificPart>"},{"step":43,"from":"sdaReg0","to":"sdaReg96","type":"model"},{"step":44,"from":"sdaReg0","to":"sdaReg98","type":"model"},{"step":45,"from":"static.<java.net.URI: libcore.net.UriCodec AUTHORITY_ENCODER>","to":"1085536376","type":"load","field":"<java.net.URI: libcore.net.UriCodec AUTHORITY_ENCODER>"},{"step":46,"from":"sdaReg0","to":"sdaReg104","type":"model"},{"step":47,"from":"sdaReg0","to":"sdaReg105","type":"model"},{"step":48,"from":"sdaReg105","to":"1093672744","type":"store","field":"<java.net.URI: java.lang.String authority>"},{"step":49,"from":"sdaReg0","to":"sdaReg108","type":"model"},{"step":50,"from":"sdaReg0","to":"sdaReg110","type":"model"},{"step":51,"from":"sdaReg0","to":"sdaReg112","type":"model"},{"step":52,"from":"sdaReg0","to":"sdaReg114","type":"model"},{"step":53,"from":"sdaReg0","to":"sdaReg116","type":"model"},{"step":54,"from":"sdaReg0","to":"sdaReg118","type":"model"},{"step":55,"from":"sdaReg0","to":"sdaReg120","type":"model"},{"step":56,"from":"sdaReg0","to":"sdaReg122","type":"model"},{"step":57,"from":"sdaReg0","to":"sdaReg124","type":"model"},{"step":58,"from":"static.<java.net.URI: libcore.net.UriCodec PATH_ENCODER>","to":"1085474672","type":"load","field":"<java.net.URI: libcore.net.UriCodec PATH_ENCODER>"},{"step":59,"from":"sdaReg0","to":"sdaReg129","type":"model"},{"step":60,"from":"1085474672","to":"1085474672.<java.net.URI$PartEncoder: java.lang.String extraLegalCharacters>","type":"load","field":"<java.net.URI$PartEncoder: java.lang.String extraLegalCharacters>"},{"step":61,"from":"sdaReg0","to":"sdaReg137","type":"model"},{"step":62,"from":"sdaReg0","to":"sdaReg138","type":"model"},{"step":63,"from":"1085474672","to":"1085474672.<java.net.URI$PartEncoder: java.lang.String extraLegalCharacters>","type":"load","field":"<java.net.URI$PartEncoder: java.lang.String extraLegalCharacters>"},{"step":64,"from":"sdaReg0","to":"sdaReg146","type":"model"},{"step":65,"from":"sdaReg0","to":"sdaReg147","type":"model"},{"step":66,"from":"1085474672","to":"1085474672.<java.net.URI$PartEncoder: java.lang.String extraLegalCharacters>","type":"load","field":"<java.net.URI$PartEncoder: java.lang.String extraLegalCharacters>"},{"step":67,"from":"sdaReg0","to":"sdaReg155","type":"model"},{"step":68,"from":"sdaReg0","to":"sdaReg156","type":"model"},{"step":69,"from":"sdaReg0","to":"sdaReg163","type":"model"},{"step":70,"from":"sdaReg0","to":"sdaReg164","type":"model"},{"step":71,"from":"sdaReg164","to":"1093672744","type":"store","field":"<java.net.URI: java.lang.String path>"},{"step":72,"from":"static.<java.net.URI: libcore.net.UriCodec ALL_LEGAL_ENCODER>","to":"1085538000","type":"load","field":"<java.net.URI: libcore.net.UriCodec ALL_LEGAL_ENCODER>"},{"step":73,"from":"sdaReg0","to":"sdaReg169","type":"model"},{"step":74,"from":"sdaReg0","to":"sdaReg170","type":"model"},{"step":75,"from":"sdaReg170","to":"1093672744","type":"store","field":"<java.net.URI: java.lang.String query>"},{"step":76,"from":"sdaReg178","to":"sdaReg184","type":"model"},{"step":77,"from":"sdaReg178","to":"sdaReg189","type":"model"},{"step":78,"from":"sdaReg178","to":"1093390912","type":"model"},{"step":79,"from":"1093390912","to":"1093390912.arrayIdx_int:0","type":"load","field":"arrayIdx_int:0"},{"step":80,"from":"sdaReg172","to":"1093672744","type":"store","field":"<java.net.URI: java.lang.String userInfo>"},{"step":81,"from":"sdaReg178","to":"1093672744","type":"store","field":"<java.net.URI: java.lang.String host>"},{"step":82,"from":"sdaReg177","to":"1093672744","type":"store","field":"<java.net.URI: int port>"},{"step":83,"from":"1093672744","to":"sdaReg200","type":"create","field":"<java.net.URI: boolean serverAuthority>"}],"parameters":[{"id":"1093672744","name":"this","klass":"java.net.URI"},{"id":"sdaReg0","name":"arg#1","klass":"string"}],"returns":[{"id":"1093672744","name":"return","klass":"java.net.URI"}],"colors":{"heapLocToColor":{"sdaReg191":[131],"sdaReg125":[95],"sdaReg190":[130],"sdaReg126":[96],"sdaReg192":[131],"sdaReg129":[1, 97],"sdaReg68":[1, 54],"sdaReg69":[55],"sdaReg66":[1, 52],"sdaReg67":[53],"sdaReg195":[132],"sdaReg64":[1, 50],"sdaReg65":[51],"sdaReg197":[134],"sdaReg196":[133],"sdaReg13":[1, 5],"sdaReg72":[1, 58],"sdaReg14":[6],"sdaReg71":[57],"sdaReg11":[1, 3],"sdaReg70":[1, 56],"sdaReg12":[4],"sdaReg19":[1, 11],"sdaReg120":[1, 90],"sdaReg122":[1, 92],"sdaReg17":[1, 9],"sdaReg18":[10],"sdaReg121":[91],"sdaReg124":[1, 94],"sdaReg15":[1, 7],"sdaReg123":[93],"sdaReg16":[8],"sdaReg116":[1, 86],"sdaReg117":[87],"sdaReg114":[1, 84],"sdaReg115":[85],"sdaReg118":[1, 88],"sdaReg119":[89],"sdaReg77":[0],"sdaReg79":[1, 62],"1093390912.arrayIdx_int:0":[131],"sdaReg73":[59],"sdaReg74":[1, 60],"sdaReg75":[61],"sdaReg81":[1, 63],"sdaReg83":[1, 64],"sdaReg113":[83],"sdaReg112":[1, 82],"sdaReg111":[81],"sdaReg110":[1, 80],"sdaReg108":[1, 78],"sdaReg109":[79],"sdaReg104":[1, 76],"sdaReg171":[0],"sdaReg105":[1, 77],"sdaReg170":[119, 1],"sdaReg173":[120],"sdaReg87":[1, 66],"sdaReg175":[121],"sdaReg85":[1, 65],"sdaReg176":[122],"sdaReg179":[123],"sdaReg89":[67],"sdaReg92":[69],"sdaReg91":[68, 1],"sdaReg100":[74],"sdaReg101":[75],"sdaReg182":[125],"sdaReg181":[124],"sdaReg180":[0],"1085474672.<java.net.URI$PartEncoder: java.lang.String extraLegalCharacters>":[96],"sdaReg185":[0],"sdaReg96":[1, 70],"sdaReg184":[127],"sdaReg97":[71],"sdaReg183":[126],"sdaReg98":[1, 72],"sdaReg99":[73],"1085536376":[75],"sdaReg189":[129],"sdaReg188":[128],"static.<java.net.URI: libcore.net.UriCodec PATH_ENCODER>":[96],"sdaReg60":[49],"sdaReg169":[1, 118],"sdaReg161":[114],"sdaReg163":[1, 115],"sdaReg164":[1, 116],"sdaReg166":[117],"sdaReg59":[1, 48],"sdaReg58":[47],"sdaReg57":[1, 46],"sdaReg56":[45],"sdaReg55":[1, 44],"sdaReg54":[43],"sdaReg53":[1, 42],"sdaReg52":[41],"sdaReg51":[1, 40],"sdaReg159":[113],"static.<java.net.URI: libcore.net.UriCodec ALL_LEGAL_ENCODER>":[117],"sdaReg152":[109],"sdaReg153":[110],"sdaReg150":[108],"sdaReg156":[1, 112],"sdaReg157":[96],"sdaReg155":[1, 111],"sdaReg45":[1, 37],"sdaReg44":[36],"sdaReg47":[39],"sdaReg46":[38],"sdaReg41":[1, 33],"sdaReg40":[32],"sdaReg43":[1, 35],"sdaReg42":[34],"1093672744":[0],"static.<java.net.URI: libcore.net.UriCodec AUTHORITY_ENCODER>":[75],"sdaReg148":[96],"sdaReg147":[1, 107],"sdaReg143":[104],"1093390912":[131],"sdaReg144":[105],"sdaReg39":[1, 31],"1085474672":[96],"sdaReg38":[30],"sdaReg146":[1, 106],"sdaReg37":[1, 29],"sdaReg141":[103],"1085538000":[117],"sdaReg32":[24],"sdaReg31":[1, 23],"sdaReg30":[22],"sdaReg36":[28],"sdaReg35":[1, 27],"sdaReg34":[26],"sdaReg33":[1, 25],"sdaReg7":[2],"sdaReg5":[0],"sdaReg139":[96],"sdaReg138":[102, 1],"sdaReg137":[1, 101],"sdaReg134":[99],"sdaReg27":[1, 19],"sdaReg135":[100],"sdaReg26":[18],"sdaReg132":[98],"sdaReg29":[1, 21],"sdaReg28":[20],"sdaReg130":[96],"sdaReg1":[0],"sdaReg21":[1, 13],"sdaReg0":[1],"sdaReg20":[12],"sdaReg23":[1, 15],"sdaReg22":[14],"sdaReg25":[17, 1],"sdaReg24":[16]},"colorToColor":{"0":[135],"119":[0],"68":[0],"1":[0],"116":[0],"66":[0],"77":[0]},"colorToLabel":{"0":"this","1":"arg#1","75":"<java.net.URI: libcore.net.UriCodec AUTHORITY_ENCODER>","96":"<java.net.URI: libcore.net.UriCodec PATH_ENCODER>","117":"<java.net.URI: libcore.net.UriCodec ALL_LEGAL_ENCODER>","135":"return"}}}

Generated Model
	this->return
	arg#1->this
	arg#1->return

