Scanning method <java.net.URI: void <init>(java.lang.String)>

All seen event types: LoadStaticRecord, BinaryOperationRecord, SimpleAssignmentRecord, MethodReturnRecord, MethodCallRecord, LoadInstanceRecord, MethodStartRecord, MethodEndRecord, IfRecord, StoreInstanceRecord, 
Ignored event types: IfRecord, 

JSON Encoded Analysis Data (for visualization):{"heapEdges":[{"step":0,"from":"1093624920","to":"sdaReg2","type":"create","field":"<java.net.URI: int port>"},{"step":1,"from":"1093624920","to":"sdaReg3","type":"create","field":"<java.net.URI: boolean serverAuthority>"},{"step":2,"from":"1093624920","to":"sdaReg4","type":"create","field":"<java.net.URI: int hash>"},{"step":3,"from":"sdaReg0","to":"1093624920","type":"store","field":"<java.net.URI: java.lang.String string>"},{"step":4,"from":"sdaReg0","to":"sdaReg11","type":"model"},{"step":5,"from":"sdaReg0","to":"sdaReg13","type":"model"},{"step":6,"from":"sdaReg0","to":"sdaReg15","type":"model"},{"step":7,"from":"sdaReg0","to":"sdaReg17","type":"model"},{"step":8,"from":"sdaReg0","to":"sdaReg19","type":"model"},{"step":9,"from":"sdaReg0","to":"sdaReg21","type":"model"},{"step":10,"from":"sdaReg0","to":"sdaReg23","type":"model"},{"step":11,"from":"sdaReg0","to":"sdaReg25","type":"model"},{"step":12,"from":"sdaReg0","to":"sdaReg27","type":"model"},{"step":13,"from":"sdaReg0","to":"sdaReg29","type":"model"},{"step":14,"from":"sdaReg0","to":"sdaReg31","type":"model"},{"step":15,"from":"sdaReg0","to":"sdaReg33","type":"model"},{"step":16,"from":"sdaReg0","to":"sdaReg35","type":"model"},{"step":17,"from":"sdaReg0","to":"sdaReg41","type":"model"},{"step":18,"from":"sdaReg0","to":"sdaReg43","type":"model"},{"step":19,"from":"sdaReg0","to":"sdaReg45","type":"model"},{"step":20,"from":"sdaReg0","to":"sdaReg47","type":"model"},{"step":21,"from":"sdaReg0","to":"sdaReg49","type":"model"},{"step":22,"from":"sdaReg0","to":"sdaReg54","type":"model"},{"step":23,"from":"sdaReg0","to":"sdaReg56","type":"model"},{"step":24,"from":"sdaReg0","to":"sdaReg58","type":"model"},{"step":25,"from":"sdaReg0","to":"sdaReg60","type":"model"},{"step":26,"from":"sdaReg0","to":"sdaReg62","type":"model"},{"step":27,"from":"sdaReg0","to":"sdaReg64","type":"model"},{"step":28,"from":"1093624920","to":"sdaReg66","type":"create","field":"<java.net.URI: boolean absolute>"},{"step":29,"from":"sdaReg0","to":"sdaReg69","type":"model"},{"step":30,"from":"sdaReg0","to":"sdaReg71","type":"model"},{"step":31,"from":"sdaReg0","to":"sdaReg73","type":"model"},{"step":32,"from":"sdaReg0","to":"sdaReg75","type":"model"},{"step":33,"from":"sdaReg0","to":"sdaReg77","type":"model"},{"step":34,"from":"sdaReg77","to":"1093624920","type":"store","field":"<java.net.URI: java.lang.String scheme>"},{"step":35,"from":"1093624920","to":"sdaReg80","type":"create","field":"<java.net.URI: boolean opaque>"},{"step":36,"from":"sdaReg0","to":"sdaReg81","type":"model"},{"step":37,"from":"sdaReg81","to":"1093624920","type":"store","field":"<java.net.URI: java.lang.String schemeSpecificPart>"},{"step":38,"from":"sdaReg0","to":"sdaReg86","type":"model"},{"step":39,"from":"sdaReg0","to":"sdaReg91","type":"model"},{"step":40,"from":"static.<java.net.URI: libcore.net.UriCodec PATH_ENCODER>","to":"1085474672","type":"load","field":"<java.net.URI: libcore.net.UriCodec PATH_ENCODER>"},{"step":41,"from":"sdaReg0","to":"sdaReg96","type":"model"},{"step":42,"from":"sdaReg96","to":"1093624920","type":"store","field":"<java.net.URI: java.lang.String path>"},{"step":43,"from":"static.<java.net.URI: libcore.net.UriCodec ALL_LEGAL_ENCODER>","to":"1085538000","type":"load","field":"<java.net.URI: libcore.net.UriCodec ALL_LEGAL_ENCODER>"},{"step":44,"from":"sdaReg0","to":"sdaReg101","type":"model"},{"step":45,"from":"sdaReg0","to":"sdaReg102","type":"model"},{"step":46,"from":"sdaReg0","to":"sdaReg103","type":"model"},{"step":47,"from":"sdaReg0","to":"sdaReg104","type":"model"},{"step":48,"from":"sdaReg0","to":"sdaReg105","type":"model"},{"step":49,"from":"sdaReg0","to":"sdaReg106","type":"model"},{"step":50,"from":"sdaReg106","to":"1093624920","type":"store","field":"<java.net.URI: java.lang.String query>"},{"step":51,"from":"1093624920","to":"1093624920.<java.net.URI: java.lang.String authority>","type":"load","field":"<java.net.URI: java.lang.String authority>"}],"parameters":[{"id":"1093624920","name":"this","klass":"java.net.URI"},{"id":"sdaReg0","name":"arg#1","klass":"string"}],"returns":[{"id":"1093624920","name":"return","klass":"java.net.URI"}],"colors":{"heapLocToColor":{"sdaReg60":[1, 46],"sdaReg61":[47],"1093624920":[0],"sdaReg69":[1, 52],"sdaReg67":[0],"sdaReg64":[1, 50],"sdaReg65":[51],"sdaReg62":[1, 48],"sdaReg63":[49],"sdaReg13":[1, 5],"sdaReg71":[1, 53],"sdaReg14":[6],"sdaReg11":[1, 3],"sdaReg12":[4],"sdaReg59":[45],"sdaReg58":[1, 44],"sdaReg57":[43],"sdaReg19":[1, 11],"sdaReg56":[1, 42],"sdaReg55":[41],"sdaReg17":[1, 9],"sdaReg54":[1, 40],"sdaReg18":[10],"sdaReg15":[1, 7],"sdaReg16":[8],"sdaReg50":[39],"sdaReg77":[1, 56],"sdaReg79":[57],"static.<java.net.URI: libcore.net.UriCodec ALL_LEGAL_ENCODER>":[67],"sdaReg73":[1, 54],"sdaReg75":[1, 55],"sdaReg81":[1, 58],"sdaReg82":[59],"sdaReg49":[1, 38],"sdaReg48":[37],"sdaReg45":[34, 1],"sdaReg44":[33],"sdaReg47":[1, 36],"sdaReg46":[35],"sdaReg41":[1, 30],"sdaReg43":[1, 32],"sdaReg42":[31],"sdaReg107":[0],"sdaReg103":[1, 70],"sdaReg104":[1, 71],"sdaReg105":[1, 72],"sdaReg106":[1, 73],"sdaReg86":[1, 60],"sdaReg87":[61],"1093624920.<java.net.URI: java.lang.String authority>":[0],"sdaReg88":[62],"1085474672":[65],"sdaReg37":[29],"sdaReg93":[65],"sdaReg92":[64],"sdaReg91":[1, 63],"1085538000":[67],"sdaReg32":[24],"sdaReg31":[1, 23],"sdaReg102":[1, 69],"sdaReg30":[22],"sdaReg101":[68, 1],"sdaReg36":[28],"sdaReg35":[1, 27],"sdaReg34":[26],"sdaReg33":[1, 25],"sdaReg7":[2],"sdaReg5":[0],"sdaReg96":[1, 66],"sdaReg98":[67],"sdaReg27":[1, 19],"sdaReg26":[18],"sdaReg29":[1, 21],"static.<java.net.URI: libcore.net.UriCodec PATH_ENCODER>":[65],"sdaReg28":[20],"sdaReg21":[1, 13],"sdaReg1":[0],"sdaReg20":[12],"sdaReg0":[1],"sdaReg23":[1, 15],"sdaReg22":[14],"sdaReg25":[17, 1],"sdaReg24":[16]},"colorToColor":{"0":[74],"1":[0],"66":[0],"58":[0],"56":[0],"73":[0]},"colorToLabel":{"0":"this","1":"arg#1","65":"<java.net.URI: libcore.net.UriCodec PATH_ENCODER>","67":"<java.net.URI: libcore.net.UriCodec ALL_LEGAL_ENCODER>","74":"return"}}}

Generated Model
	this->return
	arg#1->this
	arg#1->return

