Scanning method <java.net.URI: void <init>(java.lang.String)>

All seen event types: LoadStaticRecord, BinaryOperationRecord, SimpleAssignmentRecord, MethodReturnRecord, MethodCallRecord, ArrayLengthRecord, LoadInstanceRecord, MethodStartRecord, LoadArrayRecord, MethodEndRecord, IfRecord, StoreInstanceRecord, 
Ignored event types: IfRecord, 

JSON Encoded Analysis Data (for visualization):{"heapEdges":[{"step":0,"from":"1093699800","to":"sdaReg2","type":"create","field":"<java.net.URI: int port>"},{"step":1,"from":"1093699800","to":"sdaReg3","type":"create","field":"<java.net.URI: boolean serverAuthority>"},{"step":2,"from":"1093699800","to":"sdaReg4","type":"create","field":"<java.net.URI: int hash>"},{"step":3,"from":"sdaReg0","to":"1093699800","type":"store","field":"<java.net.URI: java.lang.String string>"},{"step":4,"from":"sdaReg0","to":"sdaReg11","type":"model"},{"step":5,"from":"sdaReg0","to":"sdaReg13","type":"model"},{"step":6,"from":"sdaReg0","to":"sdaReg15","type":"model"},{"step":7,"from":"sdaReg0","to":"sdaReg17","type":"model"},{"step":8,"from":"sdaReg0","to":"sdaReg19","type":"model"},{"step":9,"from":"sdaReg0","to":"sdaReg21","type":"model"},{"step":10,"from":"sdaReg0","to":"sdaReg23","type":"model"},{"step":11,"from":"sdaReg0","to":"sdaReg25","type":"model"},{"step":12,"from":"sdaReg0","to":"sdaReg27","type":"model"},{"step":13,"from":"sdaReg0","to":"sdaReg29","type":"model"},{"step":14,"from":"sdaReg0","to":"sdaReg31","type":"model"},{"step":15,"from":"sdaReg0","to":"sdaReg33","type":"model"},{"step":16,"from":"sdaReg0","to":"sdaReg35","type":"model"},{"step":17,"from":"sdaReg0","to":"sdaReg37","type":"model"},{"step":18,"from":"sdaReg0","to":"sdaReg39","type":"model"},{"step":19,"from":"sdaReg0","to":"sdaReg41","type":"model"},{"step":20,"from":"sdaReg0","to":"sdaReg43","type":"model"},{"step":21,"from":"sdaReg0","to":"sdaReg45","type":"model"},{"step":22,"from":"sdaReg0","to":"sdaReg47","type":"model"},{"step":23,"from":"sdaReg0","to":"sdaReg49","type":"model"},{"step":24,"from":"sdaReg0","to":"sdaReg51","type":"model"},{"step":25,"from":"sdaReg0","to":"sdaReg53","type":"model"},{"step":26,"from":"sdaReg0","to":"sdaReg55","type":"model"},{"step":27,"from":"sdaReg0","to":"sdaReg57","type":"model"},{"step":28,"from":"sdaReg0","to":"sdaReg63","type":"model"},{"step":29,"from":"sdaReg0","to":"sdaReg65","type":"model"},{"step":30,"from":"sdaReg0","to":"sdaReg67","type":"model"},{"step":31,"from":"sdaReg0","to":"sdaReg69","type":"model"},{"step":32,"from":"sdaReg0","to":"sdaReg71","type":"model"},{"step":33,"from":"sdaReg0","to":"sdaReg76","type":"model"},{"step":34,"from":"sdaReg0","to":"sdaReg78","type":"model"},{"step":35,"from":"sdaReg0","to":"sdaReg80","type":"model"},{"step":36,"from":"sdaReg0","to":"sdaReg82","type":"model"},{"step":37,"from":"sdaReg0","to":"sdaReg84","type":"model"},{"step":38,"from":"sdaReg0","to":"sdaReg86","type":"model"},{"step":39,"from":"1093699800","to":"sdaReg88","type":"create","field":"<java.net.URI: boolean absolute>"},{"step":40,"from":"sdaReg0","to":"sdaReg91","type":"model"},{"step":41,"from":"sdaReg0","to":"sdaReg93","type":"model"},{"step":42,"from":"sdaReg0","to":"sdaReg95","type":"model"},{"step":43,"from":"sdaReg0","to":"sdaReg97","type":"model"},{"step":44,"from":"sdaReg0","to":"sdaReg99","type":"model"},{"step":45,"from":"sdaReg99","to":"1093699800","type":"store","field":"<java.net.URI: java.lang.String scheme>"},{"step":46,"from":"1093699800","to":"sdaReg102","type":"create","field":"<java.net.URI: boolean opaque>"},{"step":47,"from":"sdaReg0","to":"sdaReg103","type":"model"},{"step":48,"from":"sdaReg103","to":"1093699800","type":"store","field":"<java.net.URI: java.lang.String schemeSpecificPart>"},{"step":49,"from":"sdaReg0","to":"sdaReg108","type":"model"},{"step":50,"from":"sdaReg0","to":"sdaReg110","type":"model"},{"step":51,"from":"sdaReg0","to":"sdaReg112","type":"model"},{"step":52,"from":"sdaReg0","to":"sdaReg114","type":"model"},{"step":53,"from":"sdaReg0","to":"sdaReg116","type":"model"},{"step":54,"from":"static.<java.net.URI: libcore.net.UriCodec AUTHORITY_ENCODER>","to":"1085536376","type":"load","field":"<java.net.URI: libcore.net.UriCodec AUTHORITY_ENCODER>"},{"step":55,"from":"sdaReg0","to":"sdaReg122","type":"model"},{"step":56,"from":"sdaReg0","to":"sdaReg123","type":"model"},{"step":57,"from":"sdaReg0","to":"sdaReg124","type":"model"},{"step":58,"from":"sdaReg0","to":"sdaReg125","type":"model"},{"step":59,"from":"sdaReg0","to":"sdaReg126","type":"model"},{"step":60,"from":"sdaReg126","to":"1093699800","type":"store","field":"<java.net.URI: java.lang.String authority>"},{"step":61,"from":"sdaReg0","to":"sdaReg129","type":"model"},{"step":62,"from":"sdaReg0","to":"sdaReg131","type":"model"},{"step":63,"from":"sdaReg0","to":"sdaReg133","type":"model"},{"step":64,"from":"sdaReg0","to":"sdaReg135","type":"model"},{"step":65,"from":"sdaReg0","to":"sdaReg137","type":"model"},{"step":66,"from":"sdaReg0","to":"sdaReg139","type":"model"},{"step":67,"from":"static.<java.net.URI: libcore.net.UriCodec PATH_ENCODER>","to":"1085474672","type":"load","field":"<java.net.URI: libcore.net.UriCodec PATH_ENCODER>"},{"step":68,"from":"sdaReg0","to":"sdaReg144","type":"model"},{"step":69,"from":"1085474672","to":"1085474672.<java.net.URI$PartEncoder: java.lang.String extraLegalCharacters>","type":"load","field":"<java.net.URI$PartEncoder: java.lang.String extraLegalCharacters>"},{"step":70,"from":"sdaReg0","to":"sdaReg152","type":"model"},{"step":71,"from":"sdaReg0","to":"sdaReg153","type":"model"},{"step":72,"from":"sdaReg0","to":"sdaReg154","type":"model"},{"step":73,"from":"sdaReg0","to":"sdaReg155","type":"model"},{"step":74,"from":"sdaReg0","to":"sdaReg156","type":"model"},{"step":75,"from":"sdaReg156","to":"1093699800","type":"store","field":"<java.net.URI: java.lang.String path>"},{"step":76,"from":"static.<java.net.URI: libcore.net.UriCodec ALL_LEGAL_ENCODER>","to":"1085538000","type":"load","field":"<java.net.URI: libcore.net.UriCodec ALL_LEGAL_ENCODER>"},{"step":77,"from":"sdaReg0","to":"sdaReg161","type":"model"},{"step":78,"from":"sdaReg0","to":"sdaReg162","type":"model"},{"step":79,"from":"sdaReg0","to":"sdaReg163","type":"model"},{"step":80,"from":"sdaReg0","to":"sdaReg164","type":"model"},{"step":81,"from":"sdaReg0","to":"sdaReg165","type":"model"},{"step":82,"from":"sdaReg0","to":"sdaReg166","type":"model"},{"step":83,"from":"1085538000","to":"1085538000.<java.net.URI$PartEncoder: java.lang.String extraLegalCharacters>","type":"load","field":"<java.net.URI$PartEncoder: java.lang.String extraLegalCharacters>"},{"step":84,"from":"sdaReg0","to":"sdaReg174","type":"model"},{"step":85,"from":"sdaReg0","to":"sdaReg175","type":"model"},{"step":86,"from":"sdaReg175","to":"1093699800","type":"store","field":"<java.net.URI: java.lang.String query>"},{"step":87,"from":"sdaReg183","to":"sdaReg189","type":"model"},{"step":88,"from":"sdaReg183","to":"sdaReg194","type":"model"},{"step":89,"from":"sdaReg183","to":"sdaReg196","type":"model"},{"step":90,"from":"sdaReg183","to":"sdaReg198","type":"model"},{"step":91,"from":"sdaReg183","to":"sdaReg200","type":"model"},{"step":92,"from":"sdaReg183","to":"1093488128","type":"model"},{"step":93,"from":"1093488128","to":"1093488128.arrayIdx_int:0","type":"load","field":"arrayIdx_int:0"},{"step":94,"from":"sdaReg177","to":"1093699800","type":"store","field":"<java.net.URI: java.lang.String userInfo>"},{"step":95,"from":"sdaReg183","to":"1093699800","type":"store","field":"<java.net.URI: java.lang.String host>"},{"step":96,"from":"sdaReg182","to":"1093699800","type":"store","field":"<java.net.URI: int port>"},{"step":97,"from":"1093699800","to":"sdaReg211","type":"create","field":"<java.net.URI: boolean serverAuthority>"}],"parameters":[{"id":"1093699800","name":"this","klass":"java.net.URI"},{"id":"sdaReg0","name":"arg#1","klass":"string"}],"returns":[{"id":"1093699800","name":"return","klass":"java.net.URI"}],"colors":{"heapLocToColor":{"sdaReg125":[1, 97],"sdaReg190":[0],"sdaReg126":[1, 98],"sdaReg193":[141],"sdaReg129":[1, 99],"sdaReg199":[147],"sdaReg68":[57],"sdaReg198":[146],"sdaReg69":[1, 58],"sdaReg66":[55],"sdaReg67":[1, 56],"sdaReg195":[143],"sdaReg64":[53],"sdaReg194":[142],"sdaReg65":[1, 54],"sdaReg197":[145],"sdaReg196":[144],"sdaReg63":[1, 52],"sdaReg13":[1, 5],"sdaReg72":[61],"sdaReg14":[6],"sdaReg71":[1, 60],"sdaReg11":[1, 3],"sdaReg70":[59],"sdaReg12":[4],"sdaReg19":[1, 11],"sdaReg122":[1, 94],"sdaReg17":[1, 9],"sdaReg18":[10],"sdaReg124":[1, 96],"sdaReg15":[1, 7],"sdaReg123":[1, 95],"sdaReg16":[8],"sdaReg116":[1, 90],"sdaReg117":[91],"sdaReg114":[1, 88],"sdaReg115":[89],"sdaReg118":[92],"sdaReg119":[93],"sdaReg77":[63],"sdaReg78":[1, 64],"sdaReg79":[65],"sdaReg76":[1, 62],"sdaReg81":[67],"sdaReg80":[1, 66],"sdaReg83":[69],"sdaReg82":[68, 1],"sdaReg113":[87],"sdaReg112":[1, 86],"sdaReg111":[85],"sdaReg110":[1, 84],"sdaReg108":[1, 82],"sdaReg109":[83],"sdaReg103":[1, 80],"sdaReg104":[81],"sdaReg171":[129],"sdaReg86":[1, 72],"sdaReg172":[130],"sdaReg87":[73],"sdaReg175":[1, 132],"sdaReg84":[1, 70],"sdaReg174":[1, 131],"sdaReg85":[71],"sdaReg176":[0],"sdaReg178":[133],"sdaReg89":[0],"sdaReg93":[1, 75],"sdaReg91":[1, 74],"sdaReg101":[79],"sdaReg181":[135],"sdaReg180":[134],"1085474672.<java.net.URI$PartEncoder: java.lang.String extraLegalCharacters>":[111],"sdaReg186":[137],"sdaReg95":[1, 76],"sdaReg185":[0],"sdaReg184":[136],"sdaReg97":[1, 77],"1085536376":[93],"sdaReg99":[1, 78],"sdaReg189":[140],"sdaReg188":[139],"sdaReg187":[138],"1085538000.<java.net.URI$PartEncoder: java.lang.String extraLegalCharacters>":[121],"static.<java.net.URI: libcore.net.UriCodec PATH_ENCODER>":[111],"sdaReg169":[128],"sdaReg161":[1, 122],"sdaReg162":[1, 123],"sdaReg163":[1, 124],"sdaReg164":[1, 125],"sdaReg165":[1, 126],"sdaReg166":[1, 127],"sdaReg167":[121],"sdaReg59":[51],"sdaReg58":[50],"1093488128.arrayIdx_int:0":[150],"sdaReg57":[1, 49],"sdaReg56":[48],"sdaReg55":[1, 47],"sdaReg54":[46],"sdaReg53":[1, 45],"sdaReg52":[44],"sdaReg51":[1, 43],"1093699800":[0],"sdaReg50":[42],"sdaReg158":[121],"static.<java.net.URI: libcore.net.UriCodec ALL_LEGAL_ENCODER>":[121],"sdaReg152":[1, 116],"sdaReg153":[1, 117],"sdaReg150":[115],"sdaReg156":[1, 120],"sdaReg49":[1, 41],"sdaReg48":[40],"sdaReg154":[1, 118],"sdaReg155":[119, 1],"sdaReg45":[1, 37],"sdaReg44":[36],"sdaReg47":[1, 39],"sdaReg46":[38],"sdaReg41":[1, 33],"sdaReg40":[32],"sdaReg43":[1, 35],"sdaReg42":[34],"static.<java.net.URI: libcore.net.UriCodec AUTHORITY_ENCODER>":[93],"sdaReg200":[148],"sdaReg201":[149],"sdaReg147":[113],"sdaReg149":[114],"sdaReg144":[1, 112],"sdaReg39":[1, 31],"sdaReg203":[150],"sdaReg145":[111],"1085474672":[111],"sdaReg38":[30],"sdaReg202":[150],"sdaReg37":[1, 29],"sdaReg208":[153],"sdaReg140":[110],"sdaReg207":[152],"sdaReg141":[111],"sdaReg206":[151],"1085538000":[121],"sdaReg32":[24],"sdaReg31":[1, 23],"sdaReg30":[22],"sdaReg36":[28],"sdaReg35":[1, 27],"sdaReg34":[26],"sdaReg33":[1, 25],"sdaReg7":[2],"sdaReg5":[0],"sdaReg139":[1, 109],"sdaReg138":[108],"sdaReg137":[1, 107],"sdaReg136":[106],"sdaReg134":[104],"sdaReg27":[1, 19],"sdaReg135":[1, 105],"sdaReg26":[18],"sdaReg132":[102],"sdaReg29":[1, 21],"sdaReg133":[1, 103],"sdaReg28":[20],"sdaReg130":[100],"sdaReg131":[1, 101],"sdaReg1":[0],"sdaReg21":[1, 13],"sdaReg0":[1],"sdaReg20":[12],"sdaReg23":[1, 15],"sdaReg22":[14],"sdaReg25":[17, 1],"1093488128":[150],"sdaReg24":[16]},"colorToColor":{"0":[154],"1":[0],"98":[0],"80":[0],"78":[0],"132":[0],"120":[0]},"colorToLabel":{"0":"this","1":"arg#1","93":"<java.net.URI: libcore.net.UriCodec AUTHORITY_ENCODER>","111":"<java.net.URI: libcore.net.UriCodec PATH_ENCODER>","121":"<java.net.URI: libcore.net.UriCodec ALL_LEGAL_ENCODER>","154":"return"}}}

Generated Model
	this->return
	arg#1->this
	arg#1->return

