Scanning method <java.util.Formatter$FormatSpecifierParser: int access$000(java.util.Formatter$FormatSpecifierParser)>

All seen event types: LoadInstanceRecord, 
Ignored event types: 

JSON Encoded Analysis Data (for visualization):{"heapEdges":[{"step":0,"from":"1093419432","to":"1093419432.<java.util.Formatter$FormatSpecifierParser: int i>","type":"load","field":"<java.util.Formatter$FormatSpecifierParser: int i>"}],"parameters":[{"id":"1093419432","name":"arg#0","klass":"java.util.Formatter$FormatSpecifierParser"}],"returns":[{"id":"1093419432.<java.util.Formatter$FormatSpecifierParser: int i>","name":"return","klass":"int"}],"colors":{"heapLocToColor":{"1093419432.<java.util.Formatter$FormatSpecifierParser: int i>":[0],"1093419432":[0]},"colorToColor":{"0":[1]},"colorToLabel":{"0":"arg#0","1":"return"}}}

Generated Model
	arg#0->return

