Scanning method <android.text.Html: java.lang.String toHtml(android.text.Spanned)>

All seen event types: StoreArrayRecord, SimpleAssignmentRecord, MethodStartRecord, LoadInstanceRecord, IfRecord, InstanceOfRecord, NewObjectRecord, LoadStaticRecord, BinaryOperationRecord, MethodCallRecord, MethodReturnRecord, CastRecord, ArrayLengthRecord, LoadArrayRecord, MethodEndRecord, 
Ignored event types: IfRecord, 

JSON Encoded Analysis Data (for visualization):{"heapEdges":[{"step":0,"from":"1093582640","to":"1093582640.<android.text.SpannableStringInternal: java.lang.String mText>","type":"load","field":"<android.text.SpannableStringInternal: java.lang.String mText>"},{"step":1,"from":"1093582640","to":"1093582640.<android.text.SpannableStringInternal: java.lang.String mText>","type":"load","field":"<android.text.SpannableStringInternal: java.lang.String mText>"},{"step":2,"from":"1093582640","to":"1093582640.<android.text.SpannableStringInternal: int mSpanCount>","type":"load","field":"<android.text.SpannableStringInternal: int mSpanCount>"},{"step":3,"from":"1093582640","to":"1094153648","type":"load","field":"<android.text.SpannableStringInternal: java.lang.Object[] mSpans>"},{"step":4,"from":"1093582640","to":"1094153672","type":"load","field":"<android.text.SpannableStringInternal: int[] mSpanData>"},{"step":5,"from":"1094153672","to":"1094153672.arrayIdx_int:0","type":"load","field":"arrayIdx_int:0"},{"step":6,"from":"1094153672","to":"1094153672.arrayIdx_int:1","type":"load","field":"arrayIdx_int:1"},{"step":7,"from":"1094153648","to":"1093700480","type":"load","field":"arrayIdx_int:0"},{"step":8,"from":"1094153648","to":"1093700480","type":"load","field":"arrayIdx_int:0"},{"step":9,"from":"1093582640","to":"1093582640.<android.text.SpannableStringInternal: int mSpanCount>","type":"load","field":"<android.text.SpannableStringInternal: int mSpanCount>"},{"step":10,"from":"1093582640","to":"1094153648","type":"load","field":"<android.text.SpannableStringInternal: java.lang.Object[] mSpans>"},{"step":11,"from":"1093582640","to":"1094153672","type":"load","field":"<android.text.SpannableStringInternal: int[] mSpanData>"},{"step":12,"from":"1094153648","to":"1093700480","type":"load","field":"arrayIdx_int:0"},{"step":13,"from":"1084659448","to":"sdaReg30","type":"model"},{"step":14,"from":"static.<com.android.internal.util.ArrayUtils: java.lang.Object[] sCache>","to":"1084375760","type":"load","field":"<com.android.internal.util.ArrayUtils: java.lang.Object[] sCache>"},{"step":15,"from":"1084375760","to":"1085268040","type":"load","field":"arrayIdx_int:42"},{"step":16,"from":"1085268040","to":"1084833288","type":"model"},{"step":17,"from":"1084833288","to":"1084659448","type":"model"},{"step":18,"from":"1093582640","to":"1093582640.<android.text.SpannableStringInternal: int mSpanCount>","type":"load","field":"<android.text.SpannableStringInternal: int mSpanCount>"},{"step":19,"from":"1093582640","to":"1094153648","type":"load","field":"<android.text.SpannableStringInternal: java.lang.Object[] mSpans>"},{"step":20,"from":"1093582640","to":"1094153672","type":"load","field":"<android.text.SpannableStringInternal: int[] mSpanData>"},{"step":21,"from":"1094153672","to":"1094153672.arrayIdx_int:0","type":"load","field":"arrayIdx_int:0"},{"step":22,"from":"1094153672","to":"1094153672.arrayIdx_int:1","type":"load","field":"arrayIdx_int:1"},{"step":23,"from":"1094153648","to":"1093700480","type":"load","field":"arrayIdx_int:0"},{"step":24,"from":"1094153648","to":"1093700480","type":"load","field":"arrayIdx_int:0"},{"step":25,"from":"1093582640","to":"1093582640.<android.text.SpannableStringInternal: int mSpanCount>","type":"load","field":"<android.text.SpannableStringInternal: int mSpanCount>"},{"step":26,"from":"1093582640","to":"1094153648","type":"load","field":"<android.text.SpannableStringInternal: java.lang.Object[] mSpans>"},{"step":27,"from":"1093582640","to":"1094153672","type":"load","field":"<android.text.SpannableStringInternal: int[] mSpanData>"},{"step":28,"from":"1094153648","to":"1093700480","type":"load","field":"arrayIdx_int:0"},{"step":29,"from":"1084853880","to":"sdaReg71","type":"model"},{"step":30,"from":"static.<com.android.internal.util.ArrayUtils: java.lang.Object[] sCache>","to":"1084375760","type":"load","field":"<com.android.internal.util.ArrayUtils: java.lang.Object[] sCache>"},{"step":31,"from":"1084375760","to":"1093997824","type":"load","field":"arrayIdx_int:37"},{"step":32,"from":"1093997824","to":"1093576184","type":"model"},{"step":33,"from":"1093576184","to":"1084853880","type":"model"},{"step":34,"from":"1093582640","to":"1093582640.<android.text.SpannableStringInternal: int mSpanCount>","type":"load","field":"<android.text.SpannableStringInternal: int mSpanCount>"},{"step":35,"from":"1093582640","to":"1094153648","type":"load","field":"<android.text.SpannableStringInternal: java.lang.Object[] mSpans>"},{"step":36,"from":"1093582640","to":"1094153672","type":"load","field":"<android.text.SpannableStringInternal: int[] mSpanData>"},{"step":37,"from":"1094153672","to":"1094153672.arrayIdx_int:0","type":"load","field":"arrayIdx_int:0"},{"step":38,"from":"1094153672","to":"1094153672.arrayIdx_int:1","type":"load","field":"arrayIdx_int:1"},{"step":39,"from":"1094153648","to":"1093700480","type":"load","field":"arrayIdx_int:0"},{"step":40,"from":"1093582640","to":"1093582640.<android.text.SpannableStringInternal: int mSpanCount>","type":"load","field":"<android.text.SpannableStringInternal: int mSpanCount>"},{"step":41,"from":"1093582640","to":"1094153648","type":"load","field":"<android.text.SpannableStringInternal: java.lang.Object[] mSpans>"},{"step":42,"from":"1093582640","to":"1094153672","type":"load","field":"<android.text.SpannableStringInternal: int[] mSpanData>"},{"step":43,"from":"1094153648","to":"1093700480","type":"load","field":"arrayIdx_int:0"},{"step":44,"from":"1094153672","to":"1094153672.arrayIdx_int:0","type":"load","field":"arrayIdx_int:0"},{"step":45,"from":"1094153672","to":"1094153672.arrayIdx_int:1","type":"load","field":"arrayIdx_int:1"},{"step":46,"from":"1084661656","to":"sdaReg123","type":"model"},{"step":47,"from":"static.<com.android.internal.util.ArrayUtils: java.lang.Object[] sCache>","to":"1084375760","type":"load","field":"<com.android.internal.util.ArrayUtils: java.lang.Object[] sCache>"},{"step":48,"from":"1084375760","to":"1093550768","type":"load","field":"arrayIdx_int:26"},{"step":49,"from":"1093550768","to":"1085374624","type":"model"},{"step":50,"from":"1085374624","to":"1084661656","type":"model"},{"step":51,"from":"1093582640","to":"1093582640.<android.text.SpannableStringInternal: java.lang.String mText>","type":"load","field":"<android.text.SpannableStringInternal: java.lang.String mText>"},{"step":52,"from":"1093582640.<android.text.SpannableStringInternal: java.lang.String mText>","to":"sdaReg142","type":"model"},{"step":53,"from":"sdaReg142","to":"1093443152","type":"model"},{"step":54,"from":"1093582640","to":"1093582640.<android.text.SpannableStringInternal: java.lang.String mText>","type":"load","field":"<android.text.SpannableStringInternal: java.lang.String mText>"},{"step":55,"from":"1093582640.<android.text.SpannableStringInternal: java.lang.String mText>","to":"sdaReg144","type":"model"},{"step":56,"from":"sdaReg144","to":"1093443152","type":"model"},{"step":57,"from":"1093582640","to":"1093582640.<android.text.SpannableStringInternal: java.lang.String mText>","type":"load","field":"<android.text.SpannableStringInternal: java.lang.String mText>"},{"step":58,"from":"1093582640.<android.text.SpannableStringInternal: java.lang.String mText>","to":"sdaReg146","type":"model"},{"step":59,"from":"sdaReg146","to":"1093443152","type":"model"},{"step":60,"from":"1093582640","to":"1093582640.<android.text.SpannableStringInternal: java.lang.String mText>","type":"load","field":"<android.text.SpannableStringInternal: java.lang.String mText>"},{"step":61,"from":"1093582640.<android.text.SpannableStringInternal: java.lang.String mText>","to":"sdaReg148","type":"model"},{"step":62,"from":"sdaReg148","to":"1093443152","type":"model"},{"step":63,"from":"1093582640","to":"1093582640.<android.text.SpannableStringInternal: java.lang.String mText>","type":"load","field":"<android.text.SpannableStringInternal: java.lang.String mText>"},{"step":64,"from":"1093582640.<android.text.SpannableStringInternal: java.lang.String mText>","to":"sdaReg150","type":"model"},{"step":65,"from":"sdaReg150","to":"1093443152","type":"model"},{"step":66,"from":"1093582640","to":"1093582640.<android.text.SpannableStringInternal: java.lang.String mText>","type":"load","field":"<android.text.SpannableStringInternal: java.lang.String mText>"},{"step":67,"from":"1093582640.<android.text.SpannableStringInternal: java.lang.String mText>","to":"sdaReg152","type":"model"},{"step":68,"from":"1093582640","to":"1093582640.<android.text.SpannableStringInternal: int mSpanCount>","type":"load","field":"<android.text.SpannableStringInternal: int mSpanCount>"},{"step":69,"from":"1093582640","to":"1094153648","type":"load","field":"<android.text.SpannableStringInternal: java.lang.Object[] mSpans>"},{"step":70,"from":"1093582640","to":"1094153672","type":"load","field":"<android.text.SpannableStringInternal: int[] mSpanData>"},{"step":71,"from":"1094153672","to":"1094153672.arrayIdx_int:0","type":"load","field":"arrayIdx_int:0"},{"step":72,"from":"1094153672","to":"1094153672.arrayIdx_int:1","type":"load","field":"arrayIdx_int:1"},{"step":73,"from":"1094153648","to":"1093700480","type":"load","field":"arrayIdx_int:0"},{"step":74,"from":"1093582640","to":"1093582640.<android.text.SpannableStringInternal: int mSpanCount>","type":"load","field":"<android.text.SpannableStringInternal: int mSpanCount>"},{"step":75,"from":"1093582640","to":"1094153648","type":"load","field":"<android.text.SpannableStringInternal: java.lang.Object[] mSpans>"},{"step":76,"from":"1093582640","to":"1094153672","type":"load","field":"<android.text.SpannableStringInternal: int[] mSpanData>"},{"step":77,"from":"1094153648","to":"1093700480","type":"load","field":"arrayIdx_int:0"},{"step":78,"from":"1094153672","to":"1094153672.arrayIdx_int:0","type":"load","field":"arrayIdx_int:0"},{"step":79,"from":"1094153672","to":"1094153672.arrayIdx_int:1","type":"load","field":"arrayIdx_int:1"},{"step":80,"from":"1094153648","to":"1093700480","type":"load","field":"arrayIdx_int:0"},{"step":81,"from":"1093700480","to":"1093913784","type":"store","field":"arrayIdx_int:0"},{"step":82,"from":"1093700480","to":"1093700480.<android.text.style.StyleSpan: int mStyle>","type":"load","field":"<android.text.style.StyleSpan: int mStyle>"},{"step":83,"from":"1093582640","to":"1093582640.<android.text.SpannableStringInternal: java.lang.String mText>","type":"load","field":"<android.text.SpannableStringInternal: java.lang.String mText>"},{"step":84,"from":"1093582640.<android.text.SpannableStringInternal: java.lang.String mText>","to":"sdaReg205","type":"model"},{"step":85,"from":"sdaReg205","to":"1093443152","type":"model"},{"step":86,"from":"1093582640","to":"1093582640.<android.text.SpannableStringInternal: java.lang.String mText>","type":"load","field":"<android.text.SpannableStringInternal: java.lang.String mText>"},{"step":87,"from":"1093582640.<android.text.SpannableStringInternal: java.lang.String mText>","to":"sdaReg207","type":"model"},{"step":88,"from":"sdaReg207","to":"1093443152","type":"model"},{"step":89,"from":"1093582640","to":"1093582640.<android.text.SpannableStringInternal: java.lang.String mText>","type":"load","field":"<android.text.SpannableStringInternal: java.lang.String mText>"},{"step":90,"from":"1093582640.<android.text.SpannableStringInternal: java.lang.String mText>","to":"sdaReg209","type":"model"},{"step":91,"from":"sdaReg209","to":"1093443152","type":"model"},{"step":92,"from":"1093582640","to":"1093582640.<android.text.SpannableStringInternal: java.lang.String mText>","type":"load","field":"<android.text.SpannableStringInternal: java.lang.String mText>"},{"step":93,"from":"1093582640.<android.text.SpannableStringInternal: java.lang.String mText>","to":"sdaReg211","type":"model"},{"step":94,"from":"sdaReg211","to":"1093443152","type":"model"},{"step":95,"from":"1093582640","to":"1093582640.<android.text.SpannableStringInternal: java.lang.String mText>","type":"load","field":"<android.text.SpannableStringInternal: java.lang.String mText>"},{"step":96,"from":"1093582640.<android.text.SpannableStringInternal: java.lang.String mText>","to":"sdaReg213","type":"model"},{"step":97,"from":"sdaReg213","to":"1093443152","type":"model"},{"step":98,"from":"1093582640","to":"1093582640.<android.text.SpannableStringInternal: java.lang.String mText>","type":"load","field":"<android.text.SpannableStringInternal: java.lang.String mText>"},{"step":99,"from":"1093582640.<android.text.SpannableStringInternal: java.lang.String mText>","to":"sdaReg215","type":"model"},{"step":100,"from":"sdaReg215","to":"1093443152","type":"model"},{"step":101,"from":"1093700480","to":"1093700480.<android.text.style.StyleSpan: int mStyle>","type":"load","field":"<android.text.style.StyleSpan: int mStyle>"},{"step":102,"from":"1093582640","to":"1093582640.<android.text.SpannableStringInternal: int mSpanCount>","type":"load","field":"<android.text.SpannableStringInternal: int mSpanCount>"},{"step":103,"from":"1093582640","to":"1094153648","type":"load","field":"<android.text.SpannableStringInternal: java.lang.Object[] mSpans>"},{"step":104,"from":"1093582640","to":"1094153672","type":"load","field":"<android.text.SpannableStringInternal: int[] mSpanData>"},{"step":105,"from":"1094153672","to":"1094153672.arrayIdx_int:0","type":"load","field":"arrayIdx_int:0"},{"step":106,"from":"1094153672","to":"1094153672.arrayIdx_int:1","type":"load","field":"arrayIdx_int:1"},{"step":107,"from":"1093582640","to":"1093582640.<android.text.SpannableStringInternal: int mSpanCount>","type":"load","field":"<android.text.SpannableStringInternal: int mSpanCount>"},{"step":108,"from":"1093582640","to":"1094153648","type":"load","field":"<android.text.SpannableStringInternal: java.lang.Object[] mSpans>"},{"step":109,"from":"1093582640","to":"1094153672","type":"load","field":"<android.text.SpannableStringInternal: int[] mSpanData>"},{"step":110,"from":"1094153648","to":"1093700480","type":"load","field":"arrayIdx_int:0"},{"step":111,"from":"1094153672","to":"1094153672.arrayIdx_int:0","type":"load","field":"arrayIdx_int:0"},{"step":112,"from":"1094153672","to":"1094153672.arrayIdx_int:1","type":"load","field":"arrayIdx_int:1"},{"step":113,"from":"1084661656","to":"sdaReg253","type":"model"},{"step":114,"from":"static.<com.android.internal.util.ArrayUtils: java.lang.Object[] sCache>","to":"1084375760","type":"load","field":"<com.android.internal.util.ArrayUtils: java.lang.Object[] sCache>"},{"step":115,"from":"1084375760","to":"1093550768","type":"load","field":"arrayIdx_int:26"},{"step":116,"from":"1093550768","to":"1085374624","type":"model"},{"step":117,"from":"1085374624","to":"1084661656","type":"model"},{"step":118,"from":"1093582640","to":"1093582640.<android.text.SpannableStringInternal: java.lang.String mText>","type":"load","field":"<android.text.SpannableStringInternal: java.lang.String mText>"},{"step":119,"from":"1093582640.<android.text.SpannableStringInternal: java.lang.String mText>","to":"sdaReg270","type":"model"},{"step":120,"from":"1093582640","to":"1093582640.<android.text.SpannableStringInternal: java.lang.String mText>","type":"load","field":"<android.text.SpannableStringInternal: java.lang.String mText>"},{"step":121,"from":"1093582640.<android.text.SpannableStringInternal: java.lang.String mText>","to":"sdaReg274","type":"model"},{"step":122,"from":"1093582640","to":"1093582640.<android.text.SpannableStringInternal: java.lang.String mText>","type":"load","field":"<android.text.SpannableStringInternal: java.lang.String mText>"},{"step":123,"from":"1093582640.<android.text.SpannableStringInternal: java.lang.String mText>","to":"sdaReg276","type":"model"},{"step":124,"from":"sdaReg276","to":"1093443152","type":"model"},{"step":125,"from":"1093582640","to":"1093582640.<android.text.SpannableStringInternal: java.lang.String mText>","type":"load","field":"<android.text.SpannableStringInternal: java.lang.String mText>"},{"step":126,"from":"1093582640.<android.text.SpannableStringInternal: java.lang.String mText>","to":"sdaReg278","type":"model"},{"step":127,"from":"sdaReg278","to":"1093443152","type":"model"},{"step":128,"from":"1093582640","to":"1093582640.<android.text.SpannableStringInternal: java.lang.String mText>","type":"load","field":"<android.text.SpannableStringInternal: java.lang.String mText>"},{"step":129,"from":"1093582640.<android.text.SpannableStringInternal: java.lang.String mText>","to":"sdaReg280","type":"model"},{"step":130,"from":"sdaReg280","to":"1093443152","type":"model"},{"step":131,"from":"1093582640","to":"1093582640.<android.text.SpannableStringInternal: java.lang.String mText>","type":"load","field":"<android.text.SpannableStringInternal: java.lang.String mText>"},{"step":132,"from":"1093582640.<android.text.SpannableStringInternal: java.lang.String mText>","to":"sdaReg282","type":"model"},{"step":133,"from":"sdaReg282","to":"1093443152","type":"model"},{"step":134,"from":"1093582640","to":"1093582640.<android.text.SpannableStringInternal: java.lang.String mText>","type":"load","field":"<android.text.SpannableStringInternal: java.lang.String mText>"},{"step":135,"from":"1093582640.<android.text.SpannableStringInternal: java.lang.String mText>","to":"sdaReg284","type":"model"},{"step":136,"from":"sdaReg284","to":"1093443152","type":"model"},{"step":137,"from":"sdaReg287","to":"1093443152","type":"model"},{"step":138,"from":"1093582640","to":"1093582640.<android.text.SpannableStringInternal: java.lang.String mText>","type":"load","field":"<android.text.SpannableStringInternal: java.lang.String mText>"},{"step":139,"from":"1093443152","to":"sdaReg294","type":"model"}],"parameters":[{"id":"1093582640","name":"arg#0","klass":"android.text.Spanned"}],"returns":[{"id":"sdaReg294","name":"return","klass":"string"}],"colors":{"heapLocToColor":{"sdaReg294":[1, 48],"sdaReg293":[47],"sdaReg190":[0],"1093550768":[8],"1084853880":[16, 8, 15],"sdaReg292":[0],"sdaReg11":[0],"sdaReg19":[5],"sdaReg18":[4],"1093582640":[0],"1093997824":[8],"1085268040":[8],"1093700480":[0],"1093913784":[31],"1094153672.arrayIdx_int:0":[0],"1094153672.arrayIdx_int:1":[0],"sdaReg174":[30],"sdaReg179":[31],"sdaReg182":[31],"sdaReg181":[31],"sdaReg180":[31],"sdaReg184":[31],"sdaReg183":[31],"sdaReg189":[0],"sdaReg188":[0],"sdaReg60":[12],"sdaReg61":[0],"1093582640.<android.text.SpannableStringInternal: java.lang.Object[] mSpans>":[0],"1084375760.arrayIdx_int:26":[8],"sdaReg59":[11],"sdaReg52":[0],"sdaReg50":[0],"1084661656":[21, 22, 8],"1084833288":[8, 9],"sdaReg49":[2],"sdaReg48":[0],"1094153648.arrayIdx_int:0":[0],"1084659448":[8, 9, 10],"sdaReg47":[1],"sdaReg41":[8],"sdaReg40":[8],"sdaReg42":[8],"sdaReg201":[1],"sdaReg205":[0, 32],"sdaReg39":[8],"sdaReg204":[0],"sdaReg38":[8],"sdaReg203":[0, 17, 2],"sdaReg202":[0],"sdaReg209":[0, 34],"sdaReg208":[0],"sdaReg207":[0, 33],"sdaReg206":[0],"sdaReg32":[7],"sdaReg31":[7],"sdaReg30":[7],"sdaReg35":[8, 9, 10],"sdaReg34":[8, 9],"sdaReg33":[7],"sdaReg8":[3],"sdaReg9":[0],"sdaReg6":[2],"sdaReg7":[0],"sdaReg4":[0],"sdaReg5":[2],"sdaReg28":[6],"sdaReg3":[0],"sdaReg2":[1],"sdaReg1":[1],"sdaReg20":[0],"sdaReg0":[1],"sdaReg22":[0],"sdaReg125":[20],"sdaReg126":[20],"sdaReg127":[21, 8],"sdaReg128":[21, 22, 8],"sdaReg228":[0],"sdaReg69":[13],"sdaReg229":[0],"sdaReg63":[0],"sdaReg227":[0],"sdaReg72":[14],"sdaReg71":[14],"sdaReg124":[20],"sdaReg123":[20],"sdaReg117":[19],"1094153648":[0],"sdaReg79":[8],"sdaReg73":[14],"sdaReg215":[0, 37],"sdaReg74":[14],"sdaReg75":[8, 15],"sdaReg213":[0, 36],"sdaReg76":[16, 8, 15],"sdaReg214":[0],"sdaReg81":[8],"sdaReg212":[0],"sdaReg80":[8],"sdaReg211":[0, 35],"sdaReg83":[8],"sdaReg210":[0],"sdaReg82":[8],"sdaReg111":[0],"sdaReg108":[18],"sdaReg109":[0],"static.<com.android.internal.util.ArrayUtils: java.lang.Object[] sCache>":[8],"sdaReg87":[1],"sdaReg247":[38],"sdaReg84":[8],"sdaReg88":[0],"sdaReg89":[17, 2],"sdaReg90":[17, 2],"sdaReg241":[0],"sdaReg240":[21, 22, 8],"sdaReg93":[0, 17, 2],"sdaReg242":[21, 22, 8],"sdaReg101":[0],"1093582640.<android.text.SpannableStringInternal: int mSpanCount>":[0],"sdaReg96":[1],"sdaReg97":[0],"sdaReg98":[17, 0, 2],"sdaReg99":[0],"sdaReg239":[0],"1093582640.<android.text.SpannableStringInternal: java.lang.String mText>":[0],"sdaReg230":[0],"sdaReg233":[21, 22, 8],"sdaReg232":[0],"sdaReg231":[21, 22, 8],"sdaReg269":[0],"1093443152":[1],"sdaReg268":[0, 17, 2],"sdaReg169":[21, 22, 8],"1093582640.<android.text.SpannableStringInternal: int[] mSpanData>":[0],"sdaReg165":[29],"sdaReg166":[0],"sdaReg167":[21, 22, 8],"sdaReg168":[0],"sdaReg264":[8],"sdaReg266":[1],"sdaReg267":[0],"sdaReg260":[8],"sdaReg261":[8],"sdaReg262":[8],"sdaReg263":[8],"sdaReg259":[8],"sdaReg258":[21, 22, 8],"sdaReg257":[21, 8],"sdaReg159":[21, 22, 8],"sdaReg158":[0],"sdaReg152":[0, 28],"sdaReg150":[0, 27],"sdaReg151":[0],"sdaReg156":[0],"sdaReg157":[21, 22, 8],"sdaReg255":[39],"sdaReg256":[39],"sdaReg253":[39],"sdaReg254":[39],"sdaReg252":[21, 22, 8],"1093576184":[8, 15],"1093700480.<android.text.style.StyleSpan: int mStyle>":[0],"sdaReg148":[0, 26],"1085374624":[21, 8],"sdaReg147":[0],"sdaReg149":[0],"sdaReg143":[0],"sdaReg144":[0, 24],"sdaReg145":[0],"1084375760":[8],"sdaReg146":[0, 25],"sdaReg141":[0],"sdaReg280":[0, 44],"sdaReg142":[0, 23],"sdaReg281":[0],"sdaReg282":[0, 45],"sdaReg283":[0],"sdaReg284":[0, 46],"sdaReg289":[8],"sdaReg279":[0],"sdaReg139":[0],"sdaReg138":[1],"sdaReg134":[8],"sdaReg135":[8, 31],"1094153672":[0],"sdaReg132":[8],"sdaReg133":[8],"sdaReg131":[8],"sdaReg270":[0, 40],"sdaReg273":[0],"sdaReg274":[0, 41],"sdaReg271":[17, 0, 2],"sdaReg272":[17, 0, 2],"sdaReg277":[0],"sdaReg278":[0, 43],"sdaReg275":[0],"sdaReg276":[0, 42]},"colorToColor":{"0":[1, 31],"34":[1],"1":[49],"35":[1],"32":[1],"33":[1],"36":[1],"37":[1],"42":[1],"8":[39],"43":[1],"46":[1],"44":[1],"45":[1],"48":[49],"21":[39],"23":[1],"22":[39],"25":[1],"24":[1],"27":[1],"26":[1]},"colorToLabel":{"0":"arg#0","8":"<com.android.internal.util.ArrayUtils: java.lang.Object[] sCache>","49":"return"}}}

Generated Model
	arg#0->return

