Scanning method <android.text.Html: java.lang.String toHtml(android.text.Spanned)>

All seen event types: SimpleAssignmentRecord, MethodStartRecord, LoadInstanceRecord, IfRecord, NewObjectRecord, LoadStaticRecord, BinaryOperationRecord, MethodCallRecord, MethodReturnRecord, CastRecord, ArrayLengthRecord, LoadArrayRecord, MethodEndRecord, 
Ignored event types: IfRecord, 

JSON Encoded Analysis Data (for visualization):{"heapEdges":[{"step":0,"from":"1093955280","to":"1093955280.<android.text.SpannableStringInternal: java.lang.String mText>","type":"load","field":"<android.text.SpannableStringInternal: java.lang.String mText>"},{"step":1,"from":"1093955280","to":"1093955280.<android.text.SpannableStringInternal: java.lang.String mText>","type":"load","field":"<android.text.SpannableStringInternal: java.lang.String mText>"},{"step":2,"from":"1093955280","to":"1093955280.<android.text.SpannableStringInternal: int mSpanCount>","type":"load","field":"<android.text.SpannableStringInternal: int mSpanCount>"},{"step":3,"from":"1093955280","to":"1093964736","type":"load","field":"<android.text.SpannableStringInternal: java.lang.Object[] mSpans>"},{"step":4,"from":"1093955280","to":"1093886224","type":"load","field":"<android.text.SpannableStringInternal: int[] mSpanData>"},{"step":5,"from":"1093955280","to":"1093955280.<android.text.SpannableStringInternal: int mSpanCount>","type":"load","field":"<android.text.SpannableStringInternal: int mSpanCount>"},{"step":6,"from":"1093955280","to":"1093964736","type":"load","field":"<android.text.SpannableStringInternal: java.lang.Object[] mSpans>"},{"step":7,"from":"1093955280","to":"1093886224","type":"load","field":"<android.text.SpannableStringInternal: int[] mSpanData>"},{"step":8,"from":"1084659448","to":"sdaReg23","type":"model"},{"step":9,"from":"static.<com.android.internal.util.ArrayUtils: java.lang.Object[] sCache>","to":"1084375760","type":"load","field":"<com.android.internal.util.ArrayUtils: java.lang.Object[] sCache>"},{"step":10,"from":"1084375760","to":"1085268040","type":"load","field":"arrayIdx_int:42"},{"step":11,"from":"1085268040","to":"1084833288","type":"model"},{"step":12,"from":"1084833288","to":"1084659448","type":"model"},{"step":13,"from":"1093955280","to":"1093955280.<android.text.SpannableStringInternal: int mSpanCount>","type":"load","field":"<android.text.SpannableStringInternal: int mSpanCount>"},{"step":14,"from":"1093955280","to":"1093964736","type":"load","field":"<android.text.SpannableStringInternal: java.lang.Object[] mSpans>"},{"step":15,"from":"1093955280","to":"1093886224","type":"load","field":"<android.text.SpannableStringInternal: int[] mSpanData>"},{"step":16,"from":"1093955280","to":"1093955280.<android.text.SpannableStringInternal: int mSpanCount>","type":"load","field":"<android.text.SpannableStringInternal: int mSpanCount>"},{"step":17,"from":"1093955280","to":"1093964736","type":"load","field":"<android.text.SpannableStringInternal: java.lang.Object[] mSpans>"},{"step":18,"from":"1093955280","to":"1093886224","type":"load","field":"<android.text.SpannableStringInternal: int[] mSpanData>"},{"step":19,"from":"1084853880","to":"sdaReg57","type":"model"},{"step":20,"from":"static.<com.android.internal.util.ArrayUtils: java.lang.Object[] sCache>","to":"1084375760","type":"load","field":"<com.android.internal.util.ArrayUtils: java.lang.Object[] sCache>"},{"step":21,"from":"1084375760","to":"1093867000","type":"load","field":"arrayIdx_int:37"},{"step":22,"from":"1093867000","to":"1094014728","type":"model"},{"step":23,"from":"1094014728","to":"1084853880","type":"model"},{"step":24,"from":"1093955280","to":"1093955280.<android.text.SpannableStringInternal: int mSpanCount>","type":"load","field":"<android.text.SpannableStringInternal: int mSpanCount>"},{"step":25,"from":"1093955280","to":"1093964736","type":"load","field":"<android.text.SpannableStringInternal: java.lang.Object[] mSpans>"},{"step":26,"from":"1093955280","to":"1093886224","type":"load","field":"<android.text.SpannableStringInternal: int[] mSpanData>"},{"step":27,"from":"1093955280","to":"1093955280.<android.text.SpannableStringInternal: int mSpanCount>","type":"load","field":"<android.text.SpannableStringInternal: int mSpanCount>"},{"step":28,"from":"1093955280","to":"1093964736","type":"load","field":"<android.text.SpannableStringInternal: java.lang.Object[] mSpans>"},{"step":29,"from":"1093955280","to":"1093886224","type":"load","field":"<android.text.SpannableStringInternal: int[] mSpanData>"},{"step":30,"from":"1084661656","to":"sdaReg99","type":"model"},{"step":31,"from":"static.<com.android.internal.util.ArrayUtils: java.lang.Object[] sCache>","to":"1084375760","type":"load","field":"<com.android.internal.util.ArrayUtils: java.lang.Object[] sCache>"},{"step":32,"from":"1084375760","to":"1093978752","type":"load","field":"arrayIdx_int:26"},{"step":33,"from":"1093978752","to":"1085374624","type":"model"},{"step":34,"from":"1085374624","to":"1084661656","type":"model"},{"step":35,"from":"1093955280","to":"1093955280.<android.text.SpannableStringInternal: java.lang.String mText>","type":"load","field":"<android.text.SpannableStringInternal: java.lang.String mText>"},{"step":36,"from":"1093955280.<android.text.SpannableStringInternal: java.lang.String mText>","to":"sdaReg118","type":"model"},{"step":37,"from":"sdaReg118","to":"1093476096","type":"model"},{"step":38,"from":"1093955280","to":"1093955280.<android.text.SpannableStringInternal: java.lang.String mText>","type":"load","field":"<android.text.SpannableStringInternal: java.lang.String mText>"},{"step":39,"from":"1093955280.<android.text.SpannableStringInternal: java.lang.String mText>","to":"sdaReg120","type":"model"},{"step":40,"from":"sdaReg120","to":"1093476096","type":"model"},{"step":41,"from":"1093955280","to":"1093955280.<android.text.SpannableStringInternal: java.lang.String mText>","type":"load","field":"<android.text.SpannableStringInternal: java.lang.String mText>"},{"step":42,"from":"1093955280.<android.text.SpannableStringInternal: java.lang.String mText>","to":"sdaReg122","type":"model"},{"step":43,"from":"sdaReg122","to":"1093476096","type":"model"},{"step":44,"from":"1093955280","to":"1093955280.<android.text.SpannableStringInternal: java.lang.String mText>","type":"load","field":"<android.text.SpannableStringInternal: java.lang.String mText>"},{"step":45,"from":"1093955280.<android.text.SpannableStringInternal: java.lang.String mText>","to":"sdaReg124","type":"model"},{"step":46,"from":"sdaReg124","to":"1093476096","type":"model"},{"step":47,"from":"1093955280","to":"1093955280.<android.text.SpannableStringInternal: java.lang.String mText>","type":"load","field":"<android.text.SpannableStringInternal: java.lang.String mText>"},{"step":48,"from":"1093955280.<android.text.SpannableStringInternal: java.lang.String mText>","to":"sdaReg126","type":"model"},{"step":49,"from":"sdaReg126","to":"1093476096","type":"model"},{"step":50,"from":"1093955280","to":"1093955280.<android.text.SpannableStringInternal: java.lang.String mText>","type":"load","field":"<android.text.SpannableStringInternal: java.lang.String mText>"},{"step":51,"from":"1093955280.<android.text.SpannableStringInternal: java.lang.String mText>","to":"sdaReg128","type":"model"},{"step":52,"from":"1093955280","to":"1093955280.<android.text.SpannableStringInternal: java.lang.String mText>","type":"load","field":"<android.text.SpannableStringInternal: java.lang.String mText>"},{"step":53,"from":"1093955280.<android.text.SpannableStringInternal: java.lang.String mText>","to":"sdaReg132","type":"model"},{"step":54,"from":"1093955280","to":"1093955280.<android.text.SpannableStringInternal: java.lang.String mText>","type":"load","field":"<android.text.SpannableStringInternal: java.lang.String mText>"},{"step":55,"from":"1093955280.<android.text.SpannableStringInternal: java.lang.String mText>","to":"sdaReg134","type":"model"},{"step":56,"from":"sdaReg134","to":"1093738024","type":"model"},{"step":57,"from":"sdaReg134","to":"1093738024","type":"model"},{"step":58,"from":"1093738024","to":"sdaReg139","type":"model"},{"step":59,"from":"sdaReg139","to":"1093476096","type":"model"},{"step":60,"from":"1093955280","to":"1093955280.<android.text.SpannableStringInternal: java.lang.String mText>","type":"load","field":"<android.text.SpannableStringInternal: java.lang.String mText>"},{"step":61,"from":"1093955280.<android.text.SpannableStringInternal: java.lang.String mText>","to":"sdaReg141","type":"model"},{"step":62,"from":"1093955280","to":"1093955280.<android.text.SpannableStringInternal: java.lang.String mText>","type":"load","field":"<android.text.SpannableStringInternal: java.lang.String mText>"},{"step":63,"from":"1093955280.<android.text.SpannableStringInternal: java.lang.String mText>","to":"sdaReg143","type":"model"},{"step":64,"from":"1093955280","to":"1093955280.<android.text.SpannableStringInternal: java.lang.String mText>","type":"load","field":"<android.text.SpannableStringInternal: java.lang.String mText>"},{"step":65,"from":"1093955280.<android.text.SpannableStringInternal: java.lang.String mText>","to":"sdaReg145","type":"model"},{"step":66,"from":"sdaReg145","to":"1093476096","type":"model"},{"step":67,"from":"1093955280","to":"1093955280.<android.text.SpannableStringInternal: java.lang.String mText>","type":"load","field":"<android.text.SpannableStringInternal: java.lang.String mText>"},{"step":68,"from":"1093955280.<android.text.SpannableStringInternal: java.lang.String mText>","to":"sdaReg147","type":"model"},{"step":69,"from":"sdaReg147","to":"1093476096","type":"model"},{"step":70,"from":"1093955280","to":"1093955280.<android.text.SpannableStringInternal: java.lang.String mText>","type":"load","field":"<android.text.SpannableStringInternal: java.lang.String mText>"},{"step":71,"from":"1093955280.<android.text.SpannableStringInternal: java.lang.String mText>","to":"sdaReg149","type":"model"},{"step":72,"from":"sdaReg149","to":"1093476096","type":"model"},{"step":73,"from":"1093955280","to":"1093955280.<android.text.SpannableStringInternal: java.lang.String mText>","type":"load","field":"<android.text.SpannableStringInternal: java.lang.String mText>"},{"step":74,"from":"1093955280.<android.text.SpannableStringInternal: java.lang.String mText>","to":"sdaReg151","type":"model"},{"step":75,"from":"sdaReg151","to":"1093476096","type":"model"},{"step":76,"from":"1093955280","to":"1093955280.<android.text.SpannableStringInternal: java.lang.String mText>","type":"load","field":"<android.text.SpannableStringInternal: java.lang.String mText>"},{"step":77,"from":"1093955280.<android.text.SpannableStringInternal: java.lang.String mText>","to":"sdaReg153","type":"model"},{"step":78,"from":"sdaReg153","to":"1093476096","type":"model"},{"step":79,"from":"sdaReg157","to":"1093476096","type":"model"},{"step":80,"from":"1093955280","to":"1093955280.<android.text.SpannableStringInternal: java.lang.String mText>","type":"load","field":"<android.text.SpannableStringInternal: java.lang.String mText>"},{"step":81,"from":"1093476096","to":"sdaReg164","type":"model"}],"parameters":[{"id":"1093955280","name":"arg#0","klass":"android.text.Spanned"}],"returns":[{"id":"sdaReg164","name":"return","klass":"string"}],"colors":{"heapLocToColor":{"sdaReg125":[0],"sdaReg126":[0, 19],"sdaReg127":[0],"1084853880":[5, 9, 10],"sdaReg128":[0, 20],"sdaReg68":[5],"sdaReg69":[5],"sdaReg66":[5],"sdaReg67":[5],"sdaReg65":[5],"sdaReg62":[5, 9, 10],"sdaReg14":[0],"sdaReg11":[0],"sdaReg70":[5],"1093964736":[0],"sdaReg120":[0, 16],"sdaReg122":[0, 17],"sdaReg121":[0],"sdaReg124":[0, 18],"sdaReg16":[0],"sdaReg123":[0],"sdaReg117":[0],"sdaReg114":[1],"sdaReg115":[0],"1093978752":[5],"sdaReg118":[0, 15],"sdaReg119":[0],"sdaReg79":[2, 11],"sdaReg73":[1],"sdaReg74":[0],"sdaReg75":[2, 11],"sdaReg76":[2, 11],"sdaReg83":[0],"1085268040":[5],"sdaReg82":[1],"1093955280.<android.text.SpannableStringInternal: int[] mSpanData>":[0],"sdaReg111":[5],"sdaReg110":[5],"sdaReg107":[5],"sdaReg108":[5],"sdaReg109":[5],"sdaReg103":[5, 13],"sdaReg104":[5, 13, 14],"1093955280.<android.text.SpannableStringInternal: java.lang.Object[] mSpans>":[0],"static.<com.android.internal.util.ArrayUtils: java.lang.Object[] sCache>":[5],"sdaReg87":[0],"sdaReg84":[2, 11],"sdaReg85":[0],"sdaReg90":[0],"sdaReg92":[0],"sdaReg100":[12],"sdaReg102":[12],"sdaReg101":[12],"1093955280":[0],"sdaReg99":[12],"sdaReg60":[8],"sdaReg61":[5, 9],"1093955280.<android.text.SpannableStringInternal: java.lang.String mText>":[0],"1094014728":[5, 9],"sdaReg162":[0],"sdaReg163":[32],"sdaReg164":[1, 33],"1093955280.<android.text.SpannableStringInternal: int mSpanCount>":[0],"sdaReg59":[8],"sdaReg58":[8],"sdaReg57":[8],"1093867000":[5],"1093738024":[23],"sdaReg50":[0],"sdaReg159":[5],"1084833288":[5, 6],"1084661656":[5, 13, 14],"sdaReg152":[0],"sdaReg153":[0, 31],"1093886224":[0],"sdaReg150":[0],"sdaReg151":[0, 30],"sdaReg48":[0],"sdaReg45":[0],"1084659448":[5, 6, 7],"sdaReg41":[0],"sdaReg40":[1],"sdaReg43":[0],"sdaReg42":[2],"sdaReg148":[0],"sdaReg147":[0, 28],"1085374624":[5, 13],"sdaReg149":[0, 29],"sdaReg143":[0, 26],"sdaReg144":[0],"sdaReg145":[0, 27],"sdaReg146":[0],"1084375760":[5],"sdaReg140":[0],"sdaReg141":[0, 25],"sdaReg142":[0],"sdaReg32":[5],"sdaReg31":[5],"sdaReg35":[5],"sdaReg34":[5],"sdaReg33":[5],"sdaReg8":[3],"sdaReg9":[0],"sdaReg6":[2],"sdaReg7":[0],"sdaReg4":[0],"1093476096":[1],"sdaReg5":[2],"sdaReg139":[23, 24],"sdaReg138":[23],"sdaReg137":[23],"sdaReg136":[23],"sdaReg134":[0, 22],"sdaReg27":[5, 6],"sdaReg135":[23],"sdaReg26":[4],"sdaReg132":[0, 21],"sdaReg133":[0],"sdaReg28":[5, 6, 7],"sdaReg131":[0],"sdaReg3":[0],"sdaReg2":[1],"sdaReg1":[1],"sdaReg0":[1],"sdaReg23":[4],"sdaReg25":[4],"sdaReg24":[4]},"colorToColor":{"0":[1, 23],"1":[34],"33":[34],"15":[1],"17":[1],"16":[1],"19":[1],"18":[1],"23":[1],"22":[23],"24":[1],"27":[1],"29":[1],"28":[1],"31":[1],"30":[1]},"colorToLabel":{"0":"arg#0","5":"<com.android.internal.util.ArrayUtils: java.lang.Object[] sCache>","34":"return"}}}

Generated Model
	arg#0->return

