Scanning method <java.io.PrintStream: void <init>(java.io.OutputStream)>

All seen event types: MethodReturnRecord, MethodCallRecord, IfRecord, 
Ignored event types: IfRecord, 

JSON Encoded Analysis Data (for visualization):{"heapEdges":[{"step":0,"from":"1093477016","to":"1093477192","type":"model"},{"step":1,"from":"1093477016","to":"1093477192","type":"model"}],"parameters":[{"id":"1093477192","name":"this","klass":"java.io.PrintStream"},{"id":"1093477016","name":"arg#1","klass":"java.io.OutputStream"}],"returns":[{"id":"1093477192","name":"return","klass":"java.io.PrintStream"}],"colors":{"heapLocToColor":{"1093477192":[0],"sdaReg0":[0],"1093477016":[1]},"colorToColor":{"0":[2],"1":[0]},"colorToLabel":{"0":"this","1":"arg#1","2":"return"}}}

Generated Model
	this->return
	arg#1->this
	arg#1->return

