Scanning method <java.io.PrintWriter: void println(java.lang.String)>

All seen event types: SimpleAssignmentRecord, ExitMonitorRecord, LoadInstanceRecord, MethodStartRecord, IfRecord, NewObjectRecord, StoreInstanceRecord, BinaryOperationRecord, MethodCallRecord, MethodReturnRecord, EnterMonitorRecord, ArrayLengthRecord, MethodEndRecord, 
Ignored event types: ExitMonitorRecord, EnterMonitorRecord, IfRecord, 

JSON Encoded Analysis Data (for visualization):{"heapEdges":[{"step":0,"from":"1093619904","to":"1093619936","type":"load","field":"<java.io.Writer: java.lang.Object lock>"},{"step":1,"from":"sdaReg3","to":"1093685128","type":"model"},{"step":2,"from":"1093619904","to":"1093619936","type":"load","field":"<java.io.Writer: java.lang.Object lock>"},{"step":3,"from":"1093619904","to":"1093619936","type":"load","field":"<java.io.PrintWriter: java.io.Writer out>"},{"step":4,"from":"1093619904","to":"1093619936","type":"load","field":"<java.io.PrintWriter: java.io.Writer out>"},{"step":5,"from":"1093619936","to":"1093619728","type":"load","field":"<java.io.Writer: java.lang.Object lock>"},{"step":6,"from":"1093619936","to":"1093628488","type":"load","field":"<java.io.OutputStreamWriter: java.nio.charset.CharsetEncoder encoder>"},{"step":7,"from":"1093695320","to":"sdaReg38","type":"create","field":"<java.nio.Buffer: int mark>"},{"step":8,"from":"1093695320","to":"sdaReg39","type":"create","field":"<java.nio.Buffer: int position>"},{"step":9,"from":"1093695320","to":"sdaReg36","type":"create","field":"<java.nio.Buffer: int _elementSizeShift>"},{"step":10,"from":"sdaReg30","to":"1093695320","type":"store","field":"<java.nio.Buffer: int limit>"},{"step":11,"from":"sdaReg30","to":"1093695320","type":"store","field":"<java.nio.Buffer: int capacity>"},{"step":12,"from":"1093695320","to":"1093685128","type":"create","field":"<java.nio.CharArrayBuffer: char[] backingArray>"},{"step":13,"from":"1093695320","to":"sdaReg33","type":"create","field":"<java.nio.CharArrayBuffer: int offset>"},{"step":14,"from":"1093695320","to":"sdaReg11","type":"create","field":"<java.nio.Buffer: int position>"},{"step":15,"from":"sdaReg46","to":"1093695320","type":"store","field":"<java.nio.Buffer: int limit>"},{"step":16,"from":"1093619936","to":"1093628488","type":"load","field":"<java.io.OutputStreamWriter: java.nio.charset.CharsetEncoder encoder>"},{"step":17,"from":"1093619936","to":"1093619968","type":"load","field":"<java.io.OutputStreamWriter: java.nio.ByteBuffer bytes>"},{"step":18,"from":"1093628488","to":"1093695320","type":"model"},{"step":19,"from":"1093628488","to":"1093619968","type":"model"},{"step":20,"from":"1093628488","to":"1084215096","type":"model"},{"step":21,"from":"1093695320","to":"1093628488","type":"model"},{"step":22,"from":"1093695320","to":"1093619968","type":"model"},{"step":23,"from":"1093695320","to":"1084215096","type":"model"},{"step":24,"from":"1093619968","to":"1093628488","type":"model"},{"step":25,"from":"1093619968","to":"1093695320","type":"model"},{"step":26,"from":"1093619968","to":"1084215096","type":"model"},{"step":27,"from":"1084215096","to":"1084215096.<java.nio.charset.CoderResult: int type>","type":"load","field":"<java.nio.charset.CoderResult: int type>"},{"step":28,"from":"1084215096","to":"1084215096.<java.nio.charset.CoderResult: int type>","type":"load","field":"<java.nio.charset.CoderResult: int type>"},{"step":29,"from":"1084215096","to":"1084215096.<java.nio.charset.CoderResult: int type>","type":"load","field":"<java.nio.charset.CoderResult: int type>"},{"step":30,"from":"1093619904","to":"1093619936","type":"load","field":"<java.io.Writer: java.lang.Object lock>"},{"step":31,"from":"sdaReg59","to":"1093240128","type":"model"},{"step":32,"from":"1093619904","to":"1093619936","type":"load","field":"<java.io.Writer: java.lang.Object lock>"},{"step":33,"from":"1093619904","to":"1093619936","type":"load","field":"<java.io.PrintWriter: java.io.Writer out>"},{"step":34,"from":"1093619904","to":"1093619936","type":"load","field":"<java.io.PrintWriter: java.io.Writer out>"},{"step":35,"from":"1093619936","to":"1093619728","type":"load","field":"<java.io.Writer: java.lang.Object lock>"},{"step":36,"from":"1093619936","to":"1093628488","type":"load","field":"<java.io.OutputStreamWriter: java.nio.charset.CharsetEncoder encoder>"},{"step":37,"from":"1093263872","to":"sdaReg94","type":"create","field":"<java.nio.Buffer: int mark>"},{"step":38,"from":"1093263872","to":"sdaReg95","type":"create","field":"<java.nio.Buffer: int position>"},{"step":39,"from":"1093263872","to":"sdaReg92","type":"create","field":"<java.nio.Buffer: int _elementSizeShift>"},{"step":40,"from":"sdaReg86","to":"1093263872","type":"store","field":"<java.nio.Buffer: int limit>"},{"step":41,"from":"sdaReg86","to":"1093263872","type":"store","field":"<java.nio.Buffer: int capacity>"},{"step":42,"from":"1093263872","to":"1093240128","type":"create","field":"<java.nio.CharArrayBuffer: char[] backingArray>"},{"step":43,"from":"1093263872","to":"sdaReg89","type":"create","field":"<java.nio.CharArrayBuffer: int offset>"},{"step":44,"from":"1093263872","to":"sdaReg67","type":"create","field":"<java.nio.Buffer: int position>"},{"step":45,"from":"sdaReg102","to":"1093263872","type":"store","field":"<java.nio.Buffer: int limit>"},{"step":46,"from":"1093619936","to":"1093628488","type":"load","field":"<java.io.OutputStreamWriter: java.nio.charset.CharsetEncoder encoder>"},{"step":47,"from":"1093619936","to":"1093619968","type":"load","field":"<java.io.OutputStreamWriter: java.nio.ByteBuffer bytes>"},{"step":48,"from":"1093628488","to":"1093263872","type":"model"},{"step":49,"from":"1093628488","to":"1093619968","type":"model"},{"step":50,"from":"1093628488","to":"1084215096","type":"model"},{"step":51,"from":"1093263872","to":"1093628488","type":"model"},{"step":52,"from":"1093263872","to":"1093619968","type":"model"},{"step":53,"from":"1093263872","to":"1084215096","type":"model"},{"step":54,"from":"1093619968","to":"1093628488","type":"model"},{"step":55,"from":"1093619968","to":"1093263872","type":"model"},{"step":56,"from":"1093619968","to":"1084215096","type":"model"},{"step":57,"from":"1084215096","to":"1084215096.<java.nio.charset.CoderResult: int type>","type":"load","field":"<java.nio.charset.CoderResult: int type>"},{"step":58,"from":"1084215096","to":"1084215096.<java.nio.charset.CoderResult: int type>","type":"load","field":"<java.nio.charset.CoderResult: int type>"},{"step":59,"from":"1084215096","to":"1084215096.<java.nio.charset.CoderResult: int type>","type":"load","field":"<java.nio.charset.CoderResult: int type>"},{"step":60,"from":"1093619904","to":"1093619904.<java.io.PrintWriter: boolean autoFlush>","type":"load","field":"<java.io.PrintWriter: boolean autoFlush>"}],"parameters":[{"id":"1093619904","name":"this","klass":"java.io.PrintWriter"},{"id":"sdaReg0","name":"arg#1","klass":"string"}],"returns":[{"id":null,"name":"return","klass":null}],"colors":{"heapLocToColor":{"sdaReg60":[0],"1093619968":[0],"sdaReg61":[5, 6],"1093240128":[5, 6],"1093695320":[0, 3],"sdaReg68":[0],"sdaReg69":[5, 6],"sdaReg66":[5, 6],"sdaReg65":[0],"sdaReg62":[0],"sdaReg63":[5, 6],"sdaReg72":[5, 6],"sdaReg13":[1, 2],"sdaReg71":[0],"sdaReg14":[0],"sdaReg70":[0],"1093685128":[1, 2],"sdaReg12":[0],"sdaReg10":[1, 2],"sdaReg59":[5],"sdaReg58":[0],"1093619904.<java.io.PrintWriter: java.io.Writer out>":[0],"sdaReg57":[5],"sdaReg56":[0],"sdaReg55":[0],"sdaReg18":[0],"sdaReg53":[0, 4],"1093619728":[0],"sdaReg15":[0],"sdaReg16":[1, 2],"sdaReg51":[0, 4],"1093619936.<java.io.Writer: java.lang.Object lock>":[0],"sdaReg50":[0, 4],"sdaReg78":[5, 6],"1093619936":[0],"sdaReg73":[0],"sdaReg74":[0],"sdaReg83":[5, 6],"sdaReg82":[7],"sdaReg49":[3],"sdaReg48":[0],"1084215096":[0, 4],"sdaReg45":[3],"sdaReg44":[3],"sdaReg47":[3],"sdaReg41":[3],"sdaReg40":[3],"sdaReg43":[3],"sdaReg42":[3],"sdaReg107":[0, 4],"sdaReg109":[0, 4],"1093619904":[0],"sdaReg103":[7],"sdaReg104":[0],"sdaReg105":[7],"sdaReg106":[0, 4],"sdaReg87":[7],"sdaReg84":[7],"sdaReg85":[5, 6],"sdaReg88":[5, 6],"1093619936.<java.io.OutputStreamWriter: java.nio.charset.CharsetEncoder encoder>":[0],"sdaReg90":[7],"sdaReg37":[3],"sdaReg93":[7],"sdaReg91":[7],"sdaReg100":[7],"sdaReg32":[1, 2],"sdaReg31":[3],"sdaReg101":[7],"1084215096.<java.nio.charset.CoderResult: int type>":[0, 4],"1093263872":[0, 7],"sdaReg35":[3],"sdaReg34":[3],"sdaReg9":[0],"sdaReg6":[0],"sdaReg7":[1, 2],"sdaReg4":[0],"sdaReg5":[1, 2],"sdaReg96":[7],"sdaReg97":[7],"sdaReg98":[7],"1093619904.<java.io.Writer: java.lang.Object lock>":[0],"sdaReg99":[7],"1093619904.<java.io.PrintWriter: boolean autoFlush>":[0],"sdaReg27":[1, 2],"sdaReg26":[3],"sdaReg29":[1, 2],"1093628488":[0],"sdaReg28":[3],"1093619936.<java.io.OutputStreamWriter: java.nio.ByteBuffer bytes>":[0],"sdaReg3":[1],"sdaReg2":[0],"sdaReg0":[1],"sdaReg22":[1, 2]},"colorToColor":{"0":[0, 3, 4, 7],"1":[3],"2":[3],"3":[0, 4],"5":[7],"6":[7],"7":[0, 4]},"colorToLabel":{"0":"this","1":"arg#1","8":"return"}}}

Generated Model
	arg#1->this

