Scanning method <java.io.BufferedInputStream: int fillbuf(java.io.InputStream,byte[])>

All seen event types: BinaryOperationRecord, SimpleAssignmentRecord, MethodReturnRecord, MethodCallRecord, ArrayLengthRecord, MethodStartRecord, LoadInstanceRecord, MethodEndRecord, IfRecord, StoreInstanceRecord, 
Ignored event types: IfRecord, 

JSON Encoded Analysis Data (for visualization):{"heapEdges":[{"step":0,"from":"1094155488","to":"1094155488.<java.io.BufferedInputStream: int markpos>","type":"load","field":"<java.io.BufferedInputStream: int markpos>"},{"step":1,"from":"1094155456","to":"1094155456.<java.io.ByteArrayInputStream: int pos>","type":"load","field":"<java.io.ByteArrayInputStream: int pos>"},{"step":2,"from":"1094155456","to":"1094155456.<java.io.ByteArrayInputStream: int count>","type":"load","field":"<java.io.ByteArrayInputStream: int count>"},{"step":3,"from":"1094155456","to":"1094155456.<java.io.ByteArrayInputStream: int count>","type":"load","field":"<java.io.ByteArrayInputStream: int count>"},{"step":4,"from":"1094155456","to":"1094155456.<java.io.ByteArrayInputStream: int pos>","type":"load","field":"<java.io.ByteArrayInputStream: int pos>"},{"step":5,"from":"1094155456","to":"1094155456.<java.io.ByteArrayInputStream: int count>","type":"load","field":"<java.io.ByteArrayInputStream: int count>"},{"step":6,"from":"1094155456","to":"1094155456.<java.io.ByteArrayInputStream: int pos>","type":"load","field":"<java.io.ByteArrayInputStream: int pos>"},{"step":7,"from":"1094155456","to":"1093460768","type":"load","field":"<java.io.ByteArrayInputStream: byte[] buf>"},{"step":8,"from":"1094155456","to":"1094155456.<java.io.ByteArrayInputStream: int pos>","type":"load","field":"<java.io.ByteArrayInputStream: int pos>"},{"step":9,"from":"1093460768","to":"1094163728","type":"model"},{"step":10,"from":"1094155456","to":"1094155456.<java.io.ByteArrayInputStream: int pos>","type":"load","field":"<java.io.ByteArrayInputStream: int pos>"},{"step":11,"from":"sdaReg12","to":"1094155456","type":"store","field":"<java.io.ByteArrayInputStream: int pos>"},{"step":12,"from":"1094155488","to":"sdaReg13","type":"create","field":"<java.io.BufferedInputStream: int markpos>"},{"step":13,"from":"1094155488","to":"sdaReg14","type":"create","field":"<java.io.BufferedInputStream: int pos>"},{"step":14,"from":"sdaReg15","to":"1094155488","type":"store","field":"<java.io.BufferedInputStream: int count>"}],"parameters":[{"id":"1094155488","name":"this","klass":"java.io.BufferedInputStream"},{"id":"1094155456","name":"arg#1","klass":"java.io.InputStream"},{"id":"1094163728","name":"arg#2","klass":"byte[]"}],"returns":[{"id":"sdaReg11","name":"return","klass":"int"}],"colors":{"heapLocToColor":{"sdaReg9":[1],"sdaReg4":[2],"1094155488.<java.io.BufferedInputStream: int markpos>":[0],"1094155456.<java.io.ByteArrayInputStream: int count>":[1],"sdaReg11":[1],"sdaReg12":[1],"1094155488":[0],"1094155456.<java.io.ByteArrayInputStream: int pos>":[1],"1093460768":[1],"1094163728":[2],"sdaReg10":[1],"1094155456":[1],"sdaReg3":[1],"sdaReg1":[2],"sdaReg0":[1],"sdaReg15":[1]},"colorToColor":{"1":[0, 1, 2, 3]},"colorToLabel":{"0":"this","1":"arg#1","2":"arg#2","3":"return"}}}

Generated Model
	arg#1->this
	arg#1->return
	arg#1->arg#2

