Scanning method <java.util.TreeMap: boolean containsKey(java.lang.Object)>

All seen event types: LoadStaticRecord, SimpleAssignmentRecord, SwitchRecord, MethodReturnRecord, MethodCallRecord, CastRecord, LoadInstanceRecord, MethodStartRecord, LoadArrayRecord, MethodEndRecord, IfRecord, 
Ignored event types: SwitchRecord, IfRecord, 

JSON Encoded Analysis Data (for visualization):{"heapEdges":[{"step":0,"from":"static.<java.util.TreeMap$Relation: java.util.TreeMap$Relation EQUAL>","to":"1085724024","type":"load","field":"<java.util.TreeMap$Relation: java.util.TreeMap$Relation EQUAL>"},{"step":1,"from":"1099705064","to":"1099725312","type":"load","field":"<java.util.TreeMap: java.util.TreeMap$Node root>"},{"step":2,"from":"1099705064","to":"1083970648","type":"load","field":"<java.util.TreeMap: java.util.Comparator comparator>"},{"step":3,"from":"static.<java.util.TreeMap: java.util.Comparator NATURAL_ORDER>","to":"1083970648","type":"load","field":"<java.util.TreeMap: java.util.Comparator NATURAL_ORDER>"},{"step":4,"from":"1099705064","to":"1099725312","type":"load","field":"<java.util.TreeMap: java.util.TreeMap$Node root>"},{"step":5,"from":"1099725312","to":"1096199648","type":"load","field":"<java.util.TreeMap$Node: java.lang.Object key>"},{"step":6,"from":"1093342360","to":"1096199648","type":"model"},{"step":7,"from":"1093342360","to":"sdaReg7","type":"model"},{"step":8,"from":"1096199648","to":"1093342360","type":"model"},{"step":9,"from":"1096199648","to":"sdaReg7","type":"model"},{"step":10,"from":"1099725312","to":"1099705112","type":"load","field":"<java.util.TreeMap$Node: java.util.TreeMap$Node left>"},{"step":11,"from":"1099705112","to":"1093301176","type":"load","field":"<java.util.TreeMap$Node: java.lang.Object key>"},{"step":12,"from":"1093342360","to":"1093301176","type":"model"},{"step":13,"from":"1093342360","to":"sdaReg10","type":"model"},{"step":14,"from":"1093301176","to":"1093342360","type":"model"},{"step":15,"from":"1093301176","to":"sdaReg10","type":"model"},{"step":16,"from":"static.<java.util.TreeMap$2: int[] $SwitchMap$java$util$TreeMap$Relation>","to":"1085752200","type":"load","field":"<java.util.TreeMap$2: int[] $SwitchMap$java$util$TreeMap$Relation>"},{"step":17,"from":"1085724024","to":"sdaReg11","type":"model"},{"step":18,"from":"1085752200","to":"1085752200.arrayIdx_int:2","type":"load","field":"arrayIdx_int:2"}],"parameters":[{"id":"1099705064","name":"this","klass":"java.util.TreeMap"},{"id":"1093342360","name":"arg#1","klass":"java.lang.Object"}],"returns":[{"id":"sdaReg14","name":"return","klass":"boolean"}],"colors":{"heapLocToColor":{"1093342360":[1],"static.<java.util.TreeMap: java.util.Comparator NATURAL_ORDER>":[0, 3],"1093301176":[0, 1],"static.<java.util.TreeMap$Relation: java.util.TreeMap$Relation EQUAL>":[2],"1085752200.arrayIdx_int:2":[6],"sdaReg11":[2, 7],"1099705112":[0],"sdaReg10":[1, 5],"sdaReg8":[1, 4, 5],"sdaReg6":[1],"1099705064.<java.util.TreeMap: java.util.TreeMap$Node root>":[0],"sdaReg7":[1, 4],"sdaReg4":[2],"1085752200":[6],"sdaReg5":[1],"1099705064":[0],"1085724024":[2],"1096199648":[0, 1],"static.<java.util.TreeMap$2: int[] $SwitchMap$java$util$TreeMap$Relation>":[6],"1099725312":[0],"sdaReg3":[1],"sdaReg2":[0],"sdaReg1":[1],"sdaReg0":[0],"1083970648":[0, 3]},"colorToColor":{"0":[1, 4, 5],"1":[1, 4, 5]},"colorToLabel":{"0":"this","1":"arg#1","2":"<java.util.TreeMap$Relation: java.util.TreeMap$Relation EQUAL>","3":"<java.util.TreeMap: java.util.Comparator NATURAL_ORDER>","6":"<java.util.TreeMap$2: int[] $SwitchMap$java$util$TreeMap$Relation>","8":"return"}}}

Generated Model
	this->arg#1

