Scanning method <java.util.Formatter: void outputCharSequence(java.lang.CharSequence,int,int)>

All seen event types: MethodReturnRecord, MethodCallRecord, LoadInstanceRecord, 
Ignored event types: 

JSON Encoded Analysis Data (for visualization):{"heapEdges":[{"step":0,"from":"1093296216","to":"1093480968","type":"load","field":"<java.util.Formatter: java.lang.Appendable out>"},{"step":1,"from":"1093642472","to":"1093480968","type":"model"}],"parameters":[{"id":"1093296216","name":"this","klass":"java.util.Formatter"},{"id":"1093642472","name":"arg#1","klass":"java.lang.CharSequence"},{"id":"sdaReg0","name":"arg#2","klass":"int"},{"id":"sdaReg1","name":"arg#3","klass":"int"}],"returns":[{"id":null,"name":"return","klass":null}],"colors":{"heapLocToColor":{"1093480968":[0],"sdaReg1":[3],"1093296216":[0],"sdaReg0":[2],"1093642472":[1]},"colorToColor":{"1":[0]},"colorToLabel":{"0":"this","1":"arg#1","2":"arg#2","3":"arg#3","4":"return"}}}

Generated Model
	arg#1->this

