Scanning method <android.location.Address: void setLatitude(double)>

All seen event types: StoreInstanceRecord, 
Ignored event types: 

JSON Encoded Analysis Data (for visualization):{"heapEdges":[{"step":0,"from":"sdaReg0","to":"1093890656","type":"store","field":"<android.location.Address: double mLatitude>"},{"step":1,"from":"1093890656","to":"sdaReg1","type":"create","field":"<android.location.Address: boolean mHasLatitude>"}],"parameters":[{"id":"1093890656","name":"this","klass":"android.location.Address"},{"id":"sdaReg0","name":"arg#1","klass":"double"}],"returns":[{"id":null,"name":"return","klass":null}],"colors":{"heapLocToColor":{"1093890656":[0],"sdaReg0":[1]},"colorToColor":{"1":[0]},"colorToLabel":{"0":"this","1":"arg#1","2":"return"}}}

Generated Model
	arg#1->this

