Scanning method <java.io.ObjectInputStream: void resetState()>

All seen event types: LoadStaticRecord, MethodReturnRecord, MethodCallRecord, LoadInstanceRecord, MethodStartRecord, MethodEndRecord, StoreInstanceRecord, NewObjectRecord, 
Ignored event types: 

JSON Encoded Analysis Data (for visualization):{"heapEdges":[{"step":0,"from":"static.<libcore.util.EmptyArray: java.lang.Object[] OBJECT>","to":"1083994088","type":"load","field":"<libcore.util.EmptyArray: java.lang.Object[] OBJECT>"},{"step":1,"from":"1083994088","to":"1093548816","type":"store","field":"<java.util.ArrayList: java.lang.Object[] array>"},{"step":2,"from":"1093619504","to":"1093548816","type":"create","field":"<java.io.ObjectInputStream: java.util.ArrayList objectsRead>"},{"step":3,"from":"1093619504","to":"sdaReg8","type":"create","field":"<java.io.ObjectInputStream: int nextHandle>"},{"step":4,"from":"1093619504","to":"1093230200","type":"load","field":"<java.io.ObjectInputStream: java.io.InputStream emptyStream>"},{"step":5,"from":"1093230200","to":"1093619504","type":"store","field":"<java.io.ObjectInputStream: java.io.InputStream primitiveData>"},{"step":6,"from":"1093619504","to":"sdaReg9","type":"create","field":"<java.io.ObjectInputStream: boolean hasPushbackTC>"},{"step":7,"from":"1093619504","to":"sdaReg10","type":"create","field":"<java.io.ObjectInputStream: byte pushbackTC>"}],"parameters":[{"id":"1093619504","name":"this","klass":"java.io.ObjectInputStream"}],"returns":[{"id":null,"name":"return","klass":null}],"colors":{"heapLocToColor":{"1093230200":[0],"sdaReg6":[1],"sdaReg7":[1],"sdaReg4":[1],"sdaReg5":[1],"static.<libcore.util.EmptyArray: java.lang.Object[] OBJECT>":[2],"1083994088":[2],"1093619504":[0],"sdaReg3":[1],"1093548816":[1],"sdaReg2":[1],"sdaReg1":[1],"sdaReg0":[0]},"colorToColor":{"0":[0],"1":[0],"2":[1]},"colorToLabel":{"0":"this","2":"<libcore.util.EmptyArray: java.lang.Object[] OBJECT>","3":"return"}}}

Generated Model

