Scanning method <android.os.Bundle: boolean containsKey(java.lang.String)>

All seen event types: BinaryOperationRecord, MethodReturnRecord, MethodCallRecord, ArrayLengthRecord, LoadInstanceRecord, MethodStartRecord, LoadArrayRecord, MethodEndRecord, IfRecord, 
Ignored event types: IfRecord, 

JSON Encoded Analysis Data (for visualization):{"heapEdges":[{"step":0,"from":"1093536416","to":"1093415936","type":"load","field":"<android.os.Bundle: java.util.Map mMap>"},{"step":1,"from":"1093415936","to":"1094022184","type":"load","field":"<java.util.HashMap: java.util.HashMap$HashMapEntry[] table>"},{"step":2,"from":"1094022184","to":"1094022224","type":"load","field":"arrayIdx_int:2"},{"step":3,"from":"1094022224","to":"1093542888","type":"load","field":"<java.util.HashMap$HashMapEntry: java.lang.Object key>"}],"parameters":[{"id":"1093536416","name":"this","klass":"android.os.Bundle"},{"id":"sdaReg0","name":"arg#1","klass":"string"}],"returns":[{"id":"sdaReg15","name":"return","klass":"boolean"}],"colors":{"heapLocToColor":{"sdaReg8":[2],"1094022184":[0],"1093536416":[0],"sdaReg9":[2],"sdaReg6":[2],"sdaReg7":[2],"sdaReg4":[2],"sdaReg5":[2],"1093542888":[0],"sdaReg14":[2],"sdaReg11":[2],"sdaReg10":[2],"1093415936":[0],"sdaReg3":[2],"sdaReg2":[0],"sdaReg1":[0],"sdaReg0":[1],"1094022224":[0]},"colorToColor":{},"colorToLabel":{"0":"this","1":"arg#1","3":"return"}}}

Generated Model

