Scanning method <java.io.ObjectInputStream: void checkReadPrimitiveTypes()>

All seen event types: SimpleAssignmentRecord, LoadInstanceRecord, MethodStartRecord, IfRecord, StoreInstanceRecord, BinaryOperationRecord, MethodCallRecord, MethodReturnRecord, SwitchRecord, ArrayLengthRecord, CastRecord, LoadArrayRecord, MethodEndRecord, 
Ignored event types: SwitchRecord, IfRecord, 

JSON Encoded Analysis Data (for visualization):{"heapEdges":[{"step":0,"from":"1093467432","to":"1093666648","type":"load","field":"<java.io.ObjectInputStream: java.io.InputStream primitiveData>"},{"step":1,"from":"1093467432","to":"1093497528","type":"load","field":"<java.io.ObjectInputStream: java.io.DataInputStream input>"},{"step":2,"from":"1093467432","to":"1093666648","type":"load","field":"<java.io.ObjectInputStream: java.io.InputStream primitiveData>"},{"step":3,"from":"1093666648","to":"1093666648.<java.io.ByteArrayInputStream: int count>","type":"load","field":"<java.io.ByteArrayInputStream: int count>"},{"step":4,"from":"1093666648","to":"1093666648.<java.io.ByteArrayInputStream: int pos>","type":"load","field":"<java.io.ByteArrayInputStream: int pos>"},{"step":5,"from":"1093467432","to":"1093467432.<java.io.ObjectInputStream: boolean hasPushbackTC>","type":"load","field":"<java.io.ObjectInputStream: boolean hasPushbackTC>"},{"step":6,"from":"1093467432","to":"1093497528","type":"load","field":"<java.io.ObjectInputStream: java.io.DataInputStream input>"},{"step":7,"from":"1093497528","to":"1093266320","type":"load","field":"<java.io.FilterInputStream: java.io.InputStream in>"},{"step":8,"from":"1093266320","to":"1093266320.<java.io.PipedInputStream: boolean isConnected>","type":"load","field":"<java.io.PipedInputStream: boolean isConnected>"},{"step":9,"from":"1093266320","to":"1093271696","type":"load","field":"<java.io.PipedInputStream: byte[] buffer>"},{"step":10,"from":"1093266320","to":"1093451856","type":"create","field":"<java.io.PipedInputStream: java.lang.Thread lastReader>"},{"step":11,"from":"1093266320","to":"1093266320.<java.io.PipedInputStream: int in>","type":"load","field":"<java.io.PipedInputStream: int in>"},{"step":12,"from":"1093266320","to":"1093271696","type":"load","field":"<java.io.PipedInputStream: byte[] buffer>"},{"step":13,"from":"1093266320","to":"1093266320.<java.io.PipedInputStream: int out>","type":"load","field":"<java.io.PipedInputStream: int out>"},{"step":14,"from":"sdaReg7","to":"1093266320","type":"store","field":"<java.io.PipedInputStream: int out>"},{"step":15,"from":"1093271696","to":"1093271696.arrayIdx_int:105","type":"load","field":"arrayIdx_int:105"},{"step":16,"from":"1093266320","to":"1093271696","type":"load","field":"<java.io.PipedInputStream: byte[] buffer>"},{"step":17,"from":"1093266320","to":"1093266320.<java.io.PipedInputStream: int in>","type":"load","field":"<java.io.PipedInputStream: int in>"},{"step":18,"from":"sdaReg10","to":"1093467432","type":"store","field":"<java.io.ObjectInputStream: byte pushbackTC>"},{"step":19,"from":"1093467432","to":"sdaReg12","type":"create","field":"<java.io.ObjectInputStream: boolean hasPushbackTC>"}],"parameters":[{"id":"1093467432","name":"this","klass":"java.io.ObjectInputStream"}],"returns":[{"id":null,"name":"return","klass":null}],"colors":{"heapLocToColor":{"1093266320.<java.io.PipedInputStream: byte[] buffer>":[0],"1093666648.<java.io.ByteArrayInputStream: int pos>":[0],"1093467432.<java.io.ObjectInputStream: java.io.DataInputStream input>":[0],"1093467432.<java.io.ObjectInputStream: boolean hasPushbackTC>":[0],"1093666648.<java.io.ByteArrayInputStream: int count>":[0],"sdaReg11":[0],"1093497528":[0],"1093266320.<java.io.PipedInputStream: boolean isConnected>":[0],"sdaReg10":[0],"1093266320.<java.io.PipedInputStream: int out>":[0],"1093271696.arrayIdx_int:105":[0],"sdaReg8":[0],"sdaReg7":[0],"sdaReg4":[0],"sdaReg5":[1],"1093451856":[1],"1093266320":[0],"1093266320.<java.io.PipedInputStream: int in>":[0],"1093271696":[0],"1093467432.<java.io.ObjectInputStream: java.io.InputStream primitiveData>":[0],"sdaReg3":[0],"1093467432":[0],"sdaReg1":[0],"sdaReg0":[0],"1093666648":[0]},"colorToColor":{"0":[0],"1":[0]},"colorToLabel":{"0":"this","2":"return"}}}

Generated Model

