Scanning method <java.io.PrintWriter: java.io.PrintWriter format(java.util.Locale,java.lang.String,java.lang.Object[])>

All seen event types: SimpleAssignmentRecord, ExitMonitorRecord, MethodStartRecord, LoadInstanceRecord, IfRecord, InstanceOfRecord, NewObjectRecord, StoreInstanceRecord, LoadStaticRecord, BinaryOperationRecord, SwitchRecord, MethodCallRecord, MethodReturnRecord, EnterMonitorRecord, CastRecord, ArrayLengthRecord, LoadArrayRecord, MethodEndRecord, 
Ignored event types: SwitchRecord, ExitMonitorRecord, EnterMonitorRecord, IfRecord, 

JSON Encoded Analysis Data (for visualization):{"heapEdges":[{"step":0,"from":"1093675840","to":"sdaReg5","type":"create","field":"<java.util.Formatter: boolean closed>"},{"step":1,"from":"1093610048","to":"1093675840","type":"store","field":"<java.util.Formatter: java.lang.Appendable out>"},{"step":2,"from":"1093256752","to":"1093675840","type":"store","field":"<java.util.Formatter: java.util.Locale locale>"},{"step":3,"from":"1093256752","to":"1093675840","type":"store","field":"<java.util.Formatter: java.util.Locale locale>"},{"step":4,"from":"1093256752","to":"1093256752.<java.util.Locale: java.lang.String cachedToStringResult>","type":"load","field":"<java.util.Locale: java.lang.String cachedToStringResult>"},{"step":5,"from":"static.<libcore.icu.LocaleData: java.util.HashMap localeDataCache>","to":"1085803528","type":"load","field":"<libcore.icu.LocaleData: java.util.HashMap localeDataCache>"},{"step":6,"from":"static.<libcore.icu.LocaleData: java.util.HashMap localeDataCache>","to":"1085803528","type":"load","field":"<libcore.icu.LocaleData: java.util.HashMap localeDataCache>"},{"step":7,"from":"1085803528","to":"1085760672","type":"load","field":"<java.util.HashMap: java.util.HashMap$HashMapEntry[] table>"},{"step":8,"from":"1085760672","to":"1085767472","type":"load","field":"arrayIdx_int:0"},{"step":9,"from":"1085767472","to":"1085760768","type":"load","field":"<java.util.HashMap$HashMapEntry: java.lang.Object key>"},{"step":10,"from":"1085767472","to":"1085767472.<java.util.HashMap$HashMapEntry: int hash>","type":"load","field":"<java.util.HashMap$HashMapEntry: int hash>"},{"step":11,"from":"1085767472","to":"1085769600","type":"load","field":"<java.util.HashMap$HashMapEntry: java.lang.Object value>"},{"step":12,"from":"1085769600","to":"1093675840","type":"store","field":"<java.util.Formatter: libcore.icu.LocaleData localeData>"},{"step":13,"from":"sdaReg0","to":"1093686344","type":"store","field":"<java.util.Formatter$FormatSpecifierParser: java.lang.String format>"},{"step":14,"from":"sdaReg39","to":"1093686344","type":"store","field":"<java.util.Formatter$FormatSpecifierParser: int length>"},{"step":15,"from":"sdaReg51","to":"1093686344","type":"store","field":"<java.util.Formatter$FormatSpecifierParser: int startIndex>"},{"step":16,"from":"sdaReg51","to":"1093686344","type":"store","field":"<java.util.Formatter$FormatSpecifierParser: int i>"},{"step":17,"from":"1093686568","to":"sdaReg56","type":"create","field":"<java.util.Formatter$FormatToken: int argIndex>"},{"step":18,"from":"1093686568","to":"sdaReg57","type":"create","field":"<java.util.Formatter$FormatToken: char conversionType>"},{"step":19,"from":"1093686568","to":"sdaReg58","type":"create","field":"<java.util.Formatter$FormatToken: int precision>"},{"step":20,"from":"1093686568","to":"sdaReg59","type":"create","field":"<java.util.Formatter$FormatToken: int width>"},{"step":21,"from":"sdaReg78","to":"1093686344","type":"store","field":"<java.util.Formatter$FormatSpecifierParser: int i>"},{"step":22,"from":"sdaReg79","to":"1093686568","type":"store","field":"<java.util.Formatter$FormatToken: char conversionType>"},{"step":23,"from":"1093675424","to":"1093675456","type":"load","field":"arrayIdx_int:0"},{"step":24,"from":"1093675840","to":"1093686568","type":"create","field":"<java.util.Formatter: java.util.Formatter$FormatToken formatToken>"},{"step":25,"from":"1093675456","to":"1093675840","type":"store","field":"<java.util.Formatter: java.lang.Object arg>"},{"step":26,"from":"1093686568","to":"1093686568.<java.util.Formatter$FormatToken: boolean flagComma>","type":"load","field":"<java.util.Formatter$FormatToken: boolean flagComma>"},{"step":27,"from":"1093686568","to":"1093686568.<java.util.Formatter$FormatToken: boolean flagMinus>","type":"load","field":"<java.util.Formatter$FormatToken: boolean flagMinus>"},{"step":28,"from":"1093686568","to":"1093686568.<java.util.Formatter$FormatToken: boolean flagParenthesis>","type":"load","field":"<java.util.Formatter$FormatToken: boolean flagParenthesis>"},{"step":29,"from":"1093686568","to":"1093686568.<java.util.Formatter$FormatToken: boolean flagPlus>","type":"load","field":"<java.util.Formatter$FormatToken: boolean flagPlus>"},{"step":30,"from":"1093686568","to":"1093686568.<java.util.Formatter$FormatToken: boolean flagSharp>","type":"load","field":"<java.util.Formatter$FormatToken: boolean flagSharp>"},{"step":31,"from":"1093686568","to":"1093686568.<java.util.Formatter$FormatToken: boolean flagSpace>","type":"load","field":"<java.util.Formatter$FormatToken: boolean flagSpace>"},{"step":32,"from":"1093686568","to":"1093686568.<java.util.Formatter$FormatToken: boolean flagZero>","type":"load","field":"<java.util.Formatter$FormatToken: boolean flagZero>"},{"step":33,"from":"1093675456","to":"sdaReg105","type":"model"},{"step":34,"from":"1093675456","to":"sdaReg116","type":"model"},{"step":35,"from":"sdaReg116","to":"sdaReg121","type":"model"},{"step":36,"from":"sdaReg121","to":"1093410888","type":"model"},{"step":37,"from":"1093610048","to":"1093610080","type":"load","field":"<java.io.Writer: java.lang.Object lock>"},{"step":38,"from":"1093610048","to":"1093610080","type":"load","field":"<java.io.PrintWriter: java.io.Writer out>"},{"step":39,"from":"1093610048","to":"1093610080","type":"load","field":"<java.io.PrintWriter: java.io.Writer out>"},{"step":40,"from":"1093610080","to":"1093609872","type":"load","field":"<java.io.Writer: java.lang.Object lock>"},{"step":41,"from":"1093610080","to":"1093628896","type":"load","field":"<java.io.OutputStreamWriter: java.nio.charset.CharsetEncoder encoder>"},{"step":42,"from":"1093291160","to":"sdaReg155","type":"create","field":"<java.nio.Buffer: int mark>"},{"step":43,"from":"1093291160","to":"sdaReg156","type":"create","field":"<java.nio.Buffer: int position>"},{"step":44,"from":"1093291160","to":"sdaReg153","type":"create","field":"<java.nio.Buffer: int _elementSizeShift>"},{"step":45,"from":"sdaReg147","to":"1093291160","type":"store","field":"<java.nio.Buffer: int limit>"},{"step":46,"from":"sdaReg147","to":"1093291160","type":"store","field":"<java.nio.Buffer: int capacity>"},{"step":47,"from":"1093291160","to":"1093410888","type":"create","field":"<java.nio.CharArrayBuffer: char[] backingArray>"},{"step":48,"from":"1093291160","to":"sdaReg150","type":"create","field":"<java.nio.CharArrayBuffer: int offset>"},{"step":49,"from":"1093291160","to":"sdaReg128","type":"create","field":"<java.nio.Buffer: int position>"},{"step":50,"from":"sdaReg163","to":"1093291160","type":"store","field":"<java.nio.Buffer: int limit>"},{"step":51,"from":"1093610080","to":"1093628896","type":"load","field":"<java.io.OutputStreamWriter: java.nio.charset.CharsetEncoder encoder>"},{"step":52,"from":"1093610080","to":"1093610112","type":"load","field":"<java.io.OutputStreamWriter: java.nio.ByteBuffer bytes>"},{"step":53,"from":"1093628896","to":"1093291160","type":"model"},{"step":54,"from":"1093628896","to":"1093610112","type":"model"},{"step":55,"from":"1093628896","to":"1084215096","type":"model"},{"step":56,"from":"1093291160","to":"1093628896","type":"model"},{"step":57,"from":"1093291160","to":"1093610112","type":"model"},{"step":58,"from":"1093291160","to":"1084215096","type":"model"},{"step":59,"from":"1093610112","to":"1093628896","type":"model"},{"step":60,"from":"1093610112","to":"1093291160","type":"model"},{"step":61,"from":"1093610112","to":"1084215096","type":"model"},{"step":62,"from":"1084215096","to":"1084215096.<java.nio.charset.CoderResult: int type>","type":"load","field":"<java.nio.charset.CoderResult: int type>"},{"step":63,"from":"1084215096","to":"1084215096.<java.nio.charset.CoderResult: int type>","type":"load","field":"<java.nio.charset.CoderResult: int type>"},{"step":64,"from":"1084215096","to":"1084215096.<java.nio.charset.CoderResult: int type>","type":"load","field":"<java.nio.charset.CoderResult: int type>"},{"step":65,"from":"1093675840","to":"sdaReg0","type":"model"},{"step":66,"from":"1093675840","to":"sdaReg47","type":"model"},{"step":67,"from":"1093675840","to":"sdaReg50","type":"model"},{"step":68,"from":"sdaReg0","to":"1093675840","type":"model"},{"step":69,"from":"sdaReg0","to":"sdaReg47","type":"model"},{"step":70,"from":"sdaReg0","to":"sdaReg50","type":"model"},{"step":71,"from":"sdaReg47","to":"1093675840","type":"model"},{"step":72,"from":"sdaReg47","to":"sdaReg0","type":"model"},{"step":73,"from":"sdaReg47","to":"sdaReg50","type":"model"},{"step":74,"from":"sdaReg50","to":"1093675840","type":"model"},{"step":75,"from":"sdaReg50","to":"sdaReg0","type":"model"},{"step":76,"from":"sdaReg50","to":"sdaReg47","type":"model"},{"step":77,"from":"sdaReg51","to":"1093686344","type":"store","field":"<java.util.Formatter$FormatSpecifierParser: int startIndex>"},{"step":78,"from":"sdaReg51","to":"1093686344","type":"store","field":"<java.util.Formatter$FormatSpecifierParser: int i>"},{"step":79,"from":"1093444736","to":"sdaReg180","type":"create","field":"<java.util.Formatter$FormatToken: int argIndex>"},{"step":80,"from":"1093444736","to":"sdaReg181","type":"create","field":"<java.util.Formatter$FormatToken: char conversionType>"},{"step":81,"from":"1093444736","to":"sdaReg182","type":"create","field":"<java.util.Formatter$FormatToken: int precision>"},{"step":82,"from":"1093444736","to":"sdaReg183","type":"create","field":"<java.util.Formatter$FormatToken: int width>"},{"step":83,"from":"sdaReg202","to":"1093686344","type":"store","field":"<java.util.Formatter$FormatSpecifierParser: int i>"},{"step":84,"from":"sdaReg203","to":"1093444736","type":"store","field":"<java.util.Formatter$FormatToken: char conversionType>"},{"step":85,"from":"1093675424","to":"1093675552","type":"load","field":"arrayIdx_int:1"},{"step":86,"from":"1093675840","to":"1093444736","type":"create","field":"<java.util.Formatter: java.util.Formatter$FormatToken formatToken>"},{"step":87,"from":"1093675552","to":"1093675840","type":"store","field":"<java.util.Formatter: java.lang.Object arg>"},{"step":88,"from":"1093444736","to":"1093444736.<java.util.Formatter$FormatToken: boolean flagComma>","type":"load","field":"<java.util.Formatter$FormatToken: boolean flagComma>"},{"step":89,"from":"1093444736","to":"1093444736.<java.util.Formatter$FormatToken: boolean flagMinus>","type":"load","field":"<java.util.Formatter$FormatToken: boolean flagMinus>"},{"step":90,"from":"1093444736","to":"1093444736.<java.util.Formatter$FormatToken: boolean flagParenthesis>","type":"load","field":"<java.util.Formatter$FormatToken: boolean flagParenthesis>"},{"step":91,"from":"1093444736","to":"1093444736.<java.util.Formatter$FormatToken: boolean flagPlus>","type":"load","field":"<java.util.Formatter$FormatToken: boolean flagPlus>"},{"step":92,"from":"1093444736","to":"1093444736.<java.util.Formatter$FormatToken: boolean flagSharp>","type":"load","field":"<java.util.Formatter$FormatToken: boolean flagSharp>"},{"step":93,"from":"1093444736","to":"1093444736.<java.util.Formatter$FormatToken: boolean flagSpace>","type":"load","field":"<java.util.Formatter$FormatToken: boolean flagSpace>"},{"step":94,"from":"1093444736","to":"1093444736.<java.util.Formatter$FormatToken: boolean flagZero>","type":"load","field":"<java.util.Formatter$FormatToken: boolean flagZero>"},{"step":95,"from":"1093675552","to":"sdaReg226","type":"model"},{"step":96,"from":"1093675552","to":"sdaReg237","type":"model"},{"step":97,"from":"sdaReg237","to":"sdaReg242","type":"model"},{"step":98,"from":"sdaReg242","to":"1093686152","type":"model"},{"step":99,"from":"1093610048","to":"1093610080","type":"load","field":"<java.io.Writer: java.lang.Object lock>"},{"step":100,"from":"1093610048","to":"1093610080","type":"load","field":"<java.io.PrintWriter: java.io.Writer out>"},{"step":101,"from":"1093610048","to":"1093610080","type":"load","field":"<java.io.PrintWriter: java.io.Writer out>"},{"step":102,"from":"1093610080","to":"1093609872","type":"load","field":"<java.io.Writer: java.lang.Object lock>"},{"step":103,"from":"1093610080","to":"1093628896","type":"load","field":"<java.io.OutputStreamWriter: java.nio.charset.CharsetEncoder encoder>"},{"step":104,"from":"1093686184","to":"sdaReg276","type":"create","field":"<java.nio.Buffer: int mark>"},{"step":105,"from":"1093686184","to":"sdaReg277","type":"create","field":"<java.nio.Buffer: int position>"},{"step":106,"from":"1093686184","to":"sdaReg274","type":"create","field":"<java.nio.Buffer: int _elementSizeShift>"},{"step":107,"from":"sdaReg268","to":"1093686184","type":"store","field":"<java.nio.Buffer: int limit>"},{"step":108,"from":"sdaReg268","to":"1093686184","type":"store","field":"<java.nio.Buffer: int capacity>"},{"step":109,"from":"1093686184","to":"1093686152","type":"create","field":"<java.nio.CharArrayBuffer: char[] backingArray>"},{"step":110,"from":"1093686184","to":"sdaReg271","type":"create","field":"<java.nio.CharArrayBuffer: int offset>"},{"step":111,"from":"1093686184","to":"sdaReg249","type":"create","field":"<java.nio.Buffer: int position>"},{"step":112,"from":"sdaReg284","to":"1093686184","type":"store","field":"<java.nio.Buffer: int limit>"},{"step":113,"from":"1093610080","to":"1093628896","type":"load","field":"<java.io.OutputStreamWriter: java.nio.charset.CharsetEncoder encoder>"},{"step":114,"from":"1093610080","to":"1093610112","type":"load","field":"<java.io.OutputStreamWriter: java.nio.ByteBuffer bytes>"},{"step":115,"from":"1093628896","to":"1093686184","type":"model"},{"step":116,"from":"1093628896","to":"1093610112","type":"model"},{"step":117,"from":"1093628896","to":"1084215096","type":"model"},{"step":118,"from":"1093686184","to":"1093628896","type":"model"},{"step":119,"from":"1093686184","to":"1093610112","type":"model"},{"step":120,"from":"1093686184","to":"1084215096","type":"model"},{"step":121,"from":"1093610112","to":"1093628896","type":"model"},{"step":122,"from":"1093610112","to":"1093686184","type":"model"},{"step":123,"from":"1093610112","to":"1084215096","type":"model"},{"step":124,"from":"1084215096","to":"1084215096.<java.nio.charset.CoderResult: int type>","type":"load","field":"<java.nio.charset.CoderResult: int type>"},{"step":125,"from":"1084215096","to":"1084215096.<java.nio.charset.CoderResult: int type>","type":"load","field":"<java.nio.charset.CoderResult: int type>"},{"step":126,"from":"1084215096","to":"1084215096.<java.nio.charset.CoderResult: int type>","type":"load","field":"<java.nio.charset.CoderResult: int type>"},{"step":127,"from":"1093256752","to":"1093675840","type":"store","field":"<java.util.Formatter: java.util.Locale locale>"},{"step":128,"from":"1093610048","to":"1093610048.<java.io.PrintWriter: boolean autoFlush>","type":"load","field":"<java.io.PrintWriter: boolean autoFlush>"}],"parameters":[{"id":"1093610048","name":"this","klass":"java.io.PrintWriter"},{"id":"1093256752","name":"arg#1","klass":"java.util.Locale"},{"id":"sdaReg0","name":"arg#2","klass":"string"},{"id":"1093675424","name":"arg#3","klass":"java.lang.Object[]"}],"returns":[{"id":"1093610048","name":"return","klass":"java.io.PrintWriter"}],"colors":{"heapLocToColor":{"sdaReg294":[8],"sdaReg191":[8],"sdaReg293":[0],"sdaReg190":[30],"sdaReg296":[4],"sdaReg193":[28],"sdaReg192":[31],"1093444736.<java.util.Formatter$FormatToken: boolean flagPlus>":[28],"sdaReg199":[8],"sdaReg198":[33],"1093444736.<java.util.Formatter$FormatToken: boolean flagZero>":[28],"1093686568.<java.util.Formatter$FormatToken: boolean flagMinus>":[12],"1093686568.<java.util.Formatter$FormatToken: boolean flagPlus>":[12],"sdaReg197":[32],"sdaReg291":[0, 26],"sdaReg196":[8],"sdaReg13":[1],"sdaReg14":[1],"1093675552":[3],"sdaReg11":[3],"1093675456":[3],"sdaReg12":[1],"1093610112":[0],"sdaReg10":[1],"sdaReg19":[6],"sdaReg17":[5],"sdaReg18":[6],"sdaReg15":[1],"sdaReg16":[5],"1093675840":[4],"1093610048.<java.io.PrintWriter: boolean autoFlush>":[0],"1093686568.<java.util.Formatter$FormatToken: boolean flagSpace>":[12],"1093610048.<java.io.PrintWriter: java.io.Writer out>":[0],"1093256752":[1],"sdaReg170":[0, 26],"sdaReg173":[8],"sdaReg172":[0],"sdaReg175":[27],"sdaReg174":[4, 27, 11],"sdaReg177":[28],"sdaReg176":[8],"sdaReg179":[28],"1093291160":[0, 25],"sdaReg178":[28],"static.<libcore.icu.LocaleData: java.util.HashMap localeDataCache>":[5],"1093444736.<java.util.Formatter$FormatToken: boolean flagSharp>":[28],"sdaReg186":[8],"sdaReg185":[28],"sdaReg184":[28],"sdaReg189":[29],"sdaReg188":[8],"sdaReg187":[28],"1093675424":[3],"1093444736.<java.util.Formatter$FormatToken: boolean flagParenthesis>":[28],"sdaReg60":[12],"sdaReg61":[12],"1093686344":[8],"sdaReg55":[12],"sdaReg54":[12],"sdaReg53":[12],"sdaReg52":[8],"sdaReg51":[4, 27, 11],"sdaReg50":[4, 27, 11],"sdaReg49":[27, 11],"sdaReg48":[11],"sdaReg45":[10],"sdaReg47":[4],"sdaReg46":[11],"sdaReg41":[8],"sdaReg40":[8],"sdaReg43":[3],"sdaReg200":[28],"sdaReg201":[8],"sdaReg205":[28],"sdaReg39":[9],"sdaReg204":[28],"sdaReg38":[8],"sdaReg203":[34],"sdaReg37":[8],"sdaReg208":[28],"sdaReg207":[28],"sdaReg206":[28],"sdaReg32":[5],"sdaReg31":[5],"sdaReg30":[7],"1084215096.<java.nio.charset.CoderResult: int type>":[0, 26],"sdaReg36":[4],"sdaReg35":[3],"sdaReg34":[4],"sdaReg33":[5],"sdaReg8":[3],"sdaReg9":[4],"sdaReg6":[4],"sdaReg7":[4],"sdaReg4":[4],"1093686568.<java.util.Formatter$FormatToken: boolean flagParenthesis>":[12],"1093610080.<java.io.Writer: java.lang.Object lock>":[0],"sdaReg26":[6],"sdaReg29":[6],"sdaReg3":[1],"sdaReg2":[0],"sdaReg1":[4],"sdaReg21":[6],"sdaReg0":[2, 4],"sdaReg20":[6],"sdaReg23":[6],"sdaReg22":[6],"sdaReg25":[6],"sdaReg24":[6],"sdaReg126":[0],"sdaReg127":[3, 21, 23, 24],"1093686184":[0, 41],"sdaReg129":[0],"1093444736.<java.util.Formatter$FormatToken: boolean flagMinus>":[28],"sdaReg228":[36],"sdaReg68":[15],"1093628896":[0],"sdaReg229":[4],"sdaReg69":[12],"sdaReg66":[14],"sdaReg67":[8],"sdaReg64":[8],"sdaReg65":[13],"sdaReg226":[35, 3],"sdaReg62":[8],"sdaReg227":[3],"sdaReg63":[12],"sdaReg221":[28],"sdaReg72":[8],"sdaReg220":[3],"sdaReg223":[28],"sdaReg120":[22],"1093610080.<java.io.OutputStreamWriter: java.nio.ByteBuffer bytes>":[0],"1093444736.<java.util.Formatter$FormatToken: boolean flagSpace>":[28],"1093686568.<java.util.Formatter$FormatToken: boolean flagComma>":[12],"sdaReg122":[3, 21, 23, 24],"1093610080":[0],"sdaReg121":[3, 21, 23],"sdaReg124":[3, 21, 23, 24],"sdaReg123":[0],"sdaReg116":[3, 21],"sdaReg117":[22],"sdaReg114":[3],"sdaReg115":[3],"sdaReg118":[0],"sdaReg219":[28],"sdaReg77":[8],"sdaReg217":[3],"sdaReg79":[18],"1093686568.<java.util.Formatter$FormatToken: boolean flagSharp>":[12],"sdaReg218":[4],"sdaReg215":[3],"sdaReg73":[16],"sdaReg74":[17],"sdaReg213":[3],"sdaReg75":[8],"sdaReg214":[8],"sdaReg76":[12],"sdaReg212":[4],"sdaReg81":[12],"sdaReg80":[12],"sdaReg210":[28],"sdaReg83":[12],"sdaReg82":[12],"1084215096":[0, 26],"sdaReg113":[0],"1093609872":[0],"sdaReg112":[3],"1093410888":[3, 21, 23, 24],"sdaReg111":[0],"sdaReg107":[20],"sdaReg108":[4],"sdaReg109":[3],"1085760672":[5],"1093686568.<java.util.Formatter$FormatToken: boolean flagZero>":[12],"sdaReg105":[19, 3],"sdaReg106":[3],"sdaReg247":[0],"sdaReg87":[12],"sdaReg248":[3, 39, 37, 40],"sdaReg85":[12],"1093610048.<java.io.Writer: java.lang.Object lock>":[0],"sdaReg241":[38],"sdaReg243":[3, 39, 37, 40],"sdaReg242":[3, 39, 37],"sdaReg93":[8],"sdaReg245":[3, 39, 37, 40],"sdaReg92":[3],"sdaReg244":[0],"sdaReg91":[4],"sdaReg100":[12],"sdaReg102":[12],"1093256752.<java.util.Locale: java.lang.String cachedToStringResult>":[1],"1085767472":[5],"1093686152":[3, 39, 37, 40],"sdaReg237":[3, 37],"sdaReg238":[38],"sdaReg96":[3],"sdaReg235":[3],"sdaReg97":[4],"sdaReg236":[3],"sdaReg98":[12],"sdaReg99":[3],"sdaReg239":[0],"1093444736.<java.util.Formatter$FormatToken: boolean flagComma>":[28],"sdaReg230":[3],"sdaReg234":[0],"sdaReg233":[3],"sdaReg232":[0],"1093686568":[12],"1085760768":[5],"1093610048":[0],"sdaReg269":[41],"sdaReg161":[25],"sdaReg162":[25],"sdaReg164":[25],"sdaReg165":[0],"sdaReg166":[25],"sdaReg167":[0, 26],"1093610080.<java.io.OutputStreamWriter: java.nio.charset.CharsetEncoder encoder>":[0],"sdaReg168":[0, 26],"sdaReg264":[41],"sdaReg265":[3, 39, 37, 40],"sdaReg266":[41],"sdaReg267":[3, 39, 37, 40],"sdaReg260":[3, 39, 37, 40],"sdaReg160":[25],"sdaReg159":[25],"sdaReg158":[25],"sdaReg152":[25],"sdaReg151":[25],"1085767472.<java.util.HashMap$HashMapEntry: int hash>":[5],"sdaReg157":[25],"sdaReg154":[25],"sdaReg255":[0],"sdaReg256":[0],"sdaReg253":[0],"sdaReg254":[3, 39, 37, 40],"sdaReg251":[3, 39, 37, 40],"sdaReg252":[0],"sdaReg250":[0],"sdaReg148":[25],"sdaReg149":[3, 21, 23, 24],"sdaReg143":[25],"sdaReg144":[3, 21, 23, 24],"sdaReg145":[25],"sdaReg146":[3, 21, 23, 24],"sdaReg280":[41],"sdaReg281":[41],"sdaReg282":[41],"sdaReg283":[41],"sdaReg285":[41],"sdaReg286":[0],"sdaReg287":[41],"sdaReg288":[0, 26],"sdaReg289":[0, 26],"sdaReg279":[41],"1093444736":[28],"1085803528":[5],"sdaReg139":[3, 21, 23, 24],"sdaReg135":[0],"sdaReg132":[0],"sdaReg133":[3, 21, 23, 24],"sdaReg130":[3, 21, 23, 24],"sdaReg270":[3, 39, 37, 40],"sdaReg273":[41],"1085769600":[5],"sdaReg272":[41],"sdaReg278":[41],"sdaReg275":[41]},"colorToColor":{"34":[28],"0":[0, 4, 42, 25, 41, 26],"1":[4],"2":[4, 8, 27, 11],"3":[4, 25, 41],"4":[2, 4, 8, 27, 11],"39":[41],"5":[4],"37":[41],"9":[8],"40":[41],"41":[0, 26],"11":[2, 4, 8],"12":[4],"18":[12],"21":[25],"23":[25],"25":[0, 26],"24":[25],"27":[2, 4, 8],"28":[4]},"colorToLabel":{"0":"this","1":"arg#1","2":"arg#2","3":"arg#3","5":"<libcore.icu.LocaleData: java.util.HashMap localeDataCache>","42":"return"}}}

Generated Model
	this->return
	this->arg#2
	arg#3->this
	arg#3->return
	arg#3->arg#2
	arg#1->arg#2

