Scanning method <java.util.HashMap$KeySet: void <init>(java.util.HashMap,java.util.HashMap$1)>

All seen event types: MethodReturnRecord, MethodCallRecord, MethodStartRecord, MethodEndRecord, StoreInstanceRecord, 
Ignored event types: 

JSON Encoded Analysis Data (for visualization):{"heapEdges":[{"step":0,"from":"1093575832","to":"1093654696","type":"store","field":"<java.util.HashMap$KeySet: java.util.HashMap this$0>"}],"parameters":[{"id":"1093654696","name":"this","klass":"java.util.HashMap$KeySet"},{"id":"1093575832","name":"arg#1","klass":"java.util.HashMap"},{"id":"0","name":"arg#2","klass":"java.util.HashMap$1"}],"returns":[{"id":"1093654696","name":"return","klass":"java.util.HashMap$KeySet"}],"colors":{"heapLocToColor":{"0":[2],"sdaReg6":[0],"sdaReg7":[0],"sdaReg4":[0],"sdaReg5":[0],"sdaReg3":[0],"sdaReg2":[0],"sdaReg1":[1],"1093654696":[0],"sdaReg0":[0],"1093575832":[1]},"colorToColor":{"0":[3],"1":[0]},"colorToLabel":{"0":"this","1":"arg#1","2":"arg#2","3":"return"}}}

Generated Model
	this->return
	arg#1->this
	arg#1->return

