Scanning method <java.util.HashMap$HashMapEntry: java.lang.Object getKey()>

All seen event types: LoadInstanceRecord, 
Ignored event types: 

JSON Encoded Analysis Data (for visualization):{"heapEdges":[{"step":0,"from":"1093575520","to":"1093557808","type":"load","field":"<java.util.HashMap$HashMapEntry: java.lang.Object key>"}],"parameters":[{"id":"1093575520","name":"this","klass":"java.util.HashMap$HashMapEntry"}],"returns":[{"id":"1093557808","name":"return","klass":"java.lang.Object"}],"colors":{"heapLocToColor":{"1093557808":[0],"1093575520":[0]},"colorToColor":{"0":[1]},"colorToLabel":{"0":"this","1":"return"}}}

Generated Model
	this->return

