Scanning method <android.os.Bundle: void remove(java.lang.String)>

All seen event types: BinaryOperationRecord, SimpleAssignmentRecord, MethodReturnRecord, MethodCallRecord, ArrayLengthRecord, LoadInstanceRecord, MethodStartRecord, LoadArrayRecord, MethodEndRecord, IfRecord, StoreInstanceRecord, 
Ignored event types: IfRecord, 

JSON Encoded Analysis Data (for visualization):{"heapEdges":[{"step":0,"from":"1093620424","to":"1093614768","type":"load","field":"<android.os.Bundle: java.util.Map mMap>"},{"step":1,"from":"1093614768","to":"1093791048","type":"load","field":"<java.util.HashMap: java.util.HashMap$HashMapEntry[] table>"},{"step":2,"from":"1093791048","to":"1093814992","type":"load","field":"arrayIdx_int:3"},{"step":3,"from":"1093814992","to":"1093814992.<java.util.HashMap$HashMapEntry: int hash>","type":"load","field":"<java.util.HashMap$HashMapEntry: int hash>"},{"step":4,"from":"1093814992","to":"1093864016","type":"load","field":"<java.util.HashMap$HashMapEntry: java.util.HashMap$HashMapEntry next>"},{"step":5,"from":"1093864016","to":"1093864016.<java.util.HashMap$HashMapEntry: int hash>","type":"load","field":"<java.util.HashMap$HashMapEntry: int hash>"},{"step":6,"from":"1093864016","to":"1093426616","type":"load","field":"<java.util.HashMap$HashMapEntry: java.lang.Object key>"},{"step":7,"from":"1093614768","to":"1093614768.<java.util.HashMap: int modCount>","type":"load","field":"<java.util.HashMap: int modCount>"},{"step":8,"from":"sdaReg17","to":"1093614768","type":"store","field":"<java.util.HashMap: int modCount>"},{"step":9,"from":"1093614768","to":"1093614768.<java.util.HashMap: int size>","type":"load","field":"<java.util.HashMap: int size>"},{"step":10,"from":"sdaReg18","to":"1093614768","type":"store","field":"<java.util.HashMap: int size>"},{"step":11,"from":"1093864016","to":"1085837744","type":"load","field":"<java.util.HashMap$HashMapEntry: java.lang.Object value>"}],"parameters":[{"id":"1093620424","name":"this","klass":"android.os.Bundle"},{"id":"sdaReg0","name":"arg#1","klass":"string"}],"returns":[{"id":null,"name":"return","klass":null}],"colors":{"heapLocToColor":{"1093614768.<java.util.HashMap: int modCount>":[0],"1093864016.<java.util.HashMap$HashMapEntry: int hash>":[0],"sdaReg14":[2],"sdaReg11":[2],"1093814992.<java.util.HashMap$HashMapEntry: int hash>":[0],"sdaReg10":[2],"sdaReg19":[0],"sdaReg17":[0],"sdaReg18":[0],"1093814992":[0],"1093614768.<java.util.HashMap: int size>":[0],"sdaReg16":[3],"1093614768":[0],"sdaReg8":[2],"sdaReg9":[2],"sdaReg6":[2],"sdaReg7":[2],"1093426616":[0],"sdaReg4":[2],"sdaReg5":[2],"1093791048":[0],"1093864016":[0],"1085837744":[0],"1093620424":[0],"sdaReg3":[2],"sdaReg2":[0],"sdaReg1":[0],"sdaReg20":[0],"sdaReg0":[1]},"colorToColor":{"0":[0]},"colorToLabel":{"0":"this","1":"arg#1","4":"return"}}}

Generated Model

