Scanning method <java.io.InputStream: void <init>()>

All seen event types: MethodReturnRecord, MethodCallRecord, 
Ignored event types: 

JSON Encoded Analysis Data (for visualization):{"heapEdges":[],"parameters":[{"id":"1093467720","name":"this","klass":"java.io.InputStream"}],"returns":[{"id":"1093467720","name":"return","klass":"java.io.InputStream"}],"colors":{"heapLocToColor":{"sdaReg0":[0],"1093467720":[0]},"colorToColor":{"0":[1]},"colorToLabel":{"0":"this","1":"return"}}}

Generated Model
	this->return

