Scanning method <java.util.TreeMap$KeySet: void <init>(java.util.TreeMap)>

All seen event types: MethodReturnRecord, MethodCallRecord, MethodStartRecord, MethodEndRecord, StoreInstanceRecord, 
Ignored event types: 

JSON Encoded Analysis Data (for visualization):{"heapEdges":[{"step":0,"from":"1093575680","to":"1093647432","type":"store","field":"<java.util.TreeMap$KeySet: java.util.TreeMap this$0>"}],"parameters":[{"id":"1093647432","name":"this","klass":"java.util.TreeMap$KeySet"},{"id":"1093575680","name":"arg#1","klass":"java.util.TreeMap"}],"returns":[{"id":"1093647432","name":"return","klass":"java.util.TreeMap$KeySet"}],"colors":{"heapLocToColor":{"1093575680":[1],"sdaReg4":[0],"sdaReg3":[0],"sdaReg2":[0],"sdaReg1":[0],"sdaReg0":[0],"1093647432":[0]},"colorToColor":{"0":[2],"1":[0]},"colorToLabel":{"0":"this","1":"arg#1","2":"return"}}}

Generated Model
	this->return
	arg#1->this
	arg#1->return

