Scanning method <java.io.ObjectInputStream: void defaultReadObject()>

All seen event types: StoreArrayRecord, SimpleAssignmentRecord, LoadInstanceRecord, MethodStartRecord, IfRecord, NewObjectRecord, StoreInstanceRecord, InstanceOfRecord, NewArrayRecord, LoadStaticRecord, BinaryOperationRecord, SwitchRecord, MethodCallRecord, MethodReturnRecord, ArrayLengthRecord, CastRecord, LoadArrayRecord, MethodEndRecord, 
Ignored event types: SwitchRecord, IfRecord, 

JSON Encoded Analysis Data (for visualization):{"heapEdges":[{"step":0,"from":"1093381560","to":"1093377416","type":"load","field":"<java.io.ObjectInputStream: java.lang.Object currentObject>"},{"step":1,"from":"1093381560","to":"1093377416","type":"load","field":"<java.io.ObjectInputStream: java.lang.Object currentObject>"},{"step":2,"from":"1093381560","to":"1093299576","type":"load","field":"<java.io.ObjectInputStream: java.io.ObjectStreamClass currentClass>"},{"step":3,"from":"1093299576","to":"1094464912","type":"model"},{"step":4,"from":"1093299576","to":"1093399144","type":"model"},{"step":5,"from":"1094464912","to":"1093668624","type":"load","field":"arrayIdx_int:0"},{"step":6,"from":"1093299576","to":"1093668624","type":"model"},{"step":7,"from":"1093299576","to":"1094526808","type":"model"},{"step":8,"from":"1093668624","to":"1093299576","type":"model"},{"step":9,"from":"1093668624","to":"1094526808","type":"model"},{"step":10,"from":"1093668624","to":"1093534896","type":"load","field":"<java.io.ObjectStreamField: java.lang.Object type>"},{"step":11,"from":"1093668624","to":"1093534896","type":"load","field":"<java.io.ObjectStreamField: java.lang.Object type>"},{"step":12,"from":"1093534896","to":"1083912376","type":"model"},{"step":13,"from":"static.<java.lang.Byte: java.lang.Class TYPE>","to":"1083909112","type":"load","field":"<java.lang.Byte: java.lang.Class TYPE>"},{"step":14,"from":"static.<java.lang.Character: java.lang.Class TYPE>","to":"1083909448","type":"load","field":"<java.lang.Character: java.lang.Class TYPE>"},{"step":15,"from":"static.<java.lang.Double: java.lang.Class TYPE>","to":"1083910120","type":"load","field":"<java.lang.Double: java.lang.Class TYPE>"},{"step":16,"from":"static.<java.lang.Float: java.lang.Class TYPE>","to":"1083909952","type":"load","field":"<java.lang.Float: java.lang.Class TYPE>"},{"step":17,"from":"static.<java.lang.Integer: java.lang.Class TYPE>","to":"1083909616","type":"load","field":"<java.lang.Integer: java.lang.Class TYPE>"},{"step":18,"from":"static.<java.lang.Long: java.lang.Class TYPE>","to":"1083909784","type":"load","field":"<java.lang.Long: java.lang.Class TYPE>"},{"step":19,"from":"static.<java.lang.Short: java.lang.Class TYPE>","to":"1083909280","type":"load","field":"<java.lang.Short: java.lang.Class TYPE>"},{"step":20,"from":"static.<java.lang.Boolean: java.lang.Class TYPE>","to":"1083908944","type":"load","field":"<java.lang.Boolean: java.lang.Class TYPE>"},{"step":21,"from":"1093668624","to":"1093668624.<java.io.ObjectStreamField: boolean unshared>","type":"load","field":"<java.io.ObjectStreamField: boolean unshared>"},{"step":22,"from":"1093381560","to":"1093381896","type":"load","field":"<java.io.ObjectInputStream: java.io.InputStream primitiveData>"},{"step":23,"from":"1093381560","to":"1093340944","type":"load","field":"<java.io.ObjectInputStream: java.io.DataInputStream input>"},{"step":24,"from":"1093381560","to":"1093381560.<java.io.ObjectInputStream: boolean subclassOverridingImplementation>","type":"load","field":"<java.io.ObjectInputStream: boolean subclassOverridingImplementation>"},{"step":25,"from":"1093381560","to":"1093381560.<java.io.ObjectInputStream: int nestedLevels>","type":"load","field":"<java.io.ObjectInputStream: int nestedLevels>"},{"step":26,"from":"sdaReg23","to":"1093381560","type":"store","field":"<java.io.ObjectInputStream: int nestedLevels>"},{"step":27,"from":"1093381560","to":"1093381896","type":"load","field":"<java.io.ObjectInputStream: java.io.InputStream primitiveData>"},{"step":28,"from":"1093381560","to":"1093340944","type":"load","field":"<java.io.ObjectInputStream: java.io.DataInputStream input>"},{"step":29,"from":"1093381560","to":"1093381896","type":"load","field":"<java.io.ObjectInputStream: java.io.InputStream primitiveData>"},{"step":30,"from":"1093381896","to":"1093381896.<java.io.ByteArrayInputStream: int count>","type":"load","field":"<java.io.ByteArrayInputStream: int count>"},{"step":31,"from":"1093381896","to":"1093381896.<java.io.ByteArrayInputStream: int pos>","type":"load","field":"<java.io.ByteArrayInputStream: int pos>"},{"step":32,"from":"1093381560","to":"1093381560.<java.io.ObjectInputStream: boolean hasPushbackTC>","type":"load","field":"<java.io.ObjectInputStream: boolean hasPushbackTC>"},{"step":33,"from":"1093381560","to":"1093340944","type":"load","field":"<java.io.ObjectInputStream: java.io.DataInputStream input>"},{"step":34,"from":"1093340944","to":"1093381648","type":"load","field":"<java.io.FilterInputStream: java.io.InputStream in>"},{"step":35,"from":"1093381648","to":"1093381648.<java.io.ByteArrayInputStream: int pos>","type":"load","field":"<java.io.ByteArrayInputStream: int pos>"},{"step":36,"from":"1093381648","to":"1093381648.<java.io.ByteArrayInputStream: int count>","type":"load","field":"<java.io.ByteArrayInputStream: int count>"},{"step":37,"from":"1093381648","to":"1093381680","type":"load","field":"<java.io.ByteArrayInputStream: byte[] buf>"},{"step":38,"from":"1093381648","to":"1093381648.<java.io.ByteArrayInputStream: int pos>","type":"load","field":"<java.io.ByteArrayInputStream: int pos>"},{"step":39,"from":"sdaReg31","to":"1093381648","type":"store","field":"<java.io.ByteArrayInputStream: int pos>"},{"step":40,"from":"1093381680","to":"1093381680.arrayIdx_int:184","type":"load","field":"arrayIdx_int:184"},{"step":41,"from":"sdaReg33","to":"1093381560","type":"store","field":"<java.io.ObjectInputStream: byte pushbackTC>"},{"step":42,"from":"1093381560","to":"sdaReg35","type":"create","field":"<java.io.ObjectInputStream: boolean hasPushbackTC>"},{"step":43,"from":"1093381560","to":"1093381896","type":"load","field":"<java.io.ObjectInputStream: java.io.InputStream primitiveData>"},{"step":44,"from":"1093381896","to":"1093381896.<java.io.ByteArrayInputStream: int count>","type":"load","field":"<java.io.ByteArrayInputStream: int count>"},{"step":45,"from":"1093381896","to":"1093381896.<java.io.ByteArrayInputStream: int pos>","type":"load","field":"<java.io.ByteArrayInputStream: int pos>"},{"step":46,"from":"1093381560","to":"sdaReg39","type":"create","field":"<java.io.ObjectInputStream: boolean hasPushbackTC>"},{"step":47,"from":"1093381560","to":"1093340944","type":"load","field":"<java.io.ObjectInputStream: java.io.DataInputStream input>"},{"step":48,"from":"1093340944","to":"1093381648","type":"load","field":"<java.io.FilterInputStream: java.io.InputStream in>"},{"step":49,"from":"1093340944","to":"1093340968","type":"load","field":"<java.io.DataInputStream: byte[] scratch>"},{"step":50,"from":"1093381648","to":"1093340968","type":"model"},{"step":51,"from":"1093340944","to":"1093340968","type":"load","field":"<java.io.DataInputStream: byte[] scratch>"},{"step":52,"from":"static.<java.nio.ByteOrder: java.nio.ByteOrder BIG_ENDIAN>","to":"1084339448","type":"load","field":"<java.nio.ByteOrder: java.nio.ByteOrder BIG_ENDIAN>"},{"step":53,"from":"1093340968","to":"sdaReg45","type":"model"},{"step":54,"from":"1093340944","to":"1093381648","type":"load","field":"<java.io.FilterInputStream: java.io.InputStream in>"},{"step":55,"from":"1093381648","to":"1093454080","type":"model"},{"step":56,"from":"1093454080","to":"1093454080.arrayIdx_int:0","type":"load","field":"arrayIdx_int:0"},{"step":57,"from":"sdaReg59","to":"1094855728","type":"store","field":"arrayIdx_int:0"},{"step":58,"from":"1093454080","to":"1093454080.arrayIdx_int:1","type":"load","field":"arrayIdx_int:1"},{"step":59,"from":"sdaReg59","to":"1094855728","type":"store","field":"arrayIdx_int:1"},{"step":60,"from":"1093454080","to":"1093454080.arrayIdx_int:2","type":"load","field":"arrayIdx_int:2"},{"step":61,"from":"sdaReg59","to":"1094855728","type":"store","field":"arrayIdx_int:2"},{"step":62,"from":"1093454080","to":"1093454080.arrayIdx_int:3","type":"load","field":"arrayIdx_int:3"},{"step":63,"from":"sdaReg59","to":"1094855728","type":"store","field":"arrayIdx_int:3"},{"step":64,"from":"1094855728","to":"sdaReg60","type":"model"},{"step":65,"from":"1093381560","to":"1093381560.<java.io.ObjectInputStream: boolean enableResolve>","type":"load","field":"<java.io.ObjectInputStream: boolean enableResolve>"},{"step":66,"from":"1093381560","to":"1093381560.<java.io.ObjectInputStream: int nextHandle>","type":"load","field":"<java.io.ObjectInputStream: int nextHandle>"},{"step":67,"from":"sdaReg63","to":"1093381560","type":"store","field":"<java.io.ObjectInputStream: int nextHandle>"},{"step":68,"from":"1093381560","to":"1093341056","type":"load","field":"<java.io.ObjectInputStream: java.util.ArrayList objectsRead>"},{"step":69,"from":"1093341056","to":"1093341056.<java.util.ArrayList: int size>","type":"load","field":"<java.util.ArrayList: int size>"},{"step":70,"from":"1093381560","to":"1093341056","type":"load","field":"<java.io.ObjectInputStream: java.util.ArrayList objectsRead>"},{"step":71,"from":"1093341056","to":"1093346672","type":"load","field":"<java.util.ArrayList: java.lang.Object[] array>"},{"step":72,"from":"1093341056","to":"1093341056.<java.util.ArrayList: int size>","type":"load","field":"<java.util.ArrayList: int size>"},{"step":73,"from":"1094877728","to":"1093346672","type":"store","field":"arrayIdx_int:4"},{"step":74,"from":"sdaReg71","to":"1093341056","type":"store","field":"<java.util.ArrayList: int size>"},{"step":75,"from":"1093341056","to":"1093341056.<java.util.AbstractList: int modCount>","type":"load","field":"<java.util.AbstractList: int modCount>"},{"step":76,"from":"sdaReg72","to":"1093341056","type":"store","field":"<java.util.AbstractList: int modCount>"},{"step":77,"from":"sdaReg76","to":"1093381560","type":"store","field":"<java.io.ObjectInputStream: int nestedLevels>"},{"step":78,"from":"1093668624","to":"1093668624.<java.io.ObjectStreamField: java.lang.String name>","type":"load","field":"<java.io.ObjectStreamField: java.lang.String name>"},{"step":79,"from":"1093299576","to":"1093668624.<java.io.ObjectStreamField: java.lang.String name>","type":"model"},{"step":80,"from":"1093299576","to":"1093668624","type":"model"},{"step":81,"from":"1093668624.<java.io.ObjectStreamField: java.lang.String name>","to":"1093299576","type":"model"},{"step":82,"from":"1093668624.<java.io.ObjectStreamField: java.lang.String name>","to":"1093668624","type":"model"},{"step":83,"from":"1093668624","to":"1093534896","type":"load","field":"<java.io.ObjectStreamField: java.lang.Object type>"},{"step":84,"from":"1093668624","to":"1093534896","type":"load","field":"<java.io.ObjectStreamField: java.lang.Object type>"},{"step":85,"from":"1093534896","to":"1083912376","type":"model"},{"step":86,"from":"1094877728","to":"1083912376","type":"model"},{"step":87,"from":"1083912376","to":"sdaReg89","type":"model"},{"step":88,"from":"1083912376","to":"sdaReg89","type":"model"},{"step":89,"from":"1094526808","to":"1093377416","type":"model"},{"step":90,"from":"1094526808","to":"1094877728","type":"model"},{"step":91,"from":"1093377416","to":"1094526808","type":"model"},{"step":92,"from":"1093377416","to":"1094877728","type":"model"},{"step":93,"from":"1094877728","to":"1094526808","type":"model"},{"step":94,"from":"1094877728","to":"1093377416","type":"model"}],"parameters":[{"id":"1093381560","name":"this","klass":"java.io.ObjectInputStream"}],"returns":[{"id":null,"name":"return","klass":null}],"colors":{"heapLocToColor":{"1093381648":[0],"sdaReg68":[0],"1093381560.<java.io.ObjectInputStream: int nextHandle>":[0],"sdaReg66":[0],"sdaReg67":[0],"1093341056":[0],"1093399144":[0, 2],"sdaReg64":[0],"sdaReg62":[0],"1093668624.<java.io.ObjectStreamField: boolean unshared>":[0, 1],"sdaReg63":[0],"sdaReg72":[0],"sdaReg13":[0, 1],"1093454080.arrayIdx_int:0":[15],"sdaReg71":[0],"sdaReg14":[0, 1, 4],"1093454080.arrayIdx_int:1":[15],"sdaReg11":[0, 1],"sdaReg10":[0, 3],"1093340944.<java.io.FilterInputStream: java.io.InputStream in>":[0],"1094877728":[0, 3],"1093454080.arrayIdx_int:2":[15],"1093454080.arrayIdx_int:3":[15],"1093668624.<java.io.ObjectStreamField: java.lang.String name>":[0, 1],"sdaReg19":[0],"sdaReg17":[0, 1],"sdaReg18":[0],"sdaReg15":[0, 1, 4],"sdaReg16":[0, 1, 4],"1083909280":[11],"static.<java.lang.Boolean: java.lang.Class TYPE>":[12],"sdaReg81":[0, 1],"sdaReg80":[0, 1],"sdaReg82":[0, 1],"1094526808":[0, 3],"1093381560.<java.io.ObjectInputStream: java.lang.Object currentObject>":[0],"1093381560":[0],"1093381560.<java.io.ObjectInputStream: java.io.DataInputStream input>":[0],"1093381560.<java.io.ObjectInputStream: java.io.InputStream primitiveData>":[0],"1093340944.<java.io.DataInputStream: byte[] scratch>":[0],"1093381896.<java.io.ByteArrayInputStream: int pos>":[0],"1093340944":[0],"static.<java.lang.Character: java.lang.Class TYPE>":[6],"sdaReg86":[0, 1, 4],"sdaReg87":[0, 1, 4],"sdaReg84":[0, 1],"sdaReg85":[0, 1, 4],"1093341056.<java.util.AbstractList: int modCount>":[0],"sdaReg88":[0, 1, 4],"sdaReg89":[0, 1, 18, 4],"1083909616":[9],"1094855728":[16],"1093381560.<java.io.ObjectInputStream: java.util.ArrayList objectsRead>":[0],"1093668624":[0, 1],"1084339448":[13],"1093381680":[0],"1093381680.arrayIdx_int:184":[0],"sdaReg60":[17],"1093381648.<java.io.ByteArrayInputStream: int count>":[0],"static.<java.lang.Float: java.lang.Class TYPE>":[8],"1093381896.<java.io.ByteArrayInputStream: int count>":[0],"1083909784":[10],"static.<java.lang.Byte: java.lang.Class TYPE>":[5],"1083909112":[5],"1093668624.<java.io.ObjectStreamField: java.lang.Object type>":[0, 1],"sdaReg59":[15],"1093381648.<java.io.ByteArrayInputStream: int pos>":[0],"1093341056.<java.util.ArrayList: int size>":[0],"static.<java.nio.ByteOrder: java.nio.ByteOrder BIG_ENDIAN>":[13],"1093340968":[0],"sdaReg53":[16],"sdaReg52":[15],"static.<java.lang.Double: java.lang.Class TYPE>":[7],"sdaReg50":[15],"1093381560.<java.io.ObjectInputStream: boolean enableResolve>":[0],"1093381896":[0],"sdaReg49":[0],"sdaReg48":[0],"sdaReg45":[14],"sdaReg44":[0],"1083910120":[7],"sdaReg47":[0],"sdaReg46":[14],"sdaReg41":[0],"1083909448":[6],"1093381560.<java.io.ObjectInputStream: boolean hasPushbackTC>":[0],"sdaReg43":[0],"1093381560.<java.io.ObjectInputStream: int nestedLevels>":[0],"sdaReg42":[0],"static.<java.lang.Long: java.lang.Class TYPE>":[10],"sdaReg38":[0],"1083909952":[8],"sdaReg37":[0],"sdaReg32":[0],"sdaReg31":[0],"sdaReg30":[0],"1093377416":[0, 3],"sdaReg36":[0],"sdaReg34":[0],"sdaReg33":[0],"1093454080":[15],"1093299576":[0],"sdaReg6":[0, 2],"sdaReg7":[0, 1],"sdaReg4":[0, 1],"sdaReg5":[0, 1],"1094464912":[0, 1],"static.<java.lang.Short: java.lang.Class TYPE>":[11],"1093346672":[0],"sdaReg27":[0],"sdaReg26":[0],"sdaReg29":[0],"1093381560.<java.io.ObjectInputStream: boolean subclassOverridingImplementation>":[0],"1093534896":[0, 1],"static.<java.lang.Integer: java.lang.Class TYPE>":[9],"sdaReg3":[0, 1],"sdaReg2":[0],"1083908944":[12],"sdaReg1":[0],"sdaReg0":[0],"1083912376":[0, 1, 4],"sdaReg23":[0],"sdaReg25":[0],"sdaReg24":[0]},"colorToColor":{"0":[0, 1, 18, 3, 4, 14, 15],"16":[17],"1":[0, 1, 18, 3, 4],"3":[0, 3],"4":[0, 1, 18, 4],"15":[16]},"colorToLabel":{"0":"this","5":"<java.lang.Byte: java.lang.Class TYPE>","6":"<java.lang.Character: java.lang.Class TYPE>","7":"<java.lang.Double: java.lang.Class TYPE>","8":"<java.lang.Float: java.lang.Class TYPE>","9":"<java.lang.Integer: java.lang.Class TYPE>","10":"<java.lang.Long: java.lang.Class TYPE>","11":"<java.lang.Short: java.lang.Class TYPE>","12":"<java.lang.Boolean: java.lang.Class TYPE>","13":"<java.nio.ByteOrder: java.nio.ByteOrder BIG_ENDIAN>","19":"return"}}}

Generated Model

