Scanning method <java.util.ArrayList: void add(int,java.lang.Object)>

All seen event types: BinaryOperationRecord, StoreArrayRecord, MethodReturnRecord, MethodCallRecord, ArrayLengthRecord, LoadInstanceRecord, IfRecord, StoreInstanceRecord, 
Ignored event types: IfRecord, 

JSON Encoded Analysis Data (for visualization):{"heapEdges":[{"step":0,"from":"1093519824","to":"1094129696","type":"load","field":"<java.util.ArrayList: java.lang.Object[] array>"},{"step":1,"from":"1093519824","to":"1093519824.<java.util.ArrayList: int size>","type":"load","field":"<java.util.ArrayList: int size>"},{"step":2,"from":"1093914008","to":"1094129696","type":"store","field":"arrayIdx_int:2"},{"step":3,"from":"sdaReg4","to":"1093519824","type":"store","field":"<java.util.ArrayList: int size>"},{"step":4,"from":"1093519824","to":"1093519824.<java.util.AbstractList: int modCount>","type":"load","field":"<java.util.AbstractList: int modCount>"},{"step":5,"from":"sdaReg5","to":"1093519824","type":"store","field":"<java.util.AbstractList: int modCount>"}],"parameters":[{"id":"1093519824","name":"this","klass":"java.util.ArrayList"},{"id":"sdaReg0","name":"arg#1","klass":"int"},{"id":"1093914008","name":"arg#2","klass":"java.lang.Object"}],"returns":[{"id":null,"name":"return","klass":null}],"colors":{"heapLocToColor":{"1093519824":[0],"sdaReg4":[0],"sdaReg5":[0],"1094129696":[0],"sdaReg3":[0, 1],"sdaReg2":[1],"1093519824.<java.util.ArrayList: int size>":[0],"sdaReg0":[1],"1093519824.<java.util.AbstractList: int modCount>":[0],"1093914008":[2]},"colorToColor":{"0":[0],"2":[0]},"colorToLabel":{"0":"this","1":"arg#1","2":"arg#2","3":"return"}}}

Generated Model
	arg#2->this

