Scanning method <java.io.CharArrayWriter: void writeTo(java.io.Writer)>

All seen event types: BinaryOperationRecord, SimpleAssignmentRecord, ExitMonitorRecord, MethodReturnRecord, MethodCallRecord, EnterMonitorRecord, ArrayLengthRecord, MethodStartRecord, LoadInstanceRecord, MethodEndRecord, IfRecord, 
Ignored event types: ExitMonitorRecord, EnterMonitorRecord, IfRecord, 

JSON Encoded Analysis Data (for visualization):{"heapEdges":[{"step":0,"from":"1093590408","to":"1093590432","type":"load","field":"<java.io.Writer: java.lang.Object lock>"},{"step":1,"from":"1093590408","to":"1093590432","type":"load","field":"<java.io.CharArrayWriter: char[] buf>"},{"step":2,"from":"1093590408","to":"1093590408.<java.io.CharArrayWriter: int count>","type":"load","field":"<java.io.CharArrayWriter: int count>"},{"step":3,"from":"1093637080","to":"1093647248","type":"load","field":"<java.io.StringWriter: java.lang.StringBuffer buf>"},{"step":4,"from":"1093590432","to":"1093647248","type":"model"}],"parameters":[{"id":"1093590408","name":"this","klass":"java.io.CharArrayWriter"},{"id":"1093637080","name":"arg#1","klass":"java.io.Writer"}],"returns":[{"id":null,"name":"return","klass":null}],"colors":{"heapLocToColor":{"1093647248":[1],"1093590432":[0],"1093590408":[0],"sdaReg5":[0],"1093590408.<java.io.CharArrayWriter: int count>":[0],"sdaReg2":[0],"sdaReg1":[1],"1093590408.<java.io.CharArrayWriter: char[] buf>":[0],"1093637080":[1]},"colorToColor":{"0":[1]},"colorToLabel":{"0":"this","1":"arg#1","2":"return"}}}

Generated Model
	this->arg#1

