Scanning method <java.io.BufferedReader: int read()>

All seen event types: BinaryOperationRecord, SimpleAssignmentRecord, ExitMonitorRecord, MethodReturnRecord, MethodCallRecord, EnterMonitorRecord, MethodStartRecord, LoadInstanceRecord, LoadArrayRecord, MethodEndRecord, IfRecord, StoreInstanceRecord, 
Ignored event types: ExitMonitorRecord, EnterMonitorRecord, IfRecord, 

JSON Encoded Analysis Data (for visualization):{"heapEdges":[{"step":0,"from":"1093408656","to":"1093408696","type":"load","field":"<java.io.Reader: java.lang.Object lock>"},{"step":1,"from":"1093408656","to":"1093447488","type":"load","field":"<java.io.BufferedReader: char[] buf>"},{"step":2,"from":"1093408656","to":"1093408656.<java.io.BufferedReader: int pos>","type":"load","field":"<java.io.BufferedReader: int pos>"},{"step":3,"from":"1093408656","to":"1093408656.<java.io.BufferedReader: int end>","type":"load","field":"<java.io.BufferedReader: int end>"},{"step":4,"from":"1093408656","to":"1093447488","type":"load","field":"<java.io.BufferedReader: char[] buf>"},{"step":5,"from":"1093408656","to":"1093408656.<java.io.BufferedReader: int pos>","type":"load","field":"<java.io.BufferedReader: int pos>"},{"step":6,"from":"sdaReg4","to":"1093408656","type":"store","field":"<java.io.BufferedReader: int pos>"},{"step":7,"from":"1093447488","to":"1093447488.arrayIdx_int:3","type":"load","field":"arrayIdx_int:3"}],"parameters":[{"id":"1093408656","name":"this","klass":"java.io.BufferedReader"}],"returns":[{"id":"1093447488.arrayIdx_int:3","name":"return","klass":"int"}],"colors":{"heapLocToColor":{"1093447488.arrayIdx_int:3":[0],"1093408656.<java.io.BufferedReader: char[] buf>":[0],"1093408656.<java.io.BufferedReader: int end>":[0],"1093408656.<java.io.BufferedReader: int pos>":[0],"sdaReg4":[0],"1093408696":[0],"sdaReg2":[0],"sdaReg1":[0],"1093447488":[0],"1093408656":[0]},"colorToColor":{"0":[0, 1]},"colorToLabel":{"0":"this","1":"return"}}}

Generated Model
	this->return

