Scanning method <java.net.URLConnection: java.lang.String toString()>

All seen event types: SimpleAssignmentRecord, MethodReturnRecord, MethodCallRecord, MethodStartRecord, LoadInstanceRecord, MethodEndRecord, IfRecord, NewObjectRecord, 
Ignored event types: IfRecord, 

JSON Encoded Analysis Data (for visualization):{"heapEdges":[{"step":0,"from":"1093643688","to":"1093292112","type":"model"},{"step":1,"from":"1093292112","to":"sdaReg2","type":"model"},{"step":2,"from":"sdaReg2","to":"1093599912","type":"model"},{"step":3,"from":"sdaReg2","to":"1093599912","type":"model"},{"step":4,"from":"1093643688","to":"1093632960","type":"load","field":"<java.net.URLConnection: java.net.URL url>"},{"step":5,"from":"1093632960","to":"1093645000","type":"load","field":"<java.net.URL: java.net.URLStreamHandler streamHandler>"},{"step":6,"from":"1093632960","to":"1093645000","type":"load","field":"<java.net.URL: java.net.URLStreamHandler streamHandler>"},{"step":7,"from":"1093632960","to":"1093632960.<java.net.URL: java.lang.String protocol>","type":"load","field":"<java.net.URL: java.lang.String protocol>"},{"step":8,"from":"1093632960.<java.net.URL: java.lang.String protocol>","to":"1093287152","type":"model"},{"step":9,"from":"1093632960","to":"1093632960.<java.net.URL: java.lang.String authority>","type":"load","field":"<java.net.URL: java.lang.String authority>"},{"step":10,"from":"1093632960.<java.net.URL: java.lang.String authority>","to":"1093287152","type":"model"},{"step":11,"from":"1093632960","to":"1093632960.<java.net.URL: java.lang.String file>","type":"load","field":"<java.net.URL: java.lang.String file>"},{"step":12,"from":"1093632960.<java.net.URL: java.lang.String file>","to":"1093287152","type":"model"},{"step":13,"from":"1093632960","to":"1093632960.<java.net.URL: java.lang.String ref>","type":"load","field":"<java.net.URL: java.lang.String ref>"},{"step":14,"from":"1093287152","to":"sdaReg18","type":"model"},{"step":15,"from":"sdaReg18","to":"1093599912","type":"model"},{"step":16,"from":"sdaReg18","to":"1093599912","type":"model"},{"step":17,"from":"1093599912","to":"sdaReg20","type":"model"}],"parameters":[{"id":"1093643688","name":"this","klass":"java.net.URLConnection"}],"returns":[{"id":"sdaReg20","name":"return","klass":"string"}],"colors":{"heapLocToColor":{"1093632960.<java.net.URL: java.net.URLStreamHandler streamHandler>":[0],"1093292112":[0, 2],"1093599912":[1],"1093287152":[4],"1093632960":[0],"sdaReg13":[4],"sdaReg14":[0],"1093645000":[0],"1093643688":[0],"sdaReg12":[4],"sdaReg10":[0],"1093632960.<java.net.URL: java.lang.String authority>":[0],"1093632960.<java.net.URL: java.lang.String protocol>":[0],"sdaReg19":[1],"sdaReg17":[0],"sdaReg18":[4, 5],"1093632960.<java.net.URL: java.lang.String ref>":[0],"sdaReg15":[0],"sdaReg16":[0],"sdaReg8":[0],"sdaReg9":[0],"sdaReg6":[0],"sdaReg7":[0],"sdaReg4":[1],"sdaReg5":[0],"1093632960.<java.net.URL: java.lang.String file>":[0],"sdaReg3":[1],"sdaReg2":[0, 2, 3],"sdaReg1":[0, 2],"sdaReg20":[1, 6],"sdaReg0":[1]},"colorToColor":{"0":[1, 4],"1":[7],"2":[1],"3":[1],"4":[1],"5":[1],"6":[7]},"colorToLabel":{"0":"this","7":"return"}}}

Generated Model
	this->return

