Scanning method <java.io.RandomAccessFile: void <init>(java.io.File,java.lang.String)>

All seen event types: LoadStaticRecord, NewArrayRecord, BinaryOperationRecord, MethodReturnRecord, MethodCallRecord, LoadInstanceRecord, IfRecord, StoreInstanceRecord, 
Ignored event types: IfRecord, 

JSON Encoded Analysis Data (for visualization):{"heapEdges":[{"step":0,"from":"1093701240","to":"sdaReg2","type":"create","field":"<java.io.RandomAccessFile: boolean syncMetadata>"},{"step":1,"from":"1093701240","to":"1083966016","type":"create","field":"<java.io.RandomAccessFile: dalvik.system.CloseGuard guard>"},{"step":2,"from":"1093701240","to":"1093701752","type":"create","field":"<java.io.RandomAccessFile: byte[] scratch>"},{"step":3,"from":"static.<libcore.io.OsConstants: int O_RDWR>","to":"static.<libcore.io.OsConstants: int O_RDWR>","type":"load","field":"<libcore.io.OsConstants: int O_RDWR>"},{"step":4,"from":"static.<libcore.io.OsConstants: int O_CREAT>","to":"static.<libcore.io.OsConstants: int O_CREAT>","type":"load","field":"<libcore.io.OsConstants: int O_CREAT>"},{"step":5,"from":"sdaReg6","to":"1093701240","type":"store","field":"<java.io.RandomAccessFile: int mode>"},{"step":6,"from":"1093701528","to":"sdaReg9","type":"model"},{"step":7,"from":"sdaReg9","to":"1093702272","type":"model"},{"step":8,"from":"1093701240","to":"1093702272","type":"create","field":"<java.io.RandomAccessFile: java.io.FileDescriptor fd>"}],"parameters":[{"id":"1093701240","name":"this","klass":"java.io.RandomAccessFile"},{"id":"1093701528","name":"arg#1","klass":"java.io.File"},{"id":"sdaReg0","name":"arg#2","klass":"string"}],"returns":[{"id":"1093701240","name":"return","klass":"java.io.RandomAccessFile"}],"colors":{"heapLocToColor":{"sdaReg8":[10],"sdaReg9":[1, 11],"sdaReg6":[7, 8],"static.<libcore.io.OsConstants: int O_RDWR>":[7],"sdaReg7":[9],"sdaReg4":[5],"sdaReg5":[6],"1093701752":[4],"1093701528":[1],"sdaReg10":[12],"sdaReg3":[3],"sdaReg1":[0],"1093702272":[12],"1093701240":[0],"sdaReg0":[2],"1083966016":[3],"static.<libcore.io.OsConstants: int O_CREAT>":[8]},"colorToColor":{"0":[13],"1":[12],"3":[0],"4":[0],"7":[0],"8":[0],"11":[12],"12":[0]},"colorToLabel":{"0":"this","1":"arg#1","2":"arg#2","7":"<libcore.io.OsConstants: int O_RDWR>","8":"<libcore.io.OsConstants: int O_CREAT>","13":"return"}}}

Generated Model
	this->return
	arg#1->this
	arg#1->return

