Scanning method <java.io.RandomAccessFile: int read(byte[],int,int)>

All seen event types: MethodReturnRecord, MethodCallRecord, LoadInstanceRecord, 
Ignored event types: 

JSON Encoded Analysis Data (for visualization):{"heapEdges":[{"step":0,"from":"1093734536","to":"1093326688","type":"load","field":"<java.io.RandomAccessFile: java.io.FileDescriptor fd>"},{"step":1,"from":"1093326688","to":"1093283112","type":"model"}],"parameters":[{"id":"1093734536","name":"this","klass":"java.io.RandomAccessFile"},{"id":"1093283112","name":"arg#1","klass":"byte[]"},{"id":"sdaReg0","name":"arg#2","klass":"int"},{"id":"sdaReg1","name":"arg#3","klass":"int"}],"returns":[{"id":"sdaReg2","name":"return","klass":"int"}],"colors":{"heapLocToColor":{"1093326688":[0],"1093283112":[1],"sdaReg2":[4],"sdaReg1":[3],"sdaReg0":[2],"1093734536":[0]},"colorToColor":{"0":[1],"4":[5]},"colorToLabel":{"0":"this","1":"arg#1","2":"arg#2","3":"arg#3","5":"return"}}}

Generated Model
	this->arg#1

