Scanning method <java.net.InetAddress: java.net.InetAddress[] getAllByNameImpl(java.lang.String)>

All seen event types: LoadStaticRecord, NewArrayRecord, StoreArrayRecord, MethodReturnRecord, MethodCallRecord, MethodStartRecord, MethodEndRecord, IfRecord, 
Ignored event types: IfRecord, 

JSON Encoded Analysis Data (for visualization):{"heapEdges":[{"step":0,"from":"static.<java.net.Inet6Address: java.net.InetAddress LOOPBACK>","to":"1085716376","type":"load","field":"<java.net.Inet6Address: java.net.InetAddress LOOPBACK>"},{"step":1,"from":"1085716376","to":"1093285392","type":"store","field":"arrayIdx_int:0"},{"step":2,"from":"static.<java.net.Inet4Address: java.net.InetAddress LOOPBACK>","to":"1085715984","type":"load","field":"<java.net.Inet4Address: java.net.InetAddress LOOPBACK>"},{"step":3,"from":"1085715984","to":"1093285392","type":"store","field":"arrayIdx_int:1"}],"parameters":[{"id":"sdaReg0","name":"arg#0","klass":"string"}],"returns":[{"id":"1093285392","name":"return","klass":"java.net.InetAddress[]"}],"colors":{"heapLocToColor":{"1085715984":[3],"1085716376":[2],"static.<java.net.Inet6Address: java.net.InetAddress LOOPBACK>":[2],"sdaReg1":[1],"1093285392":[1],"static.<java.net.Inet4Address: java.net.InetAddress LOOPBACK>":[3],"sdaReg0":[0]},"colorToColor":{"1":[4],"2":[1],"3":[1]},"colorToLabel":{"0":"arg#0","2":"<java.net.Inet6Address: java.net.InetAddress LOOPBACK>","3":"<java.net.Inet4Address: java.net.InetAddress LOOPBACK>","4":"return"}}}

Generated Model

