Scanning method <java.net.InetAddress: java.net.InetAddress getByAddress(java.lang.String,byte[],int)>

All seen event types: StoreArrayRecord, SimpleAssignmentRecord, MethodStartRecord, IfRecord, StoreInstanceRecord, NewObjectRecord, NewArrayRecord, LoadStaticRecord, BinaryOperationRecord, MethodCallRecord, MethodReturnRecord, ArrayLengthRecord, LoadArrayRecord, MethodEndRecord, 
Ignored event types: IfRecord, 

JSON Encoded Analysis Data (for visualization):{"heapEdges":[{"step":0,"from":"1093661752","to":"1093661752.arrayIdx_int:0","type":"load","field":"arrayIdx_int:0"},{"step":1,"from":"1093661752","to":"1093661752.arrayIdx_int:1","type":"load","field":"arrayIdx_int:1"},{"step":2,"from":"1093661752","to":"1093661752.arrayIdx_int:2","type":"load","field":"arrayIdx_int:2"},{"step":3,"from":"1093661752","to":"1093661752.arrayIdx_int:3","type":"load","field":"arrayIdx_int:3"},{"step":4,"from":"1093661752","to":"1093661752.arrayIdx_int:4","type":"load","field":"arrayIdx_int:4"},{"step":5,"from":"1093661752","to":"1093661752.arrayIdx_int:5","type":"load","field":"arrayIdx_int:5"},{"step":6,"from":"1093661752","to":"1093661752.arrayIdx_int:6","type":"load","field":"arrayIdx_int:6"},{"step":7,"from":"1093661752","to":"1093661752.arrayIdx_int:7","type":"load","field":"arrayIdx_int:7"},{"step":8,"from":"1093661752","to":"1093661752.arrayIdx_int:8","type":"load","field":"arrayIdx_int:8"},{"step":9,"from":"1093661752","to":"1093661752.arrayIdx_int:9","type":"load","field":"arrayIdx_int:9"},{"step":10,"from":"1093661752","to":"1093661752.arrayIdx_int:10","type":"load","field":"arrayIdx_int:10"},{"step":11,"from":"1093661752","to":"1093661752.arrayIdx_int:11","type":"load","field":"arrayIdx_int:11"},{"step":12,"from":"1093661752","to":"1093661752.arrayIdx_int:12","type":"load","field":"arrayIdx_int:12"},{"step":13,"from":"1093661752.arrayIdx_int:12","to":"1093661944","type":"store","field":"arrayIdx_int:0"},{"step":14,"from":"1093661752","to":"1093661752.arrayIdx_int:13","type":"load","field":"arrayIdx_int:13"},{"step":15,"from":"1093661752.arrayIdx_int:13","to":"1093661944","type":"store","field":"arrayIdx_int:1"},{"step":16,"from":"1093661752","to":"1093661752.arrayIdx_int:14","type":"load","field":"arrayIdx_int:14"},{"step":17,"from":"1093661752.arrayIdx_int:14","to":"1093661944","type":"store","field":"arrayIdx_int:2"},{"step":18,"from":"1093661752","to":"1093661752.arrayIdx_int:15","type":"load","field":"arrayIdx_int:15"},{"step":19,"from":"1093661752.arrayIdx_int:15","to":"1093661944","type":"store","field":"arrayIdx_int:3"},{"step":20,"from":"static.<libcore.io.OsConstants: int AF_INET>","to":"static.<libcore.io.OsConstants: int AF_INET>","type":"load","field":"<libcore.io.OsConstants: int AF_INET>"},{"step":21,"from":"static.<libcore.io.OsConstants: int AF_INET>","to":"1093661920","type":"store","field":"<java.net.InetAddress: int family>"},{"step":22,"from":"1093661920","to":"1093661944","type":"create","field":"<java.net.InetAddress: byte[] ipaddress>"},{"step":23,"from":"sdaReg0","to":"1093661920","type":"store","field":"<java.net.InetAddress: java.lang.String hostName>"}],"parameters":[{"id":"sdaReg0","name":"arg#0","klass":"string"},{"id":"1093661752","name":"arg#1","klass":"byte[]"},{"id":"sdaReg1","name":"arg#2","klass":"int"}],"returns":[{"id":"1093661920","name":"return","klass":"java.net.InetAddress"}],"colors":{"heapLocToColor":{"sdaReg13":[4],"1093661752.arrayIdx_int:0":[1],"sdaReg14":[3],"1093661752.arrayIdx_int:1":[1],"1093661752.arrayIdx_int:2":[1],"sdaReg11":[4],"1093661752.arrayIdx_int:3":[1],"sdaReg12":[3],"1093661752.arrayIdx_int:15":[1],"1093661752.arrayIdx_int:12":[1],"1093661752.arrayIdx_int:11":[1],"1093661752.arrayIdx_int:14":[1],"1093661752.arrayIdx_int:13":[1],"sdaReg17":[3],"sdaReg18":[3],"sdaReg15":[4],"1093661752.arrayIdx_int:10":[1],"sdaReg16":[3],"1093661752.arrayIdx_int:6":[1],"1093661752.arrayIdx_int:7":[1],"1093661752.arrayIdx_int:4":[1],"sdaReg8":[1],"1093661752.arrayIdx_int:5":[1],"1093661752.arrayIdx_int:8":[1],"sdaReg4":[1],"1093661752.arrayIdx_int:9":[1],"static.<libcore.io.OsConstants: int AF_INET>":[5],"1093661920":[3],"1093661944":[4],"sdaReg1":[2],"sdaReg0":[0],"1093661752":[1]},"colorToColor":{"0":[3],"1":[4],"3":[6],"4":[3],"5":[3]},"colorToLabel":{"0":"arg#0","1":"arg#1","2":"arg#2","5":"<libcore.io.OsConstants: int AF_INET>","6":"return"}}}

Generated Model
	arg#1->return
	arg#0->return

