Scanning method <java.net.InetSocketAddress: void <init>(java.lang.String,int)>

All seen event types: StoreArrayRecord, SimpleAssignmentRecord, MethodStartRecord, IfRecord, NewObjectRecord, StoreInstanceRecord, InstanceOfRecord, LoadStaticRecord, NewArrayRecord, MethodCallRecord, MethodReturnRecord, LoadArrayRecord, MethodEndRecord, 
Ignored event types: IfRecord, 

JSON Encoded Analysis Data (for visualization):{"heapEdges":[{"step":0,"from":"static.<libcore.io.OsConstants: int AI_NUMERICHOST>","to":"static.<libcore.io.OsConstants: int AI_NUMERICHOST>","type":"load","field":"<libcore.io.OsConstants: int AI_NUMERICHOST>"},{"step":1,"from":"static.<libcore.io.OsConstants: int AI_NUMERICHOST>","to":"1093702208","type":"store","field":"<libcore.io.StructAddrinfo: int ai_flags>"},{"step":2,"from":"static.<libcore.io.Libcore: libcore.io.Os os>","to":"1083982784","type":"load","field":"<libcore.io.Libcore: libcore.io.Os os>"},{"step":3,"from":"1093702208","to":"1093702448","type":"model"},{"step":4,"from":"sdaReg0","to":"1093702448","type":"model"},{"step":5,"from":"1093702448","to":"1093702536","type":"load","field":"arrayIdx_int:0"},{"step":6,"from":"static.<libcore.io.Libcore: libcore.io.Os os>","to":"1083982784","type":"load","field":"<libcore.io.Libcore: libcore.io.Os os>"},{"step":7,"from":"static.<libcore.io.OsConstants: int AF_INET>","to":"static.<libcore.io.OsConstants: int AF_INET>","type":"load","field":"<libcore.io.OsConstants: int AF_INET>"},{"step":8,"from":"sdaReg0","to":"1093534800","type":"model"},{"step":9,"from":"static.<libcore.io.OsConstants: int AF_INET>","to":"1093534800","type":"model"},{"step":10,"from":"1093229888","to":"1093534800","type":"create","field":"arrayIdx_int:0"},{"step":11,"from":"1093534800","to":"1093701648","type":"store","field":"<java.net.InetSocketAddress: java.net.InetAddress addr>"},{"step":12,"from":"sdaReg0","to":"1093701648","type":"store","field":"<java.net.InetSocketAddress: java.lang.String hostname>"},{"step":13,"from":"sdaReg1","to":"1093701648","type":"store","field":"<java.net.InetSocketAddress: int port>"}],"parameters":[{"id":"1093701648","name":"this","klass":"java.net.InetSocketAddress"},{"id":"sdaReg0","name":"arg#1","klass":"string"},{"id":"sdaReg1","name":"arg#2","klass":"int"}],"returns":[{"id":"1093701648","name":"return","klass":"java.net.InetSocketAddress"}],"colors":{"heapLocToColor":{"1083982784":[7],"static.<libcore.io.Libcore: libcore.io.Os os>":[7],"1093702448":[8],"sdaReg13":[8],"sdaReg14":[8],"sdaReg11":[5],"sdaReg10":[5],"1093229888":[12],"static.<libcore.io.OsConstants: int AI_NUMERICHOST>":[6],"sdaReg19":[11],"1093701648":[0],"sdaReg17":[9],"1093702208":[5],"sdaReg18":[11],"sdaReg15":[8],"sdaReg8":[3],"sdaReg9":[4],"sdaReg6":[0],"1093534800":[11],"sdaReg4":[0],"sdaReg5":[0],"static.<libcore.io.OsConstants: int AF_INET>":[10],"sdaReg2":[0],"sdaReg21":[11],"sdaReg1":[2],"sdaReg20":[12],"sdaReg0":[1],"sdaReg22":[0],"1093702536":[8]},"colorToColor":{"0":[13],"1":[0, 8, 11],"2":[0],"5":[8],"6":[5],"10":[11],"11":[0, 12]},"colorToLabel":{"0":"this","1":"arg#1","2":"arg#2","6":"<libcore.io.OsConstants: int AI_NUMERICHOST>","7":"<libcore.io.Libcore: libcore.io.Os os>","10":"<libcore.io.OsConstants: int AF_INET>","13":"return"}}}

Generated Model
	this->return
	arg#2->this
	arg#2->return
	arg#1->this
	arg#1->return

