Scanning method <java.io.PrintWriter: java.io.PrintWriter printf(java.lang.String,java.lang.Object[])>

All seen event types: SimpleAssignmentRecord, ExitMonitorRecord, MethodStartRecord, LoadInstanceRecord, IfRecord, InstanceOfRecord, NewObjectRecord, StoreInstanceRecord, LoadStaticRecord, BinaryOperationRecord, SwitchRecord, MethodCallRecord, MethodReturnRecord, EnterMonitorRecord, CastRecord, ArrayLengthRecord, LoadArrayRecord, MethodEndRecord, 
Ignored event types: SwitchRecord, ExitMonitorRecord, EnterMonitorRecord, IfRecord, 

JSON Encoded Analysis Data (for visualization):{"heapEdges":[{"step":0,"from":"static.<java.util.Locale: java.util.Locale defaultLocale>","to":"1093256752","type":"load","field":"<java.util.Locale: java.util.Locale defaultLocale>"},{"step":1,"from":"1093675840","to":"sdaReg11","type":"create","field":"<java.util.Formatter: boolean closed>"},{"step":2,"from":"1093610048","to":"1093675840","type":"store","field":"<java.util.Formatter: java.lang.Appendable out>"},{"step":3,"from":"1093256752","to":"1093675840","type":"store","field":"<java.util.Formatter: java.util.Locale locale>"},{"step":4,"from":"1093256752","to":"1093675840","type":"store","field":"<java.util.Formatter: java.util.Locale locale>"},{"step":5,"from":"1093256752","to":"1093256752.<java.util.Locale: java.lang.String cachedToStringResult>","type":"load","field":"<java.util.Locale: java.lang.String cachedToStringResult>"},{"step":6,"from":"static.<libcore.icu.LocaleData: java.util.HashMap localeDataCache>","to":"1085803528","type":"load","field":"<libcore.icu.LocaleData: java.util.HashMap localeDataCache>"},{"step":7,"from":"static.<libcore.icu.LocaleData: java.util.HashMap localeDataCache>","to":"1085803528","type":"load","field":"<libcore.icu.LocaleData: java.util.HashMap localeDataCache>"},{"step":8,"from":"1085803528","to":"1085760672","type":"load","field":"<java.util.HashMap: java.util.HashMap$HashMapEntry[] table>"},{"step":9,"from":"1085760672","to":"1085767472","type":"load","field":"arrayIdx_int:0"},{"step":10,"from":"1085767472","to":"1085760768","type":"load","field":"<java.util.HashMap$HashMapEntry: java.lang.Object key>"},{"step":11,"from":"1085767472","to":"1085767472.<java.util.HashMap$HashMapEntry: int hash>","type":"load","field":"<java.util.HashMap$HashMapEntry: int hash>"},{"step":12,"from":"1085767472","to":"1085769600","type":"load","field":"<java.util.HashMap$HashMapEntry: java.lang.Object value>"},{"step":13,"from":"1085769600","to":"1093675840","type":"store","field":"<java.util.Formatter: libcore.icu.LocaleData localeData>"},{"step":14,"from":"sdaReg0","to":"1093686344","type":"store","field":"<java.util.Formatter$FormatSpecifierParser: java.lang.String format>"},{"step":15,"from":"sdaReg45","to":"1093686344","type":"store","field":"<java.util.Formatter$FormatSpecifierParser: int length>"},{"step":16,"from":"sdaReg57","to":"1093686344","type":"store","field":"<java.util.Formatter$FormatSpecifierParser: int startIndex>"},{"step":17,"from":"sdaReg57","to":"1093686344","type":"store","field":"<java.util.Formatter$FormatSpecifierParser: int i>"},{"step":18,"from":"1093686568","to":"sdaReg62","type":"create","field":"<java.util.Formatter$FormatToken: int argIndex>"},{"step":19,"from":"1093686568","to":"sdaReg63","type":"create","field":"<java.util.Formatter$FormatToken: char conversionType>"},{"step":20,"from":"1093686568","to":"sdaReg64","type":"create","field":"<java.util.Formatter$FormatToken: int precision>"},{"step":21,"from":"1093686568","to":"sdaReg65","type":"create","field":"<java.util.Formatter$FormatToken: int width>"},{"step":22,"from":"sdaReg84","to":"1093686344","type":"store","field":"<java.util.Formatter$FormatSpecifierParser: int i>"},{"step":23,"from":"sdaReg85","to":"1093686568","type":"store","field":"<java.util.Formatter$FormatToken: char conversionType>"},{"step":24,"from":"1093675424","to":"1093675456","type":"load","field":"arrayIdx_int:0"},{"step":25,"from":"1093675840","to":"1093686568","type":"create","field":"<java.util.Formatter: java.util.Formatter$FormatToken formatToken>"},{"step":26,"from":"1093675456","to":"1093675840","type":"store","field":"<java.util.Formatter: java.lang.Object arg>"},{"step":27,"from":"1093686568","to":"1093686568.<java.util.Formatter$FormatToken: boolean flagComma>","type":"load","field":"<java.util.Formatter$FormatToken: boolean flagComma>"},{"step":28,"from":"1093686568","to":"1093686568.<java.util.Formatter$FormatToken: boolean flagMinus>","type":"load","field":"<java.util.Formatter$FormatToken: boolean flagMinus>"},{"step":29,"from":"1093686568","to":"1093686568.<java.util.Formatter$FormatToken: boolean flagParenthesis>","type":"load","field":"<java.util.Formatter$FormatToken: boolean flagParenthesis>"},{"step":30,"from":"1093686568","to":"1093686568.<java.util.Formatter$FormatToken: boolean flagPlus>","type":"load","field":"<java.util.Formatter$FormatToken: boolean flagPlus>"},{"step":31,"from":"1093686568","to":"1093686568.<java.util.Formatter$FormatToken: boolean flagSharp>","type":"load","field":"<java.util.Formatter$FormatToken: boolean flagSharp>"},{"step":32,"from":"1093686568","to":"1093686568.<java.util.Formatter$FormatToken: boolean flagSpace>","type":"load","field":"<java.util.Formatter$FormatToken: boolean flagSpace>"},{"step":33,"from":"1093686568","to":"1093686568.<java.util.Formatter$FormatToken: boolean flagZero>","type":"load","field":"<java.util.Formatter$FormatToken: boolean flagZero>"},{"step":34,"from":"1093675456","to":"sdaReg111","type":"model"},{"step":35,"from":"1093675456","to":"sdaReg122","type":"model"},{"step":36,"from":"sdaReg122","to":"sdaReg127","type":"model"},{"step":37,"from":"sdaReg127","to":"1093410888","type":"model"},{"step":38,"from":"1093610048","to":"1093610080","type":"load","field":"<java.io.Writer: java.lang.Object lock>"},{"step":39,"from":"1093610048","to":"1093610080","type":"load","field":"<java.io.PrintWriter: java.io.Writer out>"},{"step":40,"from":"1093610048","to":"1093610080","type":"load","field":"<java.io.PrintWriter: java.io.Writer out>"},{"step":41,"from":"1093610080","to":"1093609872","type":"load","field":"<java.io.Writer: java.lang.Object lock>"},{"step":42,"from":"1093610080","to":"1093628896","type":"load","field":"<java.io.OutputStreamWriter: java.nio.charset.CharsetEncoder encoder>"},{"step":43,"from":"1093291160","to":"sdaReg161","type":"create","field":"<java.nio.Buffer: int mark>"},{"step":44,"from":"1093291160","to":"sdaReg162","type":"create","field":"<java.nio.Buffer: int position>"},{"step":45,"from":"1093291160","to":"sdaReg159","type":"create","field":"<java.nio.Buffer: int _elementSizeShift>"},{"step":46,"from":"sdaReg153","to":"1093291160","type":"store","field":"<java.nio.Buffer: int limit>"},{"step":47,"from":"sdaReg153","to":"1093291160","type":"store","field":"<java.nio.Buffer: int capacity>"},{"step":48,"from":"1093291160","to":"1093410888","type":"create","field":"<java.nio.CharArrayBuffer: char[] backingArray>"},{"step":49,"from":"1093291160","to":"sdaReg156","type":"create","field":"<java.nio.CharArrayBuffer: int offset>"},{"step":50,"from":"1093291160","to":"sdaReg134","type":"create","field":"<java.nio.Buffer: int position>"},{"step":51,"from":"sdaReg169","to":"1093291160","type":"store","field":"<java.nio.Buffer: int limit>"},{"step":52,"from":"1093610080","to":"1093628896","type":"load","field":"<java.io.OutputStreamWriter: java.nio.charset.CharsetEncoder encoder>"},{"step":53,"from":"1093610080","to":"1093610112","type":"load","field":"<java.io.OutputStreamWriter: java.nio.ByteBuffer bytes>"},{"step":54,"from":"1093628896","to":"1093291160","type":"model"},{"step":55,"from":"1093628896","to":"1093610112","type":"model"},{"step":56,"from":"1093628896","to":"1084215096","type":"model"},{"step":57,"from":"1093291160","to":"1093628896","type":"model"},{"step":58,"from":"1093291160","to":"1093610112","type":"model"},{"step":59,"from":"1093291160","to":"1084215096","type":"model"},{"step":60,"from":"1093610112","to":"1093628896","type":"model"},{"step":61,"from":"1093610112","to":"1093291160","type":"model"},{"step":62,"from":"1093610112","to":"1084215096","type":"model"},{"step":63,"from":"1084215096","to":"1084215096.<java.nio.charset.CoderResult: int type>","type":"load","field":"<java.nio.charset.CoderResult: int type>"},{"step":64,"from":"1084215096","to":"1084215096.<java.nio.charset.CoderResult: int type>","type":"load","field":"<java.nio.charset.CoderResult: int type>"},{"step":65,"from":"1084215096","to":"1084215096.<java.nio.charset.CoderResult: int type>","type":"load","field":"<java.nio.charset.CoderResult: int type>"},{"step":66,"from":"1093675840","to":"sdaReg0","type":"model"},{"step":67,"from":"1093675840","to":"sdaReg53","type":"model"},{"step":68,"from":"1093675840","to":"sdaReg56","type":"model"},{"step":69,"from":"sdaReg0","to":"1093675840","type":"model"},{"step":70,"from":"sdaReg0","to":"sdaReg53","type":"model"},{"step":71,"from":"sdaReg0","to":"sdaReg56","type":"model"},{"step":72,"from":"sdaReg53","to":"1093675840","type":"model"},{"step":73,"from":"sdaReg53","to":"sdaReg0","type":"model"},{"step":74,"from":"sdaReg53","to":"sdaReg56","type":"model"},{"step":75,"from":"sdaReg56","to":"1093675840","type":"model"},{"step":76,"from":"sdaReg56","to":"sdaReg0","type":"model"},{"step":77,"from":"sdaReg56","to":"sdaReg53","type":"model"},{"step":78,"from":"sdaReg57","to":"1093686344","type":"store","field":"<java.util.Formatter$FormatSpecifierParser: int startIndex>"},{"step":79,"from":"sdaReg57","to":"1093686344","type":"store","field":"<java.util.Formatter$FormatSpecifierParser: int i>"},{"step":80,"from":"1093444736","to":"sdaReg186","type":"create","field":"<java.util.Formatter$FormatToken: int argIndex>"},{"step":81,"from":"1093444736","to":"sdaReg187","type":"create","field":"<java.util.Formatter$FormatToken: char conversionType>"},{"step":82,"from":"1093444736","to":"sdaReg188","type":"create","field":"<java.util.Formatter$FormatToken: int precision>"},{"step":83,"from":"1093444736","to":"sdaReg189","type":"create","field":"<java.util.Formatter$FormatToken: int width>"},{"step":84,"from":"sdaReg208","to":"1093686344","type":"store","field":"<java.util.Formatter$FormatSpecifierParser: int i>"},{"step":85,"from":"sdaReg209","to":"1093444736","type":"store","field":"<java.util.Formatter$FormatToken: char conversionType>"},{"step":86,"from":"1093675424","to":"1093675552","type":"load","field":"arrayIdx_int:1"},{"step":87,"from":"1093675840","to":"1093444736","type":"create","field":"<java.util.Formatter: java.util.Formatter$FormatToken formatToken>"},{"step":88,"from":"1093675552","to":"1093675840","type":"store","field":"<java.util.Formatter: java.lang.Object arg>"},{"step":89,"from":"1093444736","to":"1093444736.<java.util.Formatter$FormatToken: boolean flagComma>","type":"load","field":"<java.util.Formatter$FormatToken: boolean flagComma>"},{"step":90,"from":"1093444736","to":"1093444736.<java.util.Formatter$FormatToken: boolean flagMinus>","type":"load","field":"<java.util.Formatter$FormatToken: boolean flagMinus>"},{"step":91,"from":"1093444736","to":"1093444736.<java.util.Formatter$FormatToken: boolean flagParenthesis>","type":"load","field":"<java.util.Formatter$FormatToken: boolean flagParenthesis>"},{"step":92,"from":"1093444736","to":"1093444736.<java.util.Formatter$FormatToken: boolean flagPlus>","type":"load","field":"<java.util.Formatter$FormatToken: boolean flagPlus>"},{"step":93,"from":"1093444736","to":"1093444736.<java.util.Formatter$FormatToken: boolean flagSharp>","type":"load","field":"<java.util.Formatter$FormatToken: boolean flagSharp>"},{"step":94,"from":"1093444736","to":"1093444736.<java.util.Formatter$FormatToken: boolean flagSpace>","type":"load","field":"<java.util.Formatter$FormatToken: boolean flagSpace>"},{"step":95,"from":"1093444736","to":"1093444736.<java.util.Formatter$FormatToken: boolean flagZero>","type":"load","field":"<java.util.Formatter$FormatToken: boolean flagZero>"},{"step":96,"from":"1093675552","to":"sdaReg232","type":"model"},{"step":97,"from":"1093675552","to":"sdaReg243","type":"model"},{"step":98,"from":"sdaReg243","to":"sdaReg248","type":"model"},{"step":99,"from":"sdaReg248","to":"1093686152","type":"model"},{"step":100,"from":"1093610048","to":"1093610080","type":"load","field":"<java.io.Writer: java.lang.Object lock>"},{"step":101,"from":"1093610048","to":"1093610080","type":"load","field":"<java.io.PrintWriter: java.io.Writer out>"},{"step":102,"from":"1093610048","to":"1093610080","type":"load","field":"<java.io.PrintWriter: java.io.Writer out>"},{"step":103,"from":"1093610080","to":"1093609872","type":"load","field":"<java.io.Writer: java.lang.Object lock>"},{"step":104,"from":"1093610080","to":"1093628896","type":"load","field":"<java.io.OutputStreamWriter: java.nio.charset.CharsetEncoder encoder>"},{"step":105,"from":"1093686184","to":"sdaReg282","type":"create","field":"<java.nio.Buffer: int mark>"},{"step":106,"from":"1093686184","to":"sdaReg283","type":"create","field":"<java.nio.Buffer: int position>"},{"step":107,"from":"1093686184","to":"sdaReg280","type":"create","field":"<java.nio.Buffer: int _elementSizeShift>"},{"step":108,"from":"sdaReg274","to":"1093686184","type":"store","field":"<java.nio.Buffer: int limit>"},{"step":109,"from":"sdaReg274","to":"1093686184","type":"store","field":"<java.nio.Buffer: int capacity>"},{"step":110,"from":"1093686184","to":"1093686152","type":"create","field":"<java.nio.CharArrayBuffer: char[] backingArray>"},{"step":111,"from":"1093686184","to":"sdaReg277","type":"create","field":"<java.nio.CharArrayBuffer: int offset>"},{"step":112,"from":"1093686184","to":"sdaReg255","type":"create","field":"<java.nio.Buffer: int position>"},{"step":113,"from":"sdaReg290","to":"1093686184","type":"store","field":"<java.nio.Buffer: int limit>"},{"step":114,"from":"1093610080","to":"1093628896","type":"load","field":"<java.io.OutputStreamWriter: java.nio.charset.CharsetEncoder encoder>"},{"step":115,"from":"1093610080","to":"1093610112","type":"load","field":"<java.io.OutputStreamWriter: java.nio.ByteBuffer bytes>"},{"step":116,"from":"1093628896","to":"1093686184","type":"model"},{"step":117,"from":"1093628896","to":"1093610112","type":"model"},{"step":118,"from":"1093628896","to":"1084215096","type":"model"},{"step":119,"from":"1093686184","to":"1093628896","type":"model"},{"step":120,"from":"1093686184","to":"1093610112","type":"model"},{"step":121,"from":"1093686184","to":"1084215096","type":"model"},{"step":122,"from":"1093610112","to":"1093628896","type":"model"},{"step":123,"from":"1093610112","to":"1093686184","type":"model"},{"step":124,"from":"1093610112","to":"1084215096","type":"model"},{"step":125,"from":"1084215096","to":"1084215096.<java.nio.charset.CoderResult: int type>","type":"load","field":"<java.nio.charset.CoderResult: int type>"},{"step":126,"from":"1084215096","to":"1084215096.<java.nio.charset.CoderResult: int type>","type":"load","field":"<java.nio.charset.CoderResult: int type>"},{"step":127,"from":"1084215096","to":"1084215096.<java.nio.charset.CoderResult: int type>","type":"load","field":"<java.nio.charset.CoderResult: int type>"},{"step":128,"from":"1093256752","to":"1093675840","type":"store","field":"<java.util.Formatter: java.util.Locale locale>"},{"step":129,"from":"1093610048","to":"1093610048.<java.io.PrintWriter: boolean autoFlush>","type":"load","field":"<java.io.PrintWriter: boolean autoFlush>"}],"parameters":[{"id":"1093610048","name":"this","klass":"java.io.PrintWriter"},{"id":"sdaReg0","name":"arg#1","klass":"string"},{"id":"1093675424","name":"arg#2","klass":"java.lang.Object[]"}],"returns":[{"id":"1093610048","name":"return","klass":"java.io.PrintWriter"}],"colors":{"heapLocToColor":{"sdaReg294":[0, 26],"sdaReg191":[28],"sdaReg293":[41],"sdaReg190":[28],"sdaReg193":[28],"sdaReg295":[0, 26],"sdaReg192":[8],"sdaReg297":[0, 26],"1093444736.<java.util.Formatter$FormatToken: boolean flagPlus>":[28],"sdaReg299":[0],"sdaReg199":[28],"sdaReg198":[31],"1093444736.<java.util.Formatter$FormatToken: boolean flagZero>":[28],"1093686568.<java.util.Formatter$FormatToken: boolean flagMinus>":[12],"1093686568.<java.util.Formatter$FormatToken: boolean flagPlus>":[12],"sdaReg195":[29],"sdaReg194":[8],"sdaReg292":[0],"sdaReg197":[8],"sdaReg291":[41],"sdaReg196":[30],"sdaReg13":[4],"sdaReg14":[2],"1093675552":[2],"1093675456":[2],"sdaReg12":[4],"1093610112":[0],"sdaReg10":[4],"sdaReg19":[3],"sdaReg17":[2],"sdaReg18":[3],"sdaReg15":[4],"sdaReg16":[3],"1093675840":[4],"1093610048.<java.io.PrintWriter: boolean autoFlush>":[0],"1093686568.<java.util.Formatter$FormatToken: boolean flagSpace>":[12],"1093610048.<java.io.PrintWriter: java.io.Writer out>":[0],"1093256752":[3],"sdaReg171":[0],"sdaReg170":[25],"sdaReg173":[0, 26],"sdaReg172":[25],"sdaReg174":[0, 26],"sdaReg304":[0],"sdaReg303":[0],"sdaReg176":[0, 26],"sdaReg302":[4],"sdaReg179":[8],"1093291160":[0, 25],"sdaReg178":[0],"sdaReg300":[8],"static.<libcore.icu.LocaleData: java.util.HashMap localeDataCache>":[5],"1093444736.<java.util.Formatter$FormatToken: boolean flagSharp>":[28],"sdaReg182":[8],"sdaReg181":[27],"sdaReg180":[4, 27, 11],"sdaReg185":[28],"sdaReg184":[28],"sdaReg183":[28],"1093675424":[2],"1093444736.<java.util.Formatter$FormatToken: boolean flagParenthesis>":[28],"sdaReg60":[12],"sdaReg61":[12],"1093686344":[8],"sdaReg59":[12],"sdaReg58":[8],"sdaReg57":[4, 27, 11],"sdaReg56":[4, 27, 11],"sdaReg55":[27, 11],"sdaReg54":[11],"sdaReg53":[4],"sdaReg52":[11],"sdaReg51":[10],"sdaReg49":[2],"sdaReg45":[9],"sdaReg44":[8],"sdaReg47":[8],"sdaReg46":[8],"sdaReg41":[2],"sdaReg40":[4],"sdaReg43":[8],"sdaReg42":[4],"sdaReg205":[8],"sdaReg39":[5],"sdaReg204":[33],"sdaReg38":[5],"sdaReg203":[32],"sdaReg37":[5],"sdaReg202":[8],"sdaReg209":[34],"sdaReg207":[8],"sdaReg206":[28],"sdaReg32":[6],"sdaReg31":[6],"sdaReg30":[6],"1084215096.<java.nio.charset.CoderResult: int type>":[0, 26],"sdaReg36":[7],"sdaReg35":[6],"sdaReg8":[0],"sdaReg9":[3],"sdaReg6":[2],"sdaReg7":[4],"sdaReg4":[0],"sdaReg5":[3],"1093686568.<java.util.Formatter$FormatToken: boolean flagParenthesis>":[12],"1093610080.<java.io.Writer: java.lang.Object lock>":[0],"sdaReg27":[6],"sdaReg26":[6],"sdaReg29":[6],"sdaReg28":[6],"sdaReg3":[3],"sdaReg2":[2],"sdaReg1":[0],"sdaReg21":[3],"sdaReg20":[3],"sdaReg0":[1, 4],"sdaReg23":[5],"sdaReg22":[5],"sdaReg25":[6],"sdaReg24":[6],"sdaReg126":[22],"sdaReg127":[2, 21, 23],"1093686184":[0, 41],"sdaReg128":[2, 21, 23, 24],"sdaReg129":[0],"1093444736.<java.util.Formatter$FormatToken: boolean flagMinus>":[28],"sdaReg68":[8],"1093628896":[0],"sdaReg229":[28],"sdaReg69":[12],"sdaReg66":[12],"sdaReg67":[12],"sdaReg224":[4],"sdaReg225":[28],"sdaReg226":[2],"sdaReg227":[28],"sdaReg221":[2],"sdaReg72":[14],"sdaReg220":[8],"sdaReg71":[13],"sdaReg223":[2],"sdaReg70":[8],"sdaReg120":[2],"1093610080.<java.io.OutputStreamWriter: java.nio.ByteBuffer bytes>":[0],"1093444736.<java.util.Formatter$FormatToken: boolean flagSpace>":[28],"1093686568.<java.util.Formatter$FormatToken: boolean flagComma>":[12],"sdaReg122":[2, 21],"1093610080":[0],"sdaReg121":[2],"sdaReg124":[0],"sdaReg123":[22],"sdaReg117":[0],"sdaReg114":[4],"sdaReg115":[2],"sdaReg118":[2],"sdaReg119":[0],"sdaReg219":[2],"sdaReg78":[8],"sdaReg79":[16],"1093686568.<java.util.Formatter$FormatToken: boolean flagSharp>":[12],"sdaReg218":[4],"sdaReg73":[8],"sdaReg216":[28],"sdaReg74":[15],"sdaReg213":[28],"sdaReg75":[12],"sdaReg214":[28],"sdaReg212":[28],"sdaReg81":[8],"sdaReg211":[28],"sdaReg80":[17],"sdaReg210":[28],"sdaReg83":[8],"sdaReg82":[12],"1084215096":[0, 26],"sdaReg113":[20],"1093609872":[0],"sdaReg112":[2],"1093410888":[2, 21, 23, 24],"sdaReg111":[2, 19],"sdaReg108":[12],"1085760672":[5],"sdaReg103":[4],"sdaReg104":[12],"sdaReg105":[2],"1093686568.<java.util.Formatter$FormatToken: boolean flagZero>":[12],"sdaReg106":[12],"sdaReg86":[12],"sdaReg247":[38],"sdaReg87":[12],"sdaReg248":[2, 39, 37],"sdaReg249":[2, 39, 37, 40],"sdaReg85":[18],"sdaReg88":[12],"sdaReg89":[12],"1093610048.<java.io.Writer: java.lang.Object lock>":[0],"sdaReg241":[2],"sdaReg240":[0],"sdaReg243":[2, 37],"sdaReg242":[2],"sdaReg93":[12],"sdaReg245":[0],"sdaReg244":[38],"sdaReg91":[12],"sdaReg102":[2],"1093256752.<java.util.Locale: java.lang.String cachedToStringResult>":[3],"1085767472":[5],"1093686152":[2, 39, 37, 40],"sdaReg238":[0],"sdaReg235":[4],"sdaReg97":[4],"sdaReg236":[2],"sdaReg98":[2],"sdaReg99":[8],"sdaReg239":[2],"1093444736.<java.util.Formatter$FormatToken: boolean flagComma>":[28],"sdaReg234":[36],"sdaReg233":[2],"sdaReg232":[35, 2],"1093686568":[12],"1085760768":[5],"1093610048":[0],"sdaReg163":[25],"sdaReg164":[25],"sdaReg165":[25],"sdaReg166":[25],"sdaReg167":[25],"sdaReg168":[25],"1093610080.<java.io.OutputStreamWriter: java.nio.charset.CharsetEncoder encoder>":[0],"sdaReg266":[2, 39, 37, 40],"sdaReg260":[2, 39, 37, 40],"sdaReg261":[0],"sdaReg262":[0],"sdaReg160":[25],"static.<java.util.Locale: java.util.Locale defaultLocale>":[3],"sdaReg259":[0],"sdaReg258":[0],"sdaReg257":[2, 39, 37, 40],"sdaReg158":[25],"sdaReg152":[2, 21, 23, 24],"sdaReg150":[2, 21, 23, 24],"sdaReg151":[25],"1085767472.<java.util.HashMap$HashMapEntry: int hash>":[5],"sdaReg157":[25],"sdaReg154":[25],"sdaReg155":[2, 21, 23, 24],"sdaReg256":[0],"sdaReg253":[0],"sdaReg254":[2, 39, 37, 40],"sdaReg251":[2, 39, 37, 40],"sdaReg250":[0],"sdaReg149":[25],"sdaReg145":[2, 21, 23, 24],"sdaReg141":[0],"sdaReg281":[41],"sdaReg284":[41],"sdaReg285":[41],"sdaReg286":[41],"sdaReg287":[41],"sdaReg288":[41],"sdaReg289":[41],"sdaReg279":[41],"1093444736":[28],"1085803528":[5],"sdaReg139":[2, 21, 23, 24],"sdaReg138":[0],"sdaReg136":[2, 21, 23, 24],"sdaReg135":[0],"sdaReg132":[0],"sdaReg133":[2, 21, 23, 24],"sdaReg130":[2, 21, 23, 24],"sdaReg270":[41],"sdaReg273":[2, 39, 37, 40],"1085769600":[5],"sdaReg271":[2, 39, 37, 40],"sdaReg272":[41],"sdaReg278":[41],"sdaReg275":[41],"sdaReg276":[2, 39, 37, 40]},"colorToColor":{"34":[28],"0":[0, 4, 42, 25, 41, 26],"1":[4, 8, 27, 11],"2":[4, 25, 41],"3":[4],"4":[1, 4, 8, 27, 11],"39":[41],"5":[4],"37":[41],"9":[8],"40":[41],"41":[0, 26],"11":[1, 4, 8],"12":[4],"18":[12],"21":[25],"23":[25],"25":[0, 26],"24":[25],"27":[1, 4, 8],"28":[4]},"colorToLabel":{"0":"this","1":"arg#1","2":"arg#2","3":"<java.util.Locale: java.util.Locale defaultLocale>","5":"<libcore.icu.LocaleData: java.util.HashMap localeDataCache>","42":"return"}}}

Generated Model
	this->return
	this->arg#1
	arg#2->this
	arg#2->return
	arg#2->arg#1

