Scanning method <java.io.ByteArrayInputStream: void <init>(byte[],int,int)>

All seen event types: BinaryOperationRecord, MethodReturnRecord, MethodCallRecord, ArrayLengthRecord, MethodStartRecord, IfRecord, MethodEndRecord, StoreInstanceRecord, 
Ignored event types: IfRecord, 

JSON Encoded Analysis Data (for visualization):{"heapEdges":[{"step":0,"from":"1093279360","to":"1093324720","type":"store","field":"<java.io.ByteArrayInputStream: byte[] buf>"},{"step":1,"from":"sdaReg0","to":"1093324720","type":"store","field":"<java.io.ByteArrayInputStream: int pos>"},{"step":2,"from":"sdaReg0","to":"1093324720","type":"store","field":"<java.io.ByteArrayInputStream: int mark>"},{"step":3,"from":"sdaReg7","to":"1093324720","type":"store","field":"<java.io.ByteArrayInputStream: int count>"}],"parameters":[{"id":"1093324720","name":"this","klass":"java.io.ByteArrayInputStream"},{"id":"1093279360","name":"arg#1","klass":"byte[]"},{"id":"sdaReg0","name":"arg#2","klass":"int"},{"id":"sdaReg1","name":"arg#3","klass":"int"}],"returns":[{"id":"1093324720","name":"return","klass":"java.io.ByteArrayInputStream"}],"colors":{"heapLocToColor":{"1093324720":[0],"sdaReg4":[0],"1093279360":[1],"sdaReg5":[2, 3],"sdaReg3":[0],"sdaReg2":[0],"sdaReg1":[3],"sdaReg0":[2]},"colorToColor":{"0":[4],"1":[0],"2":[0]},"colorToLabel":{"0":"this","1":"arg#1","2":"arg#2","3":"arg#3","4":"return"}}}

Generated Model
	this->return
	arg#2->this
	arg#2->return
	arg#1->this
	arg#1->return

