Scanning method <java.net.URL: java.lang.String getQuery()>

All seen event types: LoadInstanceRecord, 
Ignored event types: 

JSON Encoded Analysis Data (for visualization):{"heapEdges":[{"step":0,"from":"1094037960","to":"1094037960.<java.net.URL: java.lang.String query>","type":"load","field":"<java.net.URL: java.lang.String query>"}],"parameters":[{"id":"1094037960","name":"this","klass":"java.net.URL"}],"returns":[{"id":"1094037960.<java.net.URL: java.lang.String query>","name":"return","klass":"string"}],"colors":{"heapLocToColor":{"1094037960.<java.net.URL: java.lang.String query>":[0],"1094037960":[0]},"colorToColor":{"0":[1]},"colorToLabel":{"0":"this","1":"return"}}}

Generated Model
	this->return

