Scanning method <android.location.Address: java.lang.String getCountryCode()>

All seen event types: LoadInstanceRecord, 
Ignored event types: 

JSON Encoded Analysis Data (for visualization):{"heapEdges":[{"step":0,"from":"1093990016","to":"1093990016.<android.location.Address: java.lang.String mCountryCode>","type":"load","field":"<android.location.Address: java.lang.String mCountryCode>"}],"parameters":[{"id":"1093990016","name":"this","klass":"android.location.Address"}],"returns":[{"id":"1093990016.<android.location.Address: java.lang.String mCountryCode>","name":"return","klass":"string"}],"colors":{"heapLocToColor":{"1093990016":[0],"1093990016.<android.location.Address: java.lang.String mCountryCode>":[0]},"colorToColor":{"0":[1]},"colorToLabel":{"0":"this","1":"return"}}}

Generated Model
	this->return

