Scanning method <java.util.ArrayList: boolean add(java.lang.Object)>

All seen event types: BinaryOperationRecord, StoreArrayRecord, ArrayLengthRecord, LoadInstanceRecord, IfRecord, StoreInstanceRecord, 
Ignored event types: IfRecord, 

JSON Encoded Analysis Data (for visualization):{"heapEdges":[{"step":0,"from":"1093370888","to":"1093613840","type":"load","field":"<java.util.ArrayList: java.lang.Object[] array>"},{"step":1,"from":"1093370888","to":"1093370888.<java.util.ArrayList: int size>","type":"load","field":"<java.util.ArrayList: int size>"},{"step":2,"from":"1093483112","to":"1093613840","type":"store","field":"arrayIdx_int:85"},{"step":3,"from":"sdaReg1","to":"1093370888","type":"store","field":"<java.util.ArrayList: int size>"},{"step":4,"from":"1093370888","to":"1093370888.<java.util.AbstractList: int modCount>","type":"load","field":"<java.util.AbstractList: int modCount>"},{"step":5,"from":"sdaReg2","to":"1093370888","type":"store","field":"<java.util.AbstractList: int modCount>"}],"parameters":[{"id":"1093370888","name":"this","klass":"java.util.ArrayList"},{"id":"1093483112","name":"arg#1","klass":"java.lang.Object"}],"returns":[{"id":null,"name":"return","klass":"boolean"}],"colors":{"heapLocToColor":{"1093370888.<java.util.ArrayList: int size>":[0],"1093613840":[0],"1093370888.<java.util.AbstractList: int modCount>":[0],"sdaReg2":[0],"sdaReg1":[0],"1093483112":[1],"1093370888":[0]},"colorToColor":{"0":[0],"1":[0]},"colorToLabel":{"0":"this","1":"arg#1","2":"return"}}}

Generated Model
	arg#1->this

