Scanning method <java.util.ArrayList: boolean add(java.lang.Object)>

All seen event types: NewArrayRecord, BinaryOperationRecord, StoreArrayRecord, SimpleAssignmentRecord, MethodReturnRecord, MethodCallRecord, ArrayLengthRecord, LoadInstanceRecord, IfRecord, StoreInstanceRecord, 
Ignored event types: IfRecord, 

JSON Encoded Analysis Data (for visualization):{"heapEdges":[{"step":0,"from":"1093414184","to":"1093682528","type":"load","field":"<java.util.ArrayList: java.lang.Object[] array>"},{"step":1,"from":"1093414184","to":"1093414184.<java.util.ArrayList: int size>","type":"load","field":"<java.util.ArrayList: int size>"},{"step":2,"from":"1093682528","to":"1093686304","type":"model"},{"step":3,"from":"1093414184","to":"1093686304","type":"create","field":"<java.util.ArrayList: java.lang.Object[] array>"},{"step":4,"from":"1093520840","to":"1093686304","type":"store","field":"arrayIdx_int:90"},{"step":5,"from":"sdaReg3","to":"1093414184","type":"store","field":"<java.util.ArrayList: int size>"},{"step":6,"from":"1093414184","to":"1093414184.<java.util.AbstractList: int modCount>","type":"load","field":"<java.util.AbstractList: int modCount>"},{"step":7,"from":"sdaReg4","to":"1093414184","type":"store","field":"<java.util.AbstractList: int modCount>"}],"parameters":[{"id":"1093414184","name":"this","klass":"java.util.ArrayList"},{"id":"1093520840","name":"arg#1","klass":"java.lang.Object"}],"returns":[{"id":null,"name":"return","klass":"boolean"}],"colors":{"heapLocToColor":{"1093686304":[2],"1093682528":[0],"sdaReg4":[0],"1093414184.<java.util.AbstractList: int modCount>":[0],"1093414184.<java.util.ArrayList: int size>":[0],"sdaReg3":[0],"sdaReg2":[0],"sdaReg1":[0],"1093414184":[0],"1093520840":[1]},"colorToColor":{"0":[0, 2],"1":[2],"2":[0]},"colorToLabel":{"0":"this","1":"arg#1","3":"return"}}}

Generated Model
	arg#1->this

