Scanning method <java.util.ArrayList: boolean add(java.lang.Object)>

All seen event types: BinaryOperationRecord, StoreArrayRecord, ArrayLengthRecord, LoadInstanceRecord, IfRecord, StoreInstanceRecord, 
Ignored event types: IfRecord, 

JSON Encoded Analysis Data (for visualization):{"heapEdges":[{"step":0,"from":"1093398408","to":"1093615200","type":"load","field":"<java.util.ArrayList: java.lang.Object[] array>"},{"step":1,"from":"1093398408","to":"1093398408.<java.util.ArrayList: int size>","type":"load","field":"<java.util.ArrayList: int size>"},{"step":2,"from":"1093428648","to":"1093615200","type":"store","field":"arrayIdx_int:56"},{"step":3,"from":"sdaReg1","to":"1093398408","type":"store","field":"<java.util.ArrayList: int size>"},{"step":4,"from":"1093398408","to":"1093398408.<java.util.AbstractList: int modCount>","type":"load","field":"<java.util.AbstractList: int modCount>"},{"step":5,"from":"sdaReg2","to":"1093398408","type":"store","field":"<java.util.AbstractList: int modCount>"}],"parameters":[{"id":"1093398408","name":"this","klass":"java.util.ArrayList"},{"id":"1093428648","name":"arg#1","klass":"java.lang.Object"}],"returns":[{"id":null,"name":"return","klass":"boolean"}],"colors":{"heapLocToColor":{"1093615200":[0],"1093398408.<java.util.ArrayList: int size>":[0],"sdaReg2":[0],"sdaReg1":[0],"1093398408.<java.util.AbstractList: int modCount>":[0],"1093428648":[1],"1093398408":[0]},"colorToColor":{"0":[0],"1":[0]},"colorToLabel":{"0":"this","1":"arg#1","2":"return"}}}

Generated Model
	arg#1->this

