Scanning method <java.io.PrintWriter: void <init>(java.io.OutputStream,boolean)>

All seen event types: SimpleAssignmentRecord, MethodStartRecord, LoadInstanceRecord, IfRecord, NewObjectRecord, StoreInstanceRecord, LoadStaticRecord, NewArrayRecord, BinaryOperationRecord, MethodCallRecord, MethodReturnRecord, CastRecord, ArrayLengthRecord, LoadArrayRecord, MethodEndRecord, 
Ignored event types: IfRecord, 

JSON Encoded Analysis Data (for visualization):{"heapEdges":[{"step":0,"from":"static.<java.nio.charset.Charset: java.nio.charset.Charset DEFAULT_CHARSET>","to":"1084325896","type":"load","field":"<java.nio.charset.Charset: java.nio.charset.Charset DEFAULT_CHARSET>"},{"step":1,"from":"1093582432","to":"1093582640","type":"store","field":"<java.io.Writer: java.lang.Object lock>"},{"step":2,"from":"1093582672","to":"sdaReg24","type":"create","field":"<java.nio.Buffer: int mark>"},{"step":3,"from":"1093582672","to":"sdaReg25","type":"create","field":"<java.nio.Buffer: int position>"},{"step":4,"from":"1093582672","to":"sdaReg21","type":"create","field":"<java.nio.Buffer: int _elementSizeShift>"},{"step":5,"from":"1093582672","to":"sdaReg11","type":"create","field":"<java.nio.Buffer: int limit>"},{"step":6,"from":"sdaReg11","to":"1093582672","type":"store","field":"<java.nio.Buffer: int capacity>"},{"step":7,"from":"static.<java.nio.ByteOrder: java.nio.ByteOrder BIG_ENDIAN>","to":"1084339448","type":"load","field":"<java.nio.ByteOrder: java.nio.ByteOrder BIG_ENDIAN>"},{"step":8,"from":"1084339448","to":"1093582672","type":"store","field":"<java.nio.ByteBuffer: java.nio.ByteOrder order>"},{"step":9,"from":"1093582672","to":"1093582728","type":"create","field":"<java.nio.HeapByteBuffer: byte[] backingArray>"},{"step":10,"from":"1093582672","to":"sdaReg16","type":"create","field":"<java.nio.HeapByteBuffer: int offset>"},{"step":11,"from":"1093582640","to":"1093582672","type":"create","field":"<java.io.OutputStreamWriter: java.nio.ByteBuffer bytes>"},{"step":12,"from":"1093582432","to":"1093582640","type":"store","field":"<java.io.OutputStreamWriter: java.io.OutputStream out>"},{"step":13,"from":"1084325896","to":"1084325896.<java.nio.charset.CharsetICU: java.lang.String icuCanonicalName>","type":"load","field":"<java.nio.charset.CharsetICU: java.lang.String icuCanonicalName>"},{"step":14,"from":"1084325896.<java.nio.charset.CharsetICU: java.lang.String icuCanonicalName>","to":"sdaReg38","type":"model"},{"step":15,"from":"sdaReg38","to":"sdaReg39","type":"model"},{"step":16,"from":"sdaReg38","to":"sdaReg40","type":"model"},{"step":17,"from":"static.<java.nio.charset.CharsetEncoderICU: java.util.Map DEFAULT_REPLACEMENTS>","to":"1085689080","type":"load","field":"<java.nio.charset.CharsetEncoderICU: java.util.Map DEFAULT_REPLACEMENTS>"},{"step":18,"from":"1085689080","to":"1085689160","type":"load","field":"<java.util.HashMap: java.util.HashMap$HashMapEntry[] table>"},{"step":19,"from":"1085689160","to":"1085689200","type":"load","field":"arrayIdx_int:1"},{"step":20,"from":"1085689200","to":"1083986640","type":"load","field":"<java.util.HashMap$HashMapEntry: java.lang.Object key>"},{"step":21,"from":"1085689200","to":"1085689200.<java.util.HashMap$HashMapEntry: int hash>","type":"load","field":"<java.util.HashMap$HashMapEntry: int hash>"},{"step":22,"from":"1085689200","to":"1085689136","type":"load","field":"<java.util.HashMap$HashMapEntry: java.lang.Object value>"},{"step":23,"from":"1085689136","to":"1093601312","type":"model"},{"step":24,"from":"1093601336","to":"1084325896","type":"model"},{"step":25,"from":"1093601336","to":"sdaReg39","type":"model"},{"step":26,"from":"1093601336","to":"sdaReg41","type":"model"},{"step":27,"from":"1093601336","to":"1093601312","type":"model"},{"step":28,"from":"1084325896","to":"1093601336","type":"model"},{"step":29,"from":"1084325896","to":"sdaReg39","type":"model"},{"step":30,"from":"1084325896","to":"sdaReg41","type":"model"},{"step":31,"from":"1084325896","to":"1093601312","type":"model"},{"step":32,"from":"1084325896","to":"1093601336","type":"model"},{"step":33,"from":"sdaReg39","to":"1093601336","type":"model"},{"step":34,"from":"sdaReg39","to":"1084325896","type":"model"},{"step":35,"from":"sdaReg39","to":"sdaReg41","type":"model"},{"step":36,"from":"sdaReg39","to":"1093601312","type":"model"},{"step":37,"from":"sdaReg39","to":"1093601336","type":"model"},{"step":38,"from":"sdaReg41","to":"1093601336","type":"model"},{"step":39,"from":"sdaReg41","to":"1084325896","type":"model"},{"step":40,"from":"sdaReg41","to":"sdaReg39","type":"model"},{"step":41,"from":"sdaReg41","to":"1093601312","type":"model"},{"step":42,"from":"sdaReg41","to":"1093601336","type":"model"},{"step":43,"from":"1093601312","to":"1093601336","type":"model"},{"step":44,"from":"1093601312","to":"1084325896","type":"model"},{"step":45,"from":"1093601312","to":"sdaReg39","type":"model"},{"step":46,"from":"1093601312","to":"sdaReg41","type":"model"},{"step":47,"from":"1093601312","to":"1093601336","type":"model"},{"step":48,"from":"1093601336","to":"1093601464","type":"create","field":"<java.nio.charset.CharsetEncoderICU: int[] data>"},{"step":49,"from":"1093601336","to":"sdaReg65","type":"create","field":"<java.nio.charset.CharsetEncoderICU: long converterHandle>"},{"step":50,"from":"1093601336","to":"sdaReg66","type":"create","field":"<java.nio.charset.CharsetEncoderICU: char[] input>"},{"step":51,"from":"1093601336","to":"sdaReg67","type":"create","field":"<java.nio.charset.CharsetEncoderICU: byte[] output>"},{"step":52,"from":"1093601336","to":"sdaReg68","type":"create","field":"<java.nio.charset.CharsetEncoderICU: char[] allocatedInput>"},{"step":53,"from":"1093601336","to":"sdaReg69","type":"create","field":"<java.nio.charset.CharsetEncoderICU: byte[] allocatedOutput>"},{"step":54,"from":"sdaReg38","to":"1093601336","type":"store","field":"<java.nio.charset.CharsetEncoderICU: long converterHandle>"},{"step":55,"from":"1093601336","to":"1084336272","type":"load","field":"<java.nio.charset.CharsetEncoder: java.nio.charset.CodingErrorAction malformedInputAction>"},{"step":56,"from":"static.<java.nio.charset.CodingErrorAction: java.nio.charset.CodingErrorAction REPORT>","to":"1084336272","type":"load","field":"<java.nio.charset.CodingErrorAction: java.nio.charset.CodingErrorAction REPORT>"},{"step":57,"from":"1093601336","to":"1084336272","type":"load","field":"<java.nio.charset.CharsetEncoder: java.nio.charset.CodingErrorAction unmappableCharacterAction>"},{"step":58,"from":"static.<java.nio.charset.CodingErrorAction: java.nio.charset.CodingErrorAction REPORT>","to":"1084336272","type":"load","field":"<java.nio.charset.CodingErrorAction: java.nio.charset.CodingErrorAction REPORT>"},{"step":59,"from":"1093601336","to":"1093601312","type":"load","field":"<java.nio.charset.CharsetEncoder: byte[] replacementBytes>"},{"step":60,"from":"sdaReg71","to":"sdaReg76","type":"model"},{"step":61,"from":"sdaReg71","to":"sdaReg80","type":"model"},{"step":62,"from":"sdaReg71","to":"1093601312","type":"model"},{"step":63,"from":"sdaReg71","to":"sdaReg83","type":"model"},{"step":64,"from":"sdaReg76","to":"sdaReg71","type":"model"},{"step":65,"from":"sdaReg76","to":"sdaReg80","type":"model"},{"step":66,"from":"sdaReg76","to":"1093601312","type":"model"},{"step":67,"from":"sdaReg76","to":"sdaReg83","type":"model"},{"step":68,"from":"sdaReg80","to":"sdaReg71","type":"model"},{"step":69,"from":"sdaReg80","to":"sdaReg76","type":"model"},{"step":70,"from":"sdaReg80","to":"1093601312","type":"model"},{"step":71,"from":"sdaReg80","to":"sdaReg83","type":"model"},{"step":72,"from":"1093601312","to":"sdaReg71","type":"model"},{"step":73,"from":"1093601312","to":"sdaReg76","type":"model"},{"step":74,"from":"1093601312","to":"sdaReg80","type":"model"},{"step":75,"from":"1093601312","to":"sdaReg83","type":"model"},{"step":76,"from":"sdaReg83","to":"1093601336","type":"store","field":"<java.nio.charset.CharsetEncoderICU: int ec>"},{"step":77,"from":"1093582640","to":"1093601336","type":"create","field":"<java.io.OutputStreamWriter: java.nio.charset.CharsetEncoder encoder>"},{"step":78,"from":"static.<java.nio.charset.CodingErrorAction: java.nio.charset.CodingErrorAction REPLACE>","to":"1084051696","type":"load","field":"<java.nio.charset.CodingErrorAction: java.nio.charset.CodingErrorAction REPLACE>"},{"step":79,"from":"1084051696","to":"1093601336","type":"store","field":"<java.nio.charset.CharsetEncoder: java.nio.charset.CodingErrorAction malformedInputAction>"},{"step":80,"from":"static.<java.nio.charset.CodingErrorAction: java.nio.charset.CodingErrorAction REPORT>","to":"1084336272","type":"load","field":"<java.nio.charset.CodingErrorAction: java.nio.charset.CodingErrorAction REPORT>"},{"step":81,"from":"static.<java.nio.charset.CodingErrorAction: java.nio.charset.CodingErrorAction IGNORE>","to":"1084016976","type":"load","field":"<java.nio.charset.CodingErrorAction: java.nio.charset.CodingErrorAction IGNORE>"},{"step":82,"from":"static.<java.nio.charset.CodingErrorAction: java.nio.charset.CodingErrorAction REPLACE>","to":"1084051696","type":"load","field":"<java.nio.charset.CodingErrorAction: java.nio.charset.CodingErrorAction REPLACE>"},{"step":83,"from":"1093601336","to":"1084336272","type":"load","field":"<java.nio.charset.CharsetEncoder: java.nio.charset.CodingErrorAction unmappableCharacterAction>"},{"step":84,"from":"static.<java.nio.charset.CodingErrorAction: java.nio.charset.CodingErrorAction REPORT>","to":"1084336272","type":"load","field":"<java.nio.charset.CodingErrorAction: java.nio.charset.CodingErrorAction REPORT>"},{"step":85,"from":"1093601336","to":"1093601312","type":"load","field":"<java.nio.charset.CharsetEncoder: byte[] replacementBytes>"},{"step":86,"from":"sdaReg97","to":"sdaReg102","type":"model"},{"step":87,"from":"sdaReg97","to":"sdaReg106","type":"model"},{"step":88,"from":"sdaReg97","to":"1093601312","type":"model"},{"step":89,"from":"sdaReg97","to":"sdaReg109","type":"model"},{"step":90,"from":"sdaReg102","to":"sdaReg97","type":"model"},{"step":91,"from":"sdaReg102","to":"sdaReg106","type":"model"},{"step":92,"from":"sdaReg102","to":"1093601312","type":"model"},{"step":93,"from":"sdaReg102","to":"sdaReg109","type":"model"},{"step":94,"from":"sdaReg106","to":"sdaReg97","type":"model"},{"step":95,"from":"sdaReg106","to":"sdaReg102","type":"model"},{"step":96,"from":"sdaReg106","to":"1093601312","type":"model"},{"step":97,"from":"sdaReg106","to":"sdaReg109","type":"model"},{"step":98,"from":"1093601312","to":"sdaReg97","type":"model"},{"step":99,"from":"1093601312","to":"sdaReg102","type":"model"},{"step":100,"from":"1093601312","to":"sdaReg106","type":"model"},{"step":101,"from":"1093601312","to":"sdaReg109","type":"model"},{"step":102,"from":"sdaReg109","to":"1093601336","type":"store","field":"<java.nio.charset.CharsetEncoderICU: int ec>"},{"step":103,"from":"static.<java.nio.charset.CodingErrorAction: java.nio.charset.CodingErrorAction REPLACE>","to":"1084051696","type":"load","field":"<java.nio.charset.CodingErrorAction: java.nio.charset.CodingErrorAction REPLACE>"},{"step":104,"from":"1084051696","to":"1093601336","type":"store","field":"<java.nio.charset.CharsetEncoder: java.nio.charset.CodingErrorAction unmappableCharacterAction>"},{"step":105,"from":"static.<java.nio.charset.CodingErrorAction: java.nio.charset.CodingErrorAction REPORT>","to":"1084336272","type":"load","field":"<java.nio.charset.CodingErrorAction: java.nio.charset.CodingErrorAction REPORT>"},{"step":106,"from":"static.<java.nio.charset.CodingErrorAction: java.nio.charset.CodingErrorAction IGNORE>","to":"1084016976","type":"load","field":"<java.nio.charset.CodingErrorAction: java.nio.charset.CodingErrorAction IGNORE>"},{"step":107,"from":"static.<java.nio.charset.CodingErrorAction: java.nio.charset.CodingErrorAction REPLACE>","to":"1084051696","type":"load","field":"<java.nio.charset.CodingErrorAction: java.nio.charset.CodingErrorAction REPLACE>"},{"step":108,"from":"static.<java.nio.charset.CodingErrorAction: java.nio.charset.CodingErrorAction REPORT>","to":"1084336272","type":"load","field":"<java.nio.charset.CodingErrorAction: java.nio.charset.CodingErrorAction REPORT>"},{"step":109,"from":"static.<java.nio.charset.CodingErrorAction: java.nio.charset.CodingErrorAction IGNORE>","to":"1084016976","type":"load","field":"<java.nio.charset.CodingErrorAction: java.nio.charset.CodingErrorAction IGNORE>"},{"step":110,"from":"static.<java.nio.charset.CodingErrorAction: java.nio.charset.CodingErrorAction REPLACE>","to":"1084051696","type":"load","field":"<java.nio.charset.CodingErrorAction: java.nio.charset.CodingErrorAction REPLACE>"},{"step":111,"from":"1093601336","to":"1093601312","type":"load","field":"<java.nio.charset.CharsetEncoder: byte[] replacementBytes>"},{"step":112,"from":"sdaReg117","to":"sdaReg122","type":"model"},{"step":113,"from":"sdaReg117","to":"sdaReg126","type":"model"},{"step":114,"from":"sdaReg117","to":"1093601312","type":"model"},{"step":115,"from":"sdaReg117","to":"sdaReg129","type":"model"},{"step":116,"from":"sdaReg122","to":"sdaReg117","type":"model"},{"step":117,"from":"sdaReg122","to":"sdaReg126","type":"model"},{"step":118,"from":"sdaReg122","to":"1093601312","type":"model"},{"step":119,"from":"sdaReg122","to":"sdaReg129","type":"model"},{"step":120,"from":"sdaReg126","to":"sdaReg117","type":"model"},{"step":121,"from":"sdaReg126","to":"sdaReg122","type":"model"},{"step":122,"from":"sdaReg126","to":"1093601312","type":"model"},{"step":123,"from":"sdaReg126","to":"sdaReg129","type":"model"},{"step":124,"from":"1093601312","to":"sdaReg117","type":"model"},{"step":125,"from":"1093601312","to":"sdaReg122","type":"model"},{"step":126,"from":"1093601312","to":"sdaReg126","type":"model"},{"step":127,"from":"1093601312","to":"sdaReg129","type":"model"},{"step":128,"from":"sdaReg129","to":"1093601336","type":"store","field":"<java.nio.charset.CharsetEncoderICU: int ec>"},{"step":129,"from":"1093582608","to":"1093582640","type":"create","field":"<java.io.Writer: java.lang.Object lock>"},{"step":130,"from":"sdaReg0","to":"1093582608","type":"store","field":"<java.io.PrintWriter: boolean autoFlush>"},{"step":131,"from":"1093582640","to":"1093582608","type":"store","field":"<java.io.PrintWriter: java.io.Writer out>"}],"parameters":[{"id":"1093582608","name":"this","klass":"java.io.PrintWriter"},{"id":"1093582432","name":"arg#1","klass":"java.io.OutputStream"},{"id":"sdaReg0","name":"arg#2","klass":"boolean"}],"returns":[{"id":"1093582608","name":"return","klass":"java.io.PrintWriter"}],"colors":{"heapLocToColor":{"sdaReg125":[19],"sdaReg127":[15],"sdaReg128":[11, 14, 15],"sdaReg129":[22],"1093601464":[16],"1085689200":[11],"sdaReg64":[15],"sdaReg62":[4],"sdaReg63":[11, 14],"sdaReg13":[5],"sdaReg72":[15],"sdaReg14":[5],"static.<java.nio.charset.CharsetEncoderICU: java.util.Map DEFAULT_REPLACEMENTS>":[11],"sdaReg70":[15],"sdaReg12":[5],"sdaReg10":[3],"1093601336.<java.nio.charset.CharsetEncoder: java.nio.charset.CodingErrorAction unmappableCharacterAction>":[17, 15],"sdaReg120":[19],"sdaReg17":[5],"sdaReg121":[19],"sdaReg18":[5],"sdaReg124":[19],"sdaReg15":[6],"sdaReg123":[15],"1085689200.<java.util.HashMap$HashMapEntry: int hash>":[11],"sdaReg116":[15],"sdaReg114":[15],"1093582640":[3],"sdaReg115":[19],"sdaReg118":[15],"sdaReg119":[15],"sdaReg77":[15],"sdaReg78":[17, 15],"sdaReg79":[17, 15],"1085689080":[11],"sdaReg73":[15],"sdaReg74":[15],"sdaReg75":[15],"sdaReg81":[15],"sdaReg83":[18],"sdaReg82":[11, 14, 15],"1085689136":[11],"sdaReg113":[19],"sdaReg112":[15],"sdaReg107":[15],"sdaReg108":[11, 14, 15],"sdaReg109":[21],"1093582672":[5],"sdaReg103":[15],"sdaReg104":[17, 15],"sdaReg105":[17, 15],"sdaReg86":[15],"sdaReg87":[15],"sdaReg88":[15],"sdaReg89":[8],"sdaReg90":[15],"sdaReg94":[15],"sdaReg93":[19],"sdaReg92":[15],"1085689160":[11],"sdaReg91":[15],"sdaReg100":[19],"sdaReg101":[19],"static.<java.nio.charset.CodingErrorAction: java.nio.charset.CodingErrorAction REPLACE>":[19],"1084051696":[19],"sdaReg95":[19],"sdaReg96":[15],"sdaReg98":[15],"sdaReg99":[15],"1084339448":[7],"1084016976":[20],"sdaReg60":[11, 14],"sdaReg61":[15],"1083986640":[11],"sdaReg59":[11, 14],"sdaReg58":[11, 14],"sdaReg57":[11],"sdaReg56":[11],"sdaReg55":[13],"1093601336.<java.nio.charset.CharsetEncoder: byte[] replacementBytes>":[11, 14, 15],"static.<java.nio.ByteOrder: java.nio.ByteOrder BIG_ENDIAN>":[7],"1093582608":[0],"sdaReg54":[12],"sdaReg51":[12],"sdaReg50":[12],"1093601336":[15],"static.<java.nio.charset.CodingErrorAction: java.nio.charset.CodingErrorAction IGNORE>":[20],"sdaReg49":[12],"sdaReg48":[12],"sdaReg45":[12],"sdaReg44":[12],"static.<java.nio.charset.CodingErrorAction: java.nio.charset.CodingErrorAction REPORT>":[17, 15],"1084325896.<java.nio.charset.CharsetICU: java.lang.String icuCanonicalName>":[4],"sdaReg47":[12],"1084336272":[17, 15],"sdaReg46":[12],"sdaReg41":[10, 15],"sdaReg40":[10],"sdaReg43":[12],"sdaReg42":[11],"static.<java.nio.charset.Charset: java.nio.charset.Charset DEFAULT_CHARSET>":[4],"sdaReg39":[9, 15],"sdaReg38":[8],"sdaReg140":[0],"1093582432":[1],"sdaReg32":[5],"sdaReg31":[5],"1093582728":[6],"sdaReg36":[4],"sdaReg35":[4],"sdaReg34":[5],"sdaReg33":[5],"sdaReg8":[1],"sdaReg9":[3],"sdaReg6":[4],"sdaReg7":[3],"sdaReg4":[3],"sdaReg5":[1],"1084325896":[4, 15],"1093601312":[11, 14, 15],"sdaReg139":[0],"sdaReg138":[0],"sdaReg137":[3],"sdaReg136":[0],"sdaReg134":[0],"sdaReg27":[5],"sdaReg135":[3],"sdaReg26":[5],"sdaReg132":[3],"sdaReg133":[3],"sdaReg28":[5],"sdaReg3":[4],"sdaReg2":[1],"sdaReg1":[3],"sdaReg0":[2],"sdaReg20":[5],"sdaReg23":[5]},"colorToColor":{"0":[23],"1":[3],"2":[0],"3":[0],"4":[8, 9, 10, 11, 14, 15],"5":[3],"6":[5],"7":[5],"8":[9, 10, 15],"9":[4, 10, 11, 14, 15],"10":[4, 9, 11, 14, 15],"11":[18, 21, 4, 22, 9, 10, 15],"14":[18, 21, 4, 22, 9, 10, 15],"15":[3, 18, 21, 4, 22, 9, 10, 11, 14, 15],"16":[15],"19":[15],"18":[15],"21":[15],"22":[15]},"colorToLabel":{"0":"this","1":"arg#1","2":"arg#2","4":"<java.nio.charset.Charset: java.nio.charset.Charset DEFAULT_CHARSET>","7":"<java.nio.ByteOrder: java.nio.ByteOrder BIG_ENDIAN>","11":"<java.nio.charset.CharsetEncoderICU: java.util.Map DEFAULT_REPLACEMENTS>","17":"<java.nio.charset.CodingErrorAction: java.nio.charset.CodingErrorAction REPORT>","19":"<java.nio.charset.CodingErrorAction: java.nio.charset.CodingErrorAction REPLACE>","20":"<java.nio.charset.CodingErrorAction: java.nio.charset.CodingErrorAction IGNORE>","23":"return"}}}

Generated Model
	this->return
	arg#2->this
	arg#2->return
	arg#1->this
	arg#1->return

