Scanning method <android.os.Message: android.os.Bundle peekData()>

All seen event types: LoadInstanceRecord, 
Ignored event types: 

JSON Encoded Analysis Data (for visualization):{"heapEdges":[],"parameters":[{"id":"1093476304","name":"this","klass":"android.os.Message"}],"returns":[{"id":"0","name":"return","klass":"android.os.Bundle"}],"colors":{"heapLocToColor":{"1093476304":[0]},"colorToColor":{},"colorToLabel":{"0":"this","1":"return"}}}

Generated Model

