Scanning method <android.location.Address: java.lang.String getPhone()>

All seen event types: LoadInstanceRecord, 
Ignored event types: 

JSON Encoded Analysis Data (for visualization):{"heapEdges":[{"step":0,"from":"1093785280","to":"1093785280.<android.location.Address: java.lang.String mPhone>","type":"load","field":"<android.location.Address: java.lang.String mPhone>"}],"parameters":[{"id":"1093785280","name":"this","klass":"android.location.Address"}],"returns":[{"id":"1093785280.<android.location.Address: java.lang.String mPhone>","name":"return","klass":"string"}],"colors":{"heapLocToColor":{"1093785280":[0],"1093785280.<android.location.Address: java.lang.String mPhone>":[0]},"colorToColor":{"0":[1]},"colorToLabel":{"0":"this","1":"return"}}}

Generated Model
	this->return

