Scanning method <java.util.AbstractList$FullListIterator: void <init>(java.util.AbstractList,int)>

All seen event types: BinaryOperationRecord, MethodReturnRecord, MethodCallRecord, LoadInstanceRecord, MethodStartRecord, IfRecord, MethodEndRecord, StoreInstanceRecord, 
Ignored event types: IfRecord, 

JSON Encoded Analysis Data (for visualization):{"heapEdges":[{"step":0,"from":"1093519824","to":"1095037464","type":"store","field":"<java.util.AbstractList$FullListIterator: java.util.AbstractList this$0>"},{"step":1,"from":"1093519824","to":"1095037464","type":"store","field":"<java.util.AbstractList$SimpleListIterator: java.util.AbstractList this$0>"},{"step":2,"from":"1095037464","to":"sdaReg4","type":"create","field":"<java.util.AbstractList$SimpleListIterator: int pos>"},{"step":3,"from":"1095037464","to":"sdaReg5","type":"create","field":"<java.util.AbstractList$SimpleListIterator: int lastPosition>"},{"step":4,"from":"1093519824","to":"1093519824.<java.util.AbstractList: int modCount>","type":"load","field":"<java.util.AbstractList: int modCount>"},{"step":5,"from":"1093519824.<java.util.AbstractList: int modCount>","to":"1095037464","type":"store","field":"<java.util.AbstractList$SimpleListIterator: int expectedModCount>"},{"step":6,"from":"1093519824","to":"1093519824.<java.util.ArrayList: int size>","type":"load","field":"<java.util.ArrayList: int size>"},{"step":7,"from":"sdaReg8","to":"1095037464","type":"store","field":"<java.util.AbstractList$SimpleListIterator: int pos>"}],"parameters":[{"id":"1095037464","name":"this","klass":"java.util.AbstractList$FullListIterator"},{"id":"1093519824","name":"arg#1","klass":"java.util.AbstractList"},{"id":"sdaReg0","name":"arg#2","klass":"int"}],"returns":[{"id":"1095037464","name":"return","klass":"java.util.AbstractList$FullListIterator"}],"colors":{"heapLocToColor":{"sdaReg8":[2],"sdaReg6":[0],"1093519824":[1],"sdaReg7":[1],"sdaReg3":[0],"1093519824.<java.util.ArrayList: int size>":[1],"sdaReg2":[1],"sdaReg1":[0],"sdaReg0":[2],"1095037464":[0],"1093519824.<java.util.AbstractList: int modCount>":[1]},"colorToColor":{"0":[3],"1":[0],"2":[0]},"colorToLabel":{"0":"this","1":"arg#1","2":"arg#2","3":"return"}}}

Generated Model
	this->return
	arg#2->this
	arg#2->return
	arg#1->this
	arg#1->return

