Scanning method <java.util.AbstractCollection: boolean containsAll(java.util.Collection)>

All seen event types: BinaryOperationRecord, SimpleAssignmentRecord, MethodReturnRecord, MethodCallRecord, LoadInstanceRecord, MethodStartRecord, LoadArrayRecord, MethodEndRecord, IfRecord, StoreInstanceRecord, NewObjectRecord, 
Ignored event types: IfRecord, 

JSON Encoded Analysis Data (for visualization):{"heapEdges":[{"step":0,"from":"1099705040","to":"1099705064","type":"load","field":"<java.util.TreeSet: java.util.NavigableMap backingMap>"},{"step":1,"from":"1099705064","to":"1093850104","type":"load","field":"<java.util.TreeMap: java.util.TreeMap$KeySet keySet>"},{"step":2,"from":"1093850104","to":"1099705064","type":"load","field":"<java.util.TreeMap$KeySet: java.util.TreeMap this$0>"},{"step":3,"from":"1099705064","to":"1099725312","type":"load","field":"<java.util.TreeMap: java.util.TreeMap$Node root>"},{"step":4,"from":"1093850104","to":"1099705064","type":"load","field":"<java.util.TreeMap$KeySet: java.util.TreeMap this$0>"},{"step":5,"from":"1099705064","to":"1099725312","type":"load","field":"<java.util.TreeMap: java.util.TreeMap$Node root>"},{"step":6,"from":"1099725312","to":"1099705112","type":"load","field":"<java.util.TreeMap$Node: java.util.TreeMap$Node left>"},{"step":7,"from":"1093850104","to":"1093292648","type":"store","field":"<java.util.TreeMap$KeySet$1: java.util.TreeMap$KeySet this$1>"},{"step":8,"from":"1093850104","to":"1099705064","type":"load","field":"<java.util.TreeMap$KeySet: java.util.TreeMap this$0>"},{"step":9,"from":"1099705064","to":"1093292648","type":"store","field":"<java.util.TreeMap$MapIterator: java.util.TreeMap this$0>"},{"step":10,"from":"1099705064","to":"1099705064.<java.util.TreeMap: int modCount>","type":"load","field":"<java.util.TreeMap: int modCount>"},{"step":11,"from":"1099705064.<java.util.TreeMap: int modCount>","to":"1093292648","type":"store","field":"<java.util.TreeMap$MapIterator: int expectedModCount>"},{"step":12,"from":"1099705112","to":"1093292648","type":"store","field":"<java.util.TreeMap$MapIterator: java.util.TreeMap$Node next>"},{"step":13,"from":"1099705064","to":"1099705064.<java.util.TreeMap: int modCount>","type":"load","field":"<java.util.TreeMap: int modCount>"},{"step":14,"from":"1099705112","to":"1093292648","type":"store","field":"<java.util.TreeMap$MapIterator: java.util.TreeMap$Node last>"},{"step":15,"from":"1099705112","to":"1099725312","type":"load","field":"<java.util.TreeMap$Node: java.util.TreeMap$Node parent>"},{"step":16,"from":"1099725312","to":"1099705112","type":"load","field":"<java.util.TreeMap$Node: java.util.TreeMap$Node left>"},{"step":17,"from":"1099725312","to":"1093292648","type":"store","field":"<java.util.TreeMap$MapIterator: java.util.TreeMap$Node next>"},{"step":18,"from":"1099705112","to":"1093301176","type":"load","field":"<java.util.TreeMap$Node: java.lang.Object key>"},{"step":19,"from":"1093519824","to":"1094129696","type":"load","field":"<java.util.ArrayList: java.lang.Object[] array>"},{"step":20,"from":"1093519824","to":"1093519824.<java.util.ArrayList: int size>","type":"load","field":"<java.util.ArrayList: int size>"},{"step":21,"from":"1094129696","to":"1093852672","type":"load","field":"arrayIdx_int:0"},{"step":22,"from":"1094129696","to":"1094178736","type":"load","field":"arrayIdx_int:1"},{"step":23,"from":"1094129696","to":"1094032064","type":"load","field":"arrayIdx_int:2"},{"step":24,"from":"1094129696","to":"1094193096","type":"load","field":"arrayIdx_int:3"},{"step":25,"from":"1094129696","to":"1093854368","type":"load","field":"arrayIdx_int:4"},{"step":26,"from":"1094129696","to":"1093571160","type":"load","field":"arrayIdx_int:5"},{"step":27,"from":"1094129696","to":"1093259736","type":"load","field":"arrayIdx_int:6"},{"step":28,"from":"1094129696","to":"1093229088","type":"load","field":"arrayIdx_int:7"},{"step":29,"from":"1094129696","to":"1094295272","type":"load","field":"arrayIdx_int:8"},{"step":30,"from":"1094129696","to":"1093748960","type":"load","field":"arrayIdx_int:9"},{"step":31,"from":"1094129696","to":"1093798120","type":"load","field":"arrayIdx_int:10"},{"step":32,"from":"1094129696","to":"1093750272","type":"load","field":"arrayIdx_int:11"},{"step":33,"from":"1094129696","to":"1093306400","type":"load","field":"arrayIdx_int:12"},{"step":34,"from":"1094129696","to":"1093431536","type":"load","field":"arrayIdx_int:13"},{"step":35,"from":"1094129696","to":"1093475704","type":"load","field":"arrayIdx_int:14"},{"step":36,"from":"1094129696","to":"1093342360","type":"load","field":"arrayIdx_int:15"},{"step":37,"from":"1094129696","to":"1093464024","type":"load","field":"arrayIdx_int:16"},{"step":38,"from":"1094129696","to":"1093474640","type":"load","field":"arrayIdx_int:17"},{"step":39,"from":"1094129696","to":"1093571344","type":"load","field":"arrayIdx_int:18"},{"step":40,"from":"1094129696","to":"1093594080","type":"load","field":"arrayIdx_int:19"},{"step":41,"from":"1094129696","to":"1093319400","type":"load","field":"arrayIdx_int:20"},{"step":42,"from":"1094129696","to":"1093336024","type":"load","field":"arrayIdx_int:21"},{"step":43,"from":"1094129696","to":"1093336536","type":"load","field":"arrayIdx_int:22"},{"step":44,"from":"1094129696","to":"1093254744","type":"load","field":"arrayIdx_int:23"},{"step":45,"from":"1094129696","to":"1093789280","type":"load","field":"arrayIdx_int:24"},{"step":46,"from":"1094129696","to":"1093447440","type":"load","field":"arrayIdx_int:25"},{"step":47,"from":"1094129696","to":"1093472464","type":"load","field":"arrayIdx_int:26"},{"step":48,"from":"1094129696","to":"1093250392","type":"load","field":"arrayIdx_int:27"},{"step":49,"from":"1094129696","to":"1093288432","type":"load","field":"arrayIdx_int:28"},{"step":50,"from":"1094129696","to":"1093327392","type":"load","field":"arrayIdx_int:29"},{"step":51,"from":"1094129696","to":"1093340760","type":"load","field":"arrayIdx_int:30"},{"step":52,"from":"1094129696","to":"1093351976","type":"load","field":"arrayIdx_int:31"},{"step":53,"from":"1094129696","to":"1093437704","type":"load","field":"arrayIdx_int:32"},{"step":54,"from":"1094129696","to":"1093441328","type":"load","field":"arrayIdx_int:33"},{"step":55,"from":"1094129696","to":"1093355656","type":"load","field":"arrayIdx_int:34"},{"step":56,"from":"1094129696","to":"1093335456","type":"load","field":"arrayIdx_int:35"},{"step":57,"from":"1094129696","to":"1093297184","type":"load","field":"arrayIdx_int:36"},{"step":58,"from":"1094129696","to":"1093309728","type":"load","field":"arrayIdx_int:37"},{"step":59,"from":"1094129696","to":"1093356848","type":"load","field":"arrayIdx_int:38"},{"step":60,"from":"1094129696","to":"1093356456","type":"load","field":"arrayIdx_int:39"},{"step":61,"from":"1094129696","to":"1093375120","type":"load","field":"arrayIdx_int:40"},{"step":62,"from":"1094129696","to":"1093458456","type":"load","field":"arrayIdx_int:41"},{"step":63,"from":"1094129696","to":"1094472424","type":"load","field":"arrayIdx_int:42"},{"step":64,"from":"1094129696","to":"1093284216","type":"load","field":"arrayIdx_int:43"},{"step":65,"from":"1094129696","to":"1093309160","type":"load","field":"arrayIdx_int:44"},{"step":66,"from":"1094129696","to":"1093343376","type":"load","field":"arrayIdx_int:45"},{"step":67,"from":"1094129696","to":"1093348216","type":"load","field":"arrayIdx_int:46"},{"step":68,"from":"1094129696","to":"1093349608","type":"load","field":"arrayIdx_int:47"},{"step":69,"from":"1094129696","to":"1093432024","type":"load","field":"arrayIdx_int:48"},{"step":70,"from":"1094129696","to":"1093514912","type":"load","field":"arrayIdx_int:49"},{"step":71,"from":"1094129696","to":"1093517776","type":"load","field":"arrayIdx_int:50"},{"step":72,"from":"1094129696","to":"1093522768","type":"load","field":"arrayIdx_int:51"},{"step":73,"from":"1094129696","to":"1093719400","type":"load","field":"arrayIdx_int:52"},{"step":74,"from":"1094129696","to":"1094062752","type":"load","field":"arrayIdx_int:53"},{"step":75,"from":"1094129696","to":"1094168576","type":"load","field":"arrayIdx_int:54"},{"step":76,"from":"1094129696","to":"1093256176","type":"load","field":"arrayIdx_int:55"},{"step":77,"from":"1094129696","to":"1093269216","type":"load","field":"arrayIdx_int:56"},{"step":78,"from":"1094129696","to":"1093283520","type":"load","field":"arrayIdx_int:57"},{"step":79,"from":"1094129696","to":"1093364232","type":"load","field":"arrayIdx_int:58"},{"step":80,"from":"1094129696","to":"1093379064","type":"load","field":"arrayIdx_int:59"},{"step":81,"from":"1094129696","to":"1093388184","type":"load","field":"arrayIdx_int:60"},{"step":82,"from":"1094129696","to":"1093392608","type":"load","field":"arrayIdx_int:61"},{"step":83,"from":"1094129696","to":"1093403480","type":"load","field":"arrayIdx_int:62"},{"step":84,"from":"1094129696","to":"1093427368","type":"load","field":"arrayIdx_int:63"},{"step":85,"from":"1094129696","to":"1093494376","type":"load","field":"arrayIdx_int:64"},{"step":86,"from":"1094129696","to":"1093507584","type":"load","field":"arrayIdx_int:65"},{"step":87,"from":"1094129696","to":"1093515616","type":"load","field":"arrayIdx_int:66"},{"step":88,"from":"1094129696","to":"1093292720","type":"load","field":"arrayIdx_int:67"},{"step":89,"from":"1094129696","to":"1093294536","type":"load","field":"arrayIdx_int:68"},{"step":90,"from":"1094129696","to":"1093355232","type":"load","field":"arrayIdx_int:69"},{"step":91,"from":"1094129696","to":"1093363904","type":"load","field":"arrayIdx_int:70"},{"step":92,"from":"1094129696","to":"1093370496","type":"load","field":"arrayIdx_int:71"},{"step":93,"from":"1094129696","to":"1093371152","type":"load","field":"arrayIdx_int:72"},{"step":94,"from":"1094129696","to":"1093383784","type":"load","field":"arrayIdx_int:73"},{"step":95,"from":"1094129696","to":"1093398912","type":"load","field":"arrayIdx_int:74"},{"step":96,"from":"1094129696","to":"1093400864","type":"load","field":"arrayIdx_int:75"},{"step":97,"from":"1094129696","to":"1093425680","type":"load","field":"arrayIdx_int:76"},{"step":98,"from":"1094129696","to":"1093492424","type":"load","field":"arrayIdx_int:77"},{"step":99,"from":"1094129696","to":"1093499016","type":"load","field":"arrayIdx_int:78"},{"step":100,"from":"1094129696","to":"1093524480","type":"load","field":"arrayIdx_int:79"},{"step":101,"from":"1094129696","to":"1093530040","type":"load","field":"arrayIdx_int:80"},{"step":102,"from":"1094129696","to":"1093571744","type":"load","field":"arrayIdx_int:81"},{"step":103,"from":"1094129696","to":"1093572512","type":"load","field":"arrayIdx_int:82"},{"step":104,"from":"1094129696","to":"1093573104","type":"load","field":"arrayIdx_int:83"},{"step":105,"from":"1094129696","to":"1093574168","type":"load","field":"arrayIdx_int:84"},{"step":106,"from":"1094129696","to":"1093218856","type":"load","field":"arrayIdx_int:85"},{"step":107,"from":"1094129696","to":"1093260328","type":"load","field":"arrayIdx_int:86"},{"step":108,"from":"1094129696","to":"1093284704","type":"load","field":"arrayIdx_int:87"},{"step":109,"from":"1094129696","to":"1093290848","type":"load","field":"arrayIdx_int:88"},{"step":110,"from":"1094129696","to":"1093293032","type":"load","field":"arrayIdx_int:89"},{"step":111,"from":"1094129696","to":"1093325376","type":"load","field":"arrayIdx_int:90"},{"step":112,"from":"1094129696","to":"1093375472","type":"load","field":"arrayIdx_int:91"},{"step":113,"from":"1094129696","to":"1093377976","type":"load","field":"arrayIdx_int:92"},{"step":114,"from":"1094129696","to":"1093382184","type":"load","field":"arrayIdx_int:93"},{"step":115,"from":"1094129696","to":"1093383472","type":"load","field":"arrayIdx_int:94"},{"step":116,"from":"1094129696","to":"1093396616","type":"load","field":"arrayIdx_int:95"},{"step":117,"from":"1094129696","to":"1093397624","type":"load","field":"arrayIdx_int:96"},{"step":118,"from":"1094129696","to":"1093412864","type":"load","field":"arrayIdx_int:97"},{"step":119,"from":"1094129696","to":"1093410536","type":"load","field":"arrayIdx_int:98"},{"step":120,"from":"1094129696","to":"1093420608","type":"load","field":"arrayIdx_int:99"},{"step":121,"from":"1094129696","to":"1093301176","type":"load","field":"arrayIdx_int:100"},{"step":122,"from":"1099705064","to":"1099705064.<java.util.TreeMap: int modCount>","type":"load","field":"<java.util.TreeMap: int modCount>"},{"step":123,"from":"1099725312","to":"1093292648","type":"store","field":"<java.util.TreeMap$MapIterator: java.util.TreeMap$Node last>"},{"step":124,"from":"1099725312","to":"1099725352","type":"load","field":"<java.util.TreeMap$Node: java.util.TreeMap$Node right>"},{"step":125,"from":"1099725312","to":"1099725352","type":"load","field":"<java.util.TreeMap$Node: java.util.TreeMap$Node right>"},{"step":126,"from":"1099725352","to":"1093292648","type":"store","field":"<java.util.TreeMap$MapIterator: java.util.TreeMap$Node next>"},{"step":127,"from":"1099725312","to":"1096199648","type":"load","field":"<java.util.TreeMap$Node: java.lang.Object key>"},{"step":128,"from":"1093519824","to":"1094129696","type":"load","field":"<java.util.ArrayList: java.lang.Object[] array>"},{"step":129,"from":"1093519824","to":"1093519824.<java.util.ArrayList: int size>","type":"load","field":"<java.util.ArrayList: int size>"},{"step":130,"from":"1094129696","to":"1093852672","type":"load","field":"arrayIdx_int:0"},{"step":131,"from":"1094129696","to":"1094178736","type":"load","field":"arrayIdx_int:1"},{"step":132,"from":"1094129696","to":"1094032064","type":"load","field":"arrayIdx_int:2"},{"step":133,"from":"1094129696","to":"1094193096","type":"load","field":"arrayIdx_int:3"},{"step":134,"from":"1094129696","to":"1093854368","type":"load","field":"arrayIdx_int:4"},{"step":135,"from":"1094129696","to":"1093571160","type":"load","field":"arrayIdx_int:5"},{"step":136,"from":"1094129696","to":"1093259736","type":"load","field":"arrayIdx_int:6"},{"step":137,"from":"1094129696","to":"1093229088","type":"load","field":"arrayIdx_int:7"},{"step":138,"from":"1094129696","to":"1094295272","type":"load","field":"arrayIdx_int:8"},{"step":139,"from":"1094129696","to":"1093748960","type":"load","field":"arrayIdx_int:9"},{"step":140,"from":"1094129696","to":"1093798120","type":"load","field":"arrayIdx_int:10"},{"step":141,"from":"1094129696","to":"1093750272","type":"load","field":"arrayIdx_int:11"},{"step":142,"from":"1094129696","to":"1093306400","type":"load","field":"arrayIdx_int:12"},{"step":143,"from":"1094129696","to":"1093431536","type":"load","field":"arrayIdx_int:13"},{"step":144,"from":"1094129696","to":"1093475704","type":"load","field":"arrayIdx_int:14"},{"step":145,"from":"1094129696","to":"1093342360","type":"load","field":"arrayIdx_int:15"},{"step":146,"from":"1094129696","to":"1093464024","type":"load","field":"arrayIdx_int:16"},{"step":147,"from":"1094129696","to":"1093474640","type":"load","field":"arrayIdx_int:17"},{"step":148,"from":"1094129696","to":"1093571344","type":"load","field":"arrayIdx_int:18"},{"step":149,"from":"1094129696","to":"1093594080","type":"load","field":"arrayIdx_int:19"},{"step":150,"from":"1094129696","to":"1093319400","type":"load","field":"arrayIdx_int:20"},{"step":151,"from":"1094129696","to":"1093336024","type":"load","field":"arrayIdx_int:21"},{"step":152,"from":"1094129696","to":"1093336536","type":"load","field":"arrayIdx_int:22"},{"step":153,"from":"1094129696","to":"1093254744","type":"load","field":"arrayIdx_int:23"},{"step":154,"from":"1094129696","to":"1093789280","type":"load","field":"arrayIdx_int:24"},{"step":155,"from":"1094129696","to":"1093447440","type":"load","field":"arrayIdx_int:25"},{"step":156,"from":"1094129696","to":"1093472464","type":"load","field":"arrayIdx_int:26"},{"step":157,"from":"1094129696","to":"1093250392","type":"load","field":"arrayIdx_int:27"},{"step":158,"from":"1094129696","to":"1093288432","type":"load","field":"arrayIdx_int:28"},{"step":159,"from":"1094129696","to":"1093327392","type":"load","field":"arrayIdx_int:29"},{"step":160,"from":"1094129696","to":"1093340760","type":"load","field":"arrayIdx_int:30"},{"step":161,"from":"1094129696","to":"1093351976","type":"load","field":"arrayIdx_int:31"},{"step":162,"from":"1094129696","to":"1093437704","type":"load","field":"arrayIdx_int:32"},{"step":163,"from":"1094129696","to":"1093441328","type":"load","field":"arrayIdx_int:33"},{"step":164,"from":"1094129696","to":"1093355656","type":"load","field":"arrayIdx_int:34"},{"step":165,"from":"1094129696","to":"1093335456","type":"load","field":"arrayIdx_int:35"},{"step":166,"from":"1094129696","to":"1093297184","type":"load","field":"arrayIdx_int:36"},{"step":167,"from":"1094129696","to":"1093309728","type":"load","field":"arrayIdx_int:37"},{"step":168,"from":"1094129696","to":"1093356848","type":"load","field":"arrayIdx_int:38"},{"step":169,"from":"1094129696","to":"1093356456","type":"load","field":"arrayIdx_int:39"},{"step":170,"from":"1094129696","to":"1093375120","type":"load","field":"arrayIdx_int:40"},{"step":171,"from":"1094129696","to":"1093458456","type":"load","field":"arrayIdx_int:41"},{"step":172,"from":"1094129696","to":"1094472424","type":"load","field":"arrayIdx_int:42"},{"step":173,"from":"1094129696","to":"1093284216","type":"load","field":"arrayIdx_int:43"},{"step":174,"from":"1094129696","to":"1093309160","type":"load","field":"arrayIdx_int:44"},{"step":175,"from":"1094129696","to":"1093343376","type":"load","field":"arrayIdx_int:45"},{"step":176,"from":"1094129696","to":"1093348216","type":"load","field":"arrayIdx_int:46"},{"step":177,"from":"1094129696","to":"1093349608","type":"load","field":"arrayIdx_int:47"},{"step":178,"from":"1094129696","to":"1093432024","type":"load","field":"arrayIdx_int:48"},{"step":179,"from":"1094129696","to":"1093514912","type":"load","field":"arrayIdx_int:49"},{"step":180,"from":"1094129696","to":"1093517776","type":"load","field":"arrayIdx_int:50"},{"step":181,"from":"1094129696","to":"1093522768","type":"load","field":"arrayIdx_int:51"},{"step":182,"from":"1094129696","to":"1093719400","type":"load","field":"arrayIdx_int:52"},{"step":183,"from":"1094129696","to":"1094062752","type":"load","field":"arrayIdx_int:53"},{"step":184,"from":"1094129696","to":"1094168576","type":"load","field":"arrayIdx_int:54"},{"step":185,"from":"1094129696","to":"1093256176","type":"load","field":"arrayIdx_int:55"},{"step":186,"from":"1094129696","to":"1093269216","type":"load","field":"arrayIdx_int:56"},{"step":187,"from":"1094129696","to":"1093283520","type":"load","field":"arrayIdx_int:57"},{"step":188,"from":"1094129696","to":"1093364232","type":"load","field":"arrayIdx_int:58"},{"step":189,"from":"1094129696","to":"1093379064","type":"load","field":"arrayIdx_int:59"},{"step":190,"from":"1094129696","to":"1093388184","type":"load","field":"arrayIdx_int:60"},{"step":191,"from":"1094129696","to":"1093392608","type":"load","field":"arrayIdx_int:61"},{"step":192,"from":"1094129696","to":"1093403480","type":"load","field":"arrayIdx_int:62"},{"step":193,"from":"1094129696","to":"1093427368","type":"load","field":"arrayIdx_int:63"},{"step":194,"from":"1094129696","to":"1093494376","type":"load","field":"arrayIdx_int:64"},{"step":195,"from":"1094129696","to":"1093507584","type":"load","field":"arrayIdx_int:65"},{"step":196,"from":"1094129696","to":"1093515616","type":"load","field":"arrayIdx_int:66"},{"step":197,"from":"1094129696","to":"1093292720","type":"load","field":"arrayIdx_int:67"},{"step":198,"from":"1094129696","to":"1093294536","type":"load","field":"arrayIdx_int:68"},{"step":199,"from":"1094129696","to":"1093355232","type":"load","field":"arrayIdx_int:69"},{"step":200,"from":"1094129696","to":"1093363904","type":"load","field":"arrayIdx_int:70"},{"step":201,"from":"1094129696","to":"1093370496","type":"load","field":"arrayIdx_int:71"},{"step":202,"from":"1094129696","to":"1093371152","type":"load","field":"arrayIdx_int:72"},{"step":203,"from":"1094129696","to":"1093383784","type":"load","field":"arrayIdx_int:73"},{"step":204,"from":"1094129696","to":"1093398912","type":"load","field":"arrayIdx_int:74"},{"step":205,"from":"1094129696","to":"1093400864","type":"load","field":"arrayIdx_int:75"},{"step":206,"from":"1094129696","to":"1093425680","type":"load","field":"arrayIdx_int:76"},{"step":207,"from":"1094129696","to":"1093492424","type":"load","field":"arrayIdx_int:77"},{"step":208,"from":"1094129696","to":"1093499016","type":"load","field":"arrayIdx_int:78"},{"step":209,"from":"1094129696","to":"1093524480","type":"load","field":"arrayIdx_int:79"},{"step":210,"from":"1094129696","to":"1093530040","type":"load","field":"arrayIdx_int:80"},{"step":211,"from":"1094129696","to":"1093571744","type":"load","field":"arrayIdx_int:81"},{"step":212,"from":"1094129696","to":"1093572512","type":"load","field":"arrayIdx_int:82"},{"step":213,"from":"1094129696","to":"1093573104","type":"load","field":"arrayIdx_int:83"},{"step":214,"from":"1094129696","to":"1093574168","type":"load","field":"arrayIdx_int:84"},{"step":215,"from":"1094129696","to":"1093218856","type":"load","field":"arrayIdx_int:85"},{"step":216,"from":"1094129696","to":"1093260328","type":"load","field":"arrayIdx_int:86"},{"step":217,"from":"1094129696","to":"1093284704","type":"load","field":"arrayIdx_int:87"},{"step":218,"from":"1094129696","to":"1093290848","type":"load","field":"arrayIdx_int:88"},{"step":219,"from":"1094129696","to":"1093293032","type":"load","field":"arrayIdx_int:89"},{"step":220,"from":"1094129696","to":"1093325376","type":"load","field":"arrayIdx_int:90"},{"step":221,"from":"1094129696","to":"1093375472","type":"load","field":"arrayIdx_int:91"},{"step":222,"from":"1094129696","to":"1093377976","type":"load","field":"arrayIdx_int:92"},{"step":223,"from":"1094129696","to":"1093382184","type":"load","field":"arrayIdx_int:93"},{"step":224,"from":"1094129696","to":"1093383472","type":"load","field":"arrayIdx_int:94"},{"step":225,"from":"1094129696","to":"1093396616","type":"load","field":"arrayIdx_int:95"},{"step":226,"from":"1094129696","to":"1093397624","type":"load","field":"arrayIdx_int:96"},{"step":227,"from":"1094129696","to":"1093412864","type":"load","field":"arrayIdx_int:97"},{"step":228,"from":"1094129696","to":"1093410536","type":"load","field":"arrayIdx_int:98"},{"step":229,"from":"1094129696","to":"1093420608","type":"load","field":"arrayIdx_int:99"},{"step":230,"from":"1094129696","to":"1093301176","type":"load","field":"arrayIdx_int:100"},{"step":231,"from":"1094129696","to":"1096199648","type":"load","field":"arrayIdx_int:101"},{"step":232,"from":"1099705064","to":"1099705064.<java.util.TreeMap: int modCount>","type":"load","field":"<java.util.TreeMap: int modCount>"},{"step":233,"from":"1099725352","to":"1093292648","type":"store","field":"<java.util.TreeMap$MapIterator: java.util.TreeMap$Node last>"},{"step":234,"from":"1099725352","to":"1099725312","type":"load","field":"<java.util.TreeMap$Node: java.util.TreeMap$Node parent>"},{"step":235,"from":"1099725312","to":"1099705112","type":"load","field":"<java.util.TreeMap$Node: java.util.TreeMap$Node left>"},{"step":236,"from":"1099725352","to":"1096113768","type":"load","field":"<java.util.TreeMap$Node: java.lang.Object key>"},{"step":237,"from":"1093519824","to":"1094129696","type":"load","field":"<java.util.ArrayList: java.lang.Object[] array>"},{"step":238,"from":"1093519824","to":"1093519824.<java.util.ArrayList: int size>","type":"load","field":"<java.util.ArrayList: int size>"},{"step":239,"from":"1094129696","to":"1093852672","type":"load","field":"arrayIdx_int:0"},{"step":240,"from":"1094129696","to":"1094178736","type":"load","field":"arrayIdx_int:1"},{"step":241,"from":"1094129696","to":"1094032064","type":"load","field":"arrayIdx_int:2"},{"step":242,"from":"1094129696","to":"1094193096","type":"load","field":"arrayIdx_int:3"},{"step":243,"from":"1094129696","to":"1093854368","type":"load","field":"arrayIdx_int:4"},{"step":244,"from":"1094129696","to":"1093571160","type":"load","field":"arrayIdx_int:5"},{"step":245,"from":"1094129696","to":"1093259736","type":"load","field":"arrayIdx_int:6"},{"step":246,"from":"1094129696","to":"1093229088","type":"load","field":"arrayIdx_int:7"},{"step":247,"from":"1094129696","to":"1094295272","type":"load","field":"arrayIdx_int:8"},{"step":248,"from":"1094129696","to":"1093748960","type":"load","field":"arrayIdx_int:9"},{"step":249,"from":"1094129696","to":"1093798120","type":"load","field":"arrayIdx_int:10"},{"step":250,"from":"1094129696","to":"1093750272","type":"load","field":"arrayIdx_int:11"},{"step":251,"from":"1094129696","to":"1093306400","type":"load","field":"arrayIdx_int:12"},{"step":252,"from":"1094129696","to":"1093431536","type":"load","field":"arrayIdx_int:13"},{"step":253,"from":"1094129696","to":"1093475704","type":"load","field":"arrayIdx_int:14"},{"step":254,"from":"1094129696","to":"1093342360","type":"load","field":"arrayIdx_int:15"},{"step":255,"from":"1094129696","to":"1093464024","type":"load","field":"arrayIdx_int:16"},{"step":256,"from":"1094129696","to":"1093474640","type":"load","field":"arrayIdx_int:17"},{"step":257,"from":"1094129696","to":"1093571344","type":"load","field":"arrayIdx_int:18"},{"step":258,"from":"1094129696","to":"1093594080","type":"load","field":"arrayIdx_int:19"},{"step":259,"from":"1094129696","to":"1093319400","type":"load","field":"arrayIdx_int:20"},{"step":260,"from":"1094129696","to":"1093336024","type":"load","field":"arrayIdx_int:21"},{"step":261,"from":"1094129696","to":"1093336536","type":"load","field":"arrayIdx_int:22"},{"step":262,"from":"1094129696","to":"1093254744","type":"load","field":"arrayIdx_int:23"},{"step":263,"from":"1094129696","to":"1093789280","type":"load","field":"arrayIdx_int:24"},{"step":264,"from":"1094129696","to":"1093447440","type":"load","field":"arrayIdx_int:25"},{"step":265,"from":"1094129696","to":"1093472464","type":"load","field":"arrayIdx_int:26"},{"step":266,"from":"1094129696","to":"1093250392","type":"load","field":"arrayIdx_int:27"},{"step":267,"from":"1094129696","to":"1093288432","type":"load","field":"arrayIdx_int:28"},{"step":268,"from":"1094129696","to":"1093327392","type":"load","field":"arrayIdx_int:29"},{"step":269,"from":"1094129696","to":"1093340760","type":"load","field":"arrayIdx_int:30"},{"step":270,"from":"1094129696","to":"1093351976","type":"load","field":"arrayIdx_int:31"},{"step":271,"from":"1094129696","to":"1093437704","type":"load","field":"arrayIdx_int:32"},{"step":272,"from":"1094129696","to":"1093441328","type":"load","field":"arrayIdx_int:33"},{"step":273,"from":"1094129696","to":"1093355656","type":"load","field":"arrayIdx_int:34"},{"step":274,"from":"1094129696","to":"1093335456","type":"load","field":"arrayIdx_int:35"},{"step":275,"from":"1094129696","to":"1093297184","type":"load","field":"arrayIdx_int:36"},{"step":276,"from":"1094129696","to":"1093309728","type":"load","field":"arrayIdx_int:37"},{"step":277,"from":"1094129696","to":"1093356848","type":"load","field":"arrayIdx_int:38"},{"step":278,"from":"1094129696","to":"1093356456","type":"load","field":"arrayIdx_int:39"},{"step":279,"from":"1094129696","to":"1093375120","type":"load","field":"arrayIdx_int:40"},{"step":280,"from":"1094129696","to":"1093458456","type":"load","field":"arrayIdx_int:41"},{"step":281,"from":"1094129696","to":"1094472424","type":"load","field":"arrayIdx_int:42"},{"step":282,"from":"1094129696","to":"1093284216","type":"load","field":"arrayIdx_int:43"},{"step":283,"from":"1094129696","to":"1093309160","type":"load","field":"arrayIdx_int:44"},{"step":284,"from":"1094129696","to":"1093343376","type":"load","field":"arrayIdx_int:45"},{"step":285,"from":"1094129696","to":"1093348216","type":"load","field":"arrayIdx_int:46"},{"step":286,"from":"1094129696","to":"1093349608","type":"load","field":"arrayIdx_int:47"},{"step":287,"from":"1094129696","to":"1093432024","type":"load","field":"arrayIdx_int:48"},{"step":288,"from":"1094129696","to":"1093514912","type":"load","field":"arrayIdx_int:49"},{"step":289,"from":"1094129696","to":"1093517776","type":"load","field":"arrayIdx_int:50"},{"step":290,"from":"1094129696","to":"1093522768","type":"load","field":"arrayIdx_int:51"},{"step":291,"from":"1094129696","to":"1093719400","type":"load","field":"arrayIdx_int:52"},{"step":292,"from":"1094129696","to":"1094062752","type":"load","field":"arrayIdx_int:53"},{"step":293,"from":"1094129696","to":"1094168576","type":"load","field":"arrayIdx_int:54"},{"step":294,"from":"1094129696","to":"1093256176","type":"load","field":"arrayIdx_int:55"},{"step":295,"from":"1094129696","to":"1093269216","type":"load","field":"arrayIdx_int:56"},{"step":296,"from":"1094129696","to":"1093283520","type":"load","field":"arrayIdx_int:57"},{"step":297,"from":"1094129696","to":"1093364232","type":"load","field":"arrayIdx_int:58"},{"step":298,"from":"1094129696","to":"1093379064","type":"load","field":"arrayIdx_int:59"},{"step":299,"from":"1094129696","to":"1093388184","type":"load","field":"arrayIdx_int:60"},{"step":300,"from":"1094129696","to":"1093392608","type":"load","field":"arrayIdx_int:61"},{"step":301,"from":"1094129696","to":"1093403480","type":"load","field":"arrayIdx_int:62"},{"step":302,"from":"1094129696","to":"1093427368","type":"load","field":"arrayIdx_int:63"},{"step":303,"from":"1094129696","to":"1093494376","type":"load","field":"arrayIdx_int:64"},{"step":304,"from":"1094129696","to":"1093507584","type":"load","field":"arrayIdx_int:65"},{"step":305,"from":"1094129696","to":"1093515616","type":"load","field":"arrayIdx_int:66"},{"step":306,"from":"1094129696","to":"1093292720","type":"load","field":"arrayIdx_int:67"},{"step":307,"from":"1094129696","to":"1093294536","type":"load","field":"arrayIdx_int:68"},{"step":308,"from":"1094129696","to":"1093355232","type":"load","field":"arrayIdx_int:69"},{"step":309,"from":"1094129696","to":"1093363904","type":"load","field":"arrayIdx_int:70"},{"step":310,"from":"1094129696","to":"1093370496","type":"load","field":"arrayIdx_int:71"},{"step":311,"from":"1094129696","to":"1093371152","type":"load","field":"arrayIdx_int:72"},{"step":312,"from":"1094129696","to":"1093383784","type":"load","field":"arrayIdx_int:73"},{"step":313,"from":"1094129696","to":"1093398912","type":"load","field":"arrayIdx_int:74"},{"step":314,"from":"1094129696","to":"1093400864","type":"load","field":"arrayIdx_int:75"},{"step":315,"from":"1094129696","to":"1093425680","type":"load","field":"arrayIdx_int:76"},{"step":316,"from":"1094129696","to":"1093492424","type":"load","field":"arrayIdx_int:77"},{"step":317,"from":"1094129696","to":"1093499016","type":"load","field":"arrayIdx_int:78"},{"step":318,"from":"1094129696","to":"1093524480","type":"load","field":"arrayIdx_int:79"},{"step":319,"from":"1094129696","to":"1093530040","type":"load","field":"arrayIdx_int:80"},{"step":320,"from":"1094129696","to":"1093571744","type":"load","field":"arrayIdx_int:81"},{"step":321,"from":"1094129696","to":"1093572512","type":"load","field":"arrayIdx_int:82"},{"step":322,"from":"1094129696","to":"1093573104","type":"load","field":"arrayIdx_int:83"},{"step":323,"from":"1094129696","to":"1093574168","type":"load","field":"arrayIdx_int:84"},{"step":324,"from":"1094129696","to":"1093218856","type":"load","field":"arrayIdx_int:85"},{"step":325,"from":"1094129696","to":"1093260328","type":"load","field":"arrayIdx_int:86"},{"step":326,"from":"1094129696","to":"1093284704","type":"load","field":"arrayIdx_int:87"},{"step":327,"from":"1094129696","to":"1093290848","type":"load","field":"arrayIdx_int:88"},{"step":328,"from":"1094129696","to":"1093293032","type":"load","field":"arrayIdx_int:89"},{"step":329,"from":"1094129696","to":"1093325376","type":"load","field":"arrayIdx_int:90"},{"step":330,"from":"1094129696","to":"1093375472","type":"load","field":"arrayIdx_int:91"},{"step":331,"from":"1094129696","to":"1093377976","type":"load","field":"arrayIdx_int:92"},{"step":332,"from":"1094129696","to":"1093382184","type":"load","field":"arrayIdx_int:93"},{"step":333,"from":"1094129696","to":"1093383472","type":"load","field":"arrayIdx_int:94"},{"step":334,"from":"1094129696","to":"1093396616","type":"load","field":"arrayIdx_int:95"},{"step":335,"from":"1094129696","to":"1093397624","type":"load","field":"arrayIdx_int:96"},{"step":336,"from":"1094129696","to":"1093412864","type":"load","field":"arrayIdx_int:97"},{"step":337,"from":"1094129696","to":"1093410536","type":"load","field":"arrayIdx_int:98"},{"step":338,"from":"1094129696","to":"1093420608","type":"load","field":"arrayIdx_int:99"},{"step":339,"from":"1094129696","to":"1093301176","type":"load","field":"arrayIdx_int:100"},{"step":340,"from":"1094129696","to":"1096199648","type":"load","field":"arrayIdx_int:101"},{"step":341,"from":"1094129696","to":"1096113768","type":"load","field":"arrayIdx_int:102"}],"parameters":[{"id":"1093519824","name":"this","klass":"java.util.AbstractCollection"},{"id":"1099705040","name":"arg#1","klass":"java.util.Collection"}],"returns":[{"id":null,"name":"return","klass":"boolean"}],"colors":{"heapLocToColor":{"sdaReg294":[238],"sdaReg191":[148],"sdaReg293":[237],"sdaReg190":[147],"sdaReg296":[240],"sdaReg193":[150],"sdaReg295":[239],"sdaReg192":[149],"sdaReg298":[242],"sdaReg297":[241],"sdaReg299":[243],"sdaReg199":[156],"sdaReg198":[155],"sdaReg290":[234],"sdaReg195":[152],"sdaReg194":[151],"sdaReg292":[236],"sdaReg197":[154],"sdaReg291":[235],"sdaReg196":[153],"1093375472":[0],"1093850104":[1],"1093383784":[0],"1099705040":[1],"1094472424":[0],"1093383472":[0],"sdaReg171":[128],"sdaReg170":[127],"1093254744":[0],"sdaReg173":[130],"sdaReg172":[129],"sdaReg175":[132],"sdaReg174":[131],"sdaReg177":[134],"sdaReg176":[133],"sdaReg179":[136],"sdaReg178":[135],"1093447440":[0],"1099725312.<java.util.TreeMap$Node: java.util.TreeMap$Node left>":[1],"sdaReg182":[139],"sdaReg181":[138],"sdaReg180":[137],"sdaReg186":[143],"sdaReg185":[142],"sdaReg184":[141],"sdaReg183":[140],"sdaReg189":[146],"sdaReg188":[145],"sdaReg187":[144],"1099705064.<java.util.TreeMap: int modCount>":[1],"1093398912":[0],"1093293032":[0],"1093458456":[0],"1093284704":[0],"1093420608":[0],"1093507584":[0],"1093530040":[0],"1093403480":[0],"1096199648":[0, 1],"1093342360":[0],"1093574168":[0],"1099705112":[1],"1093524480":[0],"1093515616":[0],"1094032064":[0],"1093292648":[2],"1093388184":[0],"1094129696.arrayIdx_int:60":[0],"1094129696.arrayIdx_int:67":[0],"sdaReg68":[40],"1094129696.arrayIdx_int:68":[0],"sdaReg69":[41],"1094129696.arrayIdx_int:65":[0],"sdaReg66":[38],"1093572512":[0],"1099725312.<java.util.TreeMap$Node: java.util.TreeMap$Node right>":[1],"1094129696.arrayIdx_int:66":[0],"sdaReg67":[39],"1094129696.arrayIdx_int:63":[0],"sdaReg64":[36],"1094129696.arrayIdx_int:64":[0],"sdaReg65":[37],"sdaReg62":[34],"1094129696.arrayIdx_int:61":[0],"1094129696.arrayIdx_int:62":[0],"sdaReg63":[35],"sdaReg72":[44],"sdaReg71":[43],"1093850104.<java.util.TreeMap$KeySet: java.util.TreeMap this$0>":[1],"sdaReg70":[42],"1093437704":[0],"1093306400":[0],"1094129696.arrayIdx_int:69":[0],"1093514912":[0],"1094129696.arrayIdx_int:70":[0],"1094129696.arrayIdx_int:71":[0],"1094129696":[0],"1094129696.arrayIdx_int:76":[0],"sdaReg77":[49],"1094129696.arrayIdx_int:77":[0],"sdaReg78":[50],"1094129696.arrayIdx_int:78":[0],"sdaReg79":[51],"1094129696.arrayIdx_int:79":[0],"1094129696.arrayIdx_int:72":[0],"sdaReg73":[45],"1094129696.arrayIdx_int:73":[0],"sdaReg74":[46],"1094129696.arrayIdx_int:74":[0],"sdaReg75":[47],"1094129696.arrayIdx_int:75":[0],"sdaReg76":[48],"sdaReg81":[53],"sdaReg80":[52],"sdaReg83":[55],"sdaReg82":[54],"1093292720":[0],"1093301176":[0, 1],"sdaReg86":[58],"1094129696.arrayIdx_int:41":[0],"1093371152":[0],"sdaReg87":[59],"1094129696.arrayIdx_int:42":[0],"sdaReg84":[56],"sdaReg85":[57],"1094129696.arrayIdx_int:40":[0],"1094129696.arrayIdx_int:45":[0],"1094129696.arrayIdx_int:46":[0],"sdaReg88":[60],"1094129696.arrayIdx_int:43":[0],"sdaReg89":[61],"1094129696.arrayIdx_int:44":[0],"sdaReg90":[62],"1094129696.arrayIdx_int:49":[0],"1094129696.arrayIdx_int:48":[0],"1094129696.arrayIdx_int:47":[0],"sdaReg94":[66],"sdaReg93":[65],"sdaReg92":[64],"sdaReg91":[63],"1093375120":[0],"sdaReg95":[67],"1094129696.arrayIdx_int:50":[0],"sdaReg96":[68],"1093284216":[0],"1094129696.arrayIdx_int:51":[0],"sdaReg97":[69],"1094129696.arrayIdx_int:52":[0],"sdaReg98":[70],"1094129696.arrayIdx_int:53":[0],"sdaReg99":[71],"1094129696.arrayIdx_int:54":[0],"1094129696.arrayIdx_int:55":[0],"1094129696.arrayIdx_int:56":[0],"1094129696.arrayIdx_int:57":[0],"1094129696.arrayIdx_int:59":[0],"1094129696.arrayIdx_int:58":[0],"1093218856":[0],"1094129696.arrayIdx_int:24":[0],"1094129696.arrayIdx_int:23":[0],"1094129696.arrayIdx_int:22":[0],"1093410536":[0],"1094129696.arrayIdx_int:21":[0],"1099725352.<java.util.TreeMap$Node: java.util.TreeMap$Node parent>":[1],"1094129696.arrayIdx_int:20":[0],"1093400864":[0],"1094129696.arrayIdx_int:29":[0],"1094129696.arrayIdx_int:27":[0],"1094129696.arrayIdx_int:28":[0],"1094129696.arrayIdx_int:25":[0],"1094129696.arrayIdx_int:26":[0],"1093297184":[0],"1094129696.arrayIdx_int:33":[0],"1094129696.arrayIdx_int:32":[0],"1094129696.arrayIdx_int:35":[0],"1094129696.arrayIdx_int:34":[0],"1094129696.arrayIdx_int:31":[0],"1094129696.arrayIdx_int:30":[0],"1093425680":[0],"1094129696.arrayIdx_int:36":[0],"1094129696.arrayIdx_int:37":[0],"1094129696.arrayIdx_int:38":[0],"1093351976":[0],"1094129696.arrayIdx_int:39":[0],"1093519824.<java.util.ArrayList: int size>":[0],"1093356456":[0],"1094178736":[0],"1093750272":[0],"1093290848":[0],"1094129696.arrayIdx_int:11":[0],"1094129696.arrayIdx_int:10":[0],"1094129696.arrayIdx_int:13":[0],"1094129696.arrayIdx_int:12":[0],"1093283520":[0],"1093259736":[0],"1099705064":[1],"1093343376":[0],"1093472464":[0],"1093336024":[0],"1093250392":[0],"1094129696.arrayIdx_int:14":[0],"1093397624":[0],"1094129696.arrayIdx_int:15":[0],"1094129696.arrayIdx_int:16":[0],"1094129696.arrayIdx_int:17":[0],"1094129696.arrayIdx_int:18":[0],"1094129696.arrayIdx_int:19":[0],"1093335456":[0],"sdaReg326":[270],"sdaReg325":[269],"sdaReg324":[268],"sdaReg323":[267],"sdaReg329":[273],"1093494376":[0],"sdaReg328":[272],"1093571344":[0],"sdaReg327":[271],"1094129696.arrayIdx_int:102":[1],"sdaReg13":[1],"sdaReg14":[2],"sdaReg11":[2],"1094129696.arrayIdx_int:100":[0, 1],"1094129696.arrayIdx_int:101":[0, 1],"sdaReg12":[1],"sdaReg321":[265],"sdaReg322":[266],"sdaReg10":[1],"sdaReg320":[264],"sdaReg19":[2],"sdaReg17":[2],"sdaReg18":[2],"sdaReg15":[2],"sdaReg16":[2],"1099705064.<java.util.TreeMap: java.util.TreeMap$Node root>":[1],"sdaReg313":[257],"sdaReg312":[256],"sdaReg315":[259],"sdaReg314":[258],"sdaReg317":[261],"sdaReg316":[260],"sdaReg319":[263],"sdaReg318":[262],"sdaReg310":[254],"1093427368":[0],"sdaReg311":[255],"1093377976":[0],"sdaReg309":[253],"sdaReg308":[252],"sdaReg307":[251],"sdaReg306":[250],"sdaReg305":[249],"sdaReg304":[248],"1094168576":[0],"sdaReg303":[247],"sdaReg302":[246],"sdaReg301":[245],"1093464024":[0],"sdaReg300":[244],"1093382184":[0],"1093789280":[0],"1093571744":[0],"1094193096":[0],"1093852672":[0],"1093594080":[0],"1093854368":[0],"sdaReg60":[32],"sdaReg61":[33],"1093475704":[0],"1093748960":[0],"1094062752":[0],"1094129696.arrayIdx_int:93":[0],"1093309728":[0],"1094129696.arrayIdx_int:92":[0],"1093432024":[0],"1094129696.arrayIdx_int:91":[0],"1094129696.arrayIdx_int:90":[0],"sdaReg59":[31],"sdaReg58":[30],"1093260328":[0],"sdaReg57":[29],"1094129696.arrayIdx_int:99":[0],"1093336536":[0],"sdaReg56":[28],"1094129696.arrayIdx_int:98":[0],"sdaReg55":[27],"1094129696.arrayIdx_int:97":[0],"sdaReg54":[26],"1094129696.arrayIdx_int:96":[0],"sdaReg53":[25],"1094129696.arrayIdx_int:95":[0],"sdaReg52":[24],"1094129696.arrayIdx_int:94":[0],"sdaReg51":[23],"sdaReg50":[22],"1094129696.arrayIdx_int:80":[0],"1093355656":[0],"1094129696.arrayIdx_int:82":[0],"1094129696.arrayIdx_int:81":[0],"sdaReg49":[21],"sdaReg48":[20],"1099725312":[1],"1094129696.arrayIdx_int:88":[0],"sdaReg45":[17],"1094129696.arrayIdx_int:87":[0],"1093719400":[0],"1093340760":[0],"sdaReg44":[16],"sdaReg47":[19],"1094129696.arrayIdx_int:89":[0],"sdaReg46":[18],"1094129696.arrayIdx_int:84":[0],"sdaReg41":[13],"1094129696.arrayIdx_int:83":[0],"sdaReg40":[12],"1094129696.arrayIdx_int:86":[0],"sdaReg43":[15],"1094129696.arrayIdx_int:85":[0],"sdaReg42":[14],"1093517776":[0],"sdaReg200":[157],"sdaReg201":[158],"1093364232":[0],"sdaReg205":[162],"sdaReg39":[11],"sdaReg204":[161],"sdaReg38":[10],"sdaReg203":[160],"sdaReg37":[9],"sdaReg202":[159],"sdaReg209":[166],"sdaReg208":[165],"sdaReg207":[164],"sdaReg206":[163],"sdaReg32":[4],"sdaReg31":[3],"1093474640":[0],"1093522768":[0],"1093396616":[0],"sdaReg36":[8],"sdaReg35":[7],"sdaReg34":[6],"sdaReg33":[5],"1093571160":[0],"sdaReg8":[2],"sdaReg9":[1],"sdaReg6":[1],"sdaReg7":[1],"sdaReg4":[1],"sdaReg5":[1],"1093519824.<java.util.ArrayList: java.lang.Object[] array>":[0],"sdaReg27":[1],"sdaReg26":[1],"1093229088":[0],"1093256176":[0],"sdaReg29":[1],"sdaReg28":[0],"sdaReg3":[1],"sdaReg21":[2],"sdaReg1":[1],"sdaReg0":[1],"sdaReg23":[1],"sdaReg22":[2],"sdaReg25":[1],"sdaReg24":[1],"1093363904":[0],"1093499016":[0],"sdaReg125":[97],"sdaReg126":[98],"1093294536":[0],"sdaReg127":[99],"1093349608":[0],"sdaReg128":[100],"sdaReg129":[101],"sdaReg228":[185],"sdaReg229":[186],"sdaReg224":[181],"sdaReg225":[182],"sdaReg226":[183],"sdaReg227":[184],"sdaReg221":[178],"sdaReg220":[177],"sdaReg223":[180],"sdaReg222":[179],"1093392608":[0],"1093798120":[0],"sdaReg120":[92],"sdaReg122":[94],"sdaReg121":[93],"sdaReg124":[96],"sdaReg123":[95],"sdaReg116":[88],"1099725352":[1],"sdaReg117":[89],"sdaReg114":[86],"sdaReg115":[87],"sdaReg118":[90],"1093288432":[0],"sdaReg119":[91],"sdaReg219":[176],"sdaReg217":[174],"sdaReg218":[175],"sdaReg215":[172],"1093379064":[0],"sdaReg216":[173],"sdaReg213":[170],"sdaReg214":[171],"sdaReg212":[169],"sdaReg211":[168],"sdaReg210":[167],"sdaReg113":[85],"sdaReg112":[84],"sdaReg111":[83],"sdaReg110":[82],"sdaReg107":[79],"sdaReg108":[80],"sdaReg109":[81],"sdaReg103":[75],"sdaReg104":[76],"sdaReg105":[77],"1093412864":[0],"sdaReg106":[78],"sdaReg246":[203],"sdaReg247":[204],"sdaReg248":[205],"sdaReg241":[198],"1094129696.arrayIdx_int:0":[0],"sdaReg240":[197],"sdaReg243":[200],"1094129696.arrayIdx_int:2":[0],"sdaReg242":[199],"1094129696.arrayIdx_int:1":[0],"sdaReg245":[202],"1093355232":[0],"1094129696.arrayIdx_int:4":[0],"sdaReg244":[201],"1094129696.arrayIdx_int:3":[0],"sdaReg100":[72],"1094129696.arrayIdx_int:6":[0],"1094129696.arrayIdx_int:5":[0],"sdaReg102":[74],"1094129696.arrayIdx_int:8":[0],"sdaReg101":[73],"1094129696.arrayIdx_int:7":[0],"1094129696.arrayIdx_int:9":[0],"sdaReg237":[194],"sdaReg238":[195],"sdaReg235":[192],"sdaReg236":[193],"1093573104":[0],"sdaReg239":[196],"sdaReg230":[187],"1093319400":[0],"sdaReg234":[191],"sdaReg233":[190],"sdaReg232":[189],"sdaReg231":[188],"1093269216":[0],"1093348216":[0],"sdaReg269":[213],"1094295272":[0],"sdaReg268":[212],"sdaReg360":[304],"sdaReg169":[126],"sdaReg362":[306],"sdaReg361":[305],"sdaReg364":[308],"sdaReg363":[307],"sdaReg366":[2],"sdaReg161":[118],"sdaReg162":[119],"sdaReg163":[120],"sdaReg164":[121],"1093519824":[0],"sdaReg165":[122],"sdaReg166":[123],"sdaReg167":[124],"sdaReg168":[125],"sdaReg264":[208],"sdaReg265":[209],"sdaReg266":[210],"sdaReg267":[211],"sdaReg260":[1],"sdaReg262":[206],"sdaReg263":[207],"1093325376":[0],"sdaReg160":[117],"1093356848":[0],"sdaReg259":[0],"sdaReg258":[1],"sdaReg257":[1],"sdaReg351":[295],"sdaReg350":[294],"sdaReg159":[116],"sdaReg158":[115],"sdaReg355":[299],"sdaReg354":[298],"sdaReg353":[297],"sdaReg352":[296],"sdaReg358":[302],"sdaReg152":[109],"sdaReg359":[303],"sdaReg153":[110],"sdaReg356":[300],"sdaReg150":[107],"sdaReg357":[301],"sdaReg151":[108],"sdaReg156":[113],"sdaReg157":[114],"sdaReg154":[111],"sdaReg155":[112],"sdaReg255":[1],"sdaReg253":[2],"sdaReg254":[1],"sdaReg252":[2],"sdaReg250":[2],"sdaReg342":[286],"1093327392":[0],"sdaReg341":[285],"sdaReg344":[288],"sdaReg343":[287],"sdaReg148":[105],"sdaReg147":[104],"sdaReg340":[284],"sdaReg149":[106],"sdaReg349":[293],"sdaReg143":[1],"sdaReg144":[0],"sdaReg145":[1],"sdaReg345":[289],"sdaReg346":[290],"sdaReg140":[1],"sdaReg347":[291],"sdaReg280":[224],"sdaReg141":[1],"sdaReg348":[292],"sdaReg281":[225],"sdaReg142":[1],"sdaReg282":[226],"sdaReg283":[227],"sdaReg284":[228],"sdaReg285":[229],"sdaReg286":[230],"sdaReg287":[231],"sdaReg288":[232],"sdaReg289":[233],"1093441328":[0],"1093492424":[0],"sdaReg279":[223],"sdaReg333":[277],"sdaReg332":[276],"sdaReg331":[275],"1099705112.<java.util.TreeMap$Node: java.util.TreeMap$Node parent>":[1],"sdaReg330":[274],"sdaReg139":[1],"sdaReg138":[1],"sdaReg137":[1],"1093431536":[0],"sdaReg136":[2],"sdaReg135":[2],"sdaReg338":[282],"sdaReg339":[283],"sdaReg133":[2],"sdaReg336":[280],"1093370496":[0],"sdaReg130":[102],"sdaReg337":[281],"sdaReg270":[214],"sdaReg131":[103],"sdaReg334":[278],"sdaReg335":[279],"sdaReg273":[217],"1096113768":[0, 1],"sdaReg274":[218],"1093309160":[0],"sdaReg271":[215],"sdaReg272":[216],"sdaReg277":[221],"sdaReg278":[222],"sdaReg275":[219],"sdaReg276":[220]},"colorToColor":{"1":[2]},"colorToLabel":{"0":"this","1":"arg#1","309":"return"}}}

Generated Model

