Scanning method <java.util.AbstractCollection: boolean containsAll(java.util.Collection)>

All seen event types: BinaryOperationRecord, SimpleAssignmentRecord, MethodReturnRecord, MethodCallRecord, LoadInstanceRecord, MethodStartRecord, LoadArrayRecord, MethodEndRecord, IfRecord, StoreInstanceRecord, NewObjectRecord, 
Ignored event types: IfRecord, 

JSON Encoded Analysis Data (for visualization):{"heapEdges":[{"step":0,"from":"1099705040","to":"1099705064","type":"load","field":"<java.util.TreeSet: java.util.NavigableMap backingMap>"},{"step":1,"from":"1099705064","to":"1093850104","type":"load","field":"<java.util.TreeMap: java.util.TreeMap$KeySet keySet>"},{"step":2,"from":"1093850104","to":"1099705064","type":"load","field":"<java.util.TreeMap$KeySet: java.util.TreeMap this$0>"},{"step":3,"from":"1099705064","to":"1099725312","type":"load","field":"<java.util.TreeMap: java.util.TreeMap$Node root>"},{"step":4,"from":"1093850104","to":"1099705064","type":"load","field":"<java.util.TreeMap$KeySet: java.util.TreeMap this$0>"},{"step":5,"from":"1099705064","to":"1099725312","type":"load","field":"<java.util.TreeMap: java.util.TreeMap$Node root>"},{"step":6,"from":"1099725312","to":"1099705112","type":"load","field":"<java.util.TreeMap$Node: java.util.TreeMap$Node left>"},{"step":7,"from":"1093850104","to":"1093336432","type":"store","field":"<java.util.TreeMap$KeySet$1: java.util.TreeMap$KeySet this$1>"},{"step":8,"from":"1093850104","to":"1099705064","type":"load","field":"<java.util.TreeMap$KeySet: java.util.TreeMap this$0>"},{"step":9,"from":"1099705064","to":"1093336432","type":"store","field":"<java.util.TreeMap$MapIterator: java.util.TreeMap this$0>"},{"step":10,"from":"1099705064","to":"1099705064.<java.util.TreeMap: int modCount>","type":"load","field":"<java.util.TreeMap: int modCount>"},{"step":11,"from":"1099705064.<java.util.TreeMap: int modCount>","to":"1093336432","type":"store","field":"<java.util.TreeMap$MapIterator: int expectedModCount>"},{"step":12,"from":"1099705112","to":"1093336432","type":"store","field":"<java.util.TreeMap$MapIterator: java.util.TreeMap$Node next>"},{"step":13,"from":"1099705064","to":"1099705064.<java.util.TreeMap: int modCount>","type":"load","field":"<java.util.TreeMap: int modCount>"},{"step":14,"from":"1099705112","to":"1093336432","type":"store","field":"<java.util.TreeMap$MapIterator: java.util.TreeMap$Node last>"},{"step":15,"from":"1099705112","to":"1099725312","type":"load","field":"<java.util.TreeMap$Node: java.util.TreeMap$Node parent>"},{"step":16,"from":"1099725312","to":"1099705112","type":"load","field":"<java.util.TreeMap$Node: java.util.TreeMap$Node left>"},{"step":17,"from":"1099725312","to":"1093336432","type":"store","field":"<java.util.TreeMap$MapIterator: java.util.TreeMap$Node next>"},{"step":18,"from":"1099705112","to":"1093301176","type":"load","field":"<java.util.TreeMap$Node: java.lang.Object key>"},{"step":19,"from":"1093519824","to":"1094129696","type":"load","field":"<java.util.ArrayList: java.lang.Object[] array>"},{"step":20,"from":"1093519824","to":"1093519824.<java.util.ArrayList: int size>","type":"load","field":"<java.util.ArrayList: int size>"},{"step":21,"from":"1094129696","to":"1093852672","type":"load","field":"arrayIdx_int:0"},{"step":22,"from":"1094129696","to":"1094178736","type":"load","field":"arrayIdx_int:1"},{"step":23,"from":"1094129696","to":"1094032064","type":"load","field":"arrayIdx_int:2"},{"step":24,"from":"1094129696","to":"1094193096","type":"load","field":"arrayIdx_int:3"},{"step":25,"from":"1094129696","to":"1093854368","type":"load","field":"arrayIdx_int:4"},{"step":26,"from":"1094129696","to":"1093571160","type":"load","field":"arrayIdx_int:5"},{"step":27,"from":"1094129696","to":"1093259736","type":"load","field":"arrayIdx_int:6"},{"step":28,"from":"1094129696","to":"1093229088","type":"load","field":"arrayIdx_int:7"},{"step":29,"from":"1094129696","to":"1094295272","type":"load","field":"arrayIdx_int:8"},{"step":30,"from":"1094129696","to":"1093748960","type":"load","field":"arrayIdx_int:9"},{"step":31,"from":"1094129696","to":"1093798120","type":"load","field":"arrayIdx_int:10"},{"step":32,"from":"1094129696","to":"1093750272","type":"load","field":"arrayIdx_int:11"},{"step":33,"from":"1094129696","to":"1093306400","type":"load","field":"arrayIdx_int:12"},{"step":34,"from":"1094129696","to":"1093431536","type":"load","field":"arrayIdx_int:13"},{"step":35,"from":"1094129696","to":"1093475704","type":"load","field":"arrayIdx_int:14"},{"step":36,"from":"1094129696","to":"1093342360","type":"load","field":"arrayIdx_int:15"},{"step":37,"from":"1094129696","to":"1093464024","type":"load","field":"arrayIdx_int:16"},{"step":38,"from":"1094129696","to":"1093474640","type":"load","field":"arrayIdx_int:17"},{"step":39,"from":"1094129696","to":"1093571344","type":"load","field":"arrayIdx_int:18"},{"step":40,"from":"1094129696","to":"1093594080","type":"load","field":"arrayIdx_int:19"},{"step":41,"from":"1094129696","to":"1093319400","type":"load","field":"arrayIdx_int:20"},{"step":42,"from":"1094129696","to":"1093336024","type":"load","field":"arrayIdx_int:21"},{"step":43,"from":"1094129696","to":"1093336536","type":"load","field":"arrayIdx_int:22"},{"step":44,"from":"1094129696","to":"1093254744","type":"load","field":"arrayIdx_int:23"},{"step":45,"from":"1094129696","to":"1093789280","type":"load","field":"arrayIdx_int:24"},{"step":46,"from":"1094129696","to":"1093447440","type":"load","field":"arrayIdx_int:25"},{"step":47,"from":"1094129696","to":"1093472464","type":"load","field":"arrayIdx_int:26"},{"step":48,"from":"1094129696","to":"1093250392","type":"load","field":"arrayIdx_int:27"},{"step":49,"from":"1094129696","to":"1093288432","type":"load","field":"arrayIdx_int:28"},{"step":50,"from":"1094129696","to":"1093327392","type":"load","field":"arrayIdx_int:29"},{"step":51,"from":"1094129696","to":"1093340760","type":"load","field":"arrayIdx_int:30"},{"step":52,"from":"1094129696","to":"1093351976","type":"load","field":"arrayIdx_int:31"},{"step":53,"from":"1094129696","to":"1093437704","type":"load","field":"arrayIdx_int:32"},{"step":54,"from":"1094129696","to":"1093441328","type":"load","field":"arrayIdx_int:33"},{"step":55,"from":"1094129696","to":"1093355656","type":"load","field":"arrayIdx_int:34"},{"step":56,"from":"1094129696","to":"1093335456","type":"load","field":"arrayIdx_int:35"},{"step":57,"from":"1094129696","to":"1093297184","type":"load","field":"arrayIdx_int:36"},{"step":58,"from":"1094129696","to":"1093309728","type":"load","field":"arrayIdx_int:37"},{"step":59,"from":"1094129696","to":"1093356848","type":"load","field":"arrayIdx_int:38"},{"step":60,"from":"1094129696","to":"1093356456","type":"load","field":"arrayIdx_int:39"},{"step":61,"from":"1094129696","to":"1093375120","type":"load","field":"arrayIdx_int:40"},{"step":62,"from":"1094129696","to":"1093458456","type":"load","field":"arrayIdx_int:41"},{"step":63,"from":"1094129696","to":"1094472424","type":"load","field":"arrayIdx_int:42"},{"step":64,"from":"1094129696","to":"1093284216","type":"load","field":"arrayIdx_int:43"},{"step":65,"from":"1094129696","to":"1093309160","type":"load","field":"arrayIdx_int:44"},{"step":66,"from":"1094129696","to":"1093343376","type":"load","field":"arrayIdx_int:45"},{"step":67,"from":"1094129696","to":"1093348216","type":"load","field":"arrayIdx_int:46"},{"step":68,"from":"1094129696","to":"1093349608","type":"load","field":"arrayIdx_int:47"},{"step":69,"from":"1094129696","to":"1093432024","type":"load","field":"arrayIdx_int:48"},{"step":70,"from":"1094129696","to":"1093514912","type":"load","field":"arrayIdx_int:49"},{"step":71,"from":"1094129696","to":"1093517776","type":"load","field":"arrayIdx_int:50"},{"step":72,"from":"1094129696","to":"1093522768","type":"load","field":"arrayIdx_int:51"},{"step":73,"from":"1094129696","to":"1093719400","type":"load","field":"arrayIdx_int:52"},{"step":74,"from":"1094129696","to":"1094062752","type":"load","field":"arrayIdx_int:53"},{"step":75,"from":"1094129696","to":"1094168576","type":"load","field":"arrayIdx_int:54"},{"step":76,"from":"1094129696","to":"1093256176","type":"load","field":"arrayIdx_int:55"},{"step":77,"from":"1094129696","to":"1093269216","type":"load","field":"arrayIdx_int:56"},{"step":78,"from":"1094129696","to":"1093283520","type":"load","field":"arrayIdx_int:57"},{"step":79,"from":"1094129696","to":"1093364232","type":"load","field":"arrayIdx_int:58"},{"step":80,"from":"1094129696","to":"1093379064","type":"load","field":"arrayIdx_int:59"},{"step":81,"from":"1094129696","to":"1093388184","type":"load","field":"arrayIdx_int:60"},{"step":82,"from":"1094129696","to":"1093392608","type":"load","field":"arrayIdx_int:61"},{"step":83,"from":"1094129696","to":"1093403480","type":"load","field":"arrayIdx_int:62"},{"step":84,"from":"1094129696","to":"1093427368","type":"load","field":"arrayIdx_int:63"},{"step":85,"from":"1094129696","to":"1093494376","type":"load","field":"arrayIdx_int:64"},{"step":86,"from":"1094129696","to":"1093507584","type":"load","field":"arrayIdx_int:65"},{"step":87,"from":"1094129696","to":"1093515616","type":"load","field":"arrayIdx_int:66"},{"step":88,"from":"1094129696","to":"1093292720","type":"load","field":"arrayIdx_int:67"},{"step":89,"from":"1094129696","to":"1093294536","type":"load","field":"arrayIdx_int:68"},{"step":90,"from":"1094129696","to":"1093355232","type":"load","field":"arrayIdx_int:69"},{"step":91,"from":"1094129696","to":"1093363904","type":"load","field":"arrayIdx_int:70"},{"step":92,"from":"1094129696","to":"1093370496","type":"load","field":"arrayIdx_int:71"},{"step":93,"from":"1094129696","to":"1093371152","type":"load","field":"arrayIdx_int:72"},{"step":94,"from":"1094129696","to":"1093383784","type":"load","field":"arrayIdx_int:73"},{"step":95,"from":"1094129696","to":"1093398912","type":"load","field":"arrayIdx_int:74"},{"step":96,"from":"1094129696","to":"1093400864","type":"load","field":"arrayIdx_int:75"},{"step":97,"from":"1094129696","to":"1093425680","type":"load","field":"arrayIdx_int:76"},{"step":98,"from":"1094129696","to":"1093492424","type":"load","field":"arrayIdx_int:77"},{"step":99,"from":"1094129696","to":"1093499016","type":"load","field":"arrayIdx_int:78"},{"step":100,"from":"1094129696","to":"1093524480","type":"load","field":"arrayIdx_int:79"},{"step":101,"from":"1094129696","to":"1093530040","type":"load","field":"arrayIdx_int:80"},{"step":102,"from":"1094129696","to":"1093571744","type":"load","field":"arrayIdx_int:81"},{"step":103,"from":"1094129696","to":"1093572512","type":"load","field":"arrayIdx_int:82"},{"step":104,"from":"1094129696","to":"1093573104","type":"load","field":"arrayIdx_int:83"},{"step":105,"from":"1094129696","to":"1093574168","type":"load","field":"arrayIdx_int:84"},{"step":106,"from":"1094129696","to":"1093218856","type":"load","field":"arrayIdx_int:85"},{"step":107,"from":"1094129696","to":"1093260328","type":"load","field":"arrayIdx_int:86"},{"step":108,"from":"1094129696","to":"1093284704","type":"load","field":"arrayIdx_int:87"},{"step":109,"from":"1094129696","to":"1093290848","type":"load","field":"arrayIdx_int:88"},{"step":110,"from":"1094129696","to":"1093293032","type":"load","field":"arrayIdx_int:89"},{"step":111,"from":"1094129696","to":"1093325376","type":"load","field":"arrayIdx_int:90"},{"step":112,"from":"1094129696","to":"1093375472","type":"load","field":"arrayIdx_int:91"},{"step":113,"from":"1094129696","to":"1093377976","type":"load","field":"arrayIdx_int:92"},{"step":114,"from":"1094129696","to":"1093382184","type":"load","field":"arrayIdx_int:93"},{"step":115,"from":"1094129696","to":"1093383472","type":"load","field":"arrayIdx_int:94"},{"step":116,"from":"1094129696","to":"1093396616","type":"load","field":"arrayIdx_int:95"},{"step":117,"from":"1094129696","to":"1093397624","type":"load","field":"arrayIdx_int:96"},{"step":118,"from":"1094129696","to":"1093412864","type":"load","field":"arrayIdx_int:97"},{"step":119,"from":"1094129696","to":"1093410536","type":"load","field":"arrayIdx_int:98"},{"step":120,"from":"1094129696","to":"1093420608","type":"load","field":"arrayIdx_int:99"},{"step":121,"from":"1094129696","to":"1096199648","type":"load","field":"arrayIdx_int:100"},{"step":122,"from":"1094129696","to":"1096113768","type":"load","field":"arrayIdx_int:101"}],"parameters":[{"id":"1093519824","name":"this","klass":"java.util.AbstractCollection"},{"id":"1099705040","name":"arg#1","klass":"java.util.Collection"}],"returns":[{"id":null,"name":"return","klass":"boolean"}],"colors":{"heapLocToColor":{"1093494376":[0],"1093571344":[0],"sdaReg13":[1],"sdaReg14":[2],"1093375472":[0],"sdaReg11":[2],"sdaReg12":[1],"1093850104":[1],"sdaReg10":[1],"sdaReg19":[2],"sdaReg17":[2],"sdaReg18":[2],"sdaReg15":[2],"sdaReg16":[2],"1093383784":[0],"1099705064.<java.util.TreeMap: java.util.TreeMap$Node root>":[1],"1099705040":[1],"1093427368":[0],"1094472424":[0],"1093383472":[0],"1093377976":[0],"1093254744":[0],"1094168576":[0],"1093464024":[0],"1093382184":[0],"1093447440":[0],"1099725312.<java.util.TreeMap$Node: java.util.TreeMap$Node left>":[1],"1093789280":[0],"1093571744":[0],"1094193096":[0],"1093852672":[0],"1093594080":[0],"1099705064.<java.util.TreeMap: int modCount>":[1],"1093398912":[0],"1093854368":[0],"1093293032":[0],"sdaReg60":[32],"sdaReg61":[33],"1093458456":[0],"1093475704":[0],"1093284704":[0],"1093420608":[0],"1093748960":[0],"1094062752":[0],"1093309728":[0],"1093432024":[0],"sdaReg59":[31],"1093260328":[0],"sdaReg58":[30],"1093507584":[0],"sdaReg57":[29],"sdaReg56":[28],"1093336536":[0],"sdaReg55":[27],"sdaReg54":[26],"1093530040":[0],"sdaReg53":[25],"sdaReg52":[24],"sdaReg51":[23],"sdaReg50":[22],"1093403480":[0],"1096199648":[0],"1093355656":[0],"sdaReg49":[21],"sdaReg48":[20],"1099725312":[1],"sdaReg45":[17],"sdaReg44":[16],"1093340760":[0],"1093719400":[0],"sdaReg47":[19],"sdaReg46":[18],"sdaReg41":[13],"sdaReg40":[12],"sdaReg43":[15],"sdaReg42":[14],"1093342360":[0],"1093517776":[0],"1093574168":[0],"1093364232":[0],"sdaReg39":[11],"sdaReg38":[10],"sdaReg37":[9],"1093524480":[0],"1099705112":[1],"sdaReg32":[4],"1093474640":[0],"sdaReg31":[3],"1093522768":[0],"1093515616":[0],"1093396616":[0],"sdaReg36":[8],"sdaReg35":[7],"sdaReg34":[6],"sdaReg33":[5],"1093571160":[0],"sdaReg8":[2],"1094032064":[0],"sdaReg9":[1],"sdaReg6":[1],"sdaReg7":[1],"sdaReg4":[1],"sdaReg5":[1],"sdaReg27":[1],"1093229088":[0],"sdaReg26":[1],"sdaReg29":[1],"1093256176":[0],"sdaReg28":[0],"sdaReg3":[1],"sdaReg1":[1],"sdaReg21":[2],"sdaReg0":[1],"sdaReg23":[1],"sdaReg22":[2],"sdaReg25":[1],"sdaReg24":[1],"sdaReg125":[97],"1093499016":[0],"1093388184":[0],"1093363904":[0],"sdaReg126":[98],"sdaReg127":[99],"1093294536":[0],"sdaReg128":[100],"1093349608":[0],"sdaReg129":[101],"sdaReg68":[40],"sdaReg69":[41],"1093572512":[0],"sdaReg66":[38],"sdaReg67":[39],"sdaReg64":[36],"sdaReg65":[37],"sdaReg62":[34],"sdaReg63":[35],"sdaReg72":[44],"1093850104.<java.util.TreeMap$KeySet: java.util.TreeMap this$0>":[1],"sdaReg71":[43],"1093437704":[0],"sdaReg70":[42],"1093306400":[0],"1093514912":[0],"sdaReg120":[92],"1093798120":[0],"1093392608":[0],"sdaReg122":[94],"sdaReg121":[93],"sdaReg124":[96],"sdaReg123":[95],"sdaReg116":[88],"sdaReg117":[89],"sdaReg114":[86],"sdaReg115":[87],"sdaReg118":[90],"sdaReg119":[91],"1094129696":[0],"1093288432":[0],"sdaReg77":[49],"sdaReg78":[50],"sdaReg79":[51],"sdaReg73":[45],"1093379064":[0],"sdaReg74":[46],"sdaReg75":[47],"sdaReg76":[48],"sdaReg81":[53],"sdaReg80":[52],"sdaReg83":[55],"sdaReg82":[54],"1093292720":[0],"sdaReg113":[85],"sdaReg112":[84],"sdaReg111":[83],"sdaReg110":[82],"sdaReg107":[79],"sdaReg108":[80],"sdaReg109":[81],"sdaReg103":[75],"sdaReg104":[76],"1093412864":[0],"sdaReg105":[77],"sdaReg106":[78],"1093301176":[1],"sdaReg86":[58],"sdaReg87":[59],"1093371152":[0],"sdaReg84":[56],"sdaReg85":[57],"sdaReg88":[60],"sdaReg89":[61],"sdaReg90":[62],"sdaReg94":[66],"sdaReg93":[65],"sdaReg92":[64],"1093355232":[0],"sdaReg91":[63],"sdaReg100":[72],"1093375120":[0],"sdaReg102":[74],"sdaReg101":[73],"sdaReg95":[67],"1093284216":[0],"sdaReg96":[68],"sdaReg97":[69],"sdaReg98":[70],"sdaReg99":[71],"1093573104":[0],"1093319400":[0],"1093218856":[0],"1093410536":[0],"1093348216":[0],"1093269216":[0],"1094295272":[0],"1093519824":[0],"1093400864":[0],"1093325376":[0],"1093297184":[0],"1093356848":[0],"1093336432":[2],"1093425680":[0],"1093351976":[0],"1093327392":[0],"1093519824.<java.util.ArrayList: int size>":[0],"1093356456":[0],"1094178736":[0],"1093750272":[0],"1093441328":[0],"1093492424":[0],"1093290848":[0],"1093283520":[0],"1093259736":[0],"1099705112.<java.util.TreeMap$Node: java.util.TreeMap$Node parent>":[1],"1099705064":[1],"1093343376":[0],"1093472464":[0],"1093431536":[0],"sdaReg132":[104],"1093336024":[0],"sdaReg130":[102],"1093370496":[0],"sdaReg131":[103],"1093250392":[0],"1096113768":[0],"1093397624":[0],"1093309160":[0],"1093335456":[0]},"colorToColor":{"1":[2]},"colorToLabel":{"0":"this","1":"arg#1","105":"return"}}}

Generated Model

