Scanning method <android.os.Bundle: long[] getLongArray(java.lang.String)>

All seen event types: StoreArrayRecord, SimpleAssignmentRecord, ExitMonitorRecord, MethodStartRecord, LoadInstanceRecord, IfRecord, NewObjectRecord, StoreInstanceRecord, LoadStaticRecord, NewArrayRecord, BinaryOperationRecord, MethodCallRecord, MethodReturnRecord, SwitchRecord, EnterMonitorRecord, ArrayLengthRecord, CastRecord, LoadArrayRecord, MethodEndRecord, 
Ignored event types: ExitMonitorRecord, SwitchRecord, EnterMonitorRecord, IfRecord, 

JSON Encoded Analysis Data (for visualization):{"heapEdges":[{"step":0,"from":"1093657408","to":"1093481056","type":"load","field":"<android.os.Bundle: android.os.Parcel mParcelledData>"},{"step":1,"from":"1093657408","to":"1093481056","type":"load","field":"<android.os.Bundle: android.os.Parcel mParcelledData>"},{"step":2,"from":"1093481056","to":"sdaReg2","type":"model"},{"step":3,"from":"static.<java.util.HashMap: java.util.Map$Entry[] EMPTY_TABLE>","to":"1083997920","type":"load","field":"<java.util.HashMap: java.util.Map$Entry[] EMPTY_TABLE>"},{"step":4,"from":"1083997920","to":"1093496272","type":"store","field":"<java.util.HashMap: java.util.HashMap$HashMapEntry[] table>"},{"step":5,"from":"1093496272","to":"sdaReg9","type":"create","field":"<java.util.HashMap: int threshold>"},{"step":6,"from":"1093657408","to":"1093496272","type":"create","field":"<android.os.Bundle: java.util.Map mMap>"},{"step":7,"from":"1093657408","to":"1093481056","type":"load","field":"<android.os.Bundle: android.os.Parcel mParcelledData>"},{"step":8,"from":"1093481056","to":"sdaReg16","type":"model"},{"step":9,"from":"1093481056","to":"sdaReg17","type":"model"},{"step":10,"from":"1093481056","to":"sdaReg21","type":"model"},{"step":11,"from":"1093481056","to":"sdaReg23","type":"model"},{"step":12,"from":"1093481056","to":"sdaReg24","type":"model"},{"step":13,"from":"1093481056","to":"sdaReg27","type":"model"},{"step":14,"from":"sdaReg27","to":"1093594920","type":"store","field":"arrayIdx_int:0"},{"step":15,"from":"1093481056","to":"sdaReg28","type":"model"},{"step":16,"from":"sdaReg28","to":"1093594920","type":"store","field":"arrayIdx_int:1"},{"step":17,"from":"1093496272","to":"1093496272.<java.util.HashMap: int modCount>","type":"load","field":"<java.util.HashMap: int modCount>"},{"step":18,"from":"sdaReg46","to":"1093496272","type":"store","field":"<java.util.HashMap: int modCount>"},{"step":19,"from":"1093496272","to":"1093496272.<java.util.HashMap: int size>","type":"load","field":"<java.util.HashMap: int size>"},{"step":20,"from":"sdaReg47","to":"1093496272","type":"store","field":"<java.util.HashMap: int size>"},{"step":21,"from":"1093496272","to":"1093596656","type":"create","field":"<java.util.HashMap: java.util.HashMap$HashMapEntry[] table>"},{"step":22,"from":"sdaReg55","to":"1093496272","type":"store","field":"<java.util.HashMap: int threshold>"},{"step":23,"from":"1093615440","to":"1093596696","type":"store","field":"<java.util.HashMap$HashMapEntry: java.lang.Object key>"},{"step":24,"from":"1093596696","to":"1093594920","type":"create","field":"<java.util.HashMap$HashMapEntry: java.lang.Object value>"},{"step":25,"from":"sdaReg42","to":"1093596696","type":"store","field":"<java.util.HashMap$HashMapEntry: int hash>"},{"step":26,"from":"1093596656","to":"1093596696","type":"create","field":"arrayIdx_int:2"},{"step":27,"from":"1093657408","to":"1093481056","type":"load","field":"<android.os.Bundle: android.os.Parcel mParcelledData>"},{"step":28,"from":"1093481056","to":"1093481056.<android.os.Parcel: int mOwnObject>","type":"load","field":"<android.os.Parcel: int mOwnObject>"},{"step":29,"from":"static.<android.os.Parcel: android.os.Parcel[] sOwnedPool>","to":"1084044960","type":"load","field":"<android.os.Parcel: android.os.Parcel[] sOwnedPool>"},{"step":30,"from":"1093481056","to":"1084044960","type":"store","field":"arrayIdx_int:0"},{"step":31,"from":"1093657408","to":"sdaReg74","type":"create","field":"<android.os.Bundle: android.os.Parcel mParcelledData>"}],"parameters":[{"id":"1093657408","name":"this","klass":"android.os.Bundle"},{"id":"sdaReg0","name":"arg#1","klass":"string"}],"returns":[{"id":"1093594920","name":"return","klass":"long[]"}],"colors":{"heapLocToColor":{"sdaReg61":[3],"1084044960":[16],"1093481056":[0],"1093596696":[15],"sdaReg68":[15],"sdaReg69":[15],"sdaReg66":[10],"sdaReg64":[15],"sdaReg63":[10],"sdaReg72":[16],"sdaReg71":[16],"sdaReg14":[0],"sdaReg70":[0],"sdaReg11":[0],"sdaReg12":[3],"sdaReg10":[3],"sdaReg58":[14],"1093596656":[14],"sdaReg56":[14],"sdaReg19":[0],"1083997920":[4],"sdaReg17":[0, 6],"sdaReg51":[3],"sdaReg16":[0, 5],"sdaReg77":[17],"sdaReg78":[17],"sdaReg79":[17],"sdaReg75":[3],"sdaReg76":[17],"sdaReg81":[17],"1093594920":[10],"1093496272.<java.util.HashMap: int modCount>":[3],"sdaReg80":[17],"sdaReg83":[17],"sdaReg82":[17],"sdaReg48":[3],"sdaReg45":[13],"sdaReg47":[3],"sdaReg46":[3],"sdaReg41":[13],"sdaReg40":[13],"sdaReg42":[13],"static.<android.os.Parcel: android.os.Parcel[] sOwnedPool>":[16],"1093496272.<java.util.HashMap: int size>":[3],"1093481056.<android.os.Parcel: int mOwnObject>":[0],"sdaReg87":[17],"sdaReg84":[17],"sdaReg88":[18],"sdaReg89":[10],"1093657408":[0],"sdaReg90":[10],"sdaReg39":[13],"sdaReg38":[13],"sdaReg37":[13],"sdaReg91":[10],"sdaReg31":[3],"static.<java.util.HashMap: java.util.Map$Entry[] EMPTY_TABLE>":[4],"sdaReg30":[10],"sdaReg36":[13],"sdaReg35":[13],"sdaReg34":[13],"sdaReg33":[10],"sdaReg8":[4],"sdaReg6":[3],"sdaReg7":[4],"sdaReg4":[3],"sdaReg5":[3],"1093496272":[3],"sdaReg27":[0, 11],"sdaReg29":[10],"sdaReg28":[0, 12],"sdaReg3":[3],"sdaReg2":[0, 2],"sdaReg21":[0, 7],"sdaReg1":[0],"sdaReg0":[1],"sdaReg23":[0, 8],"sdaReg22":[0],"1093657408.<android.os.Bundle: android.os.Parcel mParcelledData>":[0],"sdaReg25":[0, 9],"sdaReg24":[0, 9]},"colorToColor":{"0":[16, 10],"3":[0, 3],"4":[3],"10":[19, 15],"11":[10],"12":[10],"13":[15],"14":[3],"15":[14]},"colorToLabel":{"0":"this","1":"arg#1","4":"<java.util.HashMap: java.util.Map$Entry[] EMPTY_TABLE>","16":"<android.os.Parcel: android.os.Parcel[] sOwnedPool>","19":"return"}}}

Generated Model
	this->return
	this-><android.os.Parcel: android.os.Parcel[] sOwnedPool>

