Scanning method <java.net.URL: void <init>(java.lang.String)>

All seen event types: StoreArrayRecord, SimpleAssignmentRecord, MethodStartRecord, LoadInstanceRecord, IfRecord, NewObjectRecord, StoreInstanceRecord, LoadStaticRecord, BinaryOperationRecord, SwitchRecord, MethodCallRecord, MethodReturnRecord, CastRecord, ArrayLengthRecord, LoadArrayRecord, MethodEndRecord, 
Ignored event types: SwitchRecord, IfRecord, 

JSON Encoded Analysis Data (for visualization):{"heapEdges":[{"step":0,"from":"1093685824","to":"sdaReg5","type":"create","field":"<java.net.URL: int port>"},{"step":1,"from":"sdaReg0","to":"sdaReg6","type":"model"},{"step":2,"from":"sdaReg6","to":"sdaReg7","type":"model"},{"step":3,"from":"sdaReg6","to":"sdaReg9","type":"model"},{"step":4,"from":"sdaReg6","to":"sdaReg11","type":"model"},{"step":5,"from":"sdaReg6","to":"sdaReg13","type":"model"},{"step":6,"from":"sdaReg6","to":"sdaReg15","type":"model"},{"step":7,"from":"sdaReg6","to":"sdaReg17","type":"model"},{"step":8,"from":"static.<java.util.Locale: java.util.Locale US>","to":"1084317688","type":"load","field":"<java.util.Locale: java.util.Locale US>"},{"step":9,"from":"sdaReg17","to":"1084317688","type":"model"},{"step":10,"from":"sdaReg17","to":"sdaReg18","type":"model"},{"step":11,"from":"1084317688","to":"sdaReg17","type":"model"},{"step":12,"from":"1084317688","to":"sdaReg18","type":"model"},{"step":13,"from":"sdaReg18","to":"1093685824","type":"store","field":"<java.net.URL: java.lang.String protocol>"},{"step":14,"from":"static.<java.net.URL: java.util.Hashtable streamHandlers>","to":"1084315112","type":"load","field":"<java.net.URL: java.util.Hashtable streamHandlers>"},{"step":15,"from":"1084315112","to":"1084321912","type":"load","field":"<java.util.Hashtable: java.util.Hashtable$HashtableEntry[] table>"},{"step":16,"from":"1093485280","to":"1093281096","type":"model"},{"step":17,"from":"1093685824","to":"1093348736","type":"create","field":"<java.net.URL: java.net.URLStreamHandler streamHandler>"},{"step":18,"from":"static.<java.net.URL: java.util.Hashtable streamHandlers>","to":"1084315112","type":"load","field":"<java.net.URL: java.util.Hashtable streamHandlers>"},{"step":19,"from":"1084315112","to":"1084321912","type":"load","field":"<java.util.Hashtable: java.util.Hashtable$HashtableEntry[] table>"},{"step":20,"from":"1084315112","to":"1084315112.<java.util.Hashtable: int modCount>","type":"load","field":"<java.util.Hashtable: int modCount>"},{"step":21,"from":"sdaReg66","to":"1084315112","type":"store","field":"<java.util.Hashtable: int modCount>"},{"step":22,"from":"1084315112","to":"1084315112.<java.util.Hashtable: int size>","type":"load","field":"<java.util.Hashtable: int size>"},{"step":23,"from":"sdaReg67","to":"1084315112","type":"store","field":"<java.util.Hashtable: int size>"},{"step":24,"from":"1084315112","to":"1084315112.<java.util.Hashtable: int threshold>","type":"load","field":"<java.util.Hashtable: int threshold>"},{"step":25,"from":"1093696800","to":"1093293936","type":"store","field":"<java.util.Hashtable$HashtableEntry: java.lang.Object key>"},{"step":26,"from":"1093348736","to":"1093293936","type":"store","field":"<java.util.Hashtable$HashtableEntry: java.lang.Object value>"},{"step":27,"from":"sdaReg61","to":"1093293936","type":"store","field":"<java.util.Hashtable$HashtableEntry: int hash>"},{"step":28,"from":"1084321912","to":"1093293936","type":"create","field":"arrayIdx_int:1"},{"step":29,"from":"sdaReg6","to":"sdaReg21","type":"model"},{"step":30,"from":"sdaReg6","to":"sdaReg78","type":"model"},{"step":31,"from":"sdaReg21","to":"sdaReg6","type":"model"},{"step":32,"from":"sdaReg21","to":"sdaReg78","type":"model"},{"step":33,"from":"sdaReg6","to":"sdaReg82","type":"model"},{"step":34,"from":"sdaReg80","to":"sdaReg82","type":"model"},{"step":35,"from":"sdaReg80","to":"sdaReg83","type":"model"},{"step":36,"from":"sdaReg82","to":"sdaReg80","type":"model"},{"step":37,"from":"sdaReg82","to":"sdaReg83","type":"model"},{"step":38,"from":"sdaReg6","to":"sdaReg84","type":"model"},{"step":39,"from":"sdaReg80","to":"sdaReg84","type":"model"},{"step":40,"from":"sdaReg80","to":"sdaReg85","type":"model"},{"step":41,"from":"sdaReg84","to":"sdaReg80","type":"model"},{"step":42,"from":"sdaReg84","to":"sdaReg85","type":"model"},{"step":43,"from":"sdaReg6","to":"sdaReg86","type":"model"},{"step":44,"from":"sdaReg80","to":"sdaReg86","type":"model"},{"step":45,"from":"sdaReg80","to":"sdaReg87","type":"model"},{"step":46,"from":"sdaReg86","to":"sdaReg80","type":"model"},{"step":47,"from":"sdaReg86","to":"sdaReg87","type":"model"},{"step":48,"from":"sdaReg6","to":"sdaReg88","type":"model"},{"step":49,"from":"sdaReg80","to":"sdaReg88","type":"model"},{"step":50,"from":"sdaReg80","to":"sdaReg89","type":"model"},{"step":51,"from":"sdaReg88","to":"sdaReg80","type":"model"},{"step":52,"from":"sdaReg88","to":"sdaReg89","type":"model"},{"step":53,"from":"sdaReg6","to":"sdaReg90","type":"model"},{"step":54,"from":"sdaReg80","to":"sdaReg90","type":"model"},{"step":55,"from":"sdaReg80","to":"sdaReg91","type":"model"},{"step":56,"from":"sdaReg90","to":"sdaReg80","type":"model"},{"step":57,"from":"sdaReg90","to":"sdaReg91","type":"model"},{"step":58,"from":"sdaReg6","to":"sdaReg92","type":"model"},{"step":59,"from":"sdaReg6","to":"sdaReg95","type":"model"},{"step":60,"from":"sdaReg93","to":"sdaReg95","type":"model"},{"step":61,"from":"sdaReg93","to":"sdaReg96","type":"model"},{"step":62,"from":"sdaReg95","to":"sdaReg93","type":"model"},{"step":63,"from":"sdaReg95","to":"sdaReg96","type":"model"},{"step":64,"from":"sdaReg6","to":"sdaReg97","type":"model"},{"step":65,"from":"sdaReg93","to":"sdaReg97","type":"model"},{"step":66,"from":"sdaReg93","to":"sdaReg98","type":"model"},{"step":67,"from":"sdaReg97","to":"sdaReg93","type":"model"},{"step":68,"from":"sdaReg97","to":"sdaReg98","type":"model"},{"step":69,"from":"sdaReg6","to":"sdaReg99","type":"model"},{"step":70,"from":"sdaReg93","to":"sdaReg99","type":"model"},{"step":71,"from":"sdaReg93","to":"sdaReg100","type":"model"},{"step":72,"from":"sdaReg99","to":"sdaReg93","type":"model"},{"step":73,"from":"sdaReg99","to":"sdaReg100","type":"model"},{"step":74,"from":"sdaReg6","to":"sdaReg101","type":"model"},{"step":75,"from":"sdaReg93","to":"sdaReg101","type":"model"},{"step":76,"from":"sdaReg93","to":"sdaReg102","type":"model"},{"step":77,"from":"sdaReg101","to":"sdaReg93","type":"model"},{"step":78,"from":"sdaReg101","to":"sdaReg102","type":"model"},{"step":79,"from":"sdaReg6","to":"sdaReg108","type":"model"},{"step":80,"from":"sdaReg106","to":"sdaReg108","type":"model"},{"step":81,"from":"sdaReg106","to":"sdaReg109","type":"model"},{"step":82,"from":"sdaReg108","to":"sdaReg106","type":"model"},{"step":83,"from":"sdaReg108","to":"sdaReg109","type":"model"},{"step":84,"from":"sdaReg6","to":"sdaReg110","type":"model"},{"step":85,"from":"sdaReg106","to":"sdaReg110","type":"model"},{"step":86,"from":"sdaReg106","to":"sdaReg111","type":"model"},{"step":87,"from":"sdaReg110","to":"sdaReg106","type":"model"},{"step":88,"from":"sdaReg110","to":"sdaReg111","type":"model"},{"step":89,"from":"sdaReg6","to":"sdaReg112","type":"model"},{"step":90,"from":"sdaReg106","to":"sdaReg112","type":"model"},{"step":91,"from":"sdaReg106","to":"sdaReg113","type":"model"},{"step":92,"from":"sdaReg112","to":"sdaReg106","type":"model"},{"step":93,"from":"sdaReg112","to":"sdaReg113","type":"model"},{"step":94,"from":"sdaReg6","to":"sdaReg114","type":"model"},{"step":95,"from":"sdaReg106","to":"sdaReg114","type":"model"},{"step":96,"from":"sdaReg106","to":"sdaReg115","type":"model"},{"step":97,"from":"sdaReg114","to":"sdaReg106","type":"model"},{"step":98,"from":"sdaReg114","to":"sdaReg115","type":"model"},{"step":99,"from":"sdaReg6","to":"sdaReg118","type":"model"},{"step":100,"from":"sdaReg116","to":"sdaReg118","type":"model"},{"step":101,"from":"sdaReg116","to":"sdaReg119","type":"model"},{"step":102,"from":"sdaReg118","to":"sdaReg116","type":"model"},{"step":103,"from":"sdaReg118","to":"sdaReg119","type":"model"},{"step":104,"from":"sdaReg6","to":"sdaReg120","type":"model"},{"step":105,"from":"sdaReg116","to":"sdaReg120","type":"model"},{"step":106,"from":"sdaReg116","to":"sdaReg121","type":"model"},{"step":107,"from":"sdaReg120","to":"sdaReg116","type":"model"},{"step":108,"from":"sdaReg120","to":"sdaReg121","type":"model"},{"step":109,"from":"sdaReg6","to":"sdaReg122","type":"model"},{"step":110,"from":"sdaReg116","to":"sdaReg122","type":"model"},{"step":111,"from":"sdaReg116","to":"sdaReg123","type":"model"},{"step":112,"from":"sdaReg122","to":"sdaReg116","type":"model"},{"step":113,"from":"sdaReg122","to":"sdaReg123","type":"model"},{"step":114,"from":"sdaReg6","to":"sdaReg124","type":"model"},{"step":115,"from":"sdaReg116","to":"sdaReg124","type":"model"},{"step":116,"from":"sdaReg116","to":"sdaReg125","type":"model"},{"step":117,"from":"sdaReg124","to":"sdaReg116","type":"model"},{"step":118,"from":"sdaReg124","to":"sdaReg125","type":"model"},{"step":119,"from":"sdaReg6","to":"sdaReg126","type":"model"},{"step":120,"from":"sdaReg6","to":"sdaReg132","type":"model"},{"step":121,"from":"sdaReg6","to":"sdaReg135","type":"model"},{"step":122,"from":"sdaReg133","to":"sdaReg135","type":"model"},{"step":123,"from":"sdaReg133","to":"sdaReg136","type":"model"},{"step":124,"from":"sdaReg135","to":"sdaReg133","type":"model"},{"step":125,"from":"sdaReg135","to":"sdaReg136","type":"model"},{"step":126,"from":"sdaReg6","to":"sdaReg137","type":"model"},{"step":127,"from":"sdaReg133","to":"sdaReg137","type":"model"},{"step":128,"from":"sdaReg133","to":"sdaReg138","type":"model"},{"step":129,"from":"sdaReg137","to":"sdaReg133","type":"model"},{"step":130,"from":"sdaReg137","to":"sdaReg138","type":"model"},{"step":131,"from":"sdaReg6","to":"sdaReg139","type":"model"},{"step":132,"from":"sdaReg133","to":"sdaReg139","type":"model"},{"step":133,"from":"sdaReg133","to":"sdaReg140","type":"model"},{"step":134,"from":"sdaReg139","to":"sdaReg133","type":"model"},{"step":135,"from":"sdaReg139","to":"sdaReg140","type":"model"},{"step":136,"from":"sdaReg6","to":"sdaReg141","type":"model"},{"step":137,"from":"sdaReg133","to":"sdaReg141","type":"model"},{"step":138,"from":"sdaReg133","to":"sdaReg142","type":"model"},{"step":139,"from":"sdaReg141","to":"sdaReg133","type":"model"},{"step":140,"from":"sdaReg141","to":"sdaReg142","type":"model"},{"step":141,"from":"sdaReg6","to":"sdaReg143","type":"model"},{"step":142,"from":"sdaReg133","to":"sdaReg143","type":"model"},{"step":143,"from":"sdaReg133","to":"sdaReg144","type":"model"},{"step":144,"from":"sdaReg143","to":"sdaReg133","type":"model"},{"step":145,"from":"sdaReg143","to":"sdaReg144","type":"model"},{"step":146,"from":"sdaReg6","to":"sdaReg145","type":"model"},{"step":147,"from":"sdaReg133","to":"sdaReg145","type":"model"},{"step":148,"from":"sdaReg133","to":"sdaReg146","type":"model"},{"step":149,"from":"sdaReg145","to":"sdaReg133","type":"model"},{"step":150,"from":"sdaReg145","to":"sdaReg146","type":"model"},{"step":151,"from":"sdaReg6","to":"sdaReg147","type":"model"},{"step":152,"from":"sdaReg147","to":"sdaReg148","type":"model"},{"step":153,"from":"sdaReg147","to":"sdaReg155","type":"model"},{"step":154,"from":"sdaReg147","to":"sdaReg161","type":"model"},{"step":155,"from":"sdaReg147","to":"sdaReg164","type":"model"},{"step":156,"from":"sdaReg147","to":"sdaReg167","type":"model"},{"step":157,"from":"sdaReg147","to":"sdaReg170","type":"model"},{"step":158,"from":"sdaReg6","to":"sdaReg174","type":"model"},{"step":159,"from":"sdaReg6","to":"sdaReg177","type":"model"},{"step":160,"from":"sdaReg175","to":"sdaReg177","type":"model"},{"step":161,"from":"sdaReg175","to":"sdaReg178","type":"model"},{"step":162,"from":"sdaReg177","to":"sdaReg175","type":"model"},{"step":163,"from":"sdaReg177","to":"sdaReg178","type":"model"},{"step":164,"from":"sdaReg6","to":"sdaReg179","type":"model"},{"step":165,"from":"sdaReg175","to":"sdaReg179","type":"model"},{"step":166,"from":"sdaReg175","to":"sdaReg180","type":"model"},{"step":167,"from":"sdaReg179","to":"sdaReg175","type":"model"},{"step":168,"from":"sdaReg179","to":"sdaReg180","type":"model"},{"step":169,"from":"sdaReg6","to":"sdaReg181","type":"model"},{"step":170,"from":"sdaReg175","to":"sdaReg181","type":"model"},{"step":171,"from":"sdaReg175","to":"sdaReg182","type":"model"},{"step":172,"from":"sdaReg181","to":"sdaReg175","type":"model"},{"step":173,"from":"sdaReg181","to":"sdaReg182","type":"model"},{"step":174,"from":"sdaReg6","to":"sdaReg183","type":"model"},{"step":175,"from":"sdaReg175","to":"sdaReg183","type":"model"},{"step":176,"from":"sdaReg175","to":"sdaReg184","type":"model"},{"step":177,"from":"sdaReg183","to":"sdaReg175","type":"model"},{"step":178,"from":"sdaReg183","to":"sdaReg184","type":"model"},{"step":179,"from":"sdaReg6","to":"sdaReg185","type":"model"},{"step":180,"from":"sdaReg175","to":"sdaReg185","type":"model"},{"step":181,"from":"sdaReg175","to":"sdaReg186","type":"model"},{"step":182,"from":"sdaReg185","to":"sdaReg175","type":"model"},{"step":183,"from":"sdaReg185","to":"sdaReg186","type":"model"},{"step":184,"from":"sdaReg6","to":"sdaReg187","type":"model"},{"step":185,"from":"sdaReg175","to":"sdaReg187","type":"model"},{"step":186,"from":"sdaReg175","to":"sdaReg188","type":"model"},{"step":187,"from":"sdaReg187","to":"sdaReg175","type":"model"},{"step":188,"from":"sdaReg187","to":"sdaReg188","type":"model"},{"step":189,"from":"sdaReg6","to":"sdaReg189","type":"model"},{"step":190,"from":"sdaReg175","to":"sdaReg189","type":"model"},{"step":191,"from":"sdaReg175","to":"sdaReg190","type":"model"},{"step":192,"from":"sdaReg189","to":"sdaReg175","type":"model"},{"step":193,"from":"sdaReg189","to":"sdaReg190","type":"model"},{"step":194,"from":"sdaReg6","to":"sdaReg191","type":"model"},{"step":195,"from":"sdaReg175","to":"sdaReg191","type":"model"},{"step":196,"from":"sdaReg175","to":"sdaReg192","type":"model"},{"step":197,"from":"sdaReg191","to":"sdaReg175","type":"model"},{"step":198,"from":"sdaReg191","to":"sdaReg192","type":"model"},{"step":199,"from":"sdaReg6","to":"sdaReg194","type":"model"},{"step":200,"from":"sdaReg92","to":"sdaReg195","type":"model"},{"step":201,"from":"sdaReg147","to":"sdaReg196","type":"model"},{"step":202,"from":"sdaReg147","to":"sdaReg197","type":"model"},{"step":203,"from":"sdaReg194","to":"sdaReg204","type":"model"},{"step":204,"from":"sdaReg203","to":"1093474392","type":"model"},{"step":205,"from":"sdaReg203","to":"1093474392","type":"model"},{"step":206,"from":"sdaReg194","to":"1093474392","type":"model"},{"step":207,"from":"sdaReg194","to":"1093474392","type":"model"},{"step":208,"from":"1093474392","to":"sdaReg209","type":"model"},{"step":209,"from":"sdaReg126","to":"1093685824","type":"store","field":"<java.net.URL: java.lang.String host>"},{"step":210,"from":"sdaReg209","to":"1093685824","type":"store","field":"<java.net.URL: java.lang.String file>"},{"step":211,"from":"sdaReg77","to":"1093685824","type":"store","field":"<java.net.URL: int port>"},{"step":212,"from":"sdaReg130","to":"1093685824","type":"store","field":"<java.net.URL: java.lang.String ref>"},{"step":213,"from":"1093685824","to":"sdaReg211","type":"create","field":"<java.net.URL: int hashCode>"},{"step":214,"from":"sdaReg215","to":"1093685824","type":"store","field":"<java.net.URL: java.lang.String authority>"},{"step":215,"from":"1093685824","to":"sdaReg218","type":"create","field":"<java.net.URL: java.lang.String userInfo>"},{"step":216,"from":"sdaReg221","to":"sdaReg222","type":"model"},{"step":217,"from":"sdaReg222","to":"1093685824","type":"store","field":"<java.net.URL: java.lang.String query>"},{"step":218,"from":"sdaReg223","to":"1093685824","type":"store","field":"<java.net.URL: java.lang.String path>"},{"step":219,"from":"sdaReg92","to":"1093685824","type":"store","field":"<java.net.URL: java.lang.String authority>"},{"step":220,"from":"sdaReg103","to":"1093685824","type":"store","field":"<java.net.URL: java.lang.String userInfo>"},{"step":221,"from":"sdaReg147","to":"1093685824","type":"store","field":"<java.net.URL: java.lang.String path>"},{"step":222,"from":"sdaReg194","to":"1093685824","type":"store","field":"<java.net.URL: java.lang.String query>"}],"parameters":[{"id":"1093685824","name":"this","klass":"java.net.URL"},{"id":"sdaReg0","name":"arg#1","klass":"string"}],"returns":[{"id":"1093685824","name":"return","klass":"java.net.URL"}],"colors":{"heapLocToColor":{"sdaReg191":[1, 2, 110],"1084315112.<java.util.Hashtable: int modCount>":[12],"sdaReg190":[109],"sdaReg193":[1, 2, 11],"sdaReg192":[111],"sdaReg198":[0],"sdaReg195":[1, 2, 36, 113],"sdaReg194":[1, 2, 112],"sdaReg197":[1, 2, 115, 75],"sdaReg196":[1, 2, 114, 75],"sdaReg13":[1, 2, 6],"sdaReg11":[1, 2, 5],"sdaReg19":[11],"sdaReg17":[1, 2, 8],"sdaReg18":[1, 2, 8, 10],"sdaReg15":[1, 2, 7],"1084315112":[12],"static.<java.net.URL: java.util.Hashtable streamHandlers>":[12],"sdaReg171":[92],"sdaReg170":[1, 2, 91, 75],"sdaReg173":[94],"sdaReg172":[93],"sdaReg174":[1, 2, 95],"sdaReg177":[1, 2, 96],"sdaReg176":[1, 2, 11],"sdaReg179":[1, 2, 98],"sdaReg178":[97],"1093474392":[117],"sdaReg182":[101],"sdaReg181":[1, 2, 100],"sdaReg180":[99],"sdaReg186":[105],"sdaReg185":[1, 2, 104],"sdaReg184":[103],"sdaReg183":[102, 1, 2],"sdaReg189":[1, 2, 108],"sdaReg188":[107],"sdaReg187":[1, 2, 106],"1093293936":[23],"static.<java.net.URL: java.net.URLStreamHandlerFactory streamHandlerFactory>":[14],"sdaReg60":[22],"sdaReg61":[22],"1084315112.<java.util.Hashtable: int threshold>":[12],"sdaReg59":[22],"sdaReg58":[22],"sdaReg57":[22],"sdaReg56":[22],"sdaReg55":[22],"sdaReg54":[22],"sdaReg53":[22],"sdaReg52":[21],"sdaReg50":[12],"1084317688":[1, 2, 8, 9],"sdaReg49":[21],"sdaReg48":[21],"sdaReg45":[21],"sdaReg44":[20],"sdaReg47":[21],"sdaReg46":[21],"sdaReg41":[17, 16],"1093685824":[0],"sdaReg40":[16],"sdaReg43":[19],"sdaReg42":[18],"1093281096":[17, 16],"sdaReg200":[21],"sdaReg201":[0],"sdaReg205":[117],"sdaReg39":[15],"sdaReg204":[1, 2, 116, 112],"sdaReg203":[1, 2, 75],"sdaReg202":[0],"sdaReg209":[118, 117],"sdaReg208":[117],"sdaReg207":[117],"sdaReg206":[117],"sdaReg32":[13],"sdaReg31":[13],"sdaReg30":[13],"sdaReg36":[13],"sdaReg33":[13],"sdaReg9":[1, 2, 4],"sdaReg6":[1, 2],"sdaReg7":[1, 2, 3],"sdaReg4":[0],"sdaReg27":[13],"sdaReg26":[13],"sdaReg29":[13],"sdaReg28":[13],"static.<java.util.Locale: java.util.Locale US>":[9],"sdaReg2":[0],"sdaReg21":[1, 2, 11],"sdaReg20":[11],"sdaReg0":[1],"sdaReg23":[12],"sdaReg22":[0],"sdaReg25":[13],"sdaReg125":[60],"sdaReg126":[1, 2, 61],"sdaReg127":[1, 2, 11],"sdaReg68":[23],"sdaReg66":[12],"sdaReg67":[12],"sdaReg224":[0],"sdaReg64":[22],"sdaReg221":[121],"sdaReg72":[23],"sdaReg220":[121],"sdaReg223":[123],"sdaReg70":[21],"sdaReg222":[122],"sdaReg120":[1, 2, 55],"sdaReg122":[1, 2, 57],"sdaReg121":[56],"sdaReg124":[1, 2, 59],"sdaReg123":[58],"sdaReg117":[1, 2, 11],"sdaReg114":[51, 1, 2],"sdaReg115":[52],"sdaReg118":[1, 2, 53],"sdaReg119":[54],"sdaReg219":[121],"sdaReg78":[1, 2, 25],"1084315112.<java.util.Hashtable: int size>":[12],"sdaReg79":[1, 2, 11],"sdaReg217":[120],"sdaReg73":[23],"sdaReg74":[24],"sdaReg216":[120],"sdaReg75":[21],"sdaReg76":[0],"sdaReg214":[119],"sdaReg81":[1, 2, 11],"sdaReg212":[0],"1084321912":[12],"sdaReg83":[27],"sdaReg210":[0],"sdaReg82":[1, 2, 26],"sdaReg113":[50],"sdaReg112":[1, 2, 49],"sdaReg111":[48],"sdaReg110":[1, 2, 47],"1093485280":[16],"sdaReg107":[1, 2, 11],"sdaReg108":[1, 2, 45],"sdaReg109":[46],"sdaReg104":[1, 2, 11],"sdaReg105":[1, 2, 11],"sdaReg86":[1, 2, 30],"sdaReg87":[31],"sdaReg84":[1, 2, 28],"sdaReg85":[29],"sdaReg88":[1, 2, 32],"sdaReg89":[33],"sdaReg90":[34, 1, 2],"1084315112.<java.util.Hashtable: java.util.Hashtable$HashtableEntry[] table>":[12],"sdaReg94":[1, 2, 11],"sdaReg92":[1, 2, 36],"sdaReg91":[35],"sdaReg100":[42],"sdaReg102":[44],"sdaReg101":[1, 2, 43],"sdaReg95":[1, 2, 37],"sdaReg96":[38],"sdaReg97":[1, 2, 39],"sdaReg98":[40],"sdaReg99":[1, 2, 41],"1093348736":[21],"sdaReg169":[90],"sdaReg161":[1, 2, 82, 75],"sdaReg162":[83],"sdaReg163":[84],"sdaReg164":[85, 1, 2, 75],"sdaReg165":[86],"sdaReg166":[87],"sdaReg167":[1, 2, 88, 75],"sdaReg168":[89],"sdaReg160":[81],"sdaReg159":[80],"sdaReg153":[77],"sdaReg154":[78],"sdaReg155":[1, 2, 79, 75],"sdaReg148":[1, 2, 76, 75],"sdaReg147":[1, 2, 75],"sdaReg143":[1, 2, 71],"sdaReg144":[72],"sdaReg145":[1, 2, 73],"sdaReg146":[74],"sdaReg140":[68],"sdaReg141":[1, 69, 2],"sdaReg142":[70],"sdaReg139":[1, 2, 67],"sdaReg138":[66],"sdaReg137":[1, 2, 65],"sdaReg136":[64],"sdaReg134":[1, 2, 11],"sdaReg135":[1, 2, 63],"sdaReg132":[1, 2, 62],"sdaReg131":[1, 2, 24, 11]},"colorToColor":{"0":[124],"1":[68, 0, 1, 70, 2, 64, 66, 8, 10, 72, 74, 25, 27, 29, 31, 103, 35, 101, 33, 38, 99, 97, 42, 111, 40, 109, 46, 107, 44, 105, 50, 117, 48, 54, 52, 58, 56, 60],"2":[68, 0, 1, 70, 2, 64, 66, 8, 10, 72, 74, 25, 27, 29, 31, 103, 35, 101, 33, 38, 99, 97, 42, 111, 40, 109, 46, 107, 44, 105, 50, 117, 48, 54, 52, 58, 56, 60],"8":[0, 1, 2, 8, 10],"9":[1, 2, 8, 10],"10":[0],"11":[1, 2, 25],"12":[12],"21":[0, 23],"23":[12],"22":[23],"26":[27],"28":[29],"30":[31],"34":[35],"32":[33],"39":[40],"36":[0],"37":[38],"43":[44],"41":[42],"47":[48],"45":[46],"51":[52],"49":[50],"55":[56],"53":[54],"59":[60],"57":[58],"63":[64],"61":[0],"69":[70],"71":[72],"65":[66],"67":[68],"73":[74],"75":[0, 117],"102":[103],"100":[101],"98":[99],"96":[97],"110":[111],"108":[109],"106":[107],"104":[105],"118":[0],"117":[0],"112":[0, 117],"123":[0],"122":[0],"121":[122]},"colorToLabel":{"0":"this","1":"arg#1","9":"<java.util.Locale: java.util.Locale US>","12":"<java.net.URL: java.util.Hashtable streamHandlers>","14":"<java.net.URL: java.net.URLStreamHandlerFactory streamHandlerFactory>","124":"return"}}}

Generated Model
	this->return
	arg#1->this
	arg#1->return

