Scanning method <java.net.URL: void <init>(java.lang.String)>

All seen event types: StoreArrayRecord, SimpleAssignmentRecord, MethodStartRecord, LoadInstanceRecord, IfRecord, NewObjectRecord, StoreInstanceRecord, LoadStaticRecord, BinaryOperationRecord, MethodCallRecord, MethodReturnRecord, CastRecord, ArrayLengthRecord, LoadArrayRecord, MethodEndRecord, 
Ignored event types: IfRecord, 

JSON Encoded Analysis Data (for visualization):{"heapEdges":[{"step":0,"from":"1093678432","to":"sdaReg5","type":"create","field":"<java.net.URL: int port>"},{"step":1,"from":"sdaReg0","to":"sdaReg6","type":"model"},{"step":2,"from":"sdaReg6","to":"sdaReg7","type":"model"},{"step":3,"from":"sdaReg6","to":"sdaReg9","type":"model"},{"step":4,"from":"sdaReg6","to":"sdaReg11","type":"model"},{"step":5,"from":"sdaReg6","to":"sdaReg13","type":"model"},{"step":6,"from":"sdaReg6","to":"sdaReg15","type":"model"},{"step":7,"from":"sdaReg6","to":"sdaReg17","type":"model"},{"step":8,"from":"static.<java.util.Locale: java.util.Locale US>","to":"1084317688","type":"load","field":"<java.util.Locale: java.util.Locale US>"},{"step":9,"from":"sdaReg17","to":"1084317688","type":"model"},{"step":10,"from":"sdaReg17","to":"sdaReg18","type":"model"},{"step":11,"from":"1084317688","to":"sdaReg17","type":"model"},{"step":12,"from":"1084317688","to":"sdaReg18","type":"model"},{"step":13,"from":"sdaReg18","to":"1093678432","type":"store","field":"<java.net.URL: java.lang.String protocol>"},{"step":14,"from":"static.<java.net.URL: java.util.Hashtable streamHandlers>","to":"1084315112","type":"load","field":"<java.net.URL: java.util.Hashtable streamHandlers>"},{"step":15,"from":"1084315112","to":"1084321912","type":"load","field":"<java.util.Hashtable: java.util.Hashtable$HashtableEntry[] table>"},{"step":16,"from":"1093437504","to":"1093261656","type":"model"},{"step":17,"from":"1093678432","to":"1093285840","type":"create","field":"<java.net.URL: java.net.URLStreamHandler streamHandler>"},{"step":18,"from":"static.<java.net.URL: java.util.Hashtable streamHandlers>","to":"1084315112","type":"load","field":"<java.net.URL: java.util.Hashtable streamHandlers>"},{"step":19,"from":"1084315112","to":"1084321912","type":"load","field":"<java.util.Hashtable: java.util.Hashtable$HashtableEntry[] table>"},{"step":20,"from":"1084315112","to":"1084315112.<java.util.Hashtable: int modCount>","type":"load","field":"<java.util.Hashtable: int modCount>"},{"step":21,"from":"sdaReg66","to":"1084315112","type":"store","field":"<java.util.Hashtable: int modCount>"},{"step":22,"from":"1084315112","to":"1084315112.<java.util.Hashtable: int size>","type":"load","field":"<java.util.Hashtable: int size>"},{"step":23,"from":"sdaReg67","to":"1084315112","type":"store","field":"<java.util.Hashtable: int size>"},{"step":24,"from":"1084315112","to":"1084315112.<java.util.Hashtable: int threshold>","type":"load","field":"<java.util.Hashtable: int threshold>"},{"step":25,"from":"1093689280","to":"1093255568","type":"store","field":"<java.util.Hashtable$HashtableEntry: java.lang.Object key>"},{"step":26,"from":"1093285840","to":"1093255568","type":"store","field":"<java.util.Hashtable$HashtableEntry: java.lang.Object value>"},{"step":27,"from":"sdaReg61","to":"1093255568","type":"store","field":"<java.util.Hashtable$HashtableEntry: int hash>"},{"step":28,"from":"1084321912","to":"1093255568","type":"create","field":"arrayIdx_int:1"},{"step":29,"from":"sdaReg6","to":"sdaReg21","type":"model"},{"step":30,"from":"sdaReg6","to":"sdaReg78","type":"model"},{"step":31,"from":"sdaReg21","to":"sdaReg6","type":"model"},{"step":32,"from":"sdaReg21","to":"sdaReg78","type":"model"},{"step":33,"from":"sdaReg6","to":"sdaReg82","type":"model"},{"step":34,"from":"sdaReg80","to":"sdaReg82","type":"model"},{"step":35,"from":"sdaReg80","to":"sdaReg83","type":"model"},{"step":36,"from":"sdaReg82","to":"sdaReg80","type":"model"},{"step":37,"from":"sdaReg82","to":"sdaReg83","type":"model"},{"step":38,"from":"sdaReg6","to":"sdaReg84","type":"model"},{"step":39,"from":"sdaReg80","to":"sdaReg84","type":"model"},{"step":40,"from":"sdaReg80","to":"sdaReg85","type":"model"},{"step":41,"from":"sdaReg84","to":"sdaReg80","type":"model"},{"step":42,"from":"sdaReg84","to":"sdaReg85","type":"model"},{"step":43,"from":"sdaReg6","to":"sdaReg86","type":"model"},{"step":44,"from":"sdaReg80","to":"sdaReg86","type":"model"},{"step":45,"from":"sdaReg80","to":"sdaReg87","type":"model"},{"step":46,"from":"sdaReg86","to":"sdaReg80","type":"model"},{"step":47,"from":"sdaReg86","to":"sdaReg87","type":"model"},{"step":48,"from":"sdaReg6","to":"sdaReg88","type":"model"},{"step":49,"from":"sdaReg80","to":"sdaReg88","type":"model"},{"step":50,"from":"sdaReg80","to":"sdaReg89","type":"model"},{"step":51,"from":"sdaReg88","to":"sdaReg80","type":"model"},{"step":52,"from":"sdaReg88","to":"sdaReg89","type":"model"},{"step":53,"from":"sdaReg6","to":"sdaReg90","type":"model"},{"step":54,"from":"sdaReg80","to":"sdaReg90","type":"model"},{"step":55,"from":"sdaReg80","to":"sdaReg91","type":"model"},{"step":56,"from":"sdaReg90","to":"sdaReg80","type":"model"},{"step":57,"from":"sdaReg90","to":"sdaReg91","type":"model"},{"step":58,"from":"sdaReg6","to":"sdaReg92","type":"model"},{"step":59,"from":"sdaReg80","to":"sdaReg92","type":"model"},{"step":60,"from":"sdaReg80","to":"sdaReg93","type":"model"},{"step":61,"from":"sdaReg92","to":"sdaReg80","type":"model"},{"step":62,"from":"sdaReg92","to":"sdaReg93","type":"model"},{"step":63,"from":"sdaReg6","to":"sdaReg94","type":"model"},{"step":64,"from":"sdaReg80","to":"sdaReg94","type":"model"},{"step":65,"from":"sdaReg80","to":"sdaReg95","type":"model"},{"step":66,"from":"sdaReg94","to":"sdaReg80","type":"model"},{"step":67,"from":"sdaReg94","to":"sdaReg95","type":"model"},{"step":68,"from":"sdaReg6","to":"sdaReg96","type":"model"},{"step":69,"from":"sdaReg80","to":"sdaReg96","type":"model"},{"step":70,"from":"sdaReg80","to":"sdaReg97","type":"model"},{"step":71,"from":"sdaReg96","to":"sdaReg80","type":"model"},{"step":72,"from":"sdaReg96","to":"sdaReg97","type":"model"},{"step":73,"from":"sdaReg6","to":"sdaReg98","type":"model"},{"step":74,"from":"sdaReg80","to":"sdaReg98","type":"model"},{"step":75,"from":"sdaReg80","to":"sdaReg99","type":"model"},{"step":76,"from":"sdaReg98","to":"sdaReg80","type":"model"},{"step":77,"from":"sdaReg98","to":"sdaReg99","type":"model"},{"step":78,"from":"sdaReg6","to":"sdaReg100","type":"model"},{"step":79,"from":"sdaReg6","to":"sdaReg103","type":"model"},{"step":80,"from":"sdaReg101","to":"sdaReg103","type":"model"},{"step":81,"from":"sdaReg101","to":"sdaReg104","type":"model"},{"step":82,"from":"sdaReg103","to":"sdaReg101","type":"model"},{"step":83,"from":"sdaReg103","to":"sdaReg104","type":"model"},{"step":84,"from":"sdaReg6","to":"sdaReg105","type":"model"},{"step":85,"from":"sdaReg101","to":"sdaReg105","type":"model"},{"step":86,"from":"sdaReg101","to":"sdaReg106","type":"model"},{"step":87,"from":"sdaReg105","to":"sdaReg101","type":"model"},{"step":88,"from":"sdaReg105","to":"sdaReg106","type":"model"},{"step":89,"from":"sdaReg6","to":"sdaReg107","type":"model"},{"step":90,"from":"sdaReg101","to":"sdaReg107","type":"model"},{"step":91,"from":"sdaReg101","to":"sdaReg108","type":"model"},{"step":92,"from":"sdaReg107","to":"sdaReg101","type":"model"},{"step":93,"from":"sdaReg107","to":"sdaReg108","type":"model"},{"step":94,"from":"sdaReg6","to":"sdaReg109","type":"model"},{"step":95,"from":"sdaReg101","to":"sdaReg109","type":"model"},{"step":96,"from":"sdaReg101","to":"sdaReg110","type":"model"},{"step":97,"from":"sdaReg109","to":"sdaReg101","type":"model"},{"step":98,"from":"sdaReg109","to":"sdaReg110","type":"model"},{"step":99,"from":"sdaReg6","to":"sdaReg111","type":"model"},{"step":100,"from":"sdaReg101","to":"sdaReg111","type":"model"},{"step":101,"from":"sdaReg101","to":"sdaReg112","type":"model"},{"step":102,"from":"sdaReg111","to":"sdaReg101","type":"model"},{"step":103,"from":"sdaReg111","to":"sdaReg112","type":"model"},{"step":104,"from":"sdaReg6","to":"sdaReg113","type":"model"},{"step":105,"from":"sdaReg6","to":"sdaReg118","type":"model"},{"step":106,"from":"sdaReg116","to":"sdaReg118","type":"model"},{"step":107,"from":"sdaReg116","to":"sdaReg119","type":"model"},{"step":108,"from":"sdaReg118","to":"sdaReg116","type":"model"},{"step":109,"from":"sdaReg118","to":"sdaReg119","type":"model"},{"step":110,"from":"sdaReg6","to":"sdaReg120","type":"model"},{"step":111,"from":"sdaReg116","to":"sdaReg120","type":"model"},{"step":112,"from":"sdaReg116","to":"sdaReg121","type":"model"},{"step":113,"from":"sdaReg120","to":"sdaReg116","type":"model"},{"step":114,"from":"sdaReg120","to":"sdaReg121","type":"model"},{"step":115,"from":"sdaReg6","to":"sdaReg122","type":"model"},{"step":116,"from":"sdaReg116","to":"sdaReg122","type":"model"},{"step":117,"from":"sdaReg116","to":"sdaReg123","type":"model"},{"step":118,"from":"sdaReg122","to":"sdaReg116","type":"model"},{"step":119,"from":"sdaReg122","to":"sdaReg123","type":"model"},{"step":120,"from":"sdaReg6","to":"sdaReg124","type":"model"},{"step":121,"from":"sdaReg116","to":"sdaReg124","type":"model"},{"step":122,"from":"sdaReg116","to":"sdaReg125","type":"model"},{"step":123,"from":"sdaReg124","to":"sdaReg116","type":"model"},{"step":124,"from":"sdaReg124","to":"sdaReg125","type":"model"},{"step":125,"from":"sdaReg6","to":"sdaReg128","type":"model"},{"step":126,"from":"sdaReg126","to":"sdaReg128","type":"model"},{"step":127,"from":"sdaReg126","to":"sdaReg129","type":"model"},{"step":128,"from":"sdaReg128","to":"sdaReg126","type":"model"},{"step":129,"from":"sdaReg128","to":"sdaReg129","type":"model"},{"step":130,"from":"sdaReg6","to":"sdaReg130","type":"model"},{"step":131,"from":"sdaReg126","to":"sdaReg130","type":"model"},{"step":132,"from":"sdaReg126","to":"sdaReg131","type":"model"},{"step":133,"from":"sdaReg130","to":"sdaReg126","type":"model"},{"step":134,"from":"sdaReg130","to":"sdaReg131","type":"model"},{"step":135,"from":"sdaReg6","to":"sdaReg132","type":"model"},{"step":136,"from":"sdaReg126","to":"sdaReg132","type":"model"},{"step":137,"from":"sdaReg126","to":"sdaReg133","type":"model"},{"step":138,"from":"sdaReg132","to":"sdaReg126","type":"model"},{"step":139,"from":"sdaReg132","to":"sdaReg133","type":"model"},{"step":140,"from":"sdaReg6","to":"sdaReg134","type":"model"},{"step":141,"from":"sdaReg126","to":"sdaReg134","type":"model"},{"step":142,"from":"sdaReg126","to":"sdaReg135","type":"model"},{"step":143,"from":"sdaReg134","to":"sdaReg126","type":"model"},{"step":144,"from":"sdaReg134","to":"sdaReg135","type":"model"},{"step":145,"from":"sdaReg6","to":"sdaReg136","type":"model"},{"step":146,"from":"sdaReg100","to":"sdaReg142","type":"model"},{"step":147,"from":"sdaReg138","to":"sdaReg143","type":"model"},{"step":148,"from":"sdaReg136","to":"1093678432","type":"store","field":"<java.net.URL: java.lang.String host>"},{"step":149,"from":"sdaReg149","to":"1093678432","type":"store","field":"<java.net.URL: java.lang.String file>"},{"step":150,"from":"sdaReg77","to":"1093678432","type":"store","field":"<java.net.URL: int port>"},{"step":151,"from":"sdaReg140","to":"1093678432","type":"store","field":"<java.net.URL: java.lang.String ref>"},{"step":152,"from":"1093678432","to":"sdaReg151","type":"create","field":"<java.net.URL: int hashCode>"},{"step":153,"from":"sdaReg155","to":"1093678432","type":"store","field":"<java.net.URL: java.lang.String authority>"},{"step":154,"from":"1093678432","to":"sdaReg158","type":"create","field":"<java.net.URL: java.lang.String userInfo>"},{"step":155,"from":"1093678432","to":"sdaReg161","type":"create","field":"<java.net.URL: java.lang.String query>"},{"step":156,"from":"sdaReg162","to":"1093678432","type":"store","field":"<java.net.URL: java.lang.String path>"},{"step":157,"from":"sdaReg100","to":"1093678432","type":"store","field":"<java.net.URL: java.lang.String authority>"},{"step":158,"from":"sdaReg113","to":"1093678432","type":"store","field":"<java.net.URL: java.lang.String userInfo>"},{"step":159,"from":"sdaReg138","to":"1093678432","type":"store","field":"<java.net.URL: java.lang.String path>"},{"step":160,"from":"sdaReg139","to":"1093678432","type":"store","field":"<java.net.URL: java.lang.String query>"}],"parameters":[{"id":"1093678432","name":"this","klass":"java.net.URL"},{"id":"sdaReg0","name":"arg#1","klass":"string"}],"returns":[{"id":"1093678432","name":"return","klass":"java.net.URL"}],"colors":{"heapLocToColor":{"sdaReg125":[63],"1084315112.<java.util.Hashtable: int modCount>":[12],"sdaReg127":[1, 2, 11],"sdaReg128":[1, 2, 64],"sdaReg129":[65],"sdaReg68":[23],"sdaReg66":[12],"sdaReg67":[12],"sdaReg64":[22],"sdaReg13":[1, 2, 6],"sdaReg72":[23],"sdaReg11":[1, 2, 5],"sdaReg70":[21],"sdaReg120":[1, 2, 58],"sdaReg19":[11],"sdaReg122":[1, 2, 60],"sdaReg17":[1, 2, 8],"sdaReg121":[59],"sdaReg18":[1, 2, 8, 10],"sdaReg124":[1, 2, 62],"sdaReg15":[1, 2, 7],"sdaReg123":[61],"sdaReg117":[1, 2, 11],"sdaReg114":[1, 2, 11],"sdaReg115":[1, 2, 11],"sdaReg118":[1, 2, 56],"sdaReg119":[57],"1084315112.<java.util.Hashtable: int size>":[12],"sdaReg78":[1, 2, 25],"sdaReg79":[1, 2, 11],"sdaReg73":[23],"sdaReg74":[24],"sdaReg75":[21],"sdaReg76":[0],"sdaReg81":[1, 2, 11],"1084321912":[12],"sdaReg83":[27],"sdaReg82":[1, 2, 26],"sdaReg113":[1, 2, 55],"sdaReg112":[54],"sdaReg111":[1, 2, 53],"1084315112":[12],"sdaReg110":[52],"sdaReg107":[1, 2, 49],"static.<java.net.URL: java.util.Hashtable streamHandlers>":[12],"sdaReg108":[50],"1093255568":[23],"sdaReg109":[51, 1, 2],"sdaReg103":[1, 2, 45],"sdaReg104":[46],"sdaReg105":[1, 2, 47],"sdaReg106":[48],"sdaReg86":[1, 2, 30],"sdaReg87":[31],"sdaReg84":[1, 2, 28],"sdaReg85":[29],"sdaReg88":[1, 2, 32],"sdaReg89":[33],"sdaReg90":[34, 1, 2],"1084315112.<java.util.Hashtable: java.util.Hashtable$HashtableEntry[] table>":[12],"sdaReg94":[1, 2, 38],"sdaReg93":[37],"sdaReg92":[1, 2, 36],"sdaReg91":[35],"sdaReg100":[1, 2, 44],"sdaReg102":[1, 2, 11],"sdaReg95":[39],"sdaReg96":[1, 2, 40],"sdaReg97":[41],"sdaReg98":[1, 2, 42],"sdaReg99":[43],"1093678432":[0],"static.<java.net.URL: java.net.URLStreamHandlerFactory streamHandlerFactory>":[14],"sdaReg60":[22],"sdaReg61":[22],"1084315112.<java.util.Hashtable: int threshold>":[12],"sdaReg163":[0],"1093261656":[17, 16],"sdaReg59":[22],"sdaReg58":[22],"sdaReg57":[22],"sdaReg56":[22],"sdaReg55":[22],"sdaReg54":[22],"sdaReg53":[22],"sdaReg52":[21],"sdaReg160":[77],"sdaReg50":[12],"1084317688":[1, 2, 8, 9],"sdaReg159":[77],"sdaReg152":[0],"sdaReg150":[0],"1093285840":[21],"sdaReg156":[76],"sdaReg49":[21],"sdaReg157":[76],"sdaReg48":[21],"sdaReg154":[75],"sdaReg45":[21],"sdaReg44":[20],"sdaReg47":[21],"sdaReg46":[21],"sdaReg41":[17, 16],"sdaReg40":[16],"sdaReg43":[19],"sdaReg42":[18],"sdaReg148":[0],"sdaReg147":[0],"sdaReg143":[74],"sdaReg144":[0],"sdaReg39":[15],"sdaReg146":[21],"sdaReg141":[24],"sdaReg142":[1, 2, 73, 44],"sdaReg32":[13],"sdaReg31":[13],"sdaReg30":[13],"sdaReg36":[13],"sdaReg33":[13],"sdaReg9":[1, 2, 4],"sdaReg6":[1, 2],"sdaReg7":[1, 2, 3],"sdaReg4":[0],"sdaReg137":[24],"sdaReg136":[1, 2, 72],"sdaReg134":[1, 2, 70],"sdaReg27":[13],"sdaReg135":[71],"sdaReg26":[13],"sdaReg132":[68, 1, 2],"sdaReg29":[13],"sdaReg133":[69],"static.<java.util.Locale: java.util.Locale US>":[9],"sdaReg28":[13],"sdaReg130":[1, 2, 66],"sdaReg131":[67],"1093437504":[16],"sdaReg2":[0],"sdaReg21":[1, 2, 11],"sdaReg0":[1],"sdaReg20":[11],"sdaReg23":[12],"sdaReg22":[0],"sdaReg25":[13]},"colorToColor":{"0":[78],"68":[69],"1":[0, 69, 1, 2, 71, 65, 67, 8, 10, 25, 27, 29, 31, 35, 33, 39, 37, 43, 41, 46, 50, 48, 54, 52, 59, 57, 63, 61],"70":[71],"2":[0, 69, 1, 2, 71, 65, 67, 8, 10, 25, 27, 29, 31, 35, 33, 39, 37, 43, 41, 46, 50, 48, 54, 52, 59, 57, 63, 61],"64":[65],"66":[67],"8":[0, 1, 2, 8, 10],"9":[1, 2, 8, 10],"10":[0],"11":[1, 2, 25],"72":[0],"12":[12],"21":[0, 23],"23":[12],"22":[23],"26":[27],"28":[29],"30":[31],"34":[35],"32":[33],"38":[39],"36":[37],"42":[43],"40":[41],"47":[48],"44":[0],"45":[46],"51":[52],"49":[50],"55":[0],"53":[54],"58":[59],"56":[57],"62":[63],"60":[61]},"colorToLabel":{"0":"this","1":"arg#1","9":"<java.util.Locale: java.util.Locale US>","12":"<java.net.URL: java.util.Hashtable streamHandlers>","14":"<java.net.URL: java.net.URLStreamHandlerFactory streamHandlerFactory>","78":"return"}}}

Generated Model
	this->return
	arg#1->this
	arg#1->return

