Scanning method <java.net.URL: void <init>(java.lang.String)>

All seen event types: SimpleAssignmentRecord, MethodStartRecord, LoadInstanceRecord, IfRecord, NewObjectRecord, StoreInstanceRecord, LoadStaticRecord, BinaryOperationRecord, SwitchRecord, MethodCallRecord, MethodReturnRecord, CastRecord, ArrayLengthRecord, LoadArrayRecord, MethodEndRecord, 
Ignored event types: SwitchRecord, IfRecord, 

JSON Encoded Analysis Data (for visualization):{"heapEdges":[{"step":0,"from":"1093303632","to":"sdaReg5","type":"create","field":"<java.net.URL: int port>"},{"step":1,"from":"sdaReg0","to":"sdaReg6","type":"model"},{"step":2,"from":"sdaReg6","to":"sdaReg7","type":"model"},{"step":3,"from":"sdaReg6","to":"sdaReg9","type":"model"},{"step":4,"from":"sdaReg6","to":"sdaReg11","type":"model"},{"step":5,"from":"sdaReg6","to":"sdaReg13","type":"model"},{"step":6,"from":"sdaReg6","to":"sdaReg15","type":"model"},{"step":7,"from":"sdaReg6","to":"sdaReg17","type":"model"},{"step":8,"from":"static.<java.util.Locale: java.util.Locale US>","to":"1084317688","type":"load","field":"<java.util.Locale: java.util.Locale US>"},{"step":9,"from":"sdaReg17","to":"1084317688","type":"model"},{"step":10,"from":"sdaReg17","to":"sdaReg18","type":"model"},{"step":11,"from":"1084317688","to":"sdaReg17","type":"model"},{"step":12,"from":"1084317688","to":"sdaReg18","type":"model"},{"step":13,"from":"sdaReg18","to":"1093303632","type":"store","field":"<java.net.URL: java.lang.String protocol>"},{"step":14,"from":"static.<java.net.URL: java.util.Hashtable streamHandlers>","to":"1084315112","type":"load","field":"<java.net.URL: java.util.Hashtable streamHandlers>"},{"step":15,"from":"1084315112","to":"1084321912","type":"load","field":"<java.util.Hashtable: java.util.Hashtable$HashtableEntry[] table>"},{"step":16,"from":"1084321912","to":"1093260080","type":"load","field":"arrayIdx_int:1"},{"step":17,"from":"1093260080","to":"1093687120","type":"load","field":"<java.util.Hashtable$HashtableEntry: java.lang.Object key>"},{"step":18,"from":"1093260080","to":"1093260080.<java.util.Hashtable$HashtableEntry: int hash>","type":"load","field":"<java.util.Hashtable$HashtableEntry: int hash>"},{"step":19,"from":"1093260080","to":"1093298528","type":"load","field":"<java.util.Hashtable$HashtableEntry: java.lang.Object value>"},{"step":20,"from":"1093298528","to":"1093303632","type":"store","field":"<java.net.URL: java.net.URLStreamHandler streamHandler>"},{"step":21,"from":"sdaReg6","to":"sdaReg21","type":"model"},{"step":22,"from":"sdaReg6","to":"sdaReg44","type":"model"},{"step":23,"from":"sdaReg21","to":"sdaReg6","type":"model"},{"step":24,"from":"sdaReg21","to":"sdaReg44","type":"model"},{"step":25,"from":"sdaReg6","to":"sdaReg48","type":"model"},{"step":26,"from":"sdaReg46","to":"sdaReg48","type":"model"},{"step":27,"from":"sdaReg46","to":"sdaReg49","type":"model"},{"step":28,"from":"sdaReg48","to":"sdaReg46","type":"model"},{"step":29,"from":"sdaReg48","to":"sdaReg49","type":"model"},{"step":30,"from":"sdaReg6","to":"sdaReg50","type":"model"},{"step":31,"from":"sdaReg46","to":"sdaReg50","type":"model"},{"step":32,"from":"sdaReg46","to":"sdaReg51","type":"model"},{"step":33,"from":"sdaReg50","to":"sdaReg46","type":"model"},{"step":34,"from":"sdaReg50","to":"sdaReg51","type":"model"},{"step":35,"from":"sdaReg6","to":"sdaReg52","type":"model"},{"step":36,"from":"sdaReg46","to":"sdaReg52","type":"model"},{"step":37,"from":"sdaReg46","to":"sdaReg53","type":"model"},{"step":38,"from":"sdaReg52","to":"sdaReg46","type":"model"},{"step":39,"from":"sdaReg52","to":"sdaReg53","type":"model"},{"step":40,"from":"sdaReg6","to":"sdaReg54","type":"model"},{"step":41,"from":"sdaReg46","to":"sdaReg54","type":"model"},{"step":42,"from":"sdaReg46","to":"sdaReg55","type":"model"},{"step":43,"from":"sdaReg54","to":"sdaReg46","type":"model"},{"step":44,"from":"sdaReg54","to":"sdaReg55","type":"model"},{"step":45,"from":"sdaReg6","to":"sdaReg56","type":"model"},{"step":46,"from":"sdaReg46","to":"sdaReg56","type":"model"},{"step":47,"from":"sdaReg46","to":"sdaReg57","type":"model"},{"step":48,"from":"sdaReg56","to":"sdaReg46","type":"model"},{"step":49,"from":"sdaReg56","to":"sdaReg57","type":"model"},{"step":50,"from":"sdaReg6","to":"sdaReg58","type":"model"},{"step":51,"from":"sdaReg46","to":"sdaReg58","type":"model"},{"step":52,"from":"sdaReg46","to":"sdaReg59","type":"model"},{"step":53,"from":"sdaReg58","to":"sdaReg46","type":"model"},{"step":54,"from":"sdaReg58","to":"sdaReg59","type":"model"},{"step":55,"from":"sdaReg6","to":"sdaReg60","type":"model"},{"step":56,"from":"sdaReg46","to":"sdaReg60","type":"model"},{"step":57,"from":"sdaReg46","to":"sdaReg61","type":"model"},{"step":58,"from":"sdaReg60","to":"sdaReg46","type":"model"},{"step":59,"from":"sdaReg60","to":"sdaReg61","type":"model"},{"step":60,"from":"sdaReg6","to":"sdaReg62","type":"model"},{"step":61,"from":"sdaReg46","to":"sdaReg62","type":"model"},{"step":62,"from":"sdaReg46","to":"sdaReg63","type":"model"},{"step":63,"from":"sdaReg62","to":"sdaReg46","type":"model"},{"step":64,"from":"sdaReg62","to":"sdaReg63","type":"model"},{"step":65,"from":"sdaReg6","to":"sdaReg64","type":"model"},{"step":66,"from":"sdaReg46","to":"sdaReg64","type":"model"},{"step":67,"from":"sdaReg46","to":"sdaReg65","type":"model"},{"step":68,"from":"sdaReg64","to":"sdaReg46","type":"model"},{"step":69,"from":"sdaReg64","to":"sdaReg65","type":"model"},{"step":70,"from":"sdaReg6","to":"sdaReg66","type":"model"},{"step":71,"from":"sdaReg46","to":"sdaReg66","type":"model"},{"step":72,"from":"sdaReg46","to":"sdaReg67","type":"model"},{"step":73,"from":"sdaReg66","to":"sdaReg46","type":"model"},{"step":74,"from":"sdaReg66","to":"sdaReg67","type":"model"},{"step":75,"from":"sdaReg6","to":"sdaReg68","type":"model"},{"step":76,"from":"sdaReg6","to":"sdaReg71","type":"model"},{"step":77,"from":"sdaReg69","to":"sdaReg71","type":"model"},{"step":78,"from":"sdaReg69","to":"sdaReg72","type":"model"},{"step":79,"from":"sdaReg71","to":"sdaReg69","type":"model"},{"step":80,"from":"sdaReg71","to":"sdaReg72","type":"model"},{"step":81,"from":"sdaReg6","to":"sdaReg73","type":"model"},{"step":82,"from":"sdaReg69","to":"sdaReg73","type":"model"},{"step":83,"from":"sdaReg69","to":"sdaReg74","type":"model"},{"step":84,"from":"sdaReg73","to":"sdaReg69","type":"model"},{"step":85,"from":"sdaReg73","to":"sdaReg74","type":"model"},{"step":86,"from":"sdaReg6","to":"sdaReg75","type":"model"},{"step":87,"from":"sdaReg69","to":"sdaReg75","type":"model"},{"step":88,"from":"sdaReg69","to":"sdaReg76","type":"model"},{"step":89,"from":"sdaReg75","to":"sdaReg69","type":"model"},{"step":90,"from":"sdaReg75","to":"sdaReg76","type":"model"},{"step":91,"from":"sdaReg6","to":"sdaReg77","type":"model"},{"step":92,"from":"sdaReg69","to":"sdaReg77","type":"model"},{"step":93,"from":"sdaReg69","to":"sdaReg78","type":"model"},{"step":94,"from":"sdaReg77","to":"sdaReg69","type":"model"},{"step":95,"from":"sdaReg77","to":"sdaReg78","type":"model"},{"step":96,"from":"sdaReg6","to":"sdaReg79","type":"model"},{"step":97,"from":"sdaReg69","to":"sdaReg79","type":"model"},{"step":98,"from":"sdaReg69","to":"sdaReg80","type":"model"},{"step":99,"from":"sdaReg79","to":"sdaReg69","type":"model"},{"step":100,"from":"sdaReg79","to":"sdaReg80","type":"model"},{"step":101,"from":"sdaReg6","to":"sdaReg81","type":"model"},{"step":102,"from":"sdaReg69","to":"sdaReg81","type":"model"},{"step":103,"from":"sdaReg69","to":"sdaReg82","type":"model"},{"step":104,"from":"sdaReg81","to":"sdaReg69","type":"model"},{"step":105,"from":"sdaReg81","to":"sdaReg82","type":"model"},{"step":106,"from":"sdaReg6","to":"sdaReg83","type":"model"},{"step":107,"from":"sdaReg69","to":"sdaReg83","type":"model"},{"step":108,"from":"sdaReg69","to":"sdaReg84","type":"model"},{"step":109,"from":"sdaReg83","to":"sdaReg69","type":"model"},{"step":110,"from":"sdaReg83","to":"sdaReg84","type":"model"},{"step":111,"from":"sdaReg6","to":"sdaReg85","type":"model"},{"step":112,"from":"sdaReg69","to":"sdaReg85","type":"model"},{"step":113,"from":"sdaReg69","to":"sdaReg86","type":"model"},{"step":114,"from":"sdaReg85","to":"sdaReg69","type":"model"},{"step":115,"from":"sdaReg85","to":"sdaReg86","type":"model"},{"step":116,"from":"sdaReg6","to":"sdaReg87","type":"model"},{"step":117,"from":"sdaReg69","to":"sdaReg87","type":"model"},{"step":118,"from":"sdaReg69","to":"sdaReg88","type":"model"},{"step":119,"from":"sdaReg87","to":"sdaReg69","type":"model"},{"step":120,"from":"sdaReg87","to":"sdaReg88","type":"model"},{"step":121,"from":"sdaReg6","to":"sdaReg94","type":"model"},{"step":122,"from":"sdaReg92","to":"sdaReg94","type":"model"},{"step":123,"from":"sdaReg92","to":"sdaReg95","type":"model"},{"step":124,"from":"sdaReg94","to":"sdaReg92","type":"model"},{"step":125,"from":"sdaReg94","to":"sdaReg95","type":"model"},{"step":126,"from":"sdaReg6","to":"sdaReg96","type":"model"},{"step":127,"from":"sdaReg92","to":"sdaReg96","type":"model"},{"step":128,"from":"sdaReg92","to":"sdaReg97","type":"model"},{"step":129,"from":"sdaReg96","to":"sdaReg92","type":"model"},{"step":130,"from":"sdaReg96","to":"sdaReg97","type":"model"},{"step":131,"from":"sdaReg6","to":"sdaReg98","type":"model"},{"step":132,"from":"sdaReg92","to":"sdaReg98","type":"model"},{"step":133,"from":"sdaReg92","to":"sdaReg99","type":"model"},{"step":134,"from":"sdaReg98","to":"sdaReg92","type":"model"},{"step":135,"from":"sdaReg98","to":"sdaReg99","type":"model"},{"step":136,"from":"sdaReg6","to":"sdaReg100","type":"model"},{"step":137,"from":"sdaReg92","to":"sdaReg100","type":"model"},{"step":138,"from":"sdaReg92","to":"sdaReg101","type":"model"},{"step":139,"from":"sdaReg100","to":"sdaReg92","type":"model"},{"step":140,"from":"sdaReg100","to":"sdaReg101","type":"model"},{"step":141,"from":"sdaReg6","to":"sdaReg102","type":"model"},{"step":142,"from":"sdaReg92","to":"sdaReg102","type":"model"},{"step":143,"from":"sdaReg92","to":"sdaReg103","type":"model"},{"step":144,"from":"sdaReg102","to":"sdaReg92","type":"model"},{"step":145,"from":"sdaReg102","to":"sdaReg103","type":"model"},{"step":146,"from":"sdaReg6","to":"sdaReg104","type":"model"},{"step":147,"from":"sdaReg92","to":"sdaReg104","type":"model"},{"step":148,"from":"sdaReg92","to":"sdaReg105","type":"model"},{"step":149,"from":"sdaReg104","to":"sdaReg92","type":"model"},{"step":150,"from":"sdaReg104","to":"sdaReg105","type":"model"},{"step":151,"from":"sdaReg6","to":"sdaReg106","type":"model"},{"step":152,"from":"sdaReg92","to":"sdaReg106","type":"model"},{"step":153,"from":"sdaReg92","to":"sdaReg107","type":"model"},{"step":154,"from":"sdaReg106","to":"sdaReg92","type":"model"},{"step":155,"from":"sdaReg106","to":"sdaReg107","type":"model"},{"step":156,"from":"sdaReg6","to":"sdaReg108","type":"model"},{"step":157,"from":"sdaReg92","to":"sdaReg108","type":"model"},{"step":158,"from":"sdaReg92","to":"sdaReg109","type":"model"},{"step":159,"from":"sdaReg108","to":"sdaReg92","type":"model"},{"step":160,"from":"sdaReg108","to":"sdaReg109","type":"model"},{"step":161,"from":"sdaReg6","to":"sdaReg110","type":"model"},{"step":162,"from":"sdaReg92","to":"sdaReg110","type":"model"},{"step":163,"from":"sdaReg92","to":"sdaReg111","type":"model"},{"step":164,"from":"sdaReg110","to":"sdaReg92","type":"model"},{"step":165,"from":"sdaReg110","to":"sdaReg111","type":"model"},{"step":166,"from":"sdaReg6","to":"sdaReg114","type":"model"},{"step":167,"from":"sdaReg112","to":"sdaReg114","type":"model"},{"step":168,"from":"sdaReg112","to":"sdaReg115","type":"model"},{"step":169,"from":"sdaReg114","to":"sdaReg112","type":"model"},{"step":170,"from":"sdaReg114","to":"sdaReg115","type":"model"},{"step":171,"from":"sdaReg6","to":"sdaReg116","type":"model"},{"step":172,"from":"sdaReg112","to":"sdaReg116","type":"model"},{"step":173,"from":"sdaReg112","to":"sdaReg117","type":"model"},{"step":174,"from":"sdaReg116","to":"sdaReg112","type":"model"},{"step":175,"from":"sdaReg116","to":"sdaReg117","type":"model"},{"step":176,"from":"sdaReg6","to":"sdaReg118","type":"model"},{"step":177,"from":"sdaReg112","to":"sdaReg118","type":"model"},{"step":178,"from":"sdaReg112","to":"sdaReg119","type":"model"},{"step":179,"from":"sdaReg118","to":"sdaReg112","type":"model"},{"step":180,"from":"sdaReg118","to":"sdaReg119","type":"model"},{"step":181,"from":"sdaReg6","to":"sdaReg120","type":"model"},{"step":182,"from":"sdaReg112","to":"sdaReg120","type":"model"},{"step":183,"from":"sdaReg112","to":"sdaReg121","type":"model"},{"step":184,"from":"sdaReg120","to":"sdaReg112","type":"model"},{"step":185,"from":"sdaReg120","to":"sdaReg121","type":"model"},{"step":186,"from":"sdaReg6","to":"sdaReg122","type":"model"},{"step":187,"from":"sdaReg112","to":"sdaReg122","type":"model"},{"step":188,"from":"sdaReg112","to":"sdaReg123","type":"model"},{"step":189,"from":"sdaReg122","to":"sdaReg112","type":"model"},{"step":190,"from":"sdaReg122","to":"sdaReg123","type":"model"},{"step":191,"from":"sdaReg6","to":"sdaReg124","type":"model"},{"step":192,"from":"sdaReg112","to":"sdaReg124","type":"model"},{"step":193,"from":"sdaReg112","to":"sdaReg125","type":"model"},{"step":194,"from":"sdaReg124","to":"sdaReg112","type":"model"},{"step":195,"from":"sdaReg124","to":"sdaReg125","type":"model"},{"step":196,"from":"sdaReg6","to":"sdaReg126","type":"model"},{"step":197,"from":"sdaReg112","to":"sdaReg126","type":"model"},{"step":198,"from":"sdaReg112","to":"sdaReg127","type":"model"},{"step":199,"from":"sdaReg126","to":"sdaReg112","type":"model"},{"step":200,"from":"sdaReg126","to":"sdaReg127","type":"model"},{"step":201,"from":"sdaReg6","to":"sdaReg128","type":"model"},{"step":202,"from":"sdaReg112","to":"sdaReg128","type":"model"},{"step":203,"from":"sdaReg112","to":"sdaReg129","type":"model"},{"step":204,"from":"sdaReg128","to":"sdaReg112","type":"model"},{"step":205,"from":"sdaReg128","to":"sdaReg129","type":"model"},{"step":206,"from":"sdaReg6","to":"sdaReg130","type":"model"},{"step":207,"from":"sdaReg112","to":"sdaReg130","type":"model"},{"step":208,"from":"sdaReg112","to":"sdaReg131","type":"model"},{"step":209,"from":"sdaReg130","to":"sdaReg112","type":"model"},{"step":210,"from":"sdaReg130","to":"sdaReg131","type":"model"},{"step":211,"from":"sdaReg6","to":"sdaReg132","type":"model"},{"step":212,"from":"sdaReg6","to":"sdaReg138","type":"model"},{"step":213,"from":"sdaReg6","to":"sdaReg141","type":"model"},{"step":214,"from":"sdaReg139","to":"sdaReg141","type":"model"},{"step":215,"from":"sdaReg139","to":"sdaReg142","type":"model"},{"step":216,"from":"sdaReg141","to":"sdaReg139","type":"model"},{"step":217,"from":"sdaReg141","to":"sdaReg142","type":"model"},{"step":218,"from":"sdaReg6","to":"sdaReg143","type":"model"},{"step":219,"from":"sdaReg139","to":"sdaReg143","type":"model"},{"step":220,"from":"sdaReg139","to":"sdaReg144","type":"model"},{"step":221,"from":"sdaReg143","to":"sdaReg139","type":"model"},{"step":222,"from":"sdaReg143","to":"sdaReg144","type":"model"},{"step":223,"from":"sdaReg6","to":"sdaReg145","type":"model"},{"step":224,"from":"sdaReg139","to":"sdaReg145","type":"model"},{"step":225,"from":"sdaReg139","to":"sdaReg146","type":"model"},{"step":226,"from":"sdaReg145","to":"sdaReg139","type":"model"},{"step":227,"from":"sdaReg145","to":"sdaReg146","type":"model"},{"step":228,"from":"sdaReg6","to":"sdaReg147","type":"model"},{"step":229,"from":"sdaReg139","to":"sdaReg147","type":"model"},{"step":230,"from":"sdaReg139","to":"sdaReg148","type":"model"},{"step":231,"from":"sdaReg147","to":"sdaReg139","type":"model"},{"step":232,"from":"sdaReg147","to":"sdaReg148","type":"model"},{"step":233,"from":"sdaReg6","to":"sdaReg149","type":"model"},{"step":234,"from":"sdaReg139","to":"sdaReg149","type":"model"},{"step":235,"from":"sdaReg139","to":"sdaReg150","type":"model"},{"step":236,"from":"sdaReg149","to":"sdaReg139","type":"model"},{"step":237,"from":"sdaReg149","to":"sdaReg150","type":"model"},{"step":238,"from":"sdaReg6","to":"sdaReg151","type":"model"},{"step":239,"from":"sdaReg151","to":"sdaReg152","type":"model"},{"step":240,"from":"sdaReg151","to":"sdaReg159","type":"model"},{"step":241,"from":"sdaReg151","to":"sdaReg165","type":"model"},{"step":242,"from":"sdaReg151","to":"sdaReg168","type":"model"},{"step":243,"from":"sdaReg151","to":"sdaReg171","type":"model"},{"step":244,"from":"sdaReg6","to":"sdaReg175","type":"model"},{"step":245,"from":"sdaReg6","to":"sdaReg178","type":"model"},{"step":246,"from":"sdaReg176","to":"sdaReg178","type":"model"},{"step":247,"from":"sdaReg176","to":"sdaReg179","type":"model"},{"step":248,"from":"sdaReg178","to":"sdaReg176","type":"model"},{"step":249,"from":"sdaReg178","to":"sdaReg179","type":"model"},{"step":250,"from":"sdaReg6","to":"sdaReg180","type":"model"},{"step":251,"from":"sdaReg176","to":"sdaReg180","type":"model"},{"step":252,"from":"sdaReg176","to":"sdaReg181","type":"model"},{"step":253,"from":"sdaReg180","to":"sdaReg176","type":"model"},{"step":254,"from":"sdaReg180","to":"sdaReg181","type":"model"},{"step":255,"from":"sdaReg6","to":"sdaReg182","type":"model"},{"step":256,"from":"sdaReg176","to":"sdaReg182","type":"model"},{"step":257,"from":"sdaReg176","to":"sdaReg183","type":"model"},{"step":258,"from":"sdaReg182","to":"sdaReg176","type":"model"},{"step":259,"from":"sdaReg182","to":"sdaReg183","type":"model"},{"step":260,"from":"sdaReg6","to":"sdaReg184","type":"model"},{"step":261,"from":"sdaReg176","to":"sdaReg184","type":"model"},{"step":262,"from":"sdaReg176","to":"sdaReg185","type":"model"},{"step":263,"from":"sdaReg184","to":"sdaReg176","type":"model"},{"step":264,"from":"sdaReg184","to":"sdaReg185","type":"model"},{"step":265,"from":"sdaReg6","to":"sdaReg186","type":"model"},{"step":266,"from":"sdaReg176","to":"sdaReg186","type":"model"},{"step":267,"from":"sdaReg176","to":"sdaReg187","type":"model"},{"step":268,"from":"sdaReg186","to":"sdaReg176","type":"model"},{"step":269,"from":"sdaReg186","to":"sdaReg187","type":"model"},{"step":270,"from":"sdaReg6","to":"sdaReg188","type":"model"},{"step":271,"from":"sdaReg176","to":"sdaReg188","type":"model"},{"step":272,"from":"sdaReg176","to":"sdaReg189","type":"model"},{"step":273,"from":"sdaReg188","to":"sdaReg176","type":"model"},{"step":274,"from":"sdaReg188","to":"sdaReg189","type":"model"},{"step":275,"from":"sdaReg6","to":"sdaReg190","type":"model"},{"step":276,"from":"sdaReg176","to":"sdaReg190","type":"model"},{"step":277,"from":"sdaReg176","to":"sdaReg191","type":"model"},{"step":278,"from":"sdaReg190","to":"sdaReg176","type":"model"},{"step":279,"from":"sdaReg190","to":"sdaReg191","type":"model"},{"step":280,"from":"sdaReg6","to":"sdaReg192","type":"model"},{"step":281,"from":"sdaReg176","to":"sdaReg192","type":"model"},{"step":282,"from":"sdaReg176","to":"sdaReg193","type":"model"},{"step":283,"from":"sdaReg192","to":"sdaReg176","type":"model"},{"step":284,"from":"sdaReg192","to":"sdaReg193","type":"model"},{"step":285,"from":"sdaReg6","to":"sdaReg194","type":"model"},{"step":286,"from":"sdaReg176","to":"sdaReg194","type":"model"},{"step":287,"from":"sdaReg176","to":"sdaReg195","type":"model"},{"step":288,"from":"sdaReg194","to":"sdaReg176","type":"model"},{"step":289,"from":"sdaReg194","to":"sdaReg195","type":"model"},{"step":290,"from":"sdaReg6","to":"sdaReg197","type":"model"},{"step":291,"from":"sdaReg6","to":"sdaReg198","type":"model"},{"step":292,"from":"sdaReg6","to":"sdaReg200","type":"model"},{"step":293,"from":"sdaReg68","to":"sdaReg201","type":"model"},{"step":294,"from":"sdaReg151","to":"sdaReg202","type":"model"},{"step":295,"from":"sdaReg151","to":"sdaReg203","type":"model"},{"step":296,"from":"sdaReg197","to":"sdaReg210","type":"model"},{"step":297,"from":"sdaReg209","to":"1093315520","type":"model"},{"step":298,"from":"sdaReg209","to":"1093315520","type":"model"},{"step":299,"from":"sdaReg197","to":"1093315520","type":"model"},{"step":300,"from":"sdaReg197","to":"1093315520","type":"model"},{"step":301,"from":"1093315520","to":"sdaReg215","type":"model"},{"step":302,"from":"sdaReg132","to":"1093303632","type":"store","field":"<java.net.URL: java.lang.String host>"},{"step":303,"from":"sdaReg215","to":"1093303632","type":"store","field":"<java.net.URL: java.lang.String file>"},{"step":304,"from":"sdaReg43","to":"1093303632","type":"store","field":"<java.net.URL: int port>"},{"step":305,"from":"sdaReg200","to":"1093303632","type":"store","field":"<java.net.URL: java.lang.String ref>"},{"step":306,"from":"1093303632","to":"sdaReg217","type":"create","field":"<java.net.URL: int hashCode>"},{"step":307,"from":"sdaReg221","to":"1093303632","type":"store","field":"<java.net.URL: java.lang.String authority>"},{"step":308,"from":"1093303632","to":"sdaReg224","type":"create","field":"<java.net.URL: java.lang.String userInfo>"},{"step":309,"from":"sdaReg227","to":"sdaReg228","type":"model"},{"step":310,"from":"sdaReg228","to":"1093303632","type":"store","field":"<java.net.URL: java.lang.String query>"},{"step":311,"from":"sdaReg229","to":"1093303632","type":"store","field":"<java.net.URL: java.lang.String path>"},{"step":312,"from":"sdaReg68","to":"1093303632","type":"store","field":"<java.net.URL: java.lang.String authority>"},{"step":313,"from":"sdaReg89","to":"1093303632","type":"store","field":"<java.net.URL: java.lang.String userInfo>"},{"step":314,"from":"sdaReg151","to":"1093303632","type":"store","field":"<java.net.URL: java.lang.String path>"},{"step":315,"from":"sdaReg197","to":"1093303632","type":"store","field":"<java.net.URL: java.lang.String query>"}],"parameters":[{"id":"1093303632","name":"this","klass":"java.net.URL"},{"id":"sdaReg0","name":"arg#1","klass":"string"}],"returns":[{"id":"1093303632","name":"return","klass":"java.net.URL"}],"colors":{"heapLocToColor":{"sdaReg191":[135],"1093303632":[0],"sdaReg190":[1, 2, 134],"sdaReg193":[137],"sdaReg192":[1, 136, 2],"sdaReg199":[1, 2, 11],"sdaReg198":[1, 2, 141],"sdaReg195":[139],"sdaReg194":[1, 2, 138],"sdaReg197":[1, 2, 140],"sdaReg196":[1, 2, 11],"sdaReg13":[1, 2, 6],"sdaReg11":[1, 2, 5],"sdaReg19":[11],"sdaReg17":[1, 2, 8],"sdaReg18":[1, 2, 8, 10],"sdaReg15":[1, 2, 7],"1084315112":[12],"static.<java.net.URL: java.util.Hashtable streamHandlers>":[12],"sdaReg171":[1, 2, 117, 104],"sdaReg170":[116],"sdaReg173":[119],"sdaReg172":[118],"sdaReg175":[1, 2, 121],"sdaReg174":[120],"sdaReg177":[1, 2, 11, 15],"sdaReg179":[123],"sdaReg178":[1, 2, 122],"sdaReg182":[1, 2, 126],"sdaReg181":[125],"sdaReg180":[1, 2, 124],"sdaReg186":[1, 2, 130],"sdaReg185":[129],"sdaReg184":[1, 2, 128],"sdaReg183":[127],"sdaReg189":[133],"sdaReg188":[1, 2, 132],"sdaReg187":[131],"sdaReg60":[1, 2, 29],"sdaReg61":[30],"1093315520":[147],"sdaReg59":[28],"sdaReg58":[1, 2, 27],"sdaReg57":[26],"sdaReg56":[1, 2, 25],"sdaReg55":[24],"sdaReg54":[1, 2, 23],"sdaReg53":[22],"sdaReg52":[1, 2, 21],"sdaReg51":[20],"sdaReg50":[1, 2, 19],"1084317688":[1, 2, 8, 9],"sdaReg49":[18],"sdaReg48":[17, 1, 2],"sdaReg45":[1, 2, 11],"sdaReg44":[1, 16, 2],"sdaReg47":[1, 2, 11],"sdaReg41":[12],"sdaReg40":[15],"sdaReg42":[0],"sdaReg200":[1, 2, 142],"sdaReg201":[1, 2, 143, 37],"sdaReg39":[12],"sdaReg204":[0],"sdaReg38":[12],"sdaReg203":[1, 2, 145, 104],"sdaReg37":[14],"sdaReg202":[1, 2, 144, 104],"sdaReg209":[1, 2, 104],"sdaReg208":[0],"sdaReg207":[0],"sdaReg206":[12],"sdaReg32":[13],"sdaReg31":[13],"sdaReg30":[13],"sdaReg36":[13],"sdaReg33":[13],"sdaReg9":[1, 2, 4],"sdaReg6":[1, 2],"sdaReg7":[1, 2, 3],"sdaReg4":[0],"sdaReg27":[13],"sdaReg26":[13],"sdaReg29":[13],"sdaReg28":[13],"static.<java.util.Locale: java.util.Locale US>":[9],"sdaReg2":[0],"sdaReg21":[1, 2, 11],"sdaReg20":[11],"sdaReg0":[1],"sdaReg23":[12],"sdaReg22":[0],"sdaReg25":[13],"sdaReg125":[85],"sdaReg126":[1, 2, 86],"sdaReg127":[87],"sdaReg128":[1, 2, 88],"sdaReg129":[89],"sdaReg228":[152],"sdaReg68":[1, 2, 37],"sdaReg229":[153],"sdaReg66":[1, 35, 2],"sdaReg67":[36],"sdaReg64":[1, 2, 33],"sdaReg225":[151],"sdaReg65":[34],"sdaReg226":[151],"sdaReg62":[1, 2, 31],"sdaReg227":[151],"sdaReg63":[32],"sdaReg72":[39],"sdaReg220":[149],"sdaReg71":[1, 2, 38],"sdaReg223":[150],"sdaReg70":[1, 2, 11],"sdaReg222":[150],"sdaReg120":[1, 2, 80],"sdaReg122":[1, 2, 82],"sdaReg121":[81],"sdaReg124":[1, 84, 2],"sdaReg123":[83],"sdaReg116":[1, 2, 76],"sdaReg117":[77],"sdaReg114":[1, 2, 74],"sdaReg115":[75],"1093260080":[12],"sdaReg118":[1, 2, 78],"sdaReg119":[79],"sdaReg77":[1, 2, 44],"sdaReg78":[45],"sdaReg79":[1, 2, 46],"sdaReg218":[0],"sdaReg215":[147, 148],"sdaReg73":[1, 2, 40],"sdaReg216":[0],"sdaReg74":[41],"sdaReg213":[147],"sdaReg75":[1, 2, 42],"sdaReg214":[147],"sdaReg76":[43],"sdaReg212":[147],"sdaReg81":[1, 2, 48],"sdaReg80":[47],"1084321912":[12],"sdaReg211":[147],"sdaReg83":[1, 50, 2],"sdaReg210":[1, 2, 140, 146],"sdaReg82":[49],"sdaReg113":[1, 2, 11],"sdaReg111":[73],"sdaReg110":[1, 2, 72],"sdaReg107":[69],"sdaReg108":[1, 2, 70],"sdaReg109":[71],"sdaReg103":[65],"sdaReg104":[1, 2, 66],"sdaReg105":[67],"1093687120":[12],"sdaReg106":[68, 1, 2],"sdaReg86":[53],"sdaReg87":[1, 2, 54],"sdaReg84":[51],"sdaReg85":[1, 2, 52],"sdaReg88":[55],"sdaReg90":[1, 2, 11],"sdaReg94":[1, 2, 56],"sdaReg93":[1, 2, 11],"sdaReg91":[1, 2, 11],"sdaReg100":[1, 2, 62],"sdaReg102":[1, 2, 64],"sdaReg101":[63],"1093260080.<java.util.Hashtable$HashtableEntry: int hash>":[12],"sdaReg95":[57],"sdaReg96":[1, 2, 58],"sdaReg97":[59],"sdaReg98":[1, 2, 60],"sdaReg99":[61],"sdaReg230":[0],"sdaReg169":[115],"sdaReg163":[109],"sdaReg164":[110],"sdaReg165":[1, 2, 111, 104],"sdaReg166":[112],"sdaReg167":[113],"sdaReg168":[1, 2, 114, 104],"sdaReg159":[1, 2, 108, 104],"sdaReg158":[107],"sdaReg152":[1, 2, 104, 105],"sdaReg150":[103],"sdaReg151":[1, 2, 104],"sdaReg157":[106],"1093298528":[12],"sdaReg148":[101],"sdaReg147":[1, 2, 100],"sdaReg149":[102, 1, 2],"sdaReg143":[1, 2, 96],"sdaReg144":[97],"sdaReg145":[1, 2, 98],"sdaReg146":[99],"sdaReg140":[1, 2, 11],"sdaReg141":[1, 2, 94],"sdaReg142":[95],"sdaReg138":[1, 2, 93],"sdaReg137":[1, 2, 11, 15],"sdaReg132":[1, 2, 92],"sdaReg133":[1, 2, 11],"sdaReg130":[1, 2, 90],"sdaReg131":[91]},"colorToColor":{"0":[154],"136":[137],"1":[137, 0, 1, 139, 2, 129, 8, 131, 10, 133, 135, 16, 18, 20, 22, 24, 147, 26, 28, 30, 34, 32, 39, 36, 43, 41, 47, 45, 51, 49, 55, 53, 59, 57, 63, 61, 69, 71, 65, 67, 77, 79, 73, 75, 85, 87, 81, 83, 95, 89, 91, 103, 101, 99, 97, 127, 125, 123],"2":[137, 0, 1, 139, 2, 129, 8, 131, 10, 133, 135, 16, 18, 20, 22, 24, 147, 26, 28, 30, 34, 32, 39, 36, 43, 41, 47, 45, 51, 49, 55, 53, 59, 57, 63, 61, 69, 71, 65, 67, 77, 79, 73, 75, 85, 87, 81, 83, 95, 89, 91, 103, 101, 99, 97, 127, 125, 123],"138":[139],"140":[0, 147],"142":[0],"8":[0, 1, 2, 8, 10],"128":[129],"9":[1, 2, 8, 10],"10":[0],"130":[131],"11":[16, 1, 2],"12":[0],"132":[133],"134":[135],"152":[0],"17":[18],"153":[0],"19":[20],"21":[22],"23":[24],"25":[26],"27":[28],"147":[0],"148":[0],"29":[30],"31":[32],"151":[152],"35":[36],"33":[34],"38":[39],"37":[0],"42":[43],"40":[41],"46":[47],"44":[45],"50":[51],"48":[49],"54":[55],"52":[53],"58":[59],"56":[57],"62":[63],"60":[61],"68":[69],"70":[71],"64":[65],"66":[67],"76":[77],"78":[79],"72":[73],"74":[75],"84":[85],"86":[87],"80":[81],"82":[83],"92":[0],"94":[95],"88":[89],"90":[91],"102":[103],"100":[101],"98":[99],"96":[97],"104":[0, 147],"126":[127],"124":[125],"122":[123]},"colorToLabel":{"0":"this","1":"arg#1","9":"<java.util.Locale: java.util.Locale US>","12":"<java.net.URL: java.util.Hashtable streamHandlers>","154":"return"}}}

Generated Model
	this->return
	arg#1->this
	arg#1->return

