Scanning method <java.net.URL: void <init>(java.lang.String)>

All seen event types: StoreArrayRecord, SimpleAssignmentRecord, MethodStartRecord, LoadInstanceRecord, IfRecord, NewObjectRecord, StoreInstanceRecord, LoadStaticRecord, BinaryOperationRecord, SwitchRecord, MethodCallRecord, MethodReturnRecord, CastRecord, ArrayLengthRecord, LoadArrayRecord, MethodEndRecord, 
Ignored event types: SwitchRecord, IfRecord, 

JSON Encoded Analysis Data (for visualization):{"heapEdges":[{"step":0,"from":"1093618472","to":"sdaReg5","type":"create","field":"<java.net.URL: int port>"},{"step":1,"from":"sdaReg0","to":"sdaReg6","type":"model"},{"step":2,"from":"sdaReg6","to":"sdaReg7","type":"model"},{"step":3,"from":"sdaReg6","to":"sdaReg9","type":"model"},{"step":4,"from":"sdaReg6","to":"sdaReg11","type":"model"},{"step":5,"from":"sdaReg6","to":"sdaReg13","type":"model"},{"step":6,"from":"sdaReg6","to":"sdaReg15","type":"model"},{"step":7,"from":"sdaReg6","to":"sdaReg17","type":"model"},{"step":8,"from":"static.<java.util.Locale: java.util.Locale US>","to":"1084317688","type":"load","field":"<java.util.Locale: java.util.Locale US>"},{"step":9,"from":"sdaReg17","to":"1084317688","type":"model"},{"step":10,"from":"sdaReg17","to":"sdaReg18","type":"model"},{"step":11,"from":"1084317688","to":"sdaReg17","type":"model"},{"step":12,"from":"1084317688","to":"sdaReg18","type":"model"},{"step":13,"from":"sdaReg18","to":"1093618472","type":"store","field":"<java.net.URL: java.lang.String protocol>"},{"step":14,"from":"static.<java.net.URL: java.util.Hashtable streamHandlers>","to":"1084315112","type":"load","field":"<java.net.URL: java.util.Hashtable streamHandlers>"},{"step":15,"from":"1084315112","to":"1084321912","type":"load","field":"<java.util.Hashtable: java.util.Hashtable$HashtableEntry[] table>"},{"step":16,"from":"1093438000","to":"1093262944","type":"model"},{"step":17,"from":"1093618472","to":"1093620368","type":"create","field":"<java.net.URL: java.net.URLStreamHandler streamHandler>"},{"step":18,"from":"static.<java.net.URL: java.util.Hashtable streamHandlers>","to":"1084315112","type":"load","field":"<java.net.URL: java.util.Hashtable streamHandlers>"},{"step":19,"from":"1084315112","to":"1084321912","type":"load","field":"<java.util.Hashtable: java.util.Hashtable$HashtableEntry[] table>"},{"step":20,"from":"1084315112","to":"1084315112.<java.util.Hashtable: int modCount>","type":"load","field":"<java.util.Hashtable: int modCount>"},{"step":21,"from":"sdaReg66","to":"1084315112","type":"store","field":"<java.util.Hashtable: int modCount>"},{"step":22,"from":"1084315112","to":"1084315112.<java.util.Hashtable: int size>","type":"load","field":"<java.util.Hashtable: int size>"},{"step":23,"from":"sdaReg67","to":"1084315112","type":"store","field":"<java.util.Hashtable: int size>"},{"step":24,"from":"1084315112","to":"1084315112.<java.util.Hashtable: int threshold>","type":"load","field":"<java.util.Hashtable: int threshold>"},{"step":25,"from":"1093619176","to":"1093620448","type":"store","field":"<java.util.Hashtable$HashtableEntry: java.lang.Object key>"},{"step":26,"from":"1093620368","to":"1093620448","type":"store","field":"<java.util.Hashtable$HashtableEntry: java.lang.Object value>"},{"step":27,"from":"sdaReg61","to":"1093620448","type":"store","field":"<java.util.Hashtable$HashtableEntry: int hash>"},{"step":28,"from":"1084321912","to":"1093620448","type":"create","field":"arrayIdx_int:1"},{"step":29,"from":"sdaReg6","to":"sdaReg21","type":"model"},{"step":30,"from":"sdaReg6","to":"sdaReg78","type":"model"},{"step":31,"from":"sdaReg21","to":"sdaReg6","type":"model"},{"step":32,"from":"sdaReg21","to":"sdaReg78","type":"model"},{"step":33,"from":"sdaReg6","to":"sdaReg82","type":"model"},{"step":34,"from":"sdaReg80","to":"sdaReg82","type":"model"},{"step":35,"from":"sdaReg80","to":"sdaReg83","type":"model"},{"step":36,"from":"sdaReg82","to":"sdaReg80","type":"model"},{"step":37,"from":"sdaReg82","to":"sdaReg83","type":"model"},{"step":38,"from":"sdaReg6","to":"sdaReg84","type":"model"},{"step":39,"from":"sdaReg80","to":"sdaReg84","type":"model"},{"step":40,"from":"sdaReg80","to":"sdaReg85","type":"model"},{"step":41,"from":"sdaReg84","to":"sdaReg80","type":"model"},{"step":42,"from":"sdaReg84","to":"sdaReg85","type":"model"},{"step":43,"from":"sdaReg6","to":"sdaReg86","type":"model"},{"step":44,"from":"sdaReg6","to":"sdaReg89","type":"model"},{"step":45,"from":"sdaReg87","to":"sdaReg89","type":"model"},{"step":46,"from":"sdaReg87","to":"sdaReg90","type":"model"},{"step":47,"from":"sdaReg89","to":"sdaReg87","type":"model"},{"step":48,"from":"sdaReg89","to":"sdaReg90","type":"model"},{"step":49,"from":"sdaReg6","to":"sdaReg96","type":"model"},{"step":50,"from":"sdaReg94","to":"sdaReg96","type":"model"},{"step":51,"from":"sdaReg94","to":"sdaReg97","type":"model"},{"step":52,"from":"sdaReg96","to":"sdaReg94","type":"model"},{"step":53,"from":"sdaReg96","to":"sdaReg97","type":"model"},{"step":54,"from":"sdaReg6","to":"sdaReg100","type":"model"},{"step":55,"from":"sdaReg98","to":"sdaReg100","type":"model"},{"step":56,"from":"sdaReg98","to":"sdaReg101","type":"model"},{"step":57,"from":"sdaReg100","to":"sdaReg98","type":"model"},{"step":58,"from":"sdaReg100","to":"sdaReg101","type":"model"},{"step":59,"from":"sdaReg6","to":"sdaReg102","type":"model"},{"step":60,"from":"sdaReg6","to":"sdaReg108","type":"model"},{"step":61,"from":"sdaReg6","to":"sdaReg111","type":"model"},{"step":62,"from":"sdaReg109","to":"sdaReg111","type":"model"},{"step":63,"from":"sdaReg109","to":"sdaReg112","type":"model"},{"step":64,"from":"sdaReg111","to":"sdaReg109","type":"model"},{"step":65,"from":"sdaReg111","to":"sdaReg112","type":"model"},{"step":66,"from":"sdaReg6","to":"sdaReg113","type":"model"},{"step":67,"from":"sdaReg109","to":"sdaReg113","type":"model"},{"step":68,"from":"sdaReg109","to":"sdaReg114","type":"model"},{"step":69,"from":"sdaReg113","to":"sdaReg109","type":"model"},{"step":70,"from":"sdaReg113","to":"sdaReg114","type":"model"},{"step":71,"from":"sdaReg6","to":"sdaReg115","type":"model"},{"step":72,"from":"sdaReg109","to":"sdaReg115","type":"model"},{"step":73,"from":"sdaReg109","to":"sdaReg116","type":"model"},{"step":74,"from":"sdaReg115","to":"sdaReg109","type":"model"},{"step":75,"from":"sdaReg115","to":"sdaReg116","type":"model"},{"step":76,"from":"sdaReg6","to":"sdaReg117","type":"model"},{"step":77,"from":"sdaReg109","to":"sdaReg117","type":"model"},{"step":78,"from":"sdaReg109","to":"sdaReg118","type":"model"},{"step":79,"from":"sdaReg117","to":"sdaReg109","type":"model"},{"step":80,"from":"sdaReg117","to":"sdaReg118","type":"model"},{"step":81,"from":"sdaReg6","to":"sdaReg119","type":"model"},{"step":82,"from":"sdaReg109","to":"sdaReg119","type":"model"},{"step":83,"from":"sdaReg109","to":"sdaReg120","type":"model"},{"step":84,"from":"sdaReg119","to":"sdaReg109","type":"model"},{"step":85,"from":"sdaReg119","to":"sdaReg120","type":"model"},{"step":86,"from":"sdaReg6","to":"sdaReg121","type":"model"},{"step":87,"from":"sdaReg109","to":"sdaReg121","type":"model"},{"step":88,"from":"sdaReg109","to":"sdaReg122","type":"model"},{"step":89,"from":"sdaReg121","to":"sdaReg109","type":"model"},{"step":90,"from":"sdaReg121","to":"sdaReg122","type":"model"},{"step":91,"from":"sdaReg6","to":"sdaReg123","type":"model"},{"step":92,"from":"sdaReg109","to":"sdaReg123","type":"model"},{"step":93,"from":"sdaReg109","to":"sdaReg124","type":"model"},{"step":94,"from":"sdaReg123","to":"sdaReg109","type":"model"},{"step":95,"from":"sdaReg123","to":"sdaReg124","type":"model"},{"step":96,"from":"sdaReg6","to":"sdaReg125","type":"model"},{"step":97,"from":"sdaReg109","to":"sdaReg125","type":"model"},{"step":98,"from":"sdaReg109","to":"sdaReg126","type":"model"},{"step":99,"from":"sdaReg125","to":"sdaReg109","type":"model"},{"step":100,"from":"sdaReg125","to":"sdaReg126","type":"model"},{"step":101,"from":"sdaReg6","to":"sdaReg127","type":"model"},{"step":102,"from":"sdaReg109","to":"sdaReg127","type":"model"},{"step":103,"from":"sdaReg109","to":"sdaReg128","type":"model"},{"step":104,"from":"sdaReg127","to":"sdaReg109","type":"model"},{"step":105,"from":"sdaReg127","to":"sdaReg128","type":"model"},{"step":106,"from":"sdaReg6","to":"sdaReg129","type":"model"},{"step":107,"from":"sdaReg129","to":"sdaReg130","type":"model"},{"step":108,"from":"sdaReg129","to":"sdaReg137","type":"model"},{"step":109,"from":"sdaReg129","to":"sdaReg143","type":"model"},{"step":110,"from":"sdaReg129","to":"sdaReg146","type":"model"},{"step":111,"from":"sdaReg129","to":"sdaReg132","type":"model"},{"step":112,"from":"sdaReg129","to":"sdaReg147","type":"model"},{"step":113,"from":"sdaReg132","to":"sdaReg129","type":"model"},{"step":114,"from":"sdaReg132","to":"sdaReg147","type":"model"},{"step":115,"from":"sdaReg129","to":"sdaReg150","type":"model"},{"step":116,"from":"sdaReg129","to":"sdaReg153","type":"model"},{"step":117,"from":"sdaReg129","to":"sdaReg132","type":"model"},{"step":118,"from":"sdaReg129","to":"sdaReg154","type":"model"},{"step":119,"from":"sdaReg132","to":"sdaReg129","type":"model"},{"step":120,"from":"sdaReg132","to":"sdaReg154","type":"model"},{"step":121,"from":"sdaReg129","to":"sdaReg157","type":"model"},{"step":122,"from":"sdaReg129","to":"sdaReg160","type":"model"},{"step":123,"from":"sdaReg129","to":"sdaReg163","type":"model"},{"step":124,"from":"sdaReg6","to":"sdaReg167","type":"model"},{"step":125,"from":"sdaReg6","to":"sdaReg170","type":"model"},{"step":126,"from":"sdaReg168","to":"sdaReg170","type":"model"},{"step":127,"from":"sdaReg168","to":"sdaReg171","type":"model"},{"step":128,"from":"sdaReg170","to":"sdaReg168","type":"model"},{"step":129,"from":"sdaReg170","to":"sdaReg171","type":"model"},{"step":130,"from":"sdaReg6","to":"sdaReg172","type":"model"},{"step":131,"from":"sdaReg168","to":"sdaReg172","type":"model"},{"step":132,"from":"sdaReg168","to":"sdaReg173","type":"model"},{"step":133,"from":"sdaReg172","to":"sdaReg168","type":"model"},{"step":134,"from":"sdaReg172","to":"sdaReg173","type":"model"},{"step":135,"from":"sdaReg6","to":"sdaReg175","type":"model"},{"step":136,"from":"sdaReg86","to":"sdaReg176","type":"model"},{"step":137,"from":"sdaReg129","to":"sdaReg177","type":"model"},{"step":138,"from":"sdaReg129","to":"sdaReg178","type":"model"},{"step":139,"from":"sdaReg175","to":"sdaReg185","type":"model"},{"step":140,"from":"sdaReg184","to":"1093645864","type":"model"},{"step":141,"from":"sdaReg184","to":"1093645864","type":"model"},{"step":142,"from":"sdaReg175","to":"1093645864","type":"model"},{"step":143,"from":"sdaReg175","to":"1093645864","type":"model"},{"step":144,"from":"1093645864","to":"sdaReg190","type":"model"},{"step":145,"from":"sdaReg102","to":"1093618472","type":"store","field":"<java.net.URL: java.lang.String host>"},{"step":146,"from":"sdaReg190","to":"1093618472","type":"store","field":"<java.net.URL: java.lang.String file>"},{"step":147,"from":"sdaReg77","to":"1093618472","type":"store","field":"<java.net.URL: int port>"},{"step":148,"from":"sdaReg106","to":"1093618472","type":"store","field":"<java.net.URL: java.lang.String ref>"},{"step":149,"from":"1093618472","to":"sdaReg192","type":"create","field":"<java.net.URL: int hashCode>"},{"step":150,"from":"sdaReg196","to":"1093618472","type":"store","field":"<java.net.URL: java.lang.String authority>"},{"step":151,"from":"1093618472","to":"sdaReg199","type":"create","field":"<java.net.URL: java.lang.String userInfo>"},{"step":152,"from":"sdaReg202","to":"sdaReg203","type":"model"},{"step":153,"from":"sdaReg203","to":"1093618472","type":"store","field":"<java.net.URL: java.lang.String query>"},{"step":154,"from":"sdaReg204","to":"1093618472","type":"store","field":"<java.net.URL: java.lang.String path>"},{"step":155,"from":"sdaReg86","to":"1093618472","type":"store","field":"<java.net.URL: java.lang.String authority>"},{"step":156,"from":"sdaReg91","to":"1093618472","type":"store","field":"<java.net.URL: java.lang.String userInfo>"},{"step":157,"from":"sdaReg129","to":"1093618472","type":"store","field":"<java.net.URL: java.lang.String path>"},{"step":158,"from":"sdaReg175","to":"1093618472","type":"store","field":"<java.net.URL: java.lang.String query>"}],"parameters":[{"id":"1093618472","name":"this","klass":"java.net.URL"},{"id":"sdaReg0","name":"arg#1","klass":"string"}],"returns":[{"id":"1093618472","name":"return","klass":"java.net.URL"}],"colors":{"heapLocToColor":{"sdaReg191":[0],"sdaReg125":[1, 2, 53],"sdaReg190":[98, 99],"sdaReg126":[54],"1084315112.<java.util.Hashtable: int modCount>":[12],"sdaReg193":[0],"sdaReg127":[1, 2, 55],"1093262944":[17, 16],"sdaReg128":[56],"sdaReg129":[1, 2, 57],"sdaReg68":[23],"sdaReg198":[101],"sdaReg66":[12],"sdaReg67":[12],"sdaReg195":[100],"sdaReg64":[22],"sdaReg197":[101],"sdaReg13":[1, 2, 6],"sdaReg72":[23],"sdaReg11":[1, 2, 5],"sdaReg70":[21],"sdaReg120":[48],"sdaReg19":[11],"sdaReg122":[50],"sdaReg17":[1, 2, 8],"sdaReg121":[1, 2, 49],"sdaReg18":[1, 2, 8, 10],"sdaReg124":[52],"sdaReg15":[1, 2, 7],"sdaReg123":[51, 1, 2],"sdaReg116":[44],"sdaReg117":[1, 2, 45],"sdaReg114":[42],"sdaReg115":[1, 2, 43],"1093618472":[0],"sdaReg118":[46],"sdaReg119":[1, 2, 47],"1084315112.<java.util.Hashtable: int size>":[12],"sdaReg78":[1, 2, 25],"sdaReg79":[1, 2, 11],"sdaReg73":[23],"sdaReg74":[24],"sdaReg75":[21],"sdaReg76":[0],"sdaReg81":[1, 2, 11],"1084321912":[12],"sdaReg83":[27],"sdaReg82":[1, 2, 26],"1093620448":[23],"sdaReg113":[1, 2, 41],"sdaReg112":[40],"sdaReg111":[1, 2, 39],"1084315112":[12],"sdaReg110":[1, 2, 11],"static.<java.net.URL: java.util.Hashtable streamHandlers>":[12],"sdaReg107":[1, 2, 24, 11],"sdaReg108":[1, 2, 38],"sdaReg103":[1, 2, 11],"sdaReg171":[90],"sdaReg170":[1, 2, 89],"sdaReg173":[92],"sdaReg86":[1, 2, 30],"sdaReg172":[1, 2, 91],"sdaReg175":[1, 2, 93],"sdaReg84":[1, 2, 28],"sdaReg174":[1, 2, 11],"sdaReg85":[29],"sdaReg177":[1, 2, 57, 95],"sdaReg176":[1, 2, 94, 30],"sdaReg179":[0],"sdaReg88":[1, 2, 11],"sdaReg178":[1, 2, 96, 57],"sdaReg89":[1, 2, 31],"sdaReg90":[32],"1084315112.<java.util.Hashtable: java.util.Hashtable$HashtableEntry[] table>":[12],"sdaReg93":[1, 2, 11],"sdaReg92":[1, 2, 11],"sdaReg100":[1, 35, 2],"sdaReg102":[1, 2, 37],"sdaReg101":[36],"sdaReg182":[0],"sdaReg181":[21],"sdaReg186":[98],"sdaReg95":[1, 2, 11],"sdaReg185":[1, 2, 97, 93],"sdaReg96":[1, 2, 33],"sdaReg184":[1, 2, 57],"sdaReg97":[34],"sdaReg183":[0],"sdaReg99":[1, 2, 11],"sdaReg189":[98],"sdaReg188":[98],"sdaReg187":[98],"static.<java.net.URL: java.net.URLStreamHandlerFactory streamHandlerFactory>":[14],"sdaReg60":[22],"sdaReg61":[22],"1084315112.<java.util.Hashtable: int threshold>":[12],"sdaReg169":[1, 2, 11],"1093438000":[16],"sdaReg161":[82],"sdaReg162":[83],"sdaReg163":[1, 84, 2, 57],"sdaReg164":[85],"sdaReg165":[86],"sdaReg166":[87],"sdaReg167":[1, 2, 88],"sdaReg59":[22],"sdaReg58":[22],"sdaReg57":[22],"sdaReg56":[22],"sdaReg55":[22],"sdaReg54":[22],"sdaReg53":[22],"sdaReg52":[21],"sdaReg160":[1, 2, 81, 57],"sdaReg50":[12],"1084317688":[1, 2, 8, 9],"sdaReg159":[80],"sdaReg158":[79],"sdaReg152":[73],"sdaReg153":[1, 2, 57, 74],"sdaReg150":[1, 2, 71, 57],"sdaReg151":[72],"sdaReg156":[77],"sdaReg49":[21],"sdaReg157":[1, 2, 57, 78],"sdaReg48":[21],"sdaReg154":[1, 2, 57, 75],"sdaReg155":[76],"sdaReg45":[21],"sdaReg44":[20],"sdaReg47":[21],"sdaReg46":[21],"sdaReg41":[17, 16],"sdaReg40":[16],"sdaReg43":[19],"sdaReg42":[18],"sdaReg200":[102],"sdaReg148":[69],"sdaReg201":[102],"sdaReg147":[68, 1, 2, 57],"sdaReg149":[70],"sdaReg205":[0],"sdaReg143":[1, 2, 64, 57],"sdaReg204":[104],"sdaReg144":[65],"sdaReg39":[15],"sdaReg203":[103],"sdaReg145":[66],"sdaReg202":[102],"sdaReg146":[1, 2, 67, 57],"sdaReg140":[1, 2, 57],"sdaReg141":[62],"sdaReg142":[63],"sdaReg32":[13],"sdaReg31":[13],"sdaReg30":[13],"sdaReg36":[13],"sdaReg33":[13],"1093645864":[98],"1093620368":[21],"sdaReg9":[1, 2, 4],"sdaReg6":[1, 2],"sdaReg7":[1, 2, 3],"sdaReg4":[0],"sdaReg139":[1, 2, 57],"sdaReg137":[1, 2, 57, 61],"sdaReg136":[60],"sdaReg27":[13],"sdaReg135":[59],"sdaReg26":[13],"sdaReg132":[1, 2, 57],"sdaReg29":[13],"static.<java.util.Locale: java.util.Locale US>":[9],"sdaReg28":[13],"sdaReg130":[1, 2, 58, 57],"sdaReg2":[0],"sdaReg21":[1, 2, 11],"sdaReg0":[1],"sdaReg20":[11],"sdaReg23":[12],"sdaReg22":[0],"sdaReg25":[13]},"colorToColor":{"0":[105],"1":[0, 68, 1, 2, 8, 10, 75, 25, 92, 27, 29, 90, 34, 32, 98, 36, 42, 40, 46, 44, 50, 48, 54, 52, 57, 56],"2":[0, 68, 1, 2, 8, 10, 75, 25, 92, 27, 29, 90, 34, 32, 98, 36, 42, 40, 46, 44, 50, 48, 54, 52, 57, 56],"8":[0, 1, 2, 8, 10],"9":[1, 2, 8, 10],"10":[0],"11":[1, 2, 25],"12":[12],"21":[0, 23],"23":[12],"22":[23],"93":[0, 98],"26":[27],"89":[90],"28":[29],"91":[92],"31":[32],"30":[0],"102":[103],"103":[0],"35":[36],"33":[34],"98":[0],"99":[0],"39":[40],"37":[0],"43":[44],"41":[42],"47":[48],"104":[0],"45":[46],"51":[52],"49":[50],"55":[56],"53":[54],"57":[0, 68, 1, 2, 98, 57, 75]},"colorToLabel":{"0":"this","1":"arg#1","9":"<java.util.Locale: java.util.Locale US>","12":"<java.net.URL: java.util.Hashtable streamHandlers>","14":"<java.net.URL: java.net.URLStreamHandlerFactory streamHandlerFactory>","105":"return"}}}

Generated Model
	this->return
	arg#1->this
	arg#1->return

