Scanning method <java.util.TreeSet: boolean contains(java.lang.Object)>

All seen event types: LoadStaticRecord, SimpleAssignmentRecord, SwitchRecord, MethodReturnRecord, MethodCallRecord, CastRecord, MethodStartRecord, LoadInstanceRecord, LoadArrayRecord, MethodEndRecord, IfRecord, 
Ignored event types: SwitchRecord, IfRecord, 

JSON Encoded Analysis Data (for visualization):{"heapEdges":[{"step":0,"from":"1099705040","to":"1099705064","type":"load","field":"<java.util.TreeSet: java.util.NavigableMap backingMap>"},{"step":1,"from":"static.<java.util.TreeMap$Relation: java.util.TreeMap$Relation EQUAL>","to":"1085724024","type":"load","field":"<java.util.TreeMap$Relation: java.util.TreeMap$Relation EQUAL>"},{"step":2,"from":"1099705064","to":"1099725312","type":"load","field":"<java.util.TreeMap: java.util.TreeMap$Node root>"},{"step":3,"from":"1099705064","to":"1083970648","type":"load","field":"<java.util.TreeMap: java.util.Comparator comparator>"},{"step":4,"from":"static.<java.util.TreeMap: java.util.Comparator NATURAL_ORDER>","to":"1083970648","type":"load","field":"<java.util.TreeMap: java.util.Comparator NATURAL_ORDER>"},{"step":5,"from":"1099705064","to":"1099725312","type":"load","field":"<java.util.TreeMap: java.util.TreeMap$Node root>"},{"step":6,"from":"1099725312","to":"1096199648","type":"load","field":"<java.util.TreeMap$Node: java.lang.Object key>"},{"step":7,"from":"1093574168","to":"1096199648","type":"model"},{"step":8,"from":"1093574168","to":"sdaReg9","type":"model"},{"step":9,"from":"1096199648","to":"1093574168","type":"model"},{"step":10,"from":"1096199648","to":"sdaReg9","type":"model"},{"step":11,"from":"1099725312","to":"1099705112","type":"load","field":"<java.util.TreeMap$Node: java.util.TreeMap$Node left>"},{"step":12,"from":"1099705112","to":"1093301176","type":"load","field":"<java.util.TreeMap$Node: java.lang.Object key>"},{"step":13,"from":"1093574168","to":"1093301176","type":"model"},{"step":14,"from":"1093574168","to":"sdaReg12","type":"model"},{"step":15,"from":"1093301176","to":"1093574168","type":"model"},{"step":16,"from":"1093301176","to":"sdaReg12","type":"model"},{"step":17,"from":"static.<java.util.TreeMap$2: int[] $SwitchMap$java$util$TreeMap$Relation>","to":"1085752200","type":"load","field":"<java.util.TreeMap$2: int[] $SwitchMap$java$util$TreeMap$Relation>"},{"step":18,"from":"1085724024","to":"sdaReg13","type":"model"},{"step":19,"from":"1085752200","to":"1085752200.arrayIdx_int:2","type":"load","field":"arrayIdx_int:2"}],"parameters":[{"id":"1099705040","name":"this","klass":"java.util.TreeSet"},{"id":"1093574168","name":"arg#1","klass":"java.lang.Object"}],"returns":[{"id":"sdaReg16","name":"return","klass":"boolean"}],"colors":{"heapLocToColor":{"static.<java.util.TreeMap: java.util.Comparator NATURAL_ORDER>":[0, 3],"1093301176":[0, 1],"1093574168":[1],"static.<java.util.TreeMap$Relation: java.util.TreeMap$Relation EQUAL>":[2],"1085752200.arrayIdx_int:2":[6],"sdaReg13":[2, 7],"sdaReg12":[1, 5],"1099705112":[0],"sdaReg10":[1, 4, 5],"sdaReg8":[1],"sdaReg9":[1, 4],"sdaReg6":[2],"sdaReg7":[1],"1099705064.<java.util.TreeMap: java.util.TreeMap$Node root>":[0],"1085752200":[6],"sdaReg4":[0],"sdaReg5":[1],"1099705064":[0],"1099705040":[0],"1085724024":[2],"1096199648":[0, 1],"static.<java.util.TreeMap$2: int[] $SwitchMap$java$util$TreeMap$Relation>":[6],"1099725312":[0],"sdaReg3":[1],"sdaReg2":[0],"sdaReg1":[1],"sdaReg0":[0],"1083970648":[0, 3]},"colorToColor":{"0":[1, 4, 5],"1":[1, 4, 5]},"colorToLabel":{"0":"this","1":"arg#1","2":"<java.util.TreeMap$Relation: java.util.TreeMap$Relation EQUAL>","3":"<java.util.TreeMap: java.util.Comparator NATURAL_ORDER>","6":"<java.util.TreeMap$2: int[] $SwitchMap$java$util$TreeMap$Relation>","8":"return"}}}

Generated Model
	this->arg#1

