Scanning method <android.location.Location: void set(android.location.Location)>

All seen event types: StoreArrayRecord, SimpleAssignmentRecord, LoadInstanceRecord, MethodStartRecord, IfRecord, StoreInstanceRecord, NewObjectRecord, NewArrayRecord, BinaryOperationRecord, MethodCallRecord, MethodReturnRecord, CastRecord, ArrayLengthRecord, LoadArrayRecord, MethodEndRecord, 
Ignored event types: IfRecord, 

JSON Encoded Analysis Data (for visualization):{"heapEdges":[{"step":0,"from":"1093975032","to":"1093975032.<android.location.Location: java.lang.String mProvider>","type":"load","field":"<android.location.Location: java.lang.String mProvider>"},{"step":1,"from":"1093975032.<android.location.Location: java.lang.String mProvider>","to":"1093958232","type":"store","field":"<android.location.Location: java.lang.String mProvider>"},{"step":2,"from":"1093975032","to":"1093975032.<android.location.Location: long mTime>","type":"load","field":"<android.location.Location: long mTime>"},{"step":3,"from":"1093975032.<android.location.Location: long mTime>","to":"1093958232","type":"store","field":"<android.location.Location: long mTime>"},{"step":4,"from":"1093975032","to":"1093975032.<android.location.Location: double mLatitude>","type":"load","field":"<android.location.Location: double mLatitude>"},{"step":5,"from":"1093975032.<android.location.Location: double mLatitude>","to":"1093958232","type":"store","field":"<android.location.Location: double mLatitude>"},{"step":6,"from":"1093975032","to":"1093975032.<android.location.Location: double mLongitude>","type":"load","field":"<android.location.Location: double mLongitude>"},{"step":7,"from":"1093975032.<android.location.Location: double mLongitude>","to":"1093958232","type":"store","field":"<android.location.Location: double mLongitude>"},{"step":8,"from":"1093975032","to":"1093975032.<android.location.Location: boolean mHasAltitude>","type":"load","field":"<android.location.Location: boolean mHasAltitude>"},{"step":9,"from":"1093975032.<android.location.Location: boolean mHasAltitude>","to":"1093958232","type":"store","field":"<android.location.Location: boolean mHasAltitude>"},{"step":10,"from":"1093975032","to":"1093975032.<android.location.Location: double mAltitude>","type":"load","field":"<android.location.Location: double mAltitude>"},{"step":11,"from":"1093975032.<android.location.Location: double mAltitude>","to":"1093958232","type":"store","field":"<android.location.Location: double mAltitude>"},{"step":12,"from":"1093975032","to":"1093975032.<android.location.Location: boolean mHasSpeed>","type":"load","field":"<android.location.Location: boolean mHasSpeed>"},{"step":13,"from":"1093975032.<android.location.Location: boolean mHasSpeed>","to":"1093958232","type":"store","field":"<android.location.Location: boolean mHasSpeed>"},{"step":14,"from":"1093975032","to":"1093975032.<android.location.Location: float mSpeed>","type":"load","field":"<android.location.Location: float mSpeed>"},{"step":15,"from":"1093975032.<android.location.Location: float mSpeed>","to":"1093958232","type":"store","field":"<android.location.Location: float mSpeed>"},{"step":16,"from":"1093975032","to":"1093975032.<android.location.Location: boolean mHasBearing>","type":"load","field":"<android.location.Location: boolean mHasBearing>"},{"step":17,"from":"1093975032.<android.location.Location: boolean mHasBearing>","to":"1093958232","type":"store","field":"<android.location.Location: boolean mHasBearing>"},{"step":18,"from":"1093975032","to":"1093975032.<android.location.Location: float mBearing>","type":"load","field":"<android.location.Location: float mBearing>"},{"step":19,"from":"1093975032.<android.location.Location: float mBearing>","to":"1093958232","type":"store","field":"<android.location.Location: float mBearing>"},{"step":20,"from":"1093975032","to":"1093975032.<android.location.Location: boolean mHasAccuracy>","type":"load","field":"<android.location.Location: boolean mHasAccuracy>"},{"step":21,"from":"1093975032.<android.location.Location: boolean mHasAccuracy>","to":"1093958232","type":"store","field":"<android.location.Location: boolean mHasAccuracy>"},{"step":22,"from":"1093975032","to":"1093975032.<android.location.Location: float mAccuracy>","type":"load","field":"<android.location.Location: float mAccuracy>"},{"step":23,"from":"1093975032.<android.location.Location: float mAccuracy>","to":"1093958232","type":"store","field":"<android.location.Location: float mAccuracy>"},{"step":24,"from":"1093975032","to":"1093756368","type":"load","field":"<android.location.Location: android.os.Bundle mExtras>"},{"step":25,"from":"1093975032","to":"1093756368","type":"load","field":"<android.location.Location: android.os.Bundle mExtras>"},{"step":26,"from":"1093776880","to":"sdaReg3","type":"create","field":"<android.os.Bundle: java.util.Map mMap>"},{"step":27,"from":"1093776880","to":"sdaReg4","type":"create","field":"<android.os.Bundle: android.os.Parcel mParcelledData>"},{"step":28,"from":"1093776880","to":"sdaReg5","type":"create","field":"<android.os.Bundle: boolean mHasFds>"},{"step":29,"from":"1093776880","to":"sdaReg6","type":"create","field":"<android.os.Bundle: boolean mFdsKnown>"},{"step":30,"from":"1093776880","to":"sdaReg7","type":"create","field":"<android.os.Bundle: boolean mAllowFds>"},{"step":31,"from":"1093776880","to":"sdaReg8","type":"create","field":"<android.os.Bundle: android.os.Parcel mParcelledData>"},{"step":32,"from":"1093756368","to":"1093604136","type":"load","field":"<android.os.Bundle: java.util.Map mMap>"},{"step":33,"from":"1093756368","to":"1093604136","type":"load","field":"<android.os.Bundle: java.util.Map mMap>"},{"step":34,"from":"1093604136","to":"1093604136.<java.util.HashMap: int size>","type":"load","field":"<java.util.HashMap: int size>"},{"step":35,"from":"1093762120","to":"1093762176","type":"create","field":"<java.util.HashMap: java.util.HashMap$HashMapEntry[] table>"},{"step":36,"from":"sdaReg25","to":"1093762120","type":"store","field":"<java.util.HashMap: int threshold>"},{"step":37,"from":"1093604136","to":"1093776920","type":"store","field":"<java.util.HashMap$EntrySet: java.util.HashMap this$0>"},{"step":38,"from":"1093604136","to":"1093776920","type":"create","field":"<java.util.HashMap: java.util.Set entrySet>"},{"step":39,"from":"1093604136","to":"1093563336","type":"store","field":"<java.util.HashMap$EntryIterator: java.util.HashMap this$0>"},{"step":40,"from":"1093604136","to":"1093563336","type":"store","field":"<java.util.HashMap$HashIterator: java.util.HashMap this$0>"},{"step":41,"from":"1093604136","to":"1093604136.<java.util.HashMap: int modCount>","type":"load","field":"<java.util.HashMap: int modCount>"},{"step":42,"from":"1093604136.<java.util.HashMap: int modCount>","to":"1093563336","type":"store","field":"<java.util.HashMap$HashIterator: int expectedModCount>"},{"step":43,"from":"1093604136","to":"1093604192","type":"load","field":"<java.util.HashMap: java.util.HashMap$HashMapEntry[] table>"},{"step":44,"from":"1093563336","to":"1093563336.<java.util.HashMap$HashIterator: int nextIndex>","type":"load","field":"<java.util.HashMap$HashIterator: int nextIndex>"},{"step":45,"from":"1093563336","to":"1093563336.<java.util.HashMap$HashIterator: int nextIndex>","type":"load","field":"<java.util.HashMap$HashIterator: int nextIndex>"},{"step":46,"from":"sdaReg54","to":"1093563336","type":"store","field":"<java.util.HashMap$HashIterator: int nextIndex>"},{"step":47,"from":"sdaReg54","to":"1093563336","type":"store","field":"<java.util.HashMap$HashIterator: int nextIndex>"},{"step":48,"from":"sdaReg54","to":"1093563336","type":"store","field":"<java.util.HashMap$HashIterator: int nextIndex>"},{"step":49,"from":"1093604192","to":"1093604272","type":"load","field":"arrayIdx_int:2"},{"step":50,"from":"1093604272","to":"1093563336","type":"store","field":"<java.util.HashMap$HashIterator: java.util.HashMap$HashMapEntry nextEntry>"},{"step":51,"from":"1093604136","to":"1093604136.<java.util.HashMap: int modCount>","type":"load","field":"<java.util.HashMap: int modCount>"},{"step":52,"from":"1093604136","to":"1093604192","type":"load","field":"<java.util.HashMap: java.util.HashMap$HashMapEntry[] table>"},{"step":53,"from":"sdaReg68","to":"1093563336","type":"store","field":"<java.util.HashMap$HashIterator: int nextIndex>"},{"step":54,"from":"1093604192","to":"1093604304","type":"load","field":"arrayIdx_int:3"},{"step":55,"from":"1093604304","to":"1093563336","type":"store","field":"<java.util.HashMap$HashIterator: java.util.HashMap$HashMapEntry nextEntry>"},{"step":56,"from":"1093604272","to":"1093563336","type":"store","field":"<java.util.HashMap$HashIterator: java.util.HashMap$HashMapEntry lastEntryReturned>"},{"step":57,"from":"1093604272","to":"1093545664","type":"load","field":"<java.util.HashMap$HashMapEntry: java.lang.Object key>"},{"step":58,"from":"1093604272","to":"1085840800","type":"load","field":"<java.util.HashMap$HashMapEntry: java.lang.Object value>"},{"step":59,"from":"1093545664","to":"1093565120","type":"store","field":"<java.util.HashMap$HashMapEntry: java.lang.Object key>"},{"step":60,"from":"1085840800","to":"1093565120","type":"store","field":"<java.util.HashMap$HashMapEntry: java.lang.Object value>"},{"step":61,"from":"sdaReg88","to":"1093565120","type":"store","field":"<java.util.HashMap$HashMapEntry: int hash>"},{"step":62,"from":"1093762176","to":"1093565120","type":"create","field":"arrayIdx_int:2"},{"step":63,"from":"1093762120","to":"1093762120.<java.util.HashMap: int size>","type":"load","field":"<java.util.HashMap: int size>"},{"step":64,"from":"sdaReg104","to":"1093762120","type":"store","field":"<java.util.HashMap: int size>"},{"step":65,"from":"1093604136","to":"1093604136.<java.util.HashMap: int modCount>","type":"load","field":"<java.util.HashMap: int modCount>"},{"step":66,"from":"1093604136","to":"1093604192","type":"load","field":"<java.util.HashMap: java.util.HashMap$HashMapEntry[] table>"},{"step":67,"from":"1093604304","to":"1093563336","type":"store","field":"<java.util.HashMap$HashIterator: java.util.HashMap$HashMapEntry lastEntryReturned>"},{"step":68,"from":"1093604304","to":"1093545568","type":"load","field":"<java.util.HashMap$HashMapEntry: java.lang.Object key>"},{"step":69,"from":"1093604304","to":"1085837760","type":"load","field":"<java.util.HashMap$HashMapEntry: java.lang.Object value>"},{"step":70,"from":"1093545568","to":"1093565152","type":"store","field":"<java.util.HashMap$HashMapEntry: java.lang.Object key>"},{"step":71,"from":"1085837760","to":"1093565152","type":"store","field":"<java.util.HashMap$HashMapEntry: java.lang.Object value>"},{"step":72,"from":"sdaReg129","to":"1093565152","type":"store","field":"<java.util.HashMap$HashMapEntry: int hash>"},{"step":73,"from":"1093762176","to":"1093565152","type":"create","field":"arrayIdx_int:3"},{"step":74,"from":"sdaReg145","to":"1093762120","type":"store","field":"<java.util.HashMap: int size>"},{"step":75,"from":"1093776880","to":"1093762120","type":"create","field":"<android.os.Bundle: java.util.Map mMap>"},{"step":76,"from":"1093756368","to":"1093756368.<android.os.Bundle: boolean mHasFds>","type":"load","field":"<android.os.Bundle: boolean mHasFds>"},{"step":77,"from":"1093756368.<android.os.Bundle: boolean mHasFds>","to":"1093776880","type":"store","field":"<android.os.Bundle: boolean mHasFds>"},{"step":78,"from":"1093756368","to":"1093756368.<android.os.Bundle: boolean mFdsKnown>","type":"load","field":"<android.os.Bundle: boolean mFdsKnown>"},{"step":79,"from":"1093756368.<android.os.Bundle: boolean mFdsKnown>","to":"1093776880","type":"store","field":"<android.os.Bundle: boolean mFdsKnown>"},{"step":80,"from":"1093756368","to":"1083999984","type":"load","field":"<android.os.Bundle: java.lang.ClassLoader mClassLoader>"},{"step":81,"from":"1083999984","to":"1093776880","type":"store","field":"<android.os.Bundle: java.lang.ClassLoader mClassLoader>"},{"step":82,"from":"1093958232","to":"1093776880","type":"create","field":"<android.location.Location: android.os.Bundle mExtras>"}],"parameters":[{"id":"1093958232","name":"this","klass":"android.location.Location"},{"id":"1093975032","name":"arg#1","klass":"android.location.Location"}],"returns":[{"id":null,"name":"return","klass":null}],"colors":{"heapLocToColor":{"sdaReg125":[9],"sdaReg126":[9],"sdaReg127":[9],"1093604136.<java.util.HashMap: int size>":[1],"1093604136.<java.util.HashMap: java.util.HashMap$HashMapEntry[] table>":[1],"sdaReg128":[9],"sdaReg129":[9],"1093565120":[8],"sdaReg69":[1],"sdaReg66":[6],"sdaReg64":[6],"sdaReg65":[6],"sdaReg62":[6],"1093776920":[5],"sdaReg13":[1],"1093975032.<android.location.Location: float mBearing>":[1],"1093776880":[2],"sdaReg72":[1],"sdaReg14":[1],"sdaReg71":[1],"sdaReg11":[1],"sdaReg70":[1],"sdaReg12":[1],"sdaReg10":[1],"1093975032":[1],"1093975032.<android.location.Location: float mAccuracy>":[1],"sdaReg120":[1],"sdaReg19":[3],"sdaReg122":[9],"sdaReg17":[3],"sdaReg121":[9],"sdaReg18":[3],"sdaReg124":[9],"sdaReg15":[1],"sdaReg123":[9],"sdaReg16":[3],"sdaReg116":[1],"sdaReg117":[1],"sdaReg114":[1],"sdaReg115":[1],"sdaReg118":[3],"sdaReg119":[1],"sdaReg77":[3],"sdaReg78":[1],"sdaReg79":[1],"1093975032.<android.location.Location: float mSpeed>":[1],"sdaReg73":[1],"sdaReg74":[1],"sdaReg75":[1],"sdaReg76":[1],"sdaReg81":[7],"1085837760":[1],"sdaReg80":[7],"sdaReg83":[7],"1093545664":[1],"sdaReg82":[7],"1093756368.<android.os.Bundle: boolean mFdsKnown>":[1],"1093545568":[1],"1093756368.<android.os.Bundle: java.util.Map mMap>":[1],"sdaReg113":[1],"1093604136":[1],"sdaReg112":[1],"sdaReg111":[1],"sdaReg107":[6],"sdaReg108":[6],"sdaReg109":[6],"sdaReg103":[8],"sdaReg104":[3],"sdaReg105":[6],"sdaReg86":[7],"sdaReg87":[7],"sdaReg84":[7],"sdaReg85":[7],"1093762120":[3],"sdaReg88":[7],"sdaReg94":[1],"sdaReg93":[3],"sdaReg91":[7],"1093975032.<android.location.Location: double mAltitude>":[1],"1093604272":[1],"sdaReg102":[8],"1093604304":[1],"sdaReg101":[8],"sdaReg95":[1],"sdaReg97":[8],"sdaReg98":[1],"sdaReg99":[1],"1093975032.<android.location.Location: long mTime>":[1],"1093756368":[1],"sdaReg60":[6],"sdaReg61":[6],"1093975032.<android.location.Location: android.os.Bundle mExtras>":[1],"1093975032.<android.location.Location: double mLongitude>":[1],"1093762120.<java.util.HashMap: int size>":[3],"sdaReg59":[6],"sdaReg58":[6],"sdaReg57":[6],"sdaReg54":[6],"sdaReg51":[6],"1093563336.<java.util.HashMap$HashIterator: int nextIndex>":[6],"1093975032.<android.location.Location: java.lang.String mProvider>":[1],"sdaReg50":[1],"1093975032.<android.location.Location: boolean mHasAltitude>":[1],"1093975032.<android.location.Location: boolean mHasAccuracy>":[1],"sdaReg49":[6],"sdaReg48":[1],"1093756368.<android.os.Bundle: boolean mHasFds>":[1],"sdaReg45":[6],"sdaReg44":[1],"sdaReg47":[6],"1093565152":[10],"sdaReg46":[1],"sdaReg41":[5],"1093975032.<android.location.Location: boolean mHasSpeed>":[1],"sdaReg40":[5],"1093604136.<java.util.HashMap: int modCount>":[1],"sdaReg43":[5],"1093975032.<android.location.Location: boolean mHasBearing>":[1],"sdaReg42":[5],"sdaReg148":[3],"sdaReg149":[2],"sdaReg143":[10],"sdaReg144":[10],"sdaReg39":[5],"sdaReg38":[5],"sdaReg146":[6],"sdaReg37":[5],"sdaReg140":[1],"1093563336":[6],"sdaReg142":[10],"sdaReg32":[5],"1083999984":[1],"sdaReg31":[1],"sdaReg30":[5],"sdaReg36":[5],"sdaReg35":[5],"sdaReg34":[5],"sdaReg33":[1],"sdaReg9":[3],"1093604192":[1],"sdaReg139":[1],"sdaReg138":[10],"1093975032.<android.location.Location: double mLatitude>":[1],"sdaReg136":[1],"sdaReg134":[3],"sdaReg27":[3],"sdaReg135":[1],"sdaReg26":[3],"sdaReg132":[9],"sdaReg29":[1],"sdaReg28":[1],"1093762176":[4],"sdaReg2":[2],"sdaReg21":[3],"sdaReg1":[1],"sdaReg0":[2],"1085840800":[1],"1093958232":[0]},"colorToColor":{"1":[0, 2, 5, 6, 8, 10],"2":[0],"3":[2, 3],"4":[3],"5":[1],"6":[6],"7":[8],"8":[4],"9":[10],"10":[4]},"colorToLabel":{"0":"this","1":"arg#1","11":"return"}}}

Generated Model
	arg#1->this

