Scanning method <java.io.ObjectInputStream: void readStreamHeader()>

All seen event types: LoadStaticRecord, MethodReturnRecord, MethodCallRecord, MethodStartRecord, LoadInstanceRecord, IfRecord, MethodEndRecord, 
Ignored event types: IfRecord, 

JSON Encoded Analysis Data (for visualization):{"heapEdges":[{"step":0,"from":"1093292320","to":"1093292408","type":"load","field":"<java.io.ObjectInputStream: java.io.DataInputStream input>"},{"step":1,"from":"1093292408","to":"1093628576","type":"load","field":"<java.io.FilterInputStream: java.io.InputStream in>"},{"step":2,"from":"1093292408","to":"1093628736","type":"load","field":"<java.io.DataInputStream: byte[] scratch>"},{"step":3,"from":"1093628576","to":"1093628736","type":"model"},{"step":4,"from":"1093292408","to":"1093628736","type":"load","field":"<java.io.DataInputStream: byte[] scratch>"},{"step":5,"from":"static.<java.nio.ByteOrder: java.nio.ByteOrder BIG_ENDIAN>","to":"1084339448","type":"load","field":"<java.nio.ByteOrder: java.nio.ByteOrder BIG_ENDIAN>"},{"step":6,"from":"1093628736","to":"sdaReg1","type":"model"},{"step":7,"from":"1093292320","to":"1093292408","type":"load","field":"<java.io.ObjectInputStream: java.io.DataInputStream input>"},{"step":8,"from":"1093292408","to":"1093628576","type":"load","field":"<java.io.FilterInputStream: java.io.InputStream in>"},{"step":9,"from":"1093292408","to":"1093628736","type":"load","field":"<java.io.DataInputStream: byte[] scratch>"},{"step":10,"from":"1093628576","to":"1093628736","type":"model"},{"step":11,"from":"1093292408","to":"1093628736","type":"load","field":"<java.io.DataInputStream: byte[] scratch>"},{"step":12,"from":"static.<java.nio.ByteOrder: java.nio.ByteOrder BIG_ENDIAN>","to":"1084339448","type":"load","field":"<java.nio.ByteOrder: java.nio.ByteOrder BIG_ENDIAN>"},{"step":13,"from":"1093628736","to":"sdaReg3","type":"model"}],"parameters":[{"id":"1093292320","name":"this","klass":"java.io.ObjectInputStream"}],"returns":[{"id":null,"name":"return","klass":null}],"colors":{"heapLocToColor":{"1093292408":[0],"1093292408.<java.io.FilterInputStream: java.io.InputStream in>":[0],"1093292320":[0],"1093292320.<java.io.ObjectInputStream: java.io.DataInputStream input>":[0],"1084339448":[1],"sdaReg3":[3],"sdaReg2":[0],"1093292408.<java.io.DataInputStream: byte[] scratch>":[0],"sdaReg1":[2],"sdaReg0":[0],"1093628736":[0],"static.<java.nio.ByteOrder: java.nio.ByteOrder BIG_ENDIAN>":[1],"1093628576":[0]},"colorToColor":{"0":[0, 2, 3]},"colorToLabel":{"0":"this","1":"<java.nio.ByteOrder: java.nio.ByteOrder BIG_ENDIAN>","4":"return"}}}

Generated Model

