Scanning method <java.io.ObjectInputStream: void readStreamHeader()>

All seen event types: LoadStaticRecord, MethodReturnRecord, MethodCallRecord, MethodStartRecord, LoadInstanceRecord, IfRecord, MethodEndRecord, 
Ignored event types: IfRecord, 

JSON Encoded Analysis Data (for visualization):{"heapEdges":[{"step":0,"from":"1093293768","to":"1093386376","type":"load","field":"<java.io.ObjectInputStream: java.io.DataInputStream input>"},{"step":1,"from":"1093386376","to":"1093544616","type":"load","field":"<java.io.FilterInputStream: java.io.InputStream in>"},{"step":2,"from":"1093386376","to":"1093388312","type":"load","field":"<java.io.DataInputStream: byte[] scratch>"},{"step":3,"from":"1093544616","to":"1093388312","type":"model"},{"step":4,"from":"1093386376","to":"1093388312","type":"load","field":"<java.io.DataInputStream: byte[] scratch>"},{"step":5,"from":"static.<java.nio.ByteOrder: java.nio.ByteOrder BIG_ENDIAN>","to":"1084339448","type":"load","field":"<java.nio.ByteOrder: java.nio.ByteOrder BIG_ENDIAN>"},{"step":6,"from":"1093388312","to":"sdaReg1","type":"model"},{"step":7,"from":"1093293768","to":"1093386376","type":"load","field":"<java.io.ObjectInputStream: java.io.DataInputStream input>"},{"step":8,"from":"1093386376","to":"1093544616","type":"load","field":"<java.io.FilterInputStream: java.io.InputStream in>"},{"step":9,"from":"1093386376","to":"1093388312","type":"load","field":"<java.io.DataInputStream: byte[] scratch>"},{"step":10,"from":"1093544616","to":"1093388312","type":"model"},{"step":11,"from":"1093386376","to":"1093388312","type":"load","field":"<java.io.DataInputStream: byte[] scratch>"},{"step":12,"from":"static.<java.nio.ByteOrder: java.nio.ByteOrder BIG_ENDIAN>","to":"1084339448","type":"load","field":"<java.nio.ByteOrder: java.nio.ByteOrder BIG_ENDIAN>"},{"step":13,"from":"1093388312","to":"sdaReg3","type":"model"}],"parameters":[{"id":"1093293768","name":"this","klass":"java.io.ObjectInputStream"}],"returns":[{"id":null,"name":"return","klass":null}],"colors":{"heapLocToColor":{"1093386376.<java.io.DataInputStream: byte[] scratch>":[0],"1093386376.<java.io.FilterInputStream: java.io.InputStream in>":[0],"1084339448":[1],"1093388312":[0],"1093386376":[0],"1093293768.<java.io.ObjectInputStream: java.io.DataInputStream input>":[0],"sdaReg3":[3],"sdaReg2":[0],"1093293768":[0],"sdaReg1":[2],"sdaReg0":[0],"1093544616":[0],"static.<java.nio.ByteOrder: java.nio.ByteOrder BIG_ENDIAN>":[1]},"colorToColor":{"0":[0, 2, 3]},"colorToLabel":{"0":"this","1":"<java.nio.ByteOrder: java.nio.ByteOrder BIG_ENDIAN>","4":"return"}}}

Generated Model

