Scanning method <java.io.BufferedWriter: void flush()>

All seen event types: SimpleAssignmentRecord, ExitMonitorRecord, MethodReturnRecord, MethodCallRecord, EnterMonitorRecord, MethodStartRecord, LoadInstanceRecord, MethodEndRecord, IfRecord, StoreInstanceRecord, 
Ignored event types: ExitMonitorRecord, EnterMonitorRecord, IfRecord, 

JSON Encoded Analysis Data (for visualization):{"heapEdges":[{"step":0,"from":"1093646856","to":"1093639552","type":"load","field":"<java.io.Writer: java.lang.Object lock>"},{"step":1,"from":"1093646856","to":"1093639552","type":"load","field":"<java.io.BufferedWriter: java.io.Writer out>"},{"step":2,"from":"1093646856","to":"1093646856.<java.io.BufferedWriter: int pos>","type":"load","field":"<java.io.BufferedWriter: int pos>"},{"step":3,"from":"1093646856","to":"sdaReg5","type":"create","field":"<java.io.BufferedWriter: int pos>"},{"step":4,"from":"1093646856","to":"1093639552","type":"load","field":"<java.io.BufferedWriter: java.io.Writer out>"}],"parameters":[{"id":"1093646856","name":"this","klass":"java.io.BufferedWriter"}],"returns":[{"id":null,"name":"return","klass":null}],"colors":{"heapLocToColor":{"sdaReg4":[0],"1093646856.<java.io.BufferedWriter: java.io.Writer out>":[0],"sdaReg2":[0],"sdaReg1":[0],"1093639552":[0],"1093646856":[0],"1093646856.<java.io.BufferedWriter: int pos>":[0]},"colorToColor":{},"colorToLabel":{"0":"this","1":"return"}}}

Generated Model

