Scanning method <java.io.ObjectInputStream: void resetSeenObjects()>

All seen event types: LoadStaticRecord, MethodReturnRecord, MethodCallRecord, LoadInstanceRecord, MethodStartRecord, MethodEndRecord, StoreInstanceRecord, NewObjectRecord, 
Ignored event types: 

JSON Encoded Analysis Data (for visualization):{"heapEdges":[{"step":0,"from":"static.<libcore.util.EmptyArray: java.lang.Object[] OBJECT>","to":"1083994088","type":"load","field":"<libcore.util.EmptyArray: java.lang.Object[] OBJECT>"},{"step":1,"from":"1083994088","to":"1093388400","type":"store","field":"<java.util.ArrayList: java.lang.Object[] array>"},{"step":2,"from":"1093293768","to":"1093388400","type":"create","field":"<java.io.ObjectInputStream: java.util.ArrayList objectsRead>"},{"step":3,"from":"1093293768","to":"sdaReg7","type":"create","field":"<java.io.ObjectInputStream: int nextHandle>"},{"step":4,"from":"1093293768","to":"1093386288","type":"load","field":"<java.io.ObjectInputStream: java.io.InputStream emptyStream>"},{"step":5,"from":"1093386288","to":"1093293768","type":"store","field":"<java.io.ObjectInputStream: java.io.InputStream primitiveData>"}],"parameters":[{"id":"1093293768","name":"this","klass":"java.io.ObjectInputStream"}],"returns":[{"id":null,"name":"return","klass":null}],"colors":{"heapLocToColor":{"1083994088":[2],"sdaReg6":[1],"1093386288":[0],"sdaReg4":[1],"sdaReg5":[1],"sdaReg3":[1],"1093388400":[1],"static.<libcore.util.EmptyArray: java.lang.Object[] OBJECT>":[2],"sdaReg2":[1],"sdaReg1":[1],"1093293768":[0],"sdaReg0":[1]},"colorToColor":{"0":[0],"1":[0],"2":[1]},"colorToLabel":{"0":"this","2":"<libcore.util.EmptyArray: java.lang.Object[] OBJECT>","3":"return"}}}

Generated Model

