Scanning method <java.nio.CharBuffer: int read(java.nio.CharBuffer)>

All seen event types: NewArrayRecord, BinaryOperationRecord, MethodReturnRecord, MethodCallRecord, ArrayLengthRecord, LoadInstanceRecord, MethodStartRecord, IfRecord, MethodEndRecord, StoreInstanceRecord, 
Ignored event types: IfRecord, 

JSON Encoded Analysis Data (for visualization):{"heapEdges":[{"step":0,"from":"1099837136","to":"1099837136.<java.nio.Buffer: int limit>","type":"load","field":"<java.nio.Buffer: int limit>"},{"step":1,"from":"1099837136","to":"1099837136.<java.nio.Buffer: int position>","type":"load","field":"<java.nio.Buffer: int position>"},{"step":2,"from":"1099837184","to":"1099837184.<java.nio.Buffer: int limit>","type":"load","field":"<java.nio.Buffer: int limit>"},{"step":3,"from":"1099837184","to":"1099837184.<java.nio.Buffer: int position>","type":"load","field":"<java.nio.Buffer: int position>"},{"step":4,"from":"sdaReg1","to":"sdaReg4","type":"model"},{"step":5,"from":"sdaReg3","to":"sdaReg4","type":"model"},{"step":6,"from":"1099837136","to":"1099837136.<java.nio.Buffer: int limit>","type":"load","field":"<java.nio.Buffer: int limit>"},{"step":7,"from":"1099837136","to":"1099837136.<java.nio.Buffer: int position>","type":"load","field":"<java.nio.Buffer: int position>"},{"step":8,"from":"1099837136","to":"1099837136.<java.nio.Buffer: int position>","type":"load","field":"<java.nio.Buffer: int position>"},{"step":9,"from":"1099837136","to":"1093467520","type":"load","field":"<java.nio.CharSequenceAdapter: java.lang.CharSequence sequence>"},{"step":10,"from":"1093467520","to":"sdaReg17","type":"model"},{"step":11,"from":"1099837136","to":"1099837136.<java.nio.Buffer: int position>","type":"load","field":"<java.nio.Buffer: int position>"},{"step":12,"from":"sdaReg17","to":"1099837272","type":"model"},{"step":13,"from":"sdaReg16","to":"1099837136","type":"store","field":"<java.nio.Buffer: int position>"},{"step":14,"from":"1099837184","to":"1099837184.<java.nio.Buffer: int limit>","type":"load","field":"<java.nio.Buffer: int limit>"},{"step":15,"from":"1099837184","to":"1099837184.<java.nio.Buffer: int position>","type":"load","field":"<java.nio.Buffer: int position>"},{"step":16,"from":"1099837184","to":"1099837232","type":"load","field":"<java.nio.CharArrayBuffer: char[] backingArray>"},{"step":17,"from":"1099837184","to":"1099837184.<java.nio.CharArrayBuffer: int offset>","type":"load","field":"<java.nio.CharArrayBuffer: int offset>"},{"step":18,"from":"1099837184","to":"1099837184.<java.nio.Buffer: int position>","type":"load","field":"<java.nio.Buffer: int position>"},{"step":19,"from":"1099837272","to":"1099837232","type":"model"},{"step":20,"from":"1099837184","to":"1099837184.<java.nio.Buffer: int position>","type":"load","field":"<java.nio.Buffer: int position>"},{"step":21,"from":"sdaReg28","to":"1099837184","type":"store","field":"<java.nio.Buffer: int position>"}],"parameters":[{"id":"1099837136","name":"this","klass":"java.nio.CharBuffer"},{"id":"1099837184","name":"arg#1","klass":"java.nio.CharBuffer"}],"returns":[{"id":"sdaReg4","name":"return","klass":"int"}],"colors":{"heapLocToColor":{"1099837184.<java.nio.CharArrayBuffer: int offset>":[1],"1099837184.<java.nio.Buffer: int limit>":[1],"1099837184.<java.nio.Buffer: int position>":[1],"1099837136":[0],"sdaReg14":[0],"1099837232":[1],"sdaReg19":[1],"sdaReg17":[0, 4],"sdaReg18":[0],"1099837272":[0, 3, 4],"sdaReg15":[0],"sdaReg16":[0],"1099837136.<java.nio.Buffer: int position>":[0],"sdaReg8":[0],"sdaReg9":[3],"sdaReg6":[3],"sdaReg4":[2],"sdaReg5":[0],"1093467520":[0],"sdaReg27":[1],"sdaReg26":[1],"sdaReg29":[1],"sdaReg28":[1],"1099837136.<java.nio.Buffer: int limit>":[0],"sdaReg3":[1],"sdaReg2":[1],"sdaReg1":[0],"sdaReg0":[0],"sdaReg20":[0, 3, 4],"sdaReg23":[0, 3, 4],"sdaReg22":[1],"sdaReg25":[1],"1099837184":[1]},"colorToColor":{"0":[0, 1, 2],"1":[1, 2],"2":[5],"3":[1],"4":[1]},"colorToLabel":{"0":"this","1":"arg#1","5":"return"}}}

Generated Model
	this->return
	this->arg#1
	arg#1->return

