Scanning method <java.util.AbstractSequentialList: void <init>()>

All seen event types: MethodReturnRecord, MethodCallRecord, MethodStartRecord, MethodEndRecord, 
Ignored event types: 

JSON Encoded Analysis Data (for visualization):{"heapEdges":[],"parameters":[{"id":"1093410688","name":"this","klass":"java.util.AbstractSequentialList"}],"returns":[{"id":"1093410688","name":"return","klass":"java.util.AbstractSequentialList"}],"colors":{"heapLocToColor":{"1093410688":[0],"sdaReg4":[0],"sdaReg3":[0],"sdaReg2":[0],"sdaReg1":[0],"sdaReg0":[0]},"colorToColor":{"0":[1]},"colorToLabel":{"0":"this","1":"return"}}}

Generated Model
	this->return

