Scanning method <java.util.TreeMap: void rotateLeft(java.util.TreeMap$Node)>

All seen event types: LoadStaticRecord, BinaryOperationRecord, MethodReturnRecord, MethodCallRecord, MethodStartRecord, LoadInstanceRecord, MethodEndRecord, IfRecord, StoreInstanceRecord, 
Ignored event types: IfRecord, 

JSON Encoded Analysis Data (for visualization):{"heapEdges":[{"step":0,"from":"1095979048","to":"1093788712","type":"load","field":"<java.util.TreeMap$Node: java.util.TreeMap$Node left>"},{"step":1,"from":"1095979048","to":"1096093824","type":"load","field":"<java.util.TreeMap$Node: java.util.TreeMap$Node right>"},{"step":2,"from":"1096093824","to":"1096093784","type":"load","field":"<java.util.TreeMap$Node: java.util.TreeMap$Node left>"},{"step":3,"from":"1096093824","to":"1096366064","type":"load","field":"<java.util.TreeMap$Node: java.util.TreeMap$Node right>"},{"step":4,"from":"1096093784","to":"1095979048","type":"store","field":"<java.util.TreeMap$Node: java.util.TreeMap$Node right>"},{"step":5,"from":"1095979048","to":"1096093784","type":"store","field":"<java.util.TreeMap$Node: java.util.TreeMap$Node parent>"},{"step":6,"from":"1095979048","to":"1093232440","type":"load","field":"<java.util.TreeMap$Node: java.util.TreeMap$Node parent>"},{"step":7,"from":"1095979048","to":"sdaReg3","type":"create","field":"<java.util.TreeMap$Node: java.util.TreeMap$Node parent>"},{"step":8,"from":"1093232440","to":"1096093824","type":"store","field":"<java.util.TreeMap$Node: java.util.TreeMap$Node parent>"},{"step":9,"from":"1093232440","to":"1093232360","type":"load","field":"<java.util.TreeMap$Node: java.util.TreeMap$Node left>"},{"step":10,"from":"static.<java.util.TreeMap: boolean $assertionsDisabled>","to":"static.<java.util.TreeMap: boolean $assertionsDisabled>","type":"load","field":"<java.util.TreeMap: boolean $assertionsDisabled>"},{"step":11,"from":"1096093824","to":"1093232440","type":"store","field":"<java.util.TreeMap$Node: java.util.TreeMap$Node right>"},{"step":12,"from":"1095979048","to":"1096093824","type":"store","field":"<java.util.TreeMap$Node: java.util.TreeMap$Node left>"},{"step":13,"from":"1096093824","to":"1095979048","type":"store","field":"<java.util.TreeMap$Node: java.util.TreeMap$Node parent>"},{"step":14,"from":"1093788712","to":"1093788712.<java.util.TreeMap$Node: int height>","type":"load","field":"<java.util.TreeMap$Node: int height>"},{"step":15,"from":"1096093784","to":"1096093784.<java.util.TreeMap$Node: int height>","type":"load","field":"<java.util.TreeMap$Node: int height>"},{"step":16,"from":"1093788712.<java.util.TreeMap$Node: int height>","to":"1096093784.<java.util.TreeMap$Node: int height>","type":"model"},{"step":17,"from":"1093788712.<java.util.TreeMap$Node: int height>","to":"sdaReg4","type":"model"},{"step":18,"from":"1096093784.<java.util.TreeMap$Node: int height>","to":"1093788712.<java.util.TreeMap$Node: int height>","type":"model"},{"step":19,"from":"1096093784.<java.util.TreeMap$Node: int height>","to":"sdaReg4","type":"model"},{"step":20,"from":"sdaReg5","to":"1095979048","type":"store","field":"<java.util.TreeMap$Node: int height>"},{"step":21,"from":"1096366064","to":"1096366064.<java.util.TreeMap$Node: int height>","type":"load","field":"<java.util.TreeMap$Node: int height>"},{"step":22,"from":"1096366064.<java.util.TreeMap$Node: int height>","to":"sdaReg6","type":"model"},{"step":23,"from":"sdaReg7","to":"1096093824","type":"store","field":"<java.util.TreeMap$Node: int height>"}],"parameters":[{"id":"1093233072","name":"this","klass":"java.util.TreeMap"},{"id":"1095979048","name":"arg#1","klass":"java.util.TreeMap$Node"}],"returns":[{"id":null,"name":"return","klass":null}],"colors":{"heapLocToColor":{"1096093824":[1],"sdaReg6":[4],"sdaReg7":[4],"sdaReg4":[3],"sdaReg5":[3],"1093232440":[1],"1093233072":[0],"1093788712.<java.util.TreeMap$Node: int height>":[1],"1096093784.<java.util.TreeMap$Node: int height>":[1],"1096366064.<java.util.TreeMap$Node: int height>":[1],"1096093784":[1],"1093232360":[1],"static.<java.util.TreeMap: boolean $assertionsDisabled>":[2],"sdaReg2":[1],"sdaReg1":[1],"1095979048":[1],"sdaReg0":[0],"1093788712":[1],"1096366064":[1]},"colorToColor":{"1":[1, 3, 4],"3":[1],"4":[1]},"colorToLabel":{"0":"this","1":"arg#1","2":"<java.util.TreeMap: boolean $assertionsDisabled>","5":"return"}}}

Generated Model

