Scanning method <java.util.ArrayList: boolean isEmpty()>

All seen event types: SimpleAssignmentRecord, LoadInstanceRecord, IfRecord, 
Ignored event types: IfRecord, 

JSON Encoded Analysis Data (for visualization):{"heapEdges":[{"step":0,"from":"1093521128","to":"1093521128.<java.util.ArrayList: int size>","type":"load","field":"<java.util.ArrayList: int size>"}],"parameters":[{"id":"1093521128","name":"this","klass":"java.util.ArrayList"}],"returns":[{"id":"sdaReg0","name":"return","klass":"boolean"}],"colors":{"heapLocToColor":{"1093521128":[0],"1093521128.<java.util.ArrayList: int size>":[0]},"colorToColor":{},"colorToLabel":{"0":"this","1":"return"}}}

Generated Model

