Scanning method <java.io.StringWriter: void write(java.lang.String,int,int)>

All seen event types: BinaryOperationRecord, MethodReturnRecord, MethodCallRecord, LoadInstanceRecord, 
Ignored event types: 

JSON Encoded Analysis Data (for visualization):{"heapEdges":[{"step":0,"from":"sdaReg0","to":"sdaReg4","type":"model"},{"step":1,"from":"1093638632","to":"1093638656","type":"load","field":"<java.io.StringWriter: java.lang.StringBuffer buf>"},{"step":2,"from":"sdaReg4","to":"1093638656","type":"model"}],"parameters":[{"id":"1093638632","name":"this","klass":"java.io.StringWriter"},{"id":"sdaReg0","name":"arg#1","klass":"string"},{"id":"sdaReg1","name":"arg#2","klass":"int"},{"id":"sdaReg2","name":"arg#3","klass":"int"}],"returns":[{"id":null,"name":"return","klass":null}],"colors":{"heapLocToColor":{"1093638656":[0],"sdaReg4":[1, 4],"sdaReg3":[2, 3],"sdaReg2":[3],"1093638632":[0],"sdaReg1":[2],"sdaReg0":[1]},"colorToColor":{"1":[0],"4":[0]},"colorToLabel":{"0":"this","1":"arg#1","2":"arg#2","3":"arg#3","5":"return"}}}

Generated Model
	arg#1->this

