Scanning method <android.text.Html: void withinDiv(java.lang.StringBuilder,android.text.Spanned,int,int)>

All seen event types: StoreArrayRecord, SimpleAssignmentRecord, MethodStartRecord, LoadInstanceRecord, IfRecord, InstanceOfRecord, LoadStaticRecord, BinaryOperationRecord, MethodCallRecord, MethodReturnRecord, CastRecord, ArrayLengthRecord, LoadArrayRecord, MethodEndRecord, 
Ignored event types: IfRecord, 

JSON Encoded Analysis Data (for visualization):{"heapEdges":[{"step":0,"from":"1093778128","to":"1093778128.<android.text.SpannableStringInternal: int mSpanCount>","type":"load","field":"<android.text.SpannableStringInternal: int mSpanCount>"},{"step":1,"from":"1093778128","to":"1093481264","type":"load","field":"<android.text.SpannableStringInternal: java.lang.Object[] mSpans>"},{"step":2,"from":"1093778128","to":"1093711952","type":"load","field":"<android.text.SpannableStringInternal: int[] mSpanData>"},{"step":3,"from":"1093711952","to":"1093711952.arrayIdx_int:0","type":"load","field":"arrayIdx_int:0"},{"step":4,"from":"1093711952","to":"1093711952.arrayIdx_int:1","type":"load","field":"arrayIdx_int:1"},{"step":5,"from":"1093481264","to":"1093505328","type":"load","field":"arrayIdx_int:0"},{"step":6,"from":"1093481264","to":"1093505328","type":"load","field":"arrayIdx_int:0"},{"step":7,"from":"1093778128","to":"1093778128.<android.text.SpannableStringInternal: int mSpanCount>","type":"load","field":"<android.text.SpannableStringInternal: int mSpanCount>"},{"step":8,"from":"1093778128","to":"1093481264","type":"load","field":"<android.text.SpannableStringInternal: java.lang.Object[] mSpans>"},{"step":9,"from":"1093778128","to":"1093711952","type":"load","field":"<android.text.SpannableStringInternal: int[] mSpanData>"},{"step":10,"from":"1093481264","to":"1093505328","type":"load","field":"arrayIdx_int:0"},{"step":11,"from":"1084853880","to":"sdaReg24","type":"model"},{"step":12,"from":"static.<com.android.internal.util.ArrayUtils: java.lang.Object[] sCache>","to":"1084375760","type":"load","field":"<com.android.internal.util.ArrayUtils: java.lang.Object[] sCache>"},{"step":13,"from":"static.<com.android.internal.util.ArrayUtils: java.lang.Object[] sCache>","to":"1084375760","type":"load","field":"<com.android.internal.util.ArrayUtils: java.lang.Object[] sCache>"},{"step":14,"from":"1084375760","to":"1093997824","type":"create","field":"arrayIdx_int:37"},{"step":15,"from":"1093778128","to":"1093778128.<android.text.SpannableStringInternal: int mSpanCount>","type":"load","field":"<android.text.SpannableStringInternal: int mSpanCount>"},{"step":16,"from":"1093778128","to":"1093481264","type":"load","field":"<android.text.SpannableStringInternal: java.lang.Object[] mSpans>"},{"step":17,"from":"1093778128","to":"1093711952","type":"load","field":"<android.text.SpannableStringInternal: int[] mSpanData>"},{"step":18,"from":"1093711952","to":"1093711952.arrayIdx_int:0","type":"load","field":"arrayIdx_int:0"},{"step":19,"from":"1093711952","to":"1093711952.arrayIdx_int:1","type":"load","field":"arrayIdx_int:1"},{"step":20,"from":"1093481264","to":"1093505328","type":"load","field":"arrayIdx_int:0"},{"step":21,"from":"1093778128","to":"1093778128.<android.text.SpannableStringInternal: int mSpanCount>","type":"load","field":"<android.text.SpannableStringInternal: int mSpanCount>"},{"step":22,"from":"1093778128","to":"1093481264","type":"load","field":"<android.text.SpannableStringInternal: java.lang.Object[] mSpans>"},{"step":23,"from":"1093778128","to":"1093711952","type":"load","field":"<android.text.SpannableStringInternal: int[] mSpanData>"},{"step":24,"from":"1093481264","to":"1093505328","type":"load","field":"arrayIdx_int:0"},{"step":25,"from":"1093711952","to":"1093711952.arrayIdx_int:0","type":"load","field":"arrayIdx_int:0"},{"step":26,"from":"1093711952","to":"1093711952.arrayIdx_int:1","type":"load","field":"arrayIdx_int:1"},{"step":27,"from":"1084661656","to":"sdaReg75","type":"model"},{"step":28,"from":"static.<com.android.internal.util.ArrayUtils: java.lang.Object[] sCache>","to":"1084375760","type":"load","field":"<com.android.internal.util.ArrayUtils: java.lang.Object[] sCache>"},{"step":29,"from":"static.<com.android.internal.util.ArrayUtils: java.lang.Object[] sCache>","to":"1084375760","type":"load","field":"<com.android.internal.util.ArrayUtils: java.lang.Object[] sCache>"},{"step":30,"from":"1084375760","to":"1093550768","type":"create","field":"arrayIdx_int:26"},{"step":31,"from":"1093778128","to":"1093778128.<android.text.SpannableStringInternal: java.lang.String mText>","type":"load","field":"<android.text.SpannableStringInternal: java.lang.String mText>"},{"step":32,"from":"1093778128.<android.text.SpannableStringInternal: java.lang.String mText>","to":"sdaReg93","type":"model"},{"step":33,"from":"sdaReg93","to":"1093847240","type":"model"},{"step":34,"from":"1093778128","to":"1093778128.<android.text.SpannableStringInternal: java.lang.String mText>","type":"load","field":"<android.text.SpannableStringInternal: java.lang.String mText>"},{"step":35,"from":"1093778128.<android.text.SpannableStringInternal: java.lang.String mText>","to":"sdaReg95","type":"model"},{"step":36,"from":"sdaReg95","to":"1093847240","type":"model"},{"step":37,"from":"1093778128","to":"1093778128.<android.text.SpannableStringInternal: java.lang.String mText>","type":"load","field":"<android.text.SpannableStringInternal: java.lang.String mText>"},{"step":38,"from":"1093778128.<android.text.SpannableStringInternal: java.lang.String mText>","to":"sdaReg97","type":"model"},{"step":39,"from":"sdaReg97","to":"1093847240","type":"model"},{"step":40,"from":"1093778128","to":"1093778128.<android.text.SpannableStringInternal: java.lang.String mText>","type":"load","field":"<android.text.SpannableStringInternal: java.lang.String mText>"},{"step":41,"from":"1093778128.<android.text.SpannableStringInternal: java.lang.String mText>","to":"sdaReg99","type":"model"},{"step":42,"from":"sdaReg99","to":"1093847240","type":"model"},{"step":43,"from":"1093778128","to":"1093778128.<android.text.SpannableStringInternal: java.lang.String mText>","type":"load","field":"<android.text.SpannableStringInternal: java.lang.String mText>"},{"step":44,"from":"1093778128.<android.text.SpannableStringInternal: java.lang.String mText>","to":"sdaReg101","type":"model"},{"step":45,"from":"sdaReg101","to":"1093847240","type":"model"},{"step":46,"from":"1093778128","to":"1093778128.<android.text.SpannableStringInternal: java.lang.String mText>","type":"load","field":"<android.text.SpannableStringInternal: java.lang.String mText>"},{"step":47,"from":"1093778128.<android.text.SpannableStringInternal: java.lang.String mText>","to":"sdaReg103","type":"model"},{"step":48,"from":"1093778128","to":"1093778128.<android.text.SpannableStringInternal: int mSpanCount>","type":"load","field":"<android.text.SpannableStringInternal: int mSpanCount>"},{"step":49,"from":"1093778128","to":"1093481264","type":"load","field":"<android.text.SpannableStringInternal: java.lang.Object[] mSpans>"},{"step":50,"from":"1093778128","to":"1093711952","type":"load","field":"<android.text.SpannableStringInternal: int[] mSpanData>"},{"step":51,"from":"1093711952","to":"1093711952.arrayIdx_int:0","type":"load","field":"arrayIdx_int:0"},{"step":52,"from":"1093711952","to":"1093711952.arrayIdx_int:1","type":"load","field":"arrayIdx_int:1"},{"step":53,"from":"1093481264","to":"1093505328","type":"load","field":"arrayIdx_int:0"},{"step":54,"from":"1093778128","to":"1093778128.<android.text.SpannableStringInternal: int mSpanCount>","type":"load","field":"<android.text.SpannableStringInternal: int mSpanCount>"},{"step":55,"from":"1093778128","to":"1093481264","type":"load","field":"<android.text.SpannableStringInternal: java.lang.Object[] mSpans>"},{"step":56,"from":"1093778128","to":"1093711952","type":"load","field":"<android.text.SpannableStringInternal: int[] mSpanData>"},{"step":57,"from":"1093481264","to":"1093505328","type":"load","field":"arrayIdx_int:0"},{"step":58,"from":"1093711952","to":"1093711952.arrayIdx_int:0","type":"load","field":"arrayIdx_int:0"},{"step":59,"from":"1093711952","to":"1093711952.arrayIdx_int:1","type":"load","field":"arrayIdx_int:1"},{"step":60,"from":"1093481264","to":"1093505328","type":"load","field":"arrayIdx_int:0"},{"step":61,"from":"1093505328","to":"1094034608","type":"store","field":"arrayIdx_int:0"},{"step":62,"from":"1093505328","to":"1093505328.<android.text.style.StyleSpan: int mStyle>","type":"load","field":"<android.text.style.StyleSpan: int mStyle>"},{"step":63,"from":"1093778128","to":"1093778128.<android.text.SpannableStringInternal: java.lang.String mText>","type":"load","field":"<android.text.SpannableStringInternal: java.lang.String mText>"},{"step":64,"from":"1093778128.<android.text.SpannableStringInternal: java.lang.String mText>","to":"sdaReg156","type":"model"},{"step":65,"from":"sdaReg156","to":"1093847240","type":"model"},{"step":66,"from":"1093778128","to":"1093778128.<android.text.SpannableStringInternal: java.lang.String mText>","type":"load","field":"<android.text.SpannableStringInternal: java.lang.String mText>"},{"step":67,"from":"1093778128.<android.text.SpannableStringInternal: java.lang.String mText>","to":"sdaReg158","type":"model"},{"step":68,"from":"sdaReg158","to":"1093847240","type":"model"},{"step":69,"from":"1093778128","to":"1093778128.<android.text.SpannableStringInternal: java.lang.String mText>","type":"load","field":"<android.text.SpannableStringInternal: java.lang.String mText>"},{"step":70,"from":"1093778128.<android.text.SpannableStringInternal: java.lang.String mText>","to":"sdaReg160","type":"model"},{"step":71,"from":"sdaReg160","to":"1093847240","type":"model"},{"step":72,"from":"1093778128","to":"1093778128.<android.text.SpannableStringInternal: java.lang.String mText>","type":"load","field":"<android.text.SpannableStringInternal: java.lang.String mText>"},{"step":73,"from":"1093778128.<android.text.SpannableStringInternal: java.lang.String mText>","to":"sdaReg162","type":"model"},{"step":74,"from":"sdaReg162","to":"1093847240","type":"model"},{"step":75,"from":"1093505328","to":"1093505328.<android.text.style.StyleSpan: int mStyle>","type":"load","field":"<android.text.style.StyleSpan: int mStyle>"},{"step":76,"from":"1093778128","to":"1093778128.<android.text.SpannableStringInternal: int mSpanCount>","type":"load","field":"<android.text.SpannableStringInternal: int mSpanCount>"},{"step":77,"from":"1093778128","to":"1093481264","type":"load","field":"<android.text.SpannableStringInternal: java.lang.Object[] mSpans>"},{"step":78,"from":"1093778128","to":"1093711952","type":"load","field":"<android.text.SpannableStringInternal: int[] mSpanData>"},{"step":79,"from":"1093711952","to":"1093711952.arrayIdx_int:0","type":"load","field":"arrayIdx_int:0"},{"step":80,"from":"1093711952","to":"1093711952.arrayIdx_int:1","type":"load","field":"arrayIdx_int:1"},{"step":81,"from":"1093778128","to":"1093778128.<android.text.SpannableStringInternal: int mSpanCount>","type":"load","field":"<android.text.SpannableStringInternal: int mSpanCount>"},{"step":82,"from":"1093778128","to":"1093481264","type":"load","field":"<android.text.SpannableStringInternal: java.lang.Object[] mSpans>"},{"step":83,"from":"1093778128","to":"1093711952","type":"load","field":"<android.text.SpannableStringInternal: int[] mSpanData>"},{"step":84,"from":"1093481264","to":"1093505328","type":"load","field":"arrayIdx_int:0"},{"step":85,"from":"1093711952","to":"1093711952.arrayIdx_int:0","type":"load","field":"arrayIdx_int:0"},{"step":86,"from":"1093711952","to":"1093711952.arrayIdx_int:1","type":"load","field":"arrayIdx_int:1"},{"step":87,"from":"1084661656","to":"sdaReg200","type":"model"},{"step":88,"from":"static.<com.android.internal.util.ArrayUtils: java.lang.Object[] sCache>","to":"1084375760","type":"load","field":"<com.android.internal.util.ArrayUtils: java.lang.Object[] sCache>"},{"step":89,"from":"1093550768","to":"1085374624","type":"model"},{"step":90,"from":"1085374624","to":"1084661656","type":"model"},{"step":91,"from":"1093778128","to":"1093778128.<android.text.SpannableStringInternal: java.lang.String mText>","type":"load","field":"<android.text.SpannableStringInternal: java.lang.String mText>"},{"step":92,"from":"1093778128.<android.text.SpannableStringInternal: java.lang.String mText>","to":"sdaReg217","type":"model"},{"step":93,"from":"1093778128","to":"1093778128.<android.text.SpannableStringInternal: java.lang.String mText>","type":"load","field":"<android.text.SpannableStringInternal: java.lang.String mText>"},{"step":94,"from":"1093778128.<android.text.SpannableStringInternal: java.lang.String mText>","to":"sdaReg221","type":"model"},{"step":95,"from":"1093778128","to":"1093778128.<android.text.SpannableStringInternal: java.lang.String mText>","type":"load","field":"<android.text.SpannableStringInternal: java.lang.String mText>"},{"step":96,"from":"1093778128.<android.text.SpannableStringInternal: java.lang.String mText>","to":"sdaReg223","type":"model"},{"step":97,"from":"sdaReg223","to":"1093847240","type":"model"},{"step":98,"from":"1093778128","to":"1093778128.<android.text.SpannableStringInternal: java.lang.String mText>","type":"load","field":"<android.text.SpannableStringInternal: java.lang.String mText>"},{"step":99,"from":"1093778128.<android.text.SpannableStringInternal: java.lang.String mText>","to":"sdaReg225","type":"model"},{"step":100,"from":"sdaReg225","to":"1093847240","type":"model"},{"step":101,"from":"1093778128","to":"1093778128.<android.text.SpannableStringInternal: java.lang.String mText>","type":"load","field":"<android.text.SpannableStringInternal: java.lang.String mText>"},{"step":102,"from":"1093778128.<android.text.SpannableStringInternal: java.lang.String mText>","to":"sdaReg227","type":"model"},{"step":103,"from":"sdaReg227","to":"1093847240","type":"model"},{"step":104,"from":"1093778128","to":"1093778128.<android.text.SpannableStringInternal: java.lang.String mText>","type":"load","field":"<android.text.SpannableStringInternal: java.lang.String mText>"},{"step":105,"from":"1093778128.<android.text.SpannableStringInternal: java.lang.String mText>","to":"sdaReg229","type":"model"},{"step":106,"from":"sdaReg229","to":"1093847240","type":"model"},{"step":107,"from":"1093778128","to":"1093778128.<android.text.SpannableStringInternal: java.lang.String mText>","type":"load","field":"<android.text.SpannableStringInternal: java.lang.String mText>"},{"step":108,"from":"1093778128.<android.text.SpannableStringInternal: java.lang.String mText>","to":"sdaReg231","type":"model"},{"step":109,"from":"sdaReg231","to":"1093847240","type":"model"},{"step":110,"from":"sdaReg234","to":"1093847240","type":"model"}],"parameters":[{"id":"1093847240","name":"arg#0","klass":"java.lang.StringBuilder"},{"id":"1093778128","name":"arg#1","klass":"android.text.Spanned"},{"id":"sdaReg0","name":"arg#2","klass":"int"},{"id":"sdaReg1","name":"arg#3","klass":"int"}],"returns":[{"id":null,"name":"return","klass":null}],"colors":{"heapLocToColor":{"sdaReg125":[22],"1093550768":[14],"1093505328.<android.text.style.StyleSpan: int mStyle>":[1],"sdaReg228":[1],"sdaReg229":[1, 37],"sdaReg69":[12],"sdaReg224":[1],"1093711952.arrayIdx_int:1":[1],"sdaReg225":[1, 35],"sdaReg194":[28],"1093711952.arrayIdx_int:0":[1],"1093711952":[1],"1093778128.<android.text.SpannableStringInternal: int[] mSpanData>":[1],"sdaReg226":[1],"sdaReg227":[1, 36],"sdaReg63":[1],"sdaReg221":[1, 33],"sdaReg13":[5],"sdaReg220":[1],"sdaReg14":[1],"sdaReg223":[34, 1],"sdaReg222":[1],"sdaReg12":[4],"sdaReg16":[1],"sdaReg116":[21],"sdaReg117":[1],"sdaReg119":[1],"sdaReg219":[1, 2, 3, 10],"sdaReg77":[13],"1093997824":[9],"sdaReg78":[13],"sdaReg217":[1, 32],"sdaReg79":[14],"sdaReg218":[1, 2, 3, 10],"sdaReg215":[1, 2, 3, 10],"sdaReg216":[1],"sdaReg213":[0],"sdaReg75":[13],"sdaReg214":[1],"sdaReg76":[13],"sdaReg81":[14],"sdaReg211":[14],"sdaReg80":[14],"sdaReg210":[14],"sdaReg83":[14],"sdaReg82":[14],"sdaReg107":[1],"sdaReg109":[1],"sdaReg103":[1, 20],"sdaReg104":[2],"static.<com.android.internal.util.ArrayUtils: java.lang.Object[] sCache>":[8],"sdaReg86":[23, 14],"sdaReg175":[1],"sdaReg84":[14],"sdaReg174":[1],"sdaReg85":[14],"sdaReg177":[1],"sdaReg176":[1],"sdaReg179":[1],"sdaReg89":[0],"sdaReg90":[1],"sdaReg94":[1],"sdaReg93":[1, 15],"sdaReg92":[1],"sdaReg91":[2],"sdaReg100":[1],"sdaReg102":[1],"sdaReg101":[1, 19],"sdaReg186":[1],"sdaReg95":[1, 16],"sdaReg96":[1],"1093778128.<android.text.SpannableStringInternal: int mSpanCount>":[1],"sdaReg97":[17, 1],"sdaReg236":[9],"1093778128.<android.text.SpannableStringInternal: java.lang.String mText>":[1],"sdaReg98":[1],"sdaReg99":[1, 18],"sdaReg188":[1],"sdaReg230":[1],"sdaReg231":[1, 38],"sdaReg60":[11],"sdaReg61":[1],"sdaReg161":[1],"sdaReg162":[1, 27],"1093481264":[1],"sdaReg53":[1],"sdaReg160":[1, 26],"sdaReg51":[1],"sdaReg50":[1, 2, 3, 10],"sdaReg159":[1],"sdaReg158":[1, 25],"1084661656":[14, 31, 30],"sdaReg152":[0],"sdaReg153":[1],"sdaReg156":[1, 24],"sdaReg49":[1],"sdaReg157":[1],"sdaReg48":[0],"sdaReg154":[1, 2, 3, 10],"sdaReg155":[1],"sdaReg45":[1, 3, 10],"sdaReg44":[2],"1094034608":[23],"sdaReg41":[2, 3, 10],"sdaReg40":[1],"sdaReg42":[3, 10],"1093505328":[1],"sdaReg200":[29],"1085374624":[14, 30],"sdaReg201":[29],"sdaReg205":[31, 14, 30],"sdaReg204":[14, 30],"sdaReg39":[0],"sdaReg203":[29],"sdaReg202":[29],"1084375760":[8],"1093778128":[1],"sdaReg209":[14],"sdaReg208":[14],"sdaReg140":[1],"sdaReg141":[1],"1093481264.arrayIdx_int:0":[1],"sdaReg32":[9],"sdaReg31":[9],"sdaReg30":[9],"sdaReg36":[9],"sdaReg35":[9],"sdaReg34":[9],"sdaReg33":[9],"sdaReg5":[1],"sdaReg139":[1],"sdaReg27":[7],"sdaReg134":[23],"sdaReg26":[7],"sdaReg135":[23],"sdaReg29":[9],"sdaReg132":[23],"sdaReg28":[9],"sdaReg133":[23],"sdaReg130":[23],"1093778128.<android.text.SpannableStringInternal: java.lang.Object[] mSpans>":[1],"sdaReg131":[23],"sdaReg3":[1],"1093847240":[0],"sdaReg2":[2, 3],"sdaReg1":[3],"sdaReg0":[2],"sdaReg22":[6],"sdaReg25":[7],"sdaReg24":[7]},"colorToColor":{"34":[0],"35":[0],"1":[0, 23],"38":[0],"36":[0],"37":[0],"9":[8],"14":[8],"15":[0],"17":[0],"16":[0],"19":[0],"18":[0],"25":[0],"24":[0],"27":[0],"26":[0]},"colorToLabel":{"0":"arg#0","1":"arg#1","2":"arg#2","3":"arg#3","8":"<com.android.internal.util.ArrayUtils: java.lang.Object[] sCache>","39":"return"}}}

Generated Model
	arg#1->arg#0

