Scanning method <android.text.Html: void withinDiv(java.lang.StringBuilder,android.text.Spanned,int,int)>

All seen event types: StoreArrayRecord, SimpleAssignmentRecord, MethodStartRecord, LoadInstanceRecord, IfRecord, InstanceOfRecord, LoadStaticRecord, BinaryOperationRecord, MethodCallRecord, MethodReturnRecord, CastRecord, ArrayLengthRecord, LoadArrayRecord, MethodEndRecord, 
Ignored event types: IfRecord, 

JSON Encoded Analysis Data (for visualization):{"heapEdges":[{"step":0,"from":"1094316440","to":"1094316440.<android.text.SpannableStringInternal: int mSpanCount>","type":"load","field":"<android.text.SpannableStringInternal: int mSpanCount>"},{"step":1,"from":"1094316440","to":"1093908552","type":"load","field":"<android.text.SpannableStringInternal: java.lang.Object[] mSpans>"},{"step":2,"from":"1094316440","to":"1093914152","type":"load","field":"<android.text.SpannableStringInternal: int[] mSpanData>"},{"step":3,"from":"1093914152","to":"1093914152.arrayIdx_int:0","type":"load","field":"arrayIdx_int:0"},{"step":4,"from":"1093914152","to":"1093914152.arrayIdx_int:1","type":"load","field":"arrayIdx_int:1"},{"step":5,"from":"1093908552","to":"1093577648","type":"load","field":"arrayIdx_int:0"},{"step":6,"from":"1093908552","to":"1093577648","type":"load","field":"arrayIdx_int:0"},{"step":7,"from":"1094316440","to":"1094316440.<android.text.SpannableStringInternal: int mSpanCount>","type":"load","field":"<android.text.SpannableStringInternal: int mSpanCount>"},{"step":8,"from":"1094316440","to":"1093908552","type":"load","field":"<android.text.SpannableStringInternal: java.lang.Object[] mSpans>"},{"step":9,"from":"1094316440","to":"1093914152","type":"load","field":"<android.text.SpannableStringInternal: int[] mSpanData>"},{"step":10,"from":"1093908552","to":"1093577648","type":"load","field":"arrayIdx_int:0"},{"step":11,"from":"1084853880","to":"sdaReg24","type":"model"},{"step":12,"from":"static.<com.android.internal.util.ArrayUtils: java.lang.Object[] sCache>","to":"1084375760","type":"load","field":"<com.android.internal.util.ArrayUtils: java.lang.Object[] sCache>"},{"step":13,"from":"1084375760","to":"1093997824","type":"load","field":"arrayIdx_int:37"},{"step":14,"from":"1093997824","to":"1093576184","type":"model"},{"step":15,"from":"1093576184","to":"1084853880","type":"model"},{"step":16,"from":"1094316440","to":"1094316440.<android.text.SpannableStringInternal: int mSpanCount>","type":"load","field":"<android.text.SpannableStringInternal: int mSpanCount>"},{"step":17,"from":"1094316440","to":"1093908552","type":"load","field":"<android.text.SpannableStringInternal: java.lang.Object[] mSpans>"},{"step":18,"from":"1094316440","to":"1093914152","type":"load","field":"<android.text.SpannableStringInternal: int[] mSpanData>"},{"step":19,"from":"1093914152","to":"1093914152.arrayIdx_int:0","type":"load","field":"arrayIdx_int:0"},{"step":20,"from":"1093914152","to":"1093914152.arrayIdx_int:1","type":"load","field":"arrayIdx_int:1"},{"step":21,"from":"1093908552","to":"1093577648","type":"load","field":"arrayIdx_int:0"},{"step":22,"from":"1094316440","to":"1094316440.<android.text.SpannableStringInternal: int mSpanCount>","type":"load","field":"<android.text.SpannableStringInternal: int mSpanCount>"},{"step":23,"from":"1094316440","to":"1093908552","type":"load","field":"<android.text.SpannableStringInternal: java.lang.Object[] mSpans>"},{"step":24,"from":"1094316440","to":"1093914152","type":"load","field":"<android.text.SpannableStringInternal: int[] mSpanData>"},{"step":25,"from":"1093908552","to":"1093577648","type":"load","field":"arrayIdx_int:0"},{"step":26,"from":"1093914152","to":"1093914152.arrayIdx_int:0","type":"load","field":"arrayIdx_int:0"},{"step":27,"from":"1093914152","to":"1093914152.arrayIdx_int:1","type":"load","field":"arrayIdx_int:1"},{"step":28,"from":"1084661656","to":"sdaReg76","type":"model"},{"step":29,"from":"static.<com.android.internal.util.ArrayUtils: java.lang.Object[] sCache>","to":"1084375760","type":"load","field":"<com.android.internal.util.ArrayUtils: java.lang.Object[] sCache>"},{"step":30,"from":"1084375760","to":"1093550768","type":"load","field":"arrayIdx_int:26"},{"step":31,"from":"1093550768","to":"1085374624","type":"model"},{"step":32,"from":"1085374624","to":"1084661656","type":"model"},{"step":33,"from":"1094316440","to":"1094316440.<android.text.SpannableStringInternal: java.lang.String mText>","type":"load","field":"<android.text.SpannableStringInternal: java.lang.String mText>"},{"step":34,"from":"1094316440.<android.text.SpannableStringInternal: java.lang.String mText>","to":"sdaReg95","type":"model"},{"step":35,"from":"sdaReg95","to":"1094156456","type":"model"},{"step":36,"from":"1094316440","to":"1094316440.<android.text.SpannableStringInternal: java.lang.String mText>","type":"load","field":"<android.text.SpannableStringInternal: java.lang.String mText>"},{"step":37,"from":"1094316440.<android.text.SpannableStringInternal: java.lang.String mText>","to":"sdaReg97","type":"model"},{"step":38,"from":"sdaReg97","to":"1094156456","type":"model"},{"step":39,"from":"1094316440","to":"1094316440.<android.text.SpannableStringInternal: java.lang.String mText>","type":"load","field":"<android.text.SpannableStringInternal: java.lang.String mText>"},{"step":40,"from":"1094316440.<android.text.SpannableStringInternal: java.lang.String mText>","to":"sdaReg99","type":"model"},{"step":41,"from":"sdaReg99","to":"1094156456","type":"model"},{"step":42,"from":"1094316440","to":"1094316440.<android.text.SpannableStringInternal: java.lang.String mText>","type":"load","field":"<android.text.SpannableStringInternal: java.lang.String mText>"},{"step":43,"from":"1094316440.<android.text.SpannableStringInternal: java.lang.String mText>","to":"sdaReg101","type":"model"},{"step":44,"from":"sdaReg101","to":"1094156456","type":"model"},{"step":45,"from":"1094316440","to":"1094316440.<android.text.SpannableStringInternal: java.lang.String mText>","type":"load","field":"<android.text.SpannableStringInternal: java.lang.String mText>"},{"step":46,"from":"1094316440.<android.text.SpannableStringInternal: java.lang.String mText>","to":"sdaReg103","type":"model"},{"step":47,"from":"sdaReg103","to":"1094156456","type":"model"},{"step":48,"from":"1094316440","to":"1094316440.<android.text.SpannableStringInternal: java.lang.String mText>","type":"load","field":"<android.text.SpannableStringInternal: java.lang.String mText>"},{"step":49,"from":"1094316440.<android.text.SpannableStringInternal: java.lang.String mText>","to":"sdaReg105","type":"model"},{"step":50,"from":"1094316440","to":"1094316440.<android.text.SpannableStringInternal: int mSpanCount>","type":"load","field":"<android.text.SpannableStringInternal: int mSpanCount>"},{"step":51,"from":"1094316440","to":"1093908552","type":"load","field":"<android.text.SpannableStringInternal: java.lang.Object[] mSpans>"},{"step":52,"from":"1094316440","to":"1093914152","type":"load","field":"<android.text.SpannableStringInternal: int[] mSpanData>"},{"step":53,"from":"1093914152","to":"1093914152.arrayIdx_int:0","type":"load","field":"arrayIdx_int:0"},{"step":54,"from":"1093914152","to":"1093914152.arrayIdx_int:1","type":"load","field":"arrayIdx_int:1"},{"step":55,"from":"1093908552","to":"1093577648","type":"load","field":"arrayIdx_int:0"},{"step":56,"from":"1094316440","to":"1094316440.<android.text.SpannableStringInternal: int mSpanCount>","type":"load","field":"<android.text.SpannableStringInternal: int mSpanCount>"},{"step":57,"from":"1094316440","to":"1093908552","type":"load","field":"<android.text.SpannableStringInternal: java.lang.Object[] mSpans>"},{"step":58,"from":"1094316440","to":"1093914152","type":"load","field":"<android.text.SpannableStringInternal: int[] mSpanData>"},{"step":59,"from":"1093908552","to":"1093577648","type":"load","field":"arrayIdx_int:0"},{"step":60,"from":"1093914152","to":"1093914152.arrayIdx_int:0","type":"load","field":"arrayIdx_int:0"},{"step":61,"from":"1093914152","to":"1093914152.arrayIdx_int:1","type":"load","field":"arrayIdx_int:1"},{"step":62,"from":"1093908552","to":"1093577648","type":"load","field":"arrayIdx_int:0"},{"step":63,"from":"1093577648","to":"1093816096","type":"store","field":"arrayIdx_int:0"},{"step":64,"from":"1093577648","to":"1093577648.<android.text.style.TypefaceSpan: java.lang.String mFamily>","type":"load","field":"<android.text.style.TypefaceSpan: java.lang.String mFamily>"},{"step":65,"from":"1094316440","to":"1094316440.<android.text.SpannableStringInternal: java.lang.String mText>","type":"load","field":"<android.text.SpannableStringInternal: java.lang.String mText>"},{"step":66,"from":"1094316440.<android.text.SpannableStringInternal: java.lang.String mText>","to":"sdaReg157","type":"model"},{"step":67,"from":"sdaReg157","to":"1094156456","type":"model"},{"step":68,"from":"1094316440","to":"1094316440.<android.text.SpannableStringInternal: java.lang.String mText>","type":"load","field":"<android.text.SpannableStringInternal: java.lang.String mText>"},{"step":69,"from":"1094316440.<android.text.SpannableStringInternal: java.lang.String mText>","to":"sdaReg159","type":"model"},{"step":70,"from":"sdaReg159","to":"1094156456","type":"model"},{"step":71,"from":"1094316440","to":"1094316440.<android.text.SpannableStringInternal: java.lang.String mText>","type":"load","field":"<android.text.SpannableStringInternal: java.lang.String mText>"},{"step":72,"from":"1094316440.<android.text.SpannableStringInternal: java.lang.String mText>","to":"sdaReg161","type":"model"},{"step":73,"from":"sdaReg161","to":"1094156456","type":"model"},{"step":74,"from":"1094316440","to":"1094316440.<android.text.SpannableStringInternal: java.lang.String mText>","type":"load","field":"<android.text.SpannableStringInternal: java.lang.String mText>"},{"step":75,"from":"1094316440.<android.text.SpannableStringInternal: java.lang.String mText>","to":"sdaReg163","type":"model"},{"step":76,"from":"sdaReg163","to":"1094156456","type":"model"},{"step":77,"from":"1094316440","to":"1094316440.<android.text.SpannableStringInternal: java.lang.String mText>","type":"load","field":"<android.text.SpannableStringInternal: java.lang.String mText>"},{"step":78,"from":"1094316440.<android.text.SpannableStringInternal: java.lang.String mText>","to":"sdaReg165","type":"model"},{"step":79,"from":"sdaReg165","to":"1094156456","type":"model"},{"step":80,"from":"1094316440","to":"1094316440.<android.text.SpannableStringInternal: java.lang.String mText>","type":"load","field":"<android.text.SpannableStringInternal: java.lang.String mText>"},{"step":81,"from":"1094316440.<android.text.SpannableStringInternal: java.lang.String mText>","to":"sdaReg167","type":"model"},{"step":82,"from":"sdaReg167","to":"1094156456","type":"model"},{"step":83,"from":"1094316440","to":"1094316440.<android.text.SpannableStringInternal: java.lang.String mText>","type":"load","field":"<android.text.SpannableStringInternal: java.lang.String mText>"},{"step":84,"from":"1094316440.<android.text.SpannableStringInternal: java.lang.String mText>","to":"sdaReg169","type":"model"},{"step":85,"from":"sdaReg169","to":"1094156456","type":"model"},{"step":86,"from":"1094316440","to":"1094316440.<android.text.SpannableStringInternal: java.lang.String mText>","type":"load","field":"<android.text.SpannableStringInternal: java.lang.String mText>"},{"step":87,"from":"1094316440.<android.text.SpannableStringInternal: java.lang.String mText>","to":"sdaReg171","type":"model"},{"step":88,"from":"sdaReg171","to":"1094156456","type":"model"},{"step":89,"from":"1094316440","to":"1094316440.<android.text.SpannableStringInternal: java.lang.String mText>","type":"load","field":"<android.text.SpannableStringInternal: java.lang.String mText>"},{"step":90,"from":"1094316440.<android.text.SpannableStringInternal: java.lang.String mText>","to":"sdaReg173","type":"model"},{"step":91,"from":"sdaReg173","to":"1094156456","type":"model"},{"step":92,"from":"1093577648","to":"1093577648.<android.text.style.TypefaceSpan: java.lang.String mFamily>","type":"load","field":"<android.text.style.TypefaceSpan: java.lang.String mFamily>"},{"step":93,"from":"1094316440","to":"1094316440.<android.text.SpannableStringInternal: int mSpanCount>","type":"load","field":"<android.text.SpannableStringInternal: int mSpanCount>"},{"step":94,"from":"1094316440","to":"1093908552","type":"load","field":"<android.text.SpannableStringInternal: java.lang.Object[] mSpans>"},{"step":95,"from":"1094316440","to":"1093914152","type":"load","field":"<android.text.SpannableStringInternal: int[] mSpanData>"},{"step":96,"from":"1093914152","to":"1093914152.arrayIdx_int:0","type":"load","field":"arrayIdx_int:0"},{"step":97,"from":"1093914152","to":"1093914152.arrayIdx_int:1","type":"load","field":"arrayIdx_int:1"},{"step":98,"from":"1094316440","to":"1094316440.<android.text.SpannableStringInternal: int mSpanCount>","type":"load","field":"<android.text.SpannableStringInternal: int mSpanCount>"},{"step":99,"from":"1094316440","to":"1093908552","type":"load","field":"<android.text.SpannableStringInternal: java.lang.Object[] mSpans>"},{"step":100,"from":"1094316440","to":"1093914152","type":"load","field":"<android.text.SpannableStringInternal: int[] mSpanData>"},{"step":101,"from":"1093908552","to":"1093577648","type":"load","field":"arrayIdx_int:0"},{"step":102,"from":"1093914152","to":"1093914152.arrayIdx_int:0","type":"load","field":"arrayIdx_int:0"},{"step":103,"from":"1093914152","to":"1093914152.arrayIdx_int:1","type":"load","field":"arrayIdx_int:1"},{"step":104,"from":"1084661656","to":"sdaReg210","type":"model"},{"step":105,"from":"static.<com.android.internal.util.ArrayUtils: java.lang.Object[] sCache>","to":"1084375760","type":"load","field":"<com.android.internal.util.ArrayUtils: java.lang.Object[] sCache>"},{"step":106,"from":"1084375760","to":"1093550768","type":"load","field":"arrayIdx_int:26"},{"step":107,"from":"1093550768","to":"1085374624","type":"model"},{"step":108,"from":"1085374624","to":"1084661656","type":"model"},{"step":109,"from":"1094316440","to":"1094316440.<android.text.SpannableStringInternal: java.lang.String mText>","type":"load","field":"<android.text.SpannableStringInternal: java.lang.String mText>"},{"step":110,"from":"1094316440.<android.text.SpannableStringInternal: java.lang.String mText>","to":"sdaReg227","type":"model"},{"step":111,"from":"1094316440","to":"1094316440.<android.text.SpannableStringInternal: java.lang.String mText>","type":"load","field":"<android.text.SpannableStringInternal: java.lang.String mText>"},{"step":112,"from":"1094316440.<android.text.SpannableStringInternal: java.lang.String mText>","to":"sdaReg231","type":"model"},{"step":113,"from":"1094316440","to":"1094316440.<android.text.SpannableStringInternal: java.lang.String mText>","type":"load","field":"<android.text.SpannableStringInternal: java.lang.String mText>"},{"step":114,"from":"1094316440.<android.text.SpannableStringInternal: java.lang.String mText>","to":"sdaReg233","type":"model"},{"step":115,"from":"sdaReg233","to":"1094156456","type":"model"},{"step":116,"from":"1094316440","to":"1094316440.<android.text.SpannableStringInternal: java.lang.String mText>","type":"load","field":"<android.text.SpannableStringInternal: java.lang.String mText>"},{"step":117,"from":"1094316440.<android.text.SpannableStringInternal: java.lang.String mText>","to":"sdaReg235","type":"model"},{"step":118,"from":"sdaReg235","to":"1094156456","type":"model"},{"step":119,"from":"1094316440","to":"1094316440.<android.text.SpannableStringInternal: java.lang.String mText>","type":"load","field":"<android.text.SpannableStringInternal: java.lang.String mText>"},{"step":120,"from":"1094316440.<android.text.SpannableStringInternal: java.lang.String mText>","to":"sdaReg237","type":"model"},{"step":121,"from":"sdaReg237","to":"1094156456","type":"model"},{"step":122,"from":"1094316440","to":"1094316440.<android.text.SpannableStringInternal: java.lang.String mText>","type":"load","field":"<android.text.SpannableStringInternal: java.lang.String mText>"},{"step":123,"from":"1094316440.<android.text.SpannableStringInternal: java.lang.String mText>","to":"sdaReg239","type":"model"},{"step":124,"from":"sdaReg239","to":"1094156456","type":"model"},{"step":125,"from":"1094316440","to":"1094316440.<android.text.SpannableStringInternal: java.lang.String mText>","type":"load","field":"<android.text.SpannableStringInternal: java.lang.String mText>"},{"step":126,"from":"1094316440.<android.text.SpannableStringInternal: java.lang.String mText>","to":"sdaReg241","type":"model"},{"step":127,"from":"sdaReg241","to":"1094156456","type":"model"},{"step":128,"from":"sdaReg244","to":"1094156456","type":"model"}],"parameters":[{"id":"1094156456","name":"arg#0","klass":"java.lang.StringBuilder"},{"id":"1094316440","name":"arg#1","klass":"android.text.Spanned"},{"id":"sdaReg0","name":"arg#2","klass":"int"},{"id":"sdaReg1","name":"arg#3","klass":"int"}],"returns":[{"id":null,"name":"return","klass":null}],"colors":{"heapLocToColor":{"sdaReg190":[16, 8, 15],"1093550768":[8],"sdaReg127":[24],"1084853880":[8, 9, 10],"sdaReg228":[1, 2, 3, 11],"sdaReg199":[16, 8, 15],"1093908552":[1],"sdaReg229":[1, 2, 3, 11],"sdaReg198":[1],"sdaReg224":[1],"sdaReg64":[1],"sdaReg225":[1, 2, 3, 11],"sdaReg226":[1],"sdaReg197":[16, 8, 15],"sdaReg62":[1],"sdaReg227":[1, 39],"sdaReg196":[1],"sdaReg221":[8],"sdaReg13":[5],"sdaReg220":[8],"sdaReg14":[1],"sdaReg223":[0],"sdaReg70":[13],"sdaReg12":[4],"1094316440.<android.text.SpannableStringInternal: int mSpanCount>":[1],"sdaReg120":[16, 8, 15],"sdaReg122":[16, 8, 15],"sdaReg121":[1],"sdaReg16":[1],"sdaReg118":[23],"sdaReg119":[1],"sdaReg219":[8],"sdaReg77":[14],"1093997824":[8],"sdaReg78":[14],"sdaReg217":[8],"sdaReg79":[14],"sdaReg218":[8],"sdaReg215":[16, 8, 15],"sdaReg216":[8],"sdaReg213":[38],"sdaReg214":[8, 15],"sdaReg76":[14],"sdaReg212":[38],"sdaReg81":[16, 8, 15],"sdaReg211":[38],"sdaReg80":[8, 15],"sdaReg210":[38],"1093908552.arrayIdx_int:0":[1],"1093914152.arrayIdx_int:0":[1],"sdaReg112":[16, 8, 15],"1093914152.arrayIdx_int:1":[1],"sdaReg111":[1],"sdaReg110":[16, 8, 15],"sdaReg109":[1],"sdaReg103":[1, 21],"1094156456":[0],"sdaReg104":[1],"sdaReg171":[34, 1],"sdaReg105":[1, 22],"sdaReg170":[1],"sdaReg106":[2],"sdaReg246":[8],"sdaReg173":[1, 35],"static.<com.android.internal.util.ArrayUtils: java.lang.Object[] sCache>":[8],"sdaReg86":[8],"sdaReg172":[1],"sdaReg87":[8],"sdaReg84":[8],"sdaReg85":[8],"sdaReg88":[25, 8],"sdaReg241":[1, 45],"sdaReg240":[1],"1094316440":[1],"sdaReg94":[1],"sdaReg93":[2],"sdaReg92":[1],"sdaReg91":[0],"sdaReg100":[1],"sdaReg102":[1],"sdaReg101":[1, 20],"sdaReg237":[1, 43],"1094316440.<android.text.SpannableStringInternal: java.lang.String mText>":[1],"sdaReg95":[17, 1],"sdaReg238":[1],"sdaReg185":[36],"sdaReg96":[1],"sdaReg235":[1, 42],"sdaReg184":[1],"sdaReg97":[1, 18],"sdaReg236":[1],"sdaReg98":[1],"sdaReg99":[1, 19],"sdaReg189":[1],"sdaReg239":[1, 44],"sdaReg188":[16, 8, 15],"sdaReg187":[1],"sdaReg230":[1],"sdaReg234":[1],"sdaReg233":[1, 41],"sdaReg232":[1],"sdaReg231":[1, 40],"1094316440.<android.text.SpannableStringInternal: int[] mSpanData>":[1],"sdaReg61":[12],"1084375760.arrayIdx_int:26":[8],"sdaReg169":[1, 33],"sdaReg161":[1, 29],"sdaReg162":[1],"sdaReg163":[1, 30],"sdaReg164":[1],"sdaReg165":[1, 31],"sdaReg166":[1],"sdaReg167":[1, 32],"sdaReg168":[1],"1093816096":[25],"sdaReg54":[1],"sdaReg52":[1],"sdaReg160":[1],"sdaReg51":[1, 2, 3, 11],"sdaReg50":[1],"1093577648":[1],"sdaReg159":[1, 28],"sdaReg158":[1],"1084661656":[16, 8, 15],"sdaReg153":[0],"sdaReg156":[1],"sdaReg49":[0],"sdaReg157":[1, 27],"sdaReg154":[1],"sdaReg155":[1, 2, 3, 11],"sdaReg45":[2],"sdaReg46":[1, 3, 11],"sdaReg41":[1],"sdaReg40":[0],"sdaReg43":[3, 11],"sdaReg42":[2, 3, 11],"1093576184":[8, 9],"1094316440.<android.text.SpannableStringInternal: java.lang.Object[] mSpans>":[1],"1093914152":[1],"1085374624":[8, 15],"sdaReg143":[26],"sdaReg204":[37],"sdaReg37":[8],"1084375760":[8],"sdaReg209":[16, 8, 15],"sdaReg142":[1],"sdaReg32":[8],"sdaReg36":[8],"sdaReg35":[8],"sdaReg34":[8],"sdaReg33":[8],"sdaReg5":[1],"1093577648.<android.text.style.TypefaceSpan: java.lang.String mFamily>":[1],"sdaReg137":[25],"sdaReg136":[25],"sdaReg134":[25],"sdaReg27":[7],"sdaReg135":[25],"sdaReg26":[7],"sdaReg29":[8, 9, 10],"sdaReg132":[25],"sdaReg28":[8, 9],"sdaReg133":[25],"sdaReg3":[1],"sdaReg2":[2, 3],"sdaReg1":[3],"sdaReg0":[2],"sdaReg22":[6],"sdaReg25":[7],"sdaReg24":[7]},"colorToColor":{"34":[0],"35":[0],"1":[0, 25],"32":[0],"33":[0],"42":[0],"8":[38],"43":[0],"41":[0],"44":[0],"45":[0],"15":[38],"17":[0],"16":[38],"19":[0],"18":[0],"21":[0],"20":[0],"27":[0],"29":[0],"28":[0],"31":[0],"30":[0]},"colorToLabel":{"0":"arg#0","1":"arg#1","2":"arg#2","3":"arg#3","8":"<com.android.internal.util.ArrayUtils: java.lang.Object[] sCache>","46":"return"}}}

Generated Model
	arg#1->arg#0

