Scanning method <android.text.Html: void withinDiv(java.lang.StringBuilder,android.text.Spanned,int,int)>

All seen event types: StoreArrayRecord, SimpleAssignmentRecord, MethodStartRecord, LoadInstanceRecord, IfRecord, LoadStaticRecord, BinaryOperationRecord, MethodCallRecord, MethodReturnRecord, CastRecord, ArrayLengthRecord, LoadArrayRecord, MethodEndRecord, 
Ignored event types: IfRecord, 

JSON Encoded Analysis Data (for visualization):{"heapEdges":[{"step":0,"from":"1094086736","to":"1094086736.<android.text.SpannableStringInternal: int mSpanCount>","type":"load","field":"<android.text.SpannableStringInternal: int mSpanCount>"},{"step":1,"from":"1094086736","to":"1094211840","type":"load","field":"<android.text.SpannableStringInternal: java.lang.Object[] mSpans>"},{"step":2,"from":"1094086736","to":"1094211864","type":"load","field":"<android.text.SpannableStringInternal: int[] mSpanData>"},{"step":3,"from":"1094211864","to":"1094211864.arrayIdx_int:0","type":"load","field":"arrayIdx_int:0"},{"step":4,"from":"1094211864","to":"1094211864.arrayIdx_int:1","type":"load","field":"arrayIdx_int:1"},{"step":5,"from":"1094086736","to":"1094086736.<android.text.SpannableStringInternal: int mSpanCount>","type":"load","field":"<android.text.SpannableStringInternal: int mSpanCount>"},{"step":6,"from":"1094086736","to":"1094211840","type":"load","field":"<android.text.SpannableStringInternal: java.lang.Object[] mSpans>"},{"step":7,"from":"1094086736","to":"1094211864","type":"load","field":"<android.text.SpannableStringInternal: int[] mSpanData>"},{"step":8,"from":"1094211840","to":"1093730616","type":"load","field":"arrayIdx_int:0"},{"step":9,"from":"1094211864","to":"1094211864.arrayIdx_int:0","type":"load","field":"arrayIdx_int:0"},{"step":10,"from":"1094211864","to":"1094211864.arrayIdx_int:1","type":"load","field":"arrayIdx_int:1"},{"step":11,"from":"1084853880","to":"sdaReg26","type":"model"},{"step":12,"from":"static.<com.android.internal.util.ArrayUtils: java.lang.Object[] sCache>","to":"1084375760","type":"load","field":"<com.android.internal.util.ArrayUtils: java.lang.Object[] sCache>"},{"step":13,"from":"static.<com.android.internal.util.ArrayUtils: java.lang.Object[] sCache>","to":"1084375760","type":"load","field":"<com.android.internal.util.ArrayUtils: java.lang.Object[] sCache>"},{"step":14,"from":"1084375760","to":"1093822784","type":"create","field":"arrayIdx_int:37"},{"step":15,"from":"1094086736","to":"1094086736.<android.text.SpannableStringInternal: int mSpanCount>","type":"load","field":"<android.text.SpannableStringInternal: int mSpanCount>"},{"step":16,"from":"1094086736","to":"1094211840","type":"load","field":"<android.text.SpannableStringInternal: java.lang.Object[] mSpans>"},{"step":17,"from":"1094086736","to":"1094211864","type":"load","field":"<android.text.SpannableStringInternal: int[] mSpanData>"},{"step":18,"from":"1094211864","to":"1094211864.arrayIdx_int:0","type":"load","field":"arrayIdx_int:0"},{"step":19,"from":"1094211864","to":"1094211864.arrayIdx_int:1","type":"load","field":"arrayIdx_int:1"},{"step":20,"from":"1094086736","to":"1094086736.<android.text.SpannableStringInternal: int mSpanCount>","type":"load","field":"<android.text.SpannableStringInternal: int mSpanCount>"},{"step":21,"from":"1094086736","to":"1094211840","type":"load","field":"<android.text.SpannableStringInternal: java.lang.Object[] mSpans>"},{"step":22,"from":"1094086736","to":"1094211864","type":"load","field":"<android.text.SpannableStringInternal: int[] mSpanData>"},{"step":23,"from":"1094211840","to":"1093730616","type":"load","field":"arrayIdx_int:0"},{"step":24,"from":"1084661656","to":"sdaReg72","type":"model"},{"step":25,"from":"static.<com.android.internal.util.ArrayUtils: java.lang.Object[] sCache>","to":"1084375760","type":"load","field":"<com.android.internal.util.ArrayUtils: java.lang.Object[] sCache>"},{"step":26,"from":"1084375760","to":"1093765448","type":"load","field":"arrayIdx_int:26"},{"step":27,"from":"1093765448","to":"1085374624","type":"model"},{"step":28,"from":"1085374624","to":"1084661656","type":"model"},{"step":29,"from":"1094086736","to":"1094086736.<android.text.SpannableStringInternal: java.lang.String mText>","type":"load","field":"<android.text.SpannableStringInternal: java.lang.String mText>"},{"step":30,"from":"1094086736.<android.text.SpannableStringInternal: java.lang.String mText>","to":"sdaReg91","type":"model"},{"step":31,"from":"sdaReg91","to":"1093946728","type":"model"},{"step":32,"from":"1094086736","to":"1094086736.<android.text.SpannableStringInternal: java.lang.String mText>","type":"load","field":"<android.text.SpannableStringInternal: java.lang.String mText>"},{"step":33,"from":"1094086736.<android.text.SpannableStringInternal: java.lang.String mText>","to":"sdaReg93","type":"model"},{"step":34,"from":"sdaReg93","to":"1093946728","type":"model"},{"step":35,"from":"1094086736","to":"1094086736.<android.text.SpannableStringInternal: java.lang.String mText>","type":"load","field":"<android.text.SpannableStringInternal: java.lang.String mText>"},{"step":36,"from":"1094086736.<android.text.SpannableStringInternal: java.lang.String mText>","to":"sdaReg95","type":"model"},{"step":37,"from":"sdaReg95","to":"1093946728","type":"model"},{"step":38,"from":"1094086736","to":"1094086736.<android.text.SpannableStringInternal: java.lang.String mText>","type":"load","field":"<android.text.SpannableStringInternal: java.lang.String mText>"},{"step":39,"from":"1094086736.<android.text.SpannableStringInternal: java.lang.String mText>","to":"sdaReg97","type":"model"},{"step":40,"from":"sdaReg97","to":"1093946728","type":"model"},{"step":41,"from":"1094086736","to":"1094086736.<android.text.SpannableStringInternal: java.lang.String mText>","type":"load","field":"<android.text.SpannableStringInternal: java.lang.String mText>"},{"step":42,"from":"1094086736.<android.text.SpannableStringInternal: java.lang.String mText>","to":"sdaReg99","type":"model"},{"step":43,"from":"sdaReg99","to":"1093946728","type":"model"},{"step":44,"from":"sdaReg103","to":"1093946728","type":"model"}],"parameters":[{"id":"1093946728","name":"arg#0","klass":"java.lang.StringBuilder"},{"id":"1094086736","name":"arg#1","klass":"android.text.Spanned"},{"id":"sdaReg0","name":"arg#2","klass":"int"},{"id":"sdaReg1","name":"arg#3","klass":"int"}],"returns":[{"id":null,"name":"return","klass":null}],"colors":{"heapLocToColor":{"1093730616":[1],"sdaReg64":[1],"sdaReg62":[1],"sdaReg72":[10],"1094211864.arrayIdx_int:0":[1],"sdaReg14":[1],"1094211864.arrayIdx_int:1":[1],"sdaReg70":[9],"sdaReg12":[1],"sdaReg55":[1],"sdaReg53":[1],"1094211840":[1],"sdaReg52":[2, 3, 8],"sdaReg51":[1],"sdaReg50":[0],"sdaReg77":[6, 11, 12],"sdaReg73":[10],"sdaReg74":[10],"1084661656":[6, 11, 12],"1093765448":[6],"sdaReg75":[10],"sdaReg76":[6, 11],"sdaReg81":[6],"sdaReg80":[6],"sdaReg83":[6],"sdaReg82":[6],"sdaReg44":[3, 8],"sdaReg47":[3, 8],"sdaReg46":[2],"sdaReg41":[0],"sdaReg43":[2, 3, 8],"sdaReg42":[1],"sdaReg105":[7],"static.<com.android.internal.util.ArrayUtils: java.lang.Object[] sCache>":[6],"sdaReg87":[0],"sdaReg84":[6],"1094086736":[1],"1085374624":[6, 11],"sdaReg88":[1],"sdaReg89":[2],"sdaReg90":[1],"sdaReg38":[7],"1093822784":[7],"1084375760":[6],"sdaReg37":[7],"sdaReg94":[1],"sdaReg93":[1, 14],"sdaReg92":[1],"sdaReg91":[1, 13],"1094211864":[1],"sdaReg32":[7],"sdaReg31":[7],"sdaReg30":[7],"1093946728":[0],"sdaReg36":[7],"sdaReg35":[7],"sdaReg34":[7],"sdaReg33":[7],"1094211840.arrayIdx_int:0":[1],"sdaReg5":[1],"sdaReg95":[1, 15],"sdaReg96":[1],"sdaReg97":[1, 16],"sdaReg98":[1],"sdaReg99":[17, 1],"1094086736.<android.text.SpannableStringInternal: int[] mSpanData>":[1],"sdaReg27":[5],"sdaReg26":[5],"sdaReg29":[5],"1094086736.<android.text.SpannableStringInternal: java.lang.Object[] mSpans>":[1],"sdaReg28":[5],"sdaReg3":[1],"1094086736.<android.text.SpannableStringInternal: java.lang.String mText>":[1],"sdaReg2":[2, 3],"sdaReg1":[3],"sdaReg20":[4],"sdaReg0":[2],"1094086736.<android.text.SpannableStringInternal: int mSpanCount>":[1]},"colorToColor":{"17":[0],"16":[0],"1":[0],"7":[6],"13":[0],"14":[0],"15":[0]},"colorToLabel":{"0":"arg#0","1":"arg#1","2":"arg#2","3":"arg#3","6":"<com.android.internal.util.ArrayUtils: java.lang.Object[] sCache>","18":"return"}}}

Generated Model
	arg#1->arg#0

