Scanning method <java.util.Arrays$ArrayList: java.lang.Object get(int)>

All seen event types: LoadInstanceRecord, LoadArrayRecord, 
Ignored event types: 

JSON Encoded Analysis Data (for visualization):{"heapEdges":[{"step":0,"from":"1093448416","to":"1093622920","type":"load","field":"<java.util.Arrays$ArrayList: java.lang.Object[] a>"},{"step":1,"from":"1093622920","to":"1093466088","type":"load","field":"arrayIdx_int:1"}],"parameters":[{"id":"1093448416","name":"this","klass":"java.util.Arrays$ArrayList"},{"id":"sdaReg0","name":"arg#1","klass":"int"}],"returns":[{"id":"1093466088","name":"return","klass":"java.lang.Object"}],"colors":{"heapLocToColor":{"1093466088":[0],"1093622920":[0],"sdaReg0":[1],"1093448416":[0]},"colorToColor":{"0":[2]},"colorToLabel":{"0":"this","1":"arg#1","2":"return"}}}

Generated Model
	this->return

