Scanning method <android.location.Location: boolean hasBearing()>

All seen event types: LoadInstanceRecord, 
Ignored event types: 

JSON Encoded Analysis Data (for visualization):{"heapEdges":[{"step":0,"from":"1093954384","to":"1093954384.<android.location.Location: boolean mHasBearing>","type":"load","field":"<android.location.Location: boolean mHasBearing>"}],"parameters":[{"id":"1093954384","name":"this","klass":"android.location.Location"}],"returns":[{"id":"1093954384.<android.location.Location: boolean mHasBearing>","name":"return","klass":"boolean"}],"colors":{"heapLocToColor":{"1093954384.<android.location.Location: boolean mHasBearing>":[0],"1093954384":[0]},"colorToColor":{"0":[1]},"colorToLabel":{"0":"this","1":"return"}}}

Generated Model
	this->return

