Scanning method <java.util.Vector: java.lang.Object get(int)>

All seen event types: MethodReturnRecord, MethodCallRecord, LoadInstanceRecord, MethodStartRecord, LoadArrayRecord, MethodEndRecord, IfRecord, 
Ignored event types: IfRecord, 

JSON Encoded Analysis Data (for visualization):{"heapEdges":[{"step":0,"from":"1093818376","to":"1093818376.<java.util.Vector: int elementCount>","type":"load","field":"<java.util.Vector: int elementCount>"},{"step":1,"from":"1093818376","to":"1093687704","type":"load","field":"<java.util.Vector: java.lang.Object[] elementData>"},{"step":2,"from":"1093687704","to":"1093858512","type":"load","field":"arrayIdx_int:140"}],"parameters":[{"id":"1093818376","name":"this","klass":"java.util.Vector"},{"id":"sdaReg0","name":"arg#1","klass":"int"}],"returns":[{"id":"1093858512","name":"return","klass":"java.lang.Object"}],"colors":{"heapLocToColor":{"1093687704":[0],"sdaReg2":[0],"sdaReg1":[0],"1093818376.<java.util.Vector: int elementCount>":[0],"sdaReg0":[1],"1093858512":[0],"1093818376":[0]},"colorToColor":{"0":[2]},"colorToLabel":{"0":"this","1":"arg#1","2":"return"}}}

Generated Model
	this->return

