Scanning method <java.util.Vector: java.lang.Object get(int)>

All seen event types: MethodReturnRecord, MethodCallRecord, LoadInstanceRecord, MethodStartRecord, LoadArrayRecord, MethodEndRecord, IfRecord, 
Ignored event types: IfRecord, 

JSON Encoded Analysis Data (for visualization):{"heapEdges":[{"step":0,"from":"1093628048","to":"1093628048.<java.util.Vector: int elementCount>","type":"load","field":"<java.util.Vector: int elementCount>"},{"step":1,"from":"1093628048","to":"1093669616","type":"load","field":"<java.util.Vector: java.lang.Object[] elementData>"},{"step":2,"from":"1093669616","to":"1093669520","type":"load","field":"arrayIdx_int:80"}],"parameters":[{"id":"1093628048","name":"this","klass":"java.util.Vector"},{"id":"sdaReg0","name":"arg#1","klass":"int"}],"returns":[{"id":"1093669520","name":"return","klass":"java.lang.Object"}],"colors":{"heapLocToColor":{"1093628048.<java.util.Vector: int elementCount>":[0],"1093669616":[0],"sdaReg2":[0],"sdaReg1":[0],"sdaReg0":[1],"1093669520":[0],"1093628048":[0]},"colorToColor":{"0":[2]},"colorToLabel":{"0":"this","1":"arg#1","2":"return"}}}

Generated Model
	this->return

