Scanning method <java.util.Vector: java.lang.Object get(int)>

All seen event types: MethodReturnRecord, MethodCallRecord, LoadInstanceRecord, MethodStartRecord, LoadArrayRecord, MethodEndRecord, IfRecord, 
Ignored event types: IfRecord, 

JSON Encoded Analysis Data (for visualization):{"heapEdges":[{"step":0,"from":"1093627976","to":"1093627976.<java.util.Vector: int elementCount>","type":"load","field":"<java.util.Vector: int elementCount>"},{"step":1,"from":"1093627976","to":"1093556408","type":"load","field":"<java.util.Vector: java.lang.Object[] elementData>"},{"step":2,"from":"1093556408","to":"1093836520","type":"load","field":"arrayIdx_int:51"}],"parameters":[{"id":"1093627976","name":"this","klass":"java.util.Vector"},{"id":"sdaReg0","name":"arg#1","klass":"int"}],"returns":[{"id":"1093836520","name":"return","klass":"java.lang.Object"}],"colors":{"heapLocToColor":{"1093627976.<java.util.Vector: int elementCount>":[0],"1093627976":[0],"sdaReg2":[0],"sdaReg1":[0],"sdaReg0":[1],"1093836520":[0],"1093556408":[0]},"colorToColor":{"0":[2]},"colorToLabel":{"0":"this","1":"arg#1","2":"return"}}}

Generated Model
	this->return

