Scanning method <java.net.URI: java.net.URI create(java.lang.String)>

All seen event types: LoadStaticRecord, BinaryOperationRecord, SimpleAssignmentRecord, MethodReturnRecord, MethodCallRecord, LoadInstanceRecord, MethodStartRecord, MethodEndRecord, IfRecord, StoreInstanceRecord, NewObjectRecord, 
Ignored event types: IfRecord, 

JSON Encoded Analysis Data (for visualization):{"heapEdges":[{"step":0,"from":"1093290576","to":"sdaReg3","type":"create","field":"<java.net.URI: int port>"},{"step":1,"from":"1093290576","to":"sdaReg4","type":"create","field":"<java.net.URI: boolean serverAuthority>"},{"step":2,"from":"1093290576","to":"sdaReg5","type":"create","field":"<java.net.URI: int hash>"},{"step":3,"from":"sdaReg0","to":"1093290576","type":"store","field":"<java.net.URI: java.lang.String string>"},{"step":4,"from":"sdaReg0","to":"sdaReg12","type":"model"},{"step":5,"from":"sdaReg0","to":"sdaReg14","type":"model"},{"step":6,"from":"sdaReg0","to":"sdaReg20","type":"model"},{"step":7,"from":"sdaReg0","to":"sdaReg22","type":"model"},{"step":8,"from":"sdaReg0","to":"sdaReg27","type":"model"},{"step":9,"from":"1093290576","to":"sdaReg29","type":"create","field":"<java.net.URI: boolean absolute>"},{"step":10,"from":"1093290576","to":"sdaReg31","type":"create","field":"<java.net.URI: boolean opaque>"},{"step":11,"from":"sdaReg0","to":"sdaReg32","type":"model"},{"step":12,"from":"sdaReg32","to":"1093290576","type":"store","field":"<java.net.URI: java.lang.String schemeSpecificPart>"},{"step":13,"from":"sdaReg0","to":"sdaReg37","type":"model"},{"step":14,"from":"sdaReg0","to":"sdaReg39","type":"model"},{"step":15,"from":"static.<java.net.URI: libcore.net.UriCodec PATH_ENCODER>","to":"1085474672","type":"load","field":"<java.net.URI: libcore.net.UriCodec PATH_ENCODER>"},{"step":16,"from":"sdaReg0","to":"sdaReg44","type":"model"},{"step":17,"from":"1085474672","to":"1085474672.<java.net.URI$PartEncoder: java.lang.String extraLegalCharacters>","type":"load","field":"<java.net.URI$PartEncoder: java.lang.String extraLegalCharacters>"},{"step":18,"from":"sdaReg0","to":"sdaReg52","type":"model"},{"step":19,"from":"sdaReg0","to":"sdaReg53","type":"model"},{"step":20,"from":"sdaReg53","to":"1093290576","type":"store","field":"<java.net.URI: java.lang.String path>"},{"step":21,"from":"1093290576","to":"1093290576.<java.net.URI: java.lang.String authority>","type":"load","field":"<java.net.URI: java.lang.String authority>"}],"parameters":[{"id":"sdaReg0","name":"arg#0","klass":"string"}],"returns":[{"id":"1093290576","name":"return","klass":"java.net.URI"}],"colors":{"heapLocToColor":{"1093290576.<java.net.URI: java.lang.String authority>":[1],"sdaReg13":[4],"sdaReg14":[0, 5],"sdaReg39":[0, 18],"sdaReg38":[17],"1085474672":[20],"sdaReg12":[0, 3],"sdaReg37":[0, 16],"sdaReg32":[0, 14],"sdaReg55":[1],"sdaReg54":[1],"sdaReg53":[0, 26],"sdaReg52":[0, 25],"sdaReg15":[6],"sdaReg16":[7],"sdaReg33":[15],"sdaReg8":[2],"sdaReg50":[24],"sdaReg6":[1],"1085474672.<java.net.URI$PartEncoder: java.lang.String extraLegalCharacters>":[20],"sdaReg27":[0, 12],"1093290576":[1],"sdaReg28":[13],"static.<java.net.URI: libcore.net.UriCodec PATH_ENCODER>":[20],"sdaReg49":[23],"sdaReg45":[20],"sdaReg44":[0, 21],"sdaReg2":[1],"sdaReg47":[22],"sdaReg21":[9],"sdaReg1":[1],"sdaReg20":[0, 8],"sdaReg0":[0],"sdaReg41":[20],"sdaReg23":[11],"sdaReg22":[0, 10],"sdaReg40":[19]},"colorToColor":{"0":[1],"1":[27],"26":[1],"14":[1]},"colorToLabel":{"0":"arg#0","20":"<java.net.URI: libcore.net.UriCodec PATH_ENCODER>","27":"return"}}}

Generated Model
	arg#0->return

