Scanning method <java.net.URI: java.net.URI create(java.lang.String)>

All seen event types: LoadStaticRecord, BinaryOperationRecord, SimpleAssignmentRecord, MethodReturnRecord, MethodCallRecord, LoadInstanceRecord, MethodStartRecord, MethodEndRecord, IfRecord, StoreInstanceRecord, NewObjectRecord, 
Ignored event types: IfRecord, 

JSON Encoded Analysis Data (for visualization):{"heapEdges":[{"step":0,"from":"1094098576","to":"sdaReg3","type":"create","field":"<java.net.URI: int port>"},{"step":1,"from":"1094098576","to":"sdaReg4","type":"create","field":"<java.net.URI: boolean serverAuthority>"},{"step":2,"from":"1094098576","to":"sdaReg5","type":"create","field":"<java.net.URI: int hash>"},{"step":3,"from":"sdaReg0","to":"1094098576","type":"store","field":"<java.net.URI: java.lang.String string>"},{"step":4,"from":"sdaReg0","to":"sdaReg12","type":"model"},{"step":5,"from":"sdaReg0","to":"sdaReg14","type":"model"},{"step":6,"from":"static.<java.net.URI: libcore.net.UriCodec ALL_LEGAL_ENCODER>","to":"1085538000","type":"load","field":"<java.net.URI: libcore.net.UriCodec ALL_LEGAL_ENCODER>"},{"step":7,"from":"sdaReg0","to":"sdaReg22","type":"model"},{"step":8,"from":"sdaReg0","to":"sdaReg23","type":"model"},{"step":9,"from":"sdaReg23","to":"1094098576","type":"store","field":"<java.net.URI: java.lang.String fragment>"},{"step":10,"from":"sdaReg0","to":"sdaReg27","type":"model"},{"step":11,"from":"sdaReg0","to":"sdaReg32","type":"model"},{"step":12,"from":"1094098576","to":"sdaReg34","type":"create","field":"<java.net.URI: boolean absolute>"},{"step":13,"from":"1094098576","to":"sdaReg36","type":"create","field":"<java.net.URI: boolean opaque>"},{"step":14,"from":"sdaReg0","to":"sdaReg37","type":"model"},{"step":15,"from":"sdaReg37","to":"1094098576","type":"store","field":"<java.net.URI: java.lang.String schemeSpecificPart>"},{"step":16,"from":"sdaReg0","to":"sdaReg42","type":"model"},{"step":17,"from":"static.<java.net.URI: libcore.net.UriCodec PATH_ENCODER>","to":"1085474672","type":"load","field":"<java.net.URI: libcore.net.UriCodec PATH_ENCODER>"},{"step":18,"from":"sdaReg0","to":"sdaReg47","type":"model"},{"step":19,"from":"sdaReg0","to":"sdaReg48","type":"model"},{"step":20,"from":"sdaReg48","to":"1094098576","type":"store","field":"<java.net.URI: java.lang.String path>"},{"step":21,"from":"1094098576","to":"1094098576.<java.net.URI: java.lang.String authority>","type":"load","field":"<java.net.URI: java.lang.String authority>"}],"parameters":[{"id":"sdaReg0","name":"arg#0","klass":"string"}],"returns":[{"id":"1094098576","name":"return","klass":"java.net.URI"}],"colors":{"heapLocToColor":{"sdaReg13":[4],"sdaReg14":[0, 5],"1085474672":[20],"sdaReg38":[17],"sdaReg12":[0, 3],"sdaReg37":[0, 16],"1085538000":[8],"sdaReg32":[0, 14],"sdaReg19":[8],"sdaReg18":[9],"sdaReg15":[6],"sdaReg16":[7],"sdaReg33":[15],"sdaReg8":[2],"sdaReg50":[1],"sdaReg6":[1],"1094098576":[1],"static.<java.net.URI: libcore.net.UriCodec ALL_LEGAL_ENCODER>":[8],"sdaReg27":[0, 12],"1094098576.<java.net.URI: java.lang.String authority>":[1],"static.<java.net.URI: libcore.net.UriCodec PATH_ENCODER>":[20],"sdaReg28":[13],"sdaReg49":[1],"sdaReg48":[0, 22],"sdaReg44":[20],"sdaReg2":[1],"sdaReg47":[0, 21],"sdaReg1":[1],"sdaReg0":[0],"sdaReg23":[0, 11],"sdaReg22":[0, 10],"sdaReg43":[19],"sdaReg42":[0, 18]},"colorToColor":{"0":[1],"1":[23],"16":[1],"22":[1],"11":[1]},"colorToLabel":{"0":"arg#0","8":"<java.net.URI: libcore.net.UriCodec ALL_LEGAL_ENCODER>","20":"<java.net.URI: libcore.net.UriCodec PATH_ENCODER>","23":"return"}}}

Generated Model
	arg#0->return

