Scanning method <java.net.URI: java.net.URI create(java.lang.String)>

All seen event types: LoadStaticRecord, BinaryOperationRecord, SimpleAssignmentRecord, MethodReturnRecord, MethodCallRecord, LoadInstanceRecord, MethodStartRecord, MethodEndRecord, IfRecord, StoreInstanceRecord, NewObjectRecord, 
Ignored event types: IfRecord, 

JSON Encoded Analysis Data (for visualization):{"heapEdges":[{"step":0,"from":"1093483920","to":"sdaReg3","type":"create","field":"<java.net.URI: int port>"},{"step":1,"from":"1093483920","to":"sdaReg4","type":"create","field":"<java.net.URI: boolean serverAuthority>"},{"step":2,"from":"1093483920","to":"sdaReg5","type":"create","field":"<java.net.URI: int hash>"},{"step":3,"from":"sdaReg0","to":"1093483920","type":"store","field":"<java.net.URI: java.lang.String string>"},{"step":4,"from":"sdaReg0","to":"sdaReg12","type":"model"},{"step":5,"from":"sdaReg0","to":"sdaReg14","type":"model"},{"step":6,"from":"sdaReg0","to":"sdaReg16","type":"model"},{"step":7,"from":"sdaReg0","to":"sdaReg18","type":"model"},{"step":8,"from":"sdaReg0","to":"sdaReg20","type":"model"},{"step":9,"from":"sdaReg0","to":"sdaReg22","type":"model"},{"step":10,"from":"sdaReg0","to":"sdaReg28","type":"model"},{"step":11,"from":"sdaReg0","to":"sdaReg30","type":"model"},{"step":12,"from":"sdaReg0","to":"sdaReg32","type":"model"},{"step":13,"from":"sdaReg0","to":"sdaReg34","type":"model"},{"step":14,"from":"sdaReg0","to":"sdaReg36","type":"model"},{"step":15,"from":"sdaReg0","to":"sdaReg38","type":"model"},{"step":16,"from":"sdaReg0","to":"sdaReg43","type":"model"},{"step":17,"from":"sdaReg0","to":"sdaReg45","type":"model"},{"step":18,"from":"1093483920","to":"sdaReg47","type":"create","field":"<java.net.URI: boolean absolute>"},{"step":19,"from":"1093483920","to":"sdaReg49","type":"create","field":"<java.net.URI: boolean opaque>"},{"step":20,"from":"sdaReg0","to":"sdaReg50","type":"model"},{"step":21,"from":"sdaReg50","to":"1093483920","type":"store","field":"<java.net.URI: java.lang.String schemeSpecificPart>"},{"step":22,"from":"sdaReg0","to":"sdaReg55","type":"model"},{"step":23,"from":"sdaReg0","to":"sdaReg57","type":"model"},{"step":24,"from":"sdaReg0","to":"sdaReg59","type":"model"},{"step":25,"from":"sdaReg0","to":"sdaReg61","type":"model"},{"step":26,"from":"sdaReg0","to":"sdaReg63","type":"model"},{"step":27,"from":"sdaReg0","to":"sdaReg65","type":"model"},{"step":28,"from":"static.<java.net.URI: libcore.net.UriCodec PATH_ENCODER>","to":"1085474672","type":"load","field":"<java.net.URI: libcore.net.UriCodec PATH_ENCODER>"},{"step":29,"from":"sdaReg0","to":"sdaReg70","type":"model"},{"step":30,"from":"sdaReg0","to":"sdaReg75","type":"model"},{"step":31,"from":"1085474672","to":"1085474672.<java.net.URI$PartEncoder: java.lang.String extraLegalCharacters>","type":"load","field":"<java.net.URI$PartEncoder: java.lang.String extraLegalCharacters>"},{"step":32,"from":"sdaReg0","to":"sdaReg83","type":"model"},{"step":33,"from":"sdaReg0","to":"sdaReg88","type":"model"},{"step":34,"from":"sdaReg0","to":"sdaReg93","type":"model"},{"step":35,"from":"1085474672","to":"1085474672.<java.net.URI$PartEncoder: java.lang.String extraLegalCharacters>","type":"load","field":"<java.net.URI$PartEncoder: java.lang.String extraLegalCharacters>"},{"step":36,"from":"sdaReg0","to":"sdaReg101","type":"model"},{"step":37,"from":"sdaReg0","to":"sdaReg102","type":"model"},{"step":38,"from":"sdaReg102","to":"1093483920","type":"store","field":"<java.net.URI: java.lang.String path>"},{"step":39,"from":"1093483920","to":"1093483920.<java.net.URI: java.lang.String authority>","type":"load","field":"<java.net.URI: java.lang.String authority>"}],"parameters":[{"id":"sdaReg0","name":"arg#0","klass":"string"}],"returns":[{"id":"1093483920","name":"return","klass":"java.net.URI"}],"colors":{"heapLocToColor":{"sdaReg60":[39],"sdaReg61":[0, 40],"sdaReg66":[45],"sdaReg67":[46],"sdaReg64":[43],"sdaReg65":[0, 44],"sdaReg62":[41],"sdaReg63":[0, 42],"sdaReg13":[4],"sdaReg71":[46],"sdaReg14":[0, 5],"sdaReg70":[0, 47],"1093483920.<java.net.URI: java.lang.String authority>":[1],"sdaReg12":[0, 3],"sdaReg59":[0, 38],"sdaReg58":[37],"sdaReg57":[0, 36],"sdaReg19":[10],"sdaReg56":[35],"sdaReg55":[0, 34],"sdaReg17":[8],"sdaReg18":[0, 9],"sdaReg15":[6],"sdaReg16":[0, 7],"sdaReg51":[33],"sdaReg50":[0, 32],"sdaReg78":[50],"sdaReg73":[48],"sdaReg75":[0, 49],"sdaReg76":[46],"sdaReg81":[52],"sdaReg80":[51],"sdaReg83":[0, 53],"sdaReg45":[0, 30],"sdaReg44":[29],"sdaReg46":[31],"sdaReg43":[0, 28],"sdaReg103":[1],"sdaReg104":[1],"sdaReg86":[54],"sdaReg84":[46],"sdaReg88":[0, 55],"sdaReg89":[46],"sdaReg39":[27],"1085474672":[46],"sdaReg38":[0, 26],"sdaReg37":[25],"sdaReg94":[46],"sdaReg93":[0, 57],"sdaReg91":[56],"sdaReg32":[0, 20],"sdaReg31":[19],"sdaReg102":[0, 62],"sdaReg30":[0, 18],"sdaReg101":[0, 61],"1093483920":[1],"sdaReg36":[0, 24],"sdaReg35":[23],"sdaReg34":[0, 22],"sdaReg33":[21],"sdaReg8":[2],"sdaReg6":[1],"1085474672.<java.net.URI$PartEncoder: java.lang.String extraLegalCharacters>":[46],"sdaReg96":[58],"sdaReg98":[59],"sdaReg99":[60],"sdaReg29":[17],"static.<java.net.URI: libcore.net.UriCodec PATH_ENCODER>":[46],"sdaReg28":[0, 16],"sdaReg2":[1],"sdaReg21":[12],"sdaReg1":[1],"sdaReg20":[0, 11],"sdaReg0":[0],"sdaReg23":[14],"sdaReg22":[0, 13],"sdaReg24":[15]},"colorToColor":{"0":[1],"1":[63],"32":[1],"62":[1]},"colorToLabel":{"0":"arg#0","46":"<java.net.URI: libcore.net.UriCodec PATH_ENCODER>","63":"return"}}}

Generated Model
	arg#0->return

