Scanning method <java.net.URI: java.net.URI create(java.lang.String)>

All seen event types: LoadStaticRecord, BinaryOperationRecord, SimpleAssignmentRecord, MethodReturnRecord, MethodCallRecord, LoadInstanceRecord, MethodStartRecord, MethodEndRecord, IfRecord, StoreInstanceRecord, NewObjectRecord, 
Ignored event types: IfRecord, 

JSON Encoded Analysis Data (for visualization):{"heapEdges":[{"step":0,"from":"1093515424","to":"sdaReg3","type":"create","field":"<java.net.URI: int port>"},{"step":1,"from":"1093515424","to":"sdaReg4","type":"create","field":"<java.net.URI: boolean serverAuthority>"},{"step":2,"from":"1093515424","to":"sdaReg5","type":"create","field":"<java.net.URI: int hash>"},{"step":3,"from":"sdaReg0","to":"1093515424","type":"store","field":"<java.net.URI: java.lang.String string>"},{"step":4,"from":"sdaReg0","to":"sdaReg12","type":"model"},{"step":5,"from":"sdaReg0","to":"sdaReg14","type":"model"},{"step":6,"from":"sdaReg0","to":"sdaReg16","type":"model"},{"step":7,"from":"sdaReg0","to":"sdaReg18","type":"model"},{"step":8,"from":"sdaReg0","to":"sdaReg20","type":"model"},{"step":9,"from":"sdaReg0","to":"sdaReg26","type":"model"},{"step":10,"from":"sdaReg0","to":"sdaReg28","type":"model"},{"step":11,"from":"sdaReg0","to":"sdaReg30","type":"model"},{"step":12,"from":"sdaReg0","to":"sdaReg32","type":"model"},{"step":13,"from":"sdaReg0","to":"sdaReg34","type":"model"},{"step":14,"from":"sdaReg0","to":"sdaReg39","type":"model"},{"step":15,"from":"sdaReg0","to":"sdaReg41","type":"model"},{"step":16,"from":"1093515424","to":"sdaReg43","type":"create","field":"<java.net.URI: boolean absolute>"},{"step":17,"from":"1093515424","to":"sdaReg45","type":"create","field":"<java.net.URI: boolean opaque>"},{"step":18,"from":"sdaReg0","to":"sdaReg46","type":"model"},{"step":19,"from":"sdaReg46","to":"1093515424","type":"store","field":"<java.net.URI: java.lang.String schemeSpecificPart>"},{"step":20,"from":"sdaReg0","to":"sdaReg51","type":"model"},{"step":21,"from":"sdaReg0","to":"sdaReg53","type":"model"},{"step":22,"from":"sdaReg0","to":"sdaReg55","type":"model"},{"step":23,"from":"sdaReg0","to":"sdaReg57","type":"model"},{"step":24,"from":"sdaReg0","to":"sdaReg59","type":"model"},{"step":25,"from":"static.<java.net.URI: libcore.net.UriCodec PATH_ENCODER>","to":"1085474672","type":"load","field":"<java.net.URI: libcore.net.UriCodec PATH_ENCODER>"},{"step":26,"from":"sdaReg0","to":"sdaReg64","type":"model"},{"step":27,"from":"sdaReg0","to":"sdaReg69","type":"model"},{"step":28,"from":"1085474672","to":"1085474672.<java.net.URI$PartEncoder: java.lang.String extraLegalCharacters>","type":"load","field":"<java.net.URI$PartEncoder: java.lang.String extraLegalCharacters>"},{"step":29,"from":"sdaReg0","to":"sdaReg77","type":"model"},{"step":30,"from":"sdaReg0","to":"sdaReg78","type":"model"},{"step":31,"from":"1085474672","to":"1085474672.<java.net.URI$PartEncoder: java.lang.String extraLegalCharacters>","type":"load","field":"<java.net.URI$PartEncoder: java.lang.String extraLegalCharacters>"},{"step":32,"from":"sdaReg0","to":"sdaReg86","type":"model"},{"step":33,"from":"sdaReg0","to":"sdaReg91","type":"model"},{"step":34,"from":"sdaReg91","to":"1093515424","type":"store","field":"<java.net.URI: java.lang.String path>"},{"step":35,"from":"1093515424","to":"1093515424.<java.net.URI: java.lang.String authority>","type":"load","field":"<java.net.URI: java.lang.String authority>"}],"parameters":[{"id":"sdaReg0","name":"arg#0","klass":"string"}],"returns":[{"id":"1093515424","name":"return","klass":"java.net.URI"}],"colors":{"heapLocToColor":{"sdaReg60":[39],"sdaReg61":[40],"sdaReg69":[0, 43],"sdaReg67":[42],"sdaReg64":[0, 41],"sdaReg65":[40],"sdaReg72":[44],"sdaReg13":[4],"sdaReg14":[0, 5],"sdaReg70":[40],"sdaReg12":[0, 3],"sdaReg59":[0, 38],"sdaReg58":[37],"sdaReg57":[0, 36],"sdaReg19":[10],"sdaReg56":[35],"sdaReg55":[0, 34],"sdaReg17":[8],"sdaReg54":[33],"sdaReg18":[0, 9],"sdaReg53":[0, 32],"sdaReg15":[6],"sdaReg52":[31],"sdaReg16":[0, 7],"sdaReg51":[0, 30],"sdaReg77":[0, 47],"sdaReg78":[0, 48],"sdaReg79":[40],"sdaReg74":[45],"sdaReg75":[46],"sdaReg81":[49],"sdaReg83":[50],"1093515424.<java.net.URI: java.lang.String authority>":[1],"sdaReg47":[29],"sdaReg46":[0, 28],"sdaReg41":[0, 26],"sdaReg40":[25],"sdaReg42":[27],"sdaReg86":[0, 52],"sdaReg87":[40],"sdaReg84":[51],"sdaReg89":[53],"sdaReg39":[0, 24],"1085474672":[40],"sdaReg93":[1],"sdaReg92":[1],"sdaReg91":[0, 54],"sdaReg32":[0, 20],"sdaReg31":[19],"sdaReg30":[0, 18],"sdaReg35":[23],"sdaReg34":[0, 22],"sdaReg33":[21],"sdaReg8":[2],"sdaReg6":[1],"1085474672.<java.net.URI$PartEncoder: java.lang.String extraLegalCharacters>":[40],"sdaReg27":[15],"sdaReg26":[0, 14],"sdaReg29":[17],"sdaReg28":[0, 16],"static.<java.net.URI: libcore.net.UriCodec PATH_ENCODER>":[40],"sdaReg2":[1],"sdaReg21":[12],"sdaReg1":[1],"sdaReg20":[0, 11],"sdaReg0":[0],"sdaReg22":[13],"1093515424":[1]},"colorToColor":{"0":[1],"1":[55],"54":[1],"28":[1]},"colorToLabel":{"0":"arg#0","40":"<java.net.URI: libcore.net.UriCodec PATH_ENCODER>","55":"return"}}}

Generated Model
	arg#0->return

