Scanning method <java.net.URI: java.net.URI create(java.lang.String)>

All seen event types: LoadStaticRecord, BinaryOperationRecord, SimpleAssignmentRecord, MethodReturnRecord, MethodCallRecord, LoadInstanceRecord, MethodStartRecord, MethodEndRecord, IfRecord, StoreInstanceRecord, NewObjectRecord, 
Ignored event types: IfRecord, 

JSON Encoded Analysis Data (for visualization):{"heapEdges":[{"step":0,"from":"1093553256","to":"sdaReg3","type":"create","field":"<java.net.URI: int port>"},{"step":1,"from":"1093553256","to":"sdaReg4","type":"create","field":"<java.net.URI: boolean serverAuthority>"},{"step":2,"from":"1093553256","to":"sdaReg5","type":"create","field":"<java.net.URI: int hash>"},{"step":3,"from":"sdaReg0","to":"1093553256","type":"store","field":"<java.net.URI: java.lang.String string>"},{"step":4,"from":"sdaReg0","to":"sdaReg12","type":"model"},{"step":5,"from":"sdaReg0","to":"sdaReg14","type":"model"},{"step":6,"from":"sdaReg0","to":"sdaReg16","type":"model"},{"step":7,"from":"sdaReg0","to":"sdaReg18","type":"model"},{"step":8,"from":"sdaReg0","to":"sdaReg20","type":"model"},{"step":9,"from":"sdaReg0","to":"sdaReg22","type":"model"},{"step":10,"from":"sdaReg0","to":"sdaReg24","type":"model"},{"step":11,"from":"sdaReg0","to":"sdaReg26","type":"model"},{"step":12,"from":"sdaReg0","to":"sdaReg32","type":"model"},{"step":13,"from":"sdaReg0","to":"sdaReg34","type":"model"},{"step":14,"from":"sdaReg0","to":"sdaReg36","type":"model"},{"step":15,"from":"sdaReg0","to":"sdaReg38","type":"model"},{"step":16,"from":"sdaReg0","to":"sdaReg40","type":"model"},{"step":17,"from":"sdaReg0","to":"sdaReg42","type":"model"},{"step":18,"from":"sdaReg0","to":"sdaReg44","type":"model"},{"step":19,"from":"sdaReg0","to":"sdaReg46","type":"model"},{"step":20,"from":"sdaReg0","to":"sdaReg51","type":"model"},{"step":21,"from":"sdaReg0","to":"sdaReg53","type":"model"},{"step":22,"from":"1093553256","to":"sdaReg55","type":"create","field":"<java.net.URI: boolean absolute>"},{"step":23,"from":"1093553256","to":"sdaReg57","type":"create","field":"<java.net.URI: boolean opaque>"},{"step":24,"from":"sdaReg0","to":"sdaReg58","type":"model"},{"step":25,"from":"sdaReg58","to":"1093553256","type":"store","field":"<java.net.URI: java.lang.String schemeSpecificPart>"},{"step":26,"from":"sdaReg0","to":"sdaReg63","type":"model"},{"step":27,"from":"sdaReg0","to":"sdaReg65","type":"model"},{"step":28,"from":"static.<java.net.URI: libcore.net.UriCodec PATH_ENCODER>","to":"1085474672","type":"load","field":"<java.net.URI: libcore.net.UriCodec PATH_ENCODER>"},{"step":29,"from":"sdaReg0","to":"sdaReg70","type":"model"},{"step":30,"from":"sdaReg0","to":"sdaReg71","type":"model"},{"step":31,"from":"sdaReg71","to":"1093553256","type":"store","field":"<java.net.URI: java.lang.String path>"},{"step":32,"from":"static.<java.net.URI: libcore.net.UriCodec ALL_LEGAL_ENCODER>","to":"1085538000","type":"load","field":"<java.net.URI: libcore.net.UriCodec ALL_LEGAL_ENCODER>"},{"step":33,"from":"sdaReg0","to":"sdaReg76","type":"model"},{"step":34,"from":"sdaReg0","to":"sdaReg77","type":"model"},{"step":35,"from":"1085538000","to":"1085538000.<java.net.URI$PartEncoder: java.lang.String extraLegalCharacters>","type":"load","field":"<java.net.URI$PartEncoder: java.lang.String extraLegalCharacters>"},{"step":36,"from":"sdaReg0","to":"sdaReg85","type":"model"},{"step":37,"from":"sdaReg0","to":"sdaReg90","type":"model"},{"step":38,"from":"sdaReg0","to":"sdaReg95","type":"model"},{"step":39,"from":"1085538000","to":"1085538000.<java.net.URI$PartEncoder: java.lang.String extraLegalCharacters>","type":"load","field":"<java.net.URI$PartEncoder: java.lang.String extraLegalCharacters>"},{"step":40,"from":"sdaReg0","to":"sdaReg103","type":"model"},{"step":41,"from":"sdaReg0","to":"sdaReg104","type":"model"},{"step":42,"from":"sdaReg104","to":"1093553256","type":"store","field":"<java.net.URI: java.lang.String query>"},{"step":43,"from":"1093553256","to":"1093553256.<java.net.URI: java.lang.String authority>","type":"load","field":"<java.net.URI: java.lang.String authority>"}],"parameters":[{"id":"sdaReg0","name":"arg#0","klass":"string"}],"returns":[{"id":"1093553256","name":"return","klass":"java.net.URI"}],"colors":{"heapLocToColor":{"sdaReg66":[45],"sdaReg67":[46],"sdaReg64":[43],"sdaReg65":[0, 44],"sdaReg63":[0, 42],"sdaReg13":[4],"sdaReg71":[0, 48],"sdaReg14":[0, 5],"sdaReg70":[0, 47],"sdaReg12":[0, 3],"sdaReg59":[41],"sdaReg58":[0, 40],"sdaReg19":[10],"sdaReg17":[8],"sdaReg54":[39],"sdaReg18":[0, 9],"sdaReg53":[0, 38],"sdaReg15":[6],"sdaReg52":[37],"sdaReg16":[0, 7],"sdaReg51":[0, 36],"sdaReg77":[0, 51],"sdaReg78":[49],"sdaReg73":[49],"static.<java.net.URI: libcore.net.UriCodec ALL_LEGAL_ENCODER>":[49],"sdaReg76":[0, 50],"sdaReg80":[52],"sdaReg83":[54],"sdaReg82":[53],"sdaReg45":[33],"sdaReg44":[0, 32],"sdaReg47":[35],"sdaReg46":[0, 34],"sdaReg41":[29],"sdaReg40":[0, 28],"sdaReg43":[31],"sdaReg42":[0, 30],"sdaReg103":[0, 63],"sdaReg104":[0, 64],"sdaReg105":[1],"sdaReg106":[1],"sdaReg86":[49],"sdaReg85":[0, 55],"sdaReg88":[56],"sdaReg90":[0, 57],"sdaReg39":[27],"1085474672":[46],"sdaReg38":[0, 26],"sdaReg37":[25],"sdaReg93":[58],"1093553256":[1],"sdaReg91":[49],"sdaReg100":[61],"1085538000":[49],"sdaReg32":[0, 20],"1093553256.<java.net.URI: java.lang.String authority>":[1],"sdaReg101":[62],"sdaReg36":[0, 24],"sdaReg35":[23],"sdaReg34":[0, 22],"sdaReg33":[21],"sdaReg8":[2],"sdaReg6":[1],"sdaReg95":[0, 59],"sdaReg96":[49],"sdaReg98":[60],"1085538000.<java.net.URI$PartEncoder: java.lang.String extraLegalCharacters>":[49],"sdaReg27":[18],"sdaReg26":[0, 17],"static.<java.net.URI: libcore.net.UriCodec PATH_ENCODER>":[46],"sdaReg28":[19],"sdaReg2":[1],"sdaReg21":[12],"sdaReg1":[1],"sdaReg20":[0, 11],"sdaReg0":[0],"sdaReg23":[14],"sdaReg22":[0, 13],"sdaReg25":[16],"sdaReg24":[0, 15]},"colorToColor":{"0":[1],"1":[65],"48":[1],"64":[1],"40":[1]},"colorToLabel":{"0":"arg#0","46":"<java.net.URI: libcore.net.UriCodec PATH_ENCODER>","49":"<java.net.URI: libcore.net.UriCodec ALL_LEGAL_ENCODER>","65":"return"}}}

Generated Model
	arg#0->return

