Scanning method <java.net.URI: java.net.URI create(java.lang.String)>

All seen event types: LoadStaticRecord, BinaryOperationRecord, SimpleAssignmentRecord, MethodReturnRecord, MethodCallRecord, LoadInstanceRecord, MethodStartRecord, MethodEndRecord, IfRecord, StoreInstanceRecord, NewObjectRecord, 
Ignored event types: IfRecord, 

JSON Encoded Analysis Data (for visualization):{"heapEdges":[{"step":0,"from":"1093305800","to":"sdaReg3","type":"create","field":"<java.net.URI: int port>"},{"step":1,"from":"1093305800","to":"sdaReg4","type":"create","field":"<java.net.URI: boolean serverAuthority>"},{"step":2,"from":"1093305800","to":"sdaReg5","type":"create","field":"<java.net.URI: int hash>"},{"step":3,"from":"sdaReg0","to":"1093305800","type":"store","field":"<java.net.URI: java.lang.String string>"},{"step":4,"from":"sdaReg0","to":"sdaReg12","type":"model"},{"step":5,"from":"sdaReg0","to":"sdaReg14","type":"model"},{"step":6,"from":"sdaReg0","to":"sdaReg16","type":"model"},{"step":7,"from":"sdaReg0","to":"sdaReg22","type":"model"},{"step":8,"from":"sdaReg0","to":"sdaReg24","type":"model"},{"step":9,"from":"sdaReg0","to":"sdaReg26","type":"model"},{"step":10,"from":"sdaReg0","to":"sdaReg31","type":"model"},{"step":11,"from":"sdaReg0","to":"sdaReg33","type":"model"},{"step":12,"from":"1093305800","to":"sdaReg35","type":"create","field":"<java.net.URI: boolean absolute>"},{"step":13,"from":"1093305800","to":"sdaReg37","type":"create","field":"<java.net.URI: boolean opaque>"},{"step":14,"from":"sdaReg0","to":"sdaReg38","type":"model"},{"step":15,"from":"sdaReg38","to":"1093305800","type":"store","field":"<java.net.URI: java.lang.String schemeSpecificPart>"},{"step":16,"from":"sdaReg0","to":"sdaReg43","type":"model"},{"step":17,"from":"sdaReg0","to":"sdaReg45","type":"model"},{"step":18,"from":"sdaReg0","to":"sdaReg47","type":"model"},{"step":19,"from":"static.<java.net.URI: libcore.net.UriCodec PATH_ENCODER>","to":"1085474672","type":"load","field":"<java.net.URI: libcore.net.UriCodec PATH_ENCODER>"},{"step":20,"from":"sdaReg0","to":"sdaReg52","type":"model"},{"step":21,"from":"sdaReg0","to":"sdaReg57","type":"model"},{"step":22,"from":"1085474672","to":"1085474672.<java.net.URI$PartEncoder: java.lang.String extraLegalCharacters>","type":"load","field":"<java.net.URI$PartEncoder: java.lang.String extraLegalCharacters>"},{"step":23,"from":"sdaReg0","to":"sdaReg65","type":"model"},{"step":24,"from":"sdaReg0","to":"sdaReg66","type":"model"},{"step":25,"from":"sdaReg66","to":"1093305800","type":"store","field":"<java.net.URI: java.lang.String path>"},{"step":26,"from":"1093305800","to":"1093305800.<java.net.URI: java.lang.String authority>","type":"load","field":"<java.net.URI: java.lang.String authority>"}],"parameters":[{"id":"sdaReg0","name":"arg#0","klass":"string"}],"returns":[{"id":"1093305800","name":"return","klass":"java.net.URI"}],"colors":{"heapLocToColor":{"sdaReg60":[32],"sdaReg68":[1],"sdaReg66":[0, 36],"sdaReg67":[1],"sdaReg65":[0, 35],"sdaReg62":[33],"sdaReg63":[34],"sdaReg13":[4],"sdaReg14":[0, 5],"sdaReg39":[21],"1085474672":[28],"sdaReg38":[0, 20],"sdaReg12":[0, 3],"sdaReg58":[28],"sdaReg32":[17],"sdaReg57":[0, 31],"sdaReg31":[0, 16],"sdaReg55":[30],"sdaReg17":[8],"sdaReg53":[28],"sdaReg18":[9],"sdaReg52":[0, 29],"sdaReg15":[6],"sdaReg34":[19],"sdaReg16":[0, 7],"sdaReg33":[0, 18],"sdaReg8":[2],"sdaReg6":[1],"1085474672.<java.net.URI$PartEncoder: java.lang.String extraLegalCharacters>":[28],"1093305800.<java.net.URI: java.lang.String authority>":[1],"1093305800":[1],"sdaReg27":[15],"sdaReg26":[0, 14],"static.<java.net.URI: libcore.net.UriCodec PATH_ENCODER>":[28],"sdaReg49":[28],"sdaReg48":[27],"sdaReg45":[0, 24],"sdaReg44":[23],"sdaReg2":[1],"sdaReg47":[0, 26],"sdaReg1":[1],"sdaReg46":[25],"sdaReg0":[0],"sdaReg23":[11],"sdaReg22":[0, 10],"sdaReg43":[0, 22],"sdaReg25":[13],"sdaReg24":[0, 12]},"colorToColor":{"0":[1],"1":[37],"20":[1],"36":[1]},"colorToLabel":{"0":"arg#0","28":"<java.net.URI: libcore.net.UriCodec PATH_ENCODER>","37":"return"}}}

Generated Model
	arg#0->return

