Scanning method <java.io.ObjectInputStream: int read()>

All seen event types: SimpleAssignmentRecord, MethodStartRecord, LoadInstanceRecord, IfRecord, StoreInstanceRecord, NewObjectRecord, NewArrayRecord, BinaryOperationRecord, MethodCallRecord, MethodReturnRecord, SwitchRecord, ArrayLengthRecord, CastRecord, LoadArrayRecord, MethodEndRecord, 
Ignored event types: SwitchRecord, IfRecord, 

JSON Encoded Analysis Data (for visualization):{"heapEdges":[{"step":0,"from":"1093299952","to":"1093433648","type":"load","field":"<java.io.ObjectInputStream: java.io.InputStream primitiveData>"},{"step":1,"from":"1093299952","to":"1093433736","type":"load","field":"<java.io.ObjectInputStream: java.io.DataInputStream input>"},{"step":2,"from":"1093299952","to":"1093433648","type":"load","field":"<java.io.ObjectInputStream: java.io.InputStream primitiveData>"},{"step":3,"from":"1093433648","to":"1093433648.<java.io.ByteArrayInputStream: int count>","type":"load","field":"<java.io.ByteArrayInputStream: int count>"},{"step":4,"from":"1093433648","to":"1093433648.<java.io.ByteArrayInputStream: int pos>","type":"load","field":"<java.io.ByteArrayInputStream: int pos>"},{"step":5,"from":"1093299952","to":"1093299952.<java.io.ObjectInputStream: boolean hasPushbackTC>","type":"load","field":"<java.io.ObjectInputStream: boolean hasPushbackTC>"},{"step":6,"from":"1093299952","to":"1093433736","type":"load","field":"<java.io.ObjectInputStream: java.io.DataInputStream input>"},{"step":7,"from":"1093433736","to":"1093300152","type":"load","field":"<java.io.FilterInputStream: java.io.InputStream in>"},{"step":8,"from":"1093300152","to":"1093300152.<java.io.ByteArrayInputStream: int pos>","type":"load","field":"<java.io.ByteArrayInputStream: int pos>"},{"step":9,"from":"1093300152","to":"1093300152.<java.io.ByteArrayInputStream: int count>","type":"load","field":"<java.io.ByteArrayInputStream: int count>"},{"step":10,"from":"1093300152","to":"1093433616","type":"load","field":"<java.io.ByteArrayInputStream: byte[] buf>"},{"step":11,"from":"1093300152","to":"1093300152.<java.io.ByteArrayInputStream: int pos>","type":"load","field":"<java.io.ByteArrayInputStream: int pos>"},{"step":12,"from":"sdaReg6","to":"1093300152","type":"store","field":"<java.io.ByteArrayInputStream: int pos>"},{"step":13,"from":"1093433616","to":"1093433616.arrayIdx_int:4","type":"load","field":"arrayIdx_int:4"},{"step":14,"from":"sdaReg8","to":"1093299952","type":"store","field":"<java.io.ObjectInputStream: byte pushbackTC>"},{"step":15,"from":"1093299952","to":"1093433736","type":"load","field":"<java.io.ObjectInputStream: java.io.DataInputStream input>"},{"step":16,"from":"1093433736","to":"1093300152","type":"load","field":"<java.io.FilterInputStream: java.io.InputStream in>"},{"step":17,"from":"1093300152","to":"1093300152.<java.io.ByteArrayInputStream: int count>","type":"load","field":"<java.io.ByteArrayInputStream: int count>"},{"step":18,"from":"1093300152","to":"1093433616","type":"load","field":"<java.io.ByteArrayInputStream: byte[] buf>"},{"step":19,"from":"sdaReg12","to":"1093300152","type":"store","field":"<java.io.ByteArrayInputStream: int pos>"},{"step":20,"from":"1093433616","to":"1093433616.arrayIdx_int:5","type":"load","field":"arrayIdx_int:5"},{"step":21,"from":"1093299952","to":"1093433736","type":"load","field":"<java.io.ObjectInputStream: java.io.DataInputStream input>"},{"step":22,"from":"1093433736","to":"1093300152","type":"load","field":"<java.io.FilterInputStream: java.io.InputStream in>"},{"step":23,"from":"1093300152","to":"1093306160","type":"model"},{"step":24,"from":"1093306128","to":"sdaReg28","type":"create","field":"<java.io.ByteArrayInputStream: int mark>"},{"step":25,"from":"1093306128","to":"1093306160","type":"create","field":"<java.io.ByteArrayInputStream: byte[] buf>"},{"step":26,"from":"sdaReg29","to":"1093306128","type":"store","field":"<java.io.ByteArrayInputStream: int count>"},{"step":27,"from":"1093299952","to":"1093306128","type":"create","field":"<java.io.ObjectInputStream: java.io.InputStream primitiveData>"},{"step":28,"from":"1093306128","to":"1093306128.<java.io.ByteArrayInputStream: int pos>","type":"load","field":"<java.io.ByteArrayInputStream: int pos>"},{"step":29,"from":"1093306128","to":"1093306128.<java.io.ByteArrayInputStream: int pos>","type":"load","field":"<java.io.ByteArrayInputStream: int pos>"},{"step":30,"from":"sdaReg32","to":"1093306128","type":"store","field":"<java.io.ByteArrayInputStream: int pos>"},{"step":31,"from":"1093306160","to":"1093306160.arrayIdx_int:0","type":"load","field":"arrayIdx_int:0"}],"parameters":[{"id":"1093299952","name":"this","klass":"java.io.ObjectInputStream"}],"returns":[{"id":"sdaReg33","name":"return","klass":"int"}],"colors":{"heapLocToColor":{"1093433648.<java.io.ByteArrayInputStream: int count>":[0],"1093433736":[0],"sdaReg13":[0],"sdaReg14":[0],"1093300152":[0],"sdaReg11":[0],"1093306160":[2],"1093306128":[1],"sdaReg10":[0],"sdaReg32":[1],"1093299952.<java.io.ObjectInputStream: java.io.DataInputStream input>":[0],"1093433616.arrayIdx_int:4":[0],"sdaReg31":[1],"1093433616.arrayIdx_int:5":[0],"sdaReg30":[1],"sdaReg19":[0],"sdaReg17":[2],"1093300152.<java.io.ByteArrayInputStream: int pos>":[0],"sdaReg15":[0],"sdaReg33":[2],"sdaReg16":[0],"sdaReg8":[0],"sdaReg9":[0],"sdaReg6":[0],"1093433648.<java.io.ByteArrayInputStream: int pos>":[0],"sdaReg7":[0],"sdaReg4":[0],"1093433648":[0],"sdaReg5":[0],"1093300152.<java.io.ByteArrayInputStream: byte[] buf>":[0],"1093299952.<java.io.ObjectInputStream: java.io.InputStream primitiveData>":[0],"sdaReg27":[1],"1093306160.arrayIdx_int:0":[2],"sdaReg26":[1],"1093299952.<java.io.ObjectInputStream: boolean hasPushbackTC>":[0],"1093300152.<java.io.ByteArrayInputStream: int count>":[0],"sdaReg2":[0],"sdaReg1":[0],"sdaReg20":[2],"sdaReg0":[0],"sdaReg23":[1],"1093299952":[0],"sdaReg22":[2],"1093433616":[0],"sdaReg25":[1],"1093433736.<java.io.FilterInputStream: java.io.InputStream in>":[0],"1093306128.<java.io.ByteArrayInputStream: int pos>":[1],"sdaReg24":[2]},"colorToColor":{"0":[0, 2],"1":[0, 1],"2":[1, 3]},"colorToLabel":{"0":"this","3":"return"}}}

Generated Model
	this->return

