Scanning method <android.location.Location: long getTime()>

All seen event types: LoadInstanceRecord, 
Ignored event types: 

JSON Encoded Analysis Data (for visualization):{"heapEdges":[{"step":0,"from":"1093958232","to":"1093958232.<android.location.Location: long mTime>","type":"load","field":"<android.location.Location: long mTime>"}],"parameters":[{"id":"1093958232","name":"this","klass":"android.location.Location"}],"returns":[{"id":"1093958232.<android.location.Location: long mTime>","name":"return","klass":"long"}],"colors":{"heapLocToColor":{"1093958232.<android.location.Location: long mTime>":[0],"1093958232":[0]},"colorToColor":{"0":[1]},"colorToLabel":{"0":"this","1":"return"}}}

Generated Model
	this->return

