Scanning method <java.util.ArrayList: void <init>(java.util.Collection)>

All seen event types: MethodReturnRecord, MethodCallRecord, ArrayLengthRecord, CastRecord, LoadInstanceRecord, MethodStartRecord, IfRecord, MethodEndRecord, StoreInstanceRecord, 
Ignored event types: IfRecord, 

JSON Encoded Analysis Data (for visualization):{"heapEdges":[{"step":0,"from":"1093514736","to":"1093644632","type":"load","field":"<java.util.Arrays$ArrayList: java.lang.Object[] a>"},{"step":1,"from":"1093644632","to":"1093711224","type":"model"},{"step":2,"from":"1093711224","to":"1083911824","type":"model"},{"step":3,"from":"1093512688","to":"1093711224","type":"create","field":"<java.util.ArrayList: java.lang.Object[] array>"},{"step":4,"from":"sdaReg10","to":"1093512688","type":"store","field":"<java.util.ArrayList: int size>"}],"parameters":[{"id":"1093512688","name":"this","klass":"java.util.ArrayList"},{"id":"1093514736","name":"arg#1","klass":"java.util.Collection"}],"returns":[{"id":"1093512688","name":"return","klass":"java.util.ArrayList"}],"colors":{"heapLocToColor":{"sdaReg8":[1, 2],"sdaReg9":[1, 2, 3],"sdaReg6":[1, 2],"sdaReg7":[1, 2],"sdaReg4":[0],"sdaReg5":[1],"1093711224":[1, 2],"1083911824":[1, 2, 3],"1093512688":[0],"1093514736":[1],"sdaReg3":[0],"sdaReg2":[0],"sdaReg1":[0],"sdaReg0":[0],"1093644632":[1]},"colorToColor":{"0":[4],"1":[0],"2":[0]},"colorToLabel":{"0":"this","1":"arg#1","4":"return"}}}

Generated Model
	this->return
	arg#1->this
	arg#1->return

