Scanning method <java.util.Vector: boolean contains(java.lang.Object)>

All seen event types: BinaryOperationRecord, SimpleAssignmentRecord, MethodReturnRecord, MethodCallRecord, LoadInstanceRecord, MethodStartRecord, LoadArrayRecord, MethodEndRecord, IfRecord, 
Ignored event types: IfRecord, 

JSON Encoded Analysis Data (for visualization):{"heapEdges":[{"step":0,"from":"1093570752","to":"1093570752.<java.util.Vector: int elementCount>","type":"load","field":"<java.util.Vector: int elementCount>"},{"step":1,"from":"1093570752","to":"1093582344","type":"load","field":"<java.util.Vector: java.lang.Object[] elementData>"},{"step":2,"from":"1093582344","to":"1093571584","type":"load","field":"arrayIdx_int:0"},{"step":3,"from":"1093570752","to":"1093570752.<java.util.Vector: int elementCount>","type":"load","field":"<java.util.Vector: int elementCount>"},{"step":4,"from":"1093570752","to":"1093582344","type":"load","field":"<java.util.Vector: java.lang.Object[] elementData>"},{"step":5,"from":"1093582344","to":"1093571760","type":"load","field":"arrayIdx_int:1"},{"step":6,"from":"1093570752","to":"1093570752.<java.util.Vector: int elementCount>","type":"load","field":"<java.util.Vector: int elementCount>"},{"step":7,"from":"1093570752","to":"1093582344","type":"load","field":"<java.util.Vector: java.lang.Object[] elementData>"},{"step":8,"from":"1093582344","to":"1093571936","type":"load","field":"arrayIdx_int:2"},{"step":9,"from":"1093570752","to":"1093570752.<java.util.Vector: int elementCount>","type":"load","field":"<java.util.Vector: int elementCount>"},{"step":10,"from":"1093570752","to":"1093582344","type":"load","field":"<java.util.Vector: java.lang.Object[] elementData>"},{"step":11,"from":"1093582344","to":"1093572152","type":"load","field":"arrayIdx_int:3"},{"step":12,"from":"1093570752","to":"1093570752.<java.util.Vector: int elementCount>","type":"load","field":"<java.util.Vector: int elementCount>"},{"step":13,"from":"1093570752","to":"1093582344","type":"load","field":"<java.util.Vector: java.lang.Object[] elementData>"},{"step":14,"from":"1093582344","to":"1093572320","type":"load","field":"arrayIdx_int:4"},{"step":15,"from":"1093570752","to":"1093570752.<java.util.Vector: int elementCount>","type":"load","field":"<java.util.Vector: int elementCount>"},{"step":16,"from":"1093570752","to":"1093582344","type":"load","field":"<java.util.Vector: java.lang.Object[] elementData>"},{"step":17,"from":"1093582344","to":"1093572528","type":"load","field":"arrayIdx_int:5"},{"step":18,"from":"1093570752","to":"1093570752.<java.util.Vector: int elementCount>","type":"load","field":"<java.util.Vector: int elementCount>"},{"step":19,"from":"1093570752","to":"1093582344","type":"load","field":"<java.util.Vector: java.lang.Object[] elementData>"},{"step":20,"from":"1093582344","to":"1093572736","type":"load","field":"arrayIdx_int:6"},{"step":21,"from":"1093570752","to":"1093570752.<java.util.Vector: int elementCount>","type":"load","field":"<java.util.Vector: int elementCount>"},{"step":22,"from":"1093570752","to":"1093582344","type":"load","field":"<java.util.Vector: java.lang.Object[] elementData>"},{"step":23,"from":"1093582344","to":"1093572928","type":"load","field":"arrayIdx_int:7"},{"step":24,"from":"1093570752","to":"1093570752.<java.util.Vector: int elementCount>","type":"load","field":"<java.util.Vector: int elementCount>"},{"step":25,"from":"1093570752","to":"1093582344","type":"load","field":"<java.util.Vector: java.lang.Object[] elementData>"},{"step":26,"from":"1093582344","to":"1093573120","type":"load","field":"arrayIdx_int:8"},{"step":27,"from":"1093570752","to":"1093570752.<java.util.Vector: int elementCount>","type":"load","field":"<java.util.Vector: int elementCount>"},{"step":28,"from":"1093570752","to":"1093582344","type":"load","field":"<java.util.Vector: java.lang.Object[] elementData>"},{"step":29,"from":"1093582344","to":"1093573280","type":"load","field":"arrayIdx_int:9"},{"step":30,"from":"1093570752","to":"1093570752.<java.util.Vector: int elementCount>","type":"load","field":"<java.util.Vector: int elementCount>"},{"step":31,"from":"1093570752","to":"1093582344","type":"load","field":"<java.util.Vector: java.lang.Object[] elementData>"},{"step":32,"from":"1093582344","to":"1093573440","type":"load","field":"arrayIdx_int:10"},{"step":33,"from":"1093570752","to":"1093570752.<java.util.Vector: int elementCount>","type":"load","field":"<java.util.Vector: int elementCount>"},{"step":34,"from":"1093570752","to":"1093582344","type":"load","field":"<java.util.Vector: java.lang.Object[] elementData>"},{"step":35,"from":"1093582344","to":"1093573640","type":"load","field":"arrayIdx_int:11"},{"step":36,"from":"1093570752","to":"1093570752.<java.util.Vector: int elementCount>","type":"load","field":"<java.util.Vector: int elementCount>"},{"step":37,"from":"1093570752","to":"1093582344","type":"load","field":"<java.util.Vector: java.lang.Object[] elementData>"},{"step":38,"from":"1093582344","to":"1093573824","type":"load","field":"arrayIdx_int:12"},{"step":39,"from":"1093570752","to":"1093570752.<java.util.Vector: int elementCount>","type":"load","field":"<java.util.Vector: int elementCount>"},{"step":40,"from":"1093570752","to":"1093582344","type":"load","field":"<java.util.Vector: java.lang.Object[] elementData>"},{"step":41,"from":"1093582344","to":"1093573984","type":"load","field":"arrayIdx_int:13"},{"step":42,"from":"1093570752","to":"1093570752.<java.util.Vector: int elementCount>","type":"load","field":"<java.util.Vector: int elementCount>"},{"step":43,"from":"1093570752","to":"1093582344","type":"load","field":"<java.util.Vector: java.lang.Object[] elementData>"},{"step":44,"from":"1093582344","to":"1093574184","type":"load","field":"arrayIdx_int:14"},{"step":45,"from":"1093570752","to":"1093570752.<java.util.Vector: int elementCount>","type":"load","field":"<java.util.Vector: int elementCount>"},{"step":46,"from":"1093570752","to":"1093582344","type":"load","field":"<java.util.Vector: java.lang.Object[] elementData>"},{"step":47,"from":"1093582344","to":"1093574352","type":"load","field":"arrayIdx_int:15"},{"step":48,"from":"1093570752","to":"1093570752.<java.util.Vector: int elementCount>","type":"load","field":"<java.util.Vector: int elementCount>"},{"step":49,"from":"1093570752","to":"1093582344","type":"load","field":"<java.util.Vector: java.lang.Object[] elementData>"},{"step":50,"from":"1093582344","to":"1093574560","type":"load","field":"arrayIdx_int:16"},{"step":51,"from":"1093570752","to":"1093570752.<java.util.Vector: int elementCount>","type":"load","field":"<java.util.Vector: int elementCount>"},{"step":52,"from":"1093570752","to":"1093582344","type":"load","field":"<java.util.Vector: java.lang.Object[] elementData>"},{"step":53,"from":"1093582344","to":"1093574728","type":"load","field":"arrayIdx_int:17"},{"step":54,"from":"1093570752","to":"1093570752.<java.util.Vector: int elementCount>","type":"load","field":"<java.util.Vector: int elementCount>"},{"step":55,"from":"1093570752","to":"1093582344","type":"load","field":"<java.util.Vector: java.lang.Object[] elementData>"},{"step":56,"from":"1093582344","to":"1093574928","type":"load","field":"arrayIdx_int:18"},{"step":57,"from":"1093570752","to":"1093570752.<java.util.Vector: int elementCount>","type":"load","field":"<java.util.Vector: int elementCount>"}],"parameters":[{"id":"1093570752","name":"this","klass":"java.util.Vector"},{"id":"1093575104","name":"arg#1","klass":"java.lang.Object"}],"returns":[{"id":"sdaReg24","name":"return","klass":"boolean"}],"colors":{"heapLocToColor":{"1093574728":[0],"1093572736":[0],"1093571936":[0],"1093573640":[0],"1093574184":[0],"1093582344":[0],"1093573824":[0],"1093574560":[0],"sdaReg13":[11],"1093570752.<java.util.Vector: java.lang.Object[] elementData>":[0],"1093570752":[0],"sdaReg14":[12],"1093572528":[0],"sdaReg11":[9],"sdaReg12":[10],"sdaReg10":[8],"1093572320":[0],"1093571584":[0],"sdaReg19":[17],"sdaReg17":[15],"1093573440":[0],"1093571760":[0],"sdaReg18":[16],"sdaReg15":[13],"sdaReg16":[14],"sdaReg8":[6],"sdaReg9":[7],"1093573120":[0],"sdaReg6":[4],"sdaReg7":[5],"sdaReg4":[2],"sdaReg5":[3],"1093574352":[0],"1093570752.<java.util.Vector: int elementCount>":[0],"1093572928":[0],"1093574928":[0],"1093573280":[0],"1093572152":[0],"1093575104":[1],"sdaReg21":[19],"sdaReg1":[1],"sdaReg20":[18],"sdaReg0":[0],"sdaReg22":[20],"1093573984":[0]},"colorToColor":{},"colorToLabel":{"0":"this","1":"arg#1","21":"return"}}}

Generated Model

