Scanning method <java.util.Vector: boolean contains(java.lang.Object)>

All seen event types: BinaryOperationRecord, SimpleAssignmentRecord, MethodReturnRecord, MethodCallRecord, LoadInstanceRecord, MethodStartRecord, LoadArrayRecord, MethodEndRecord, IfRecord, 
Ignored event types: IfRecord, 

JSON Encoded Analysis Data (for visualization):{"heapEdges":[{"step":0,"from":"1093570752","to":"1093570752.<java.util.Vector: int elementCount>","type":"load","field":"<java.util.Vector: int elementCount>"},{"step":1,"from":"1093570752","to":"1093570784","type":"load","field":"<java.util.Vector: java.lang.Object[] elementData>"},{"step":2,"from":"1093570784","to":"1093571584","type":"load","field":"arrayIdx_int:0"},{"step":3,"from":"1093570752","to":"1093570752.<java.util.Vector: int elementCount>","type":"load","field":"<java.util.Vector: int elementCount>"},{"step":4,"from":"1093570752","to":"1093570784","type":"load","field":"<java.util.Vector: java.lang.Object[] elementData>"},{"step":5,"from":"1093570784","to":"1093571760","type":"load","field":"arrayIdx_int:1"},{"step":6,"from":"1093570752","to":"1093570752.<java.util.Vector: int elementCount>","type":"load","field":"<java.util.Vector: int elementCount>"},{"step":7,"from":"1093570752","to":"1093570784","type":"load","field":"<java.util.Vector: java.lang.Object[] elementData>"},{"step":8,"from":"1093570784","to":"1093571936","type":"load","field":"arrayIdx_int:2"},{"step":9,"from":"1093570752","to":"1093570752.<java.util.Vector: int elementCount>","type":"load","field":"<java.util.Vector: int elementCount>"},{"step":10,"from":"1093570752","to":"1093570784","type":"load","field":"<java.util.Vector: java.lang.Object[] elementData>"},{"step":11,"from":"1093570784","to":"1093572152","type":"load","field":"arrayIdx_int:3"},{"step":12,"from":"1093570752","to":"1093570752.<java.util.Vector: int elementCount>","type":"load","field":"<java.util.Vector: int elementCount>"},{"step":13,"from":"1093570752","to":"1093570784","type":"load","field":"<java.util.Vector: java.lang.Object[] elementData>"},{"step":14,"from":"1093570784","to":"1093572320","type":"load","field":"arrayIdx_int:4"},{"step":15,"from":"1093570752","to":"1093570752.<java.util.Vector: int elementCount>","type":"load","field":"<java.util.Vector: int elementCount>"}],"parameters":[{"id":"1093570752","name":"this","klass":"java.util.Vector"},{"id":"1093572528","name":"arg#1","klass":"java.lang.Object"}],"returns":[{"id":"sdaReg10","name":"return","klass":"boolean"}],"colors":{"heapLocToColor":{"sdaReg8":[6],"sdaReg6":[4],"sdaReg7":[5],"sdaReg4":[2],"1093571936":[0],"sdaReg5":[3],"1093570752":[0],"1093570752.<java.util.Vector: int elementCount>":[0],"1093570752.<java.util.Vector: java.lang.Object[] elementData>":[0],"1093572528":[1],"1093572320":[0],"1093572152":[0],"1093571584":[0],"sdaReg1":[1],"1093570784":[0],"sdaReg0":[0],"1093571760":[0]},"colorToColor":{},"colorToLabel":{"0":"this","1":"arg#1","7":"return"}}}

Generated Model

