Scanning method <java.util.HashMap$HashMapEntry: void <init>(java.lang.Object,java.lang.Object,int,java.util.HashMap$HashMapEntry)>

All seen event types: MethodReturnRecord, MethodCallRecord, StoreInstanceRecord, 
Ignored event types: 

JSON Encoded Analysis Data (for visualization):{"heapEdges":[{"step":0,"from":"1093882080","to":"1094039104","type":"store","field":"<java.util.HashMap$HashMapEntry: java.lang.Object value>"},{"step":1,"from":"sdaReg0","to":"1094039104","type":"store","field":"<java.util.HashMap$HashMapEntry: int hash>"}],"parameters":[{"id":"1094039104","name":"this","klass":"java.util.HashMap$HashMapEntry"},{"id":"0","name":"arg#1","klass":"java.lang.Object"},{"id":"1093882080","name":"arg#2","klass":"java.lang.Object"},{"id":"sdaReg0","name":"arg#3","klass":"int"},{"id":"0","name":"arg#4","klass":"java.util.HashMap$HashMapEntry"}],"returns":[{"id":"1094039104","name":"return","klass":"java.util.HashMap$HashMapEntry"}],"colors":{"heapLocToColor":{"0":[1, 4],"1093882080":[2],"1094039104":[0],"sdaReg1":[0],"sdaReg0":[3]},"colorToColor":{"0":[5],"2":[0],"3":[0]},"colorToLabel":{"0":"this","1":"arg#1","2":"arg#2","3":"arg#3","4":"arg#4","5":"return"}}}

Generated Model
	this->return
	arg#3->this
	arg#3->return
	arg#2->this
	arg#2->return

