Scanning method <java.util.HashMap$HashMapEntry: void <init>(java.lang.Object,java.lang.Object,int,java.util.HashMap$HashMapEntry)>

All seen event types: MethodReturnRecord, MethodCallRecord, StoreInstanceRecord, 
Ignored event types: 

JSON Encoded Analysis Data (for visualization):{"heapEdges":[{"step":0,"from":"1093547088","to":"1093542576","type":"store","field":"<java.util.HashMap$HashMapEntry: java.lang.Object key>"},{"step":1,"from":"1093562968","to":"1093542576","type":"store","field":"<java.util.HashMap$HashMapEntry: java.lang.Object value>"},{"step":2,"from":"sdaReg0","to":"1093542576","type":"store","field":"<java.util.HashMap$HashMapEntry: int hash>"},{"step":3,"from":"1093542544","to":"1093542576","type":"store","field":"<java.util.HashMap$HashMapEntry: java.util.HashMap$HashMapEntry next>"}],"parameters":[{"id":"1093542576","name":"this","klass":"java.util.HashMap$HashMapEntry"},{"id":"1093547088","name":"arg#1","klass":"java.lang.Object"},{"id":"1093562968","name":"arg#2","klass":"java.lang.Object"},{"id":"sdaReg0","name":"arg#3","klass":"int"},{"id":"1093542544","name":"arg#4","klass":"java.util.HashMap$HashMapEntry"}],"returns":[{"id":"1093542576","name":"return","klass":"java.util.HashMap$HashMapEntry"}],"colors":{"heapLocToColor":{"1093562968":[2],"1093542544":[4],"1093547088":[1],"sdaReg1":[0],"1093542576":[0],"sdaReg0":[3]},"colorToColor":{"0":[5],"1":[0],"2":[0],"3":[0],"4":[0]},"colorToLabel":{"0":"this","1":"arg#1","2":"arg#2","3":"arg#3","4":"arg#4","5":"return"}}}

Generated Model
	this->return
	arg#4->this
	arg#4->return
	arg#3->this
	arg#3->return
	arg#2->this
	arg#2->return
	arg#1->this
	arg#1->return

